1, 21.592 
2, 17.589 
3, 17.532 
4, 17.572 
5, 17.494 
6, 26.238 
7, 20.112 
8, 20.205 
9, 20.061 
10, 20.191 
1, 21.831 
2, 17.898 
3, 17.904 
4, 17.898 
5, 17.794 
6, 25.972 
7, 19.728 
8, 19.753 
9, 19.698 
10, 19.767 
1, 22.133 
2, 18.101 
3, 18.087 
4, 18.15 
5, 18.037 
6, 27.14 
7, 21.204 
8, 21.269 
9, 21.073 
10, 21.213 
