#!/usr/local/bin/rebench rebench.conf e:PIR-LLVM -S -df /builds/rirvm/rir_mirror/benchmarks.data --commit-id=bc1933dde2673bf830f4505bb2483cd1fdd282ab --branch=master
# Execution Start: 2020-05-10T23:25:15
1	1	2685.049000	ms	total	superWhile	PIR-LLVM	simple_reduced	20000000	1		
1	2	2672.148000	ms	total	superWhile	PIR-LLVM	simple_reduced	20000000	1		
1	3	56.712000	ms	total	superWhile	PIR-LLVM	simple_reduced	20000000	1		
1	4	20.207000	ms	total	superWhile	PIR-LLVM	simple_reduced	20000000	1		
1	5	20.192000	ms	total	superWhile	PIR-LLVM	simple_reduced	20000000	1		
1	6	20.200000	ms	total	superWhile	PIR-LLVM	simple_reduced	20000000	1		
1	7	20.195000	ms	total	superWhile	PIR-LLVM	simple_reduced	20000000	1		
1	8	20.186000	ms	total	superWhile	PIR-LLVM	simple_reduced	20000000	1		
1	9	20.185000	ms	total	superWhile	PIR-LLVM	simple_reduced	20000000	1		
1	10	20.187000	ms	total	superWhile	PIR-LLVM	simple_reduced	20000000	1		
1	11	20.186000	ms	total	superWhile	PIR-LLVM	simple_reduced	20000000	1		
1	12	20.191000	ms	total	superWhile	PIR-LLVM	simple_reduced	20000000	1		
1	13	20.185000	ms	total	superWhile	PIR-LLVM	simple_reduced	20000000	1		
1	14	20.183000	ms	total	superWhile	PIR-LLVM	simple_reduced	20000000	1		
1	15	20.185000	ms	total	superWhile	PIR-LLVM	simple_reduced	20000000	1		
1	1	917.440000	ms	total	spectralnorm_naive	PIR-LLVM	shootout_reduced	150	1		
1	2	1045.504000	ms	total	spectralnorm_naive	PIR-LLVM	shootout_reduced	150	1		
1	3	1162.155000	ms	total	spectralnorm_naive	PIR-LLVM	shootout_reduced	150	1		
1	4	39.133000	ms	total	spectralnorm_naive	PIR-LLVM	shootout_reduced	150	1		
1	5	39.336000	ms	total	spectralnorm_naive	PIR-LLVM	shootout_reduced	150	1		
1	6	39.308000	ms	total	spectralnorm_naive	PIR-LLVM	shootout_reduced	150	1		
1	7	39.242000	ms	total	spectralnorm_naive	PIR-LLVM	shootout_reduced	150	1		
1	8	39.136000	ms	total	spectralnorm_naive	PIR-LLVM	shootout_reduced	150	1		
1	9	39.195000	ms	total	spectralnorm_naive	PIR-LLVM	shootout_reduced	150	1		
1	10	39.292000	ms	total	spectralnorm_naive	PIR-LLVM	shootout_reduced	150	1		
1	11	39.312000	ms	total	spectralnorm_naive	PIR-LLVM	shootout_reduced	150	1		
1	12	39.033000	ms	total	spectralnorm_naive	PIR-LLVM	shootout_reduced	150	1		
1	13	39.486000	ms	total	spectralnorm_naive	PIR-LLVM	shootout_reduced	150	1		
1	14	39.304000	ms	total	spectralnorm_naive	PIR-LLVM	shootout_reduced	150	1		
1	15	39.088000	ms	total	spectralnorm_naive	PIR-LLVM	shootout_reduced	150	1		
1	1	1132.171000	ms	total	fasta_2	PIR-LLVM	shootout_reduced	60000	1		
1	2	1553.696000	ms	total	fasta_2	PIR-LLVM	shootout_reduced	60000	1		
1	3	2268.884000	ms	total	fasta_2	PIR-LLVM	shootout_reduced	60000	1		
1	4	878.724000	ms	total	fasta_2	PIR-LLVM	shootout_reduced	60000	1		
1	5	870.052000	ms	total	fasta_2	PIR-LLVM	shootout_reduced	60000	1		
1	6	868.899000	ms	total	fasta_2	PIR-LLVM	shootout_reduced	60000	1		
1	7	881.570000	ms	total	fasta_2	PIR-LLVM	shootout_reduced	60000	1		
1	8	871.264000	ms	total	fasta_2	PIR-LLVM	shootout_reduced	60000	1		
1	9	866.888000	ms	total	fasta_2	PIR-LLVM	shootout_reduced	60000	1		
1	10	867.716000	ms	total	fasta_2	PIR-LLVM	shootout_reduced	60000	1		
1	11	871.473000	ms	total	fasta_2	PIR-LLVM	shootout_reduced	60000	1		
1	12	871.472000	ms	total	fasta_2	PIR-LLVM	shootout_reduced	60000	1		
1	13	868.469000	ms	total	fasta_2	PIR-LLVM	shootout_reduced	60000	1		
1	14	868.093000	ms	total	fasta_2	PIR-LLVM	shootout_reduced	60000	1		
1	15	867.182000	ms	total	fasta_2	PIR-LLVM	shootout_reduced	60000	1		
1	1	1968.389000	ms	total	nbody_3	PIR-LLVM	shootout_reduced	20000	1		
1	2	2080.137000	ms	total	nbody_3	PIR-LLVM	shootout_reduced	20000	1		
1	3	2147.624000	ms	total	nbody_3	PIR-LLVM	shootout_reduced	20000	1		
1	4	1036.376000	ms	total	nbody_3	PIR-LLVM	shootout_reduced	20000	1		
1	5	1047.502000	ms	total	nbody_3	PIR-LLVM	shootout_reduced	20000	1		
1	6	1038.825000	ms	total	nbody_3	PIR-LLVM	shootout_reduced	20000	1		
1	7	1044.850000	ms	total	nbody_3	PIR-LLVM	shootout_reduced	20000	1		
1	8	1037.327000	ms	total	nbody_3	PIR-LLVM	shootout_reduced	20000	1		
1	9	1049.065000	ms	total	nbody_3	PIR-LLVM	shootout_reduced	20000	1		
1	10	1035.467000	ms	total	nbody_3	PIR-LLVM	shootout_reduced	20000	1		
1	11	1032.835000	ms	total	nbody_3	PIR-LLVM	shootout_reduced	20000	1		
1	12	1047.659000	ms	total	nbody_3	PIR-LLVM	shootout_reduced	20000	1		
1	13	1033.584000	ms	total	nbody_3	PIR-LLVM	shootout_reduced	20000	1		
1	14	1043.257000	ms	total	nbody_3	PIR-LLVM	shootout_reduced	20000	1		
1	15	1035.439000	ms	total	nbody_3	PIR-LLVM	shootout_reduced	20000	1		
1	1	518.100000	ms	total	reversecomplement	PIR-LLVM	shootout_reduced	150000	1		
1	2	564.777000	ms	total	reversecomplement	PIR-LLVM	shootout_reduced	150000	1		
1	3	1262.392000	ms	total	reversecomplement	PIR-LLVM	shootout_reduced	150000	1		
1	4	437.016000	ms	total	reversecomplement	PIR-LLVM	shootout_reduced	150000	1		
1	5	447.207000	ms	total	reversecomplement	PIR-LLVM	shootout_reduced	150000	1		
1	6	443.412000	ms	total	reversecomplement	PIR-LLVM	shootout_reduced	150000	1		
1	7	450.608000	ms	total	reversecomplement	PIR-LLVM	shootout_reduced	150000	1		
1	8	443.194000	ms	total	reversecomplement	PIR-LLVM	shootout_reduced	150000	1		
1	9	448.764000	ms	total	reversecomplement	PIR-LLVM	shootout_reduced	150000	1		
1	10	442.097000	ms	total	reversecomplement	PIR-LLVM	shootout_reduced	150000	1		
1	11	446.147000	ms	total	reversecomplement	PIR-LLVM	shootout_reduced	150000	1		
1	12	445.359000	ms	total	reversecomplement	PIR-LLVM	shootout_reduced	150000	1		
1	13	442.814000	ms	total	reversecomplement	PIR-LLVM	shootout_reduced	150000	1		
1	14	446.720000	ms	total	reversecomplement	PIR-LLVM	shootout_reduced	150000	1		
1	15	444.124000	ms	total	reversecomplement	PIR-LLVM	shootout_reduced	150000	1		
1	1	590.465000	ms	total	mandelbrot_naive_ascii	PIR-LLVM	shootout_reduced	200	1		
1	2	591.597000	ms	total	mandelbrot_naive_ascii	PIR-LLVM	shootout_reduced	200	1		
1	3	1150.376000	ms	total	mandelbrot_naive_ascii	PIR-LLVM	shootout_reduced	200	1		
1	4	204.190000	ms	total	mandelbrot_naive_ascii	PIR-LLVM	shootout_reduced	200	1		
1	5	199.248000	ms	total	mandelbrot_naive_ascii	PIR-LLVM	shootout_reduced	200	1		
1	6	198.139000	ms	total	mandelbrot_naive_ascii	PIR-LLVM	shootout_reduced	200	1		
1	7	197.984000	ms	total	mandelbrot_naive_ascii	PIR-LLVM	shootout_reduced	200	1		
1	8	198.428000	ms	total	mandelbrot_naive_ascii	PIR-LLVM	shootout_reduced	200	1		
1	9	198.832000	ms	total	mandelbrot_naive_ascii	PIR-LLVM	shootout_reduced	200	1		
1	10	198.374000	ms	total	mandelbrot_naive_ascii	PIR-LLVM	shootout_reduced	200	1		
1	11	202.886000	ms	total	mandelbrot_naive_ascii	PIR-LLVM	shootout_reduced	200	1		
1	12	199.923000	ms	total	mandelbrot_naive_ascii	PIR-LLVM	shootout_reduced	200	1		
1	13	199.053000	ms	total	mandelbrot_naive_ascii	PIR-LLVM	shootout_reduced	200	1		
1	14	199.184000	ms	total	mandelbrot_naive_ascii	PIR-LLVM	shootout_reduced	200	1		
1	15	199.124000	ms	total	mandelbrot_naive_ascii	PIR-LLVM	shootout_reduced	200	1		
1	1	2348.308000	ms	total	nbody	PIR-LLVM	shootout_reduced	25000	1		
1	2	2141.871000	ms	total	nbody	PIR-LLVM	shootout_reduced	25000	1		
1	3	2221.243000	ms	total	nbody	PIR-LLVM	shootout_reduced	25000	1		
1	4	762.600000	ms	total	nbody	PIR-LLVM	shootout_reduced	25000	1		
1	5	734.159000	ms	total	nbody	PIR-LLVM	shootout_reduced	25000	1		
1	6	734.804000	ms	total	nbody	PIR-LLVM	shootout_reduced	25000	1		
1	7	734.326000	ms	total	nbody	PIR-LLVM	shootout_reduced	25000	1		
1	8	745.802000	ms	total	nbody	PIR-LLVM	shootout_reduced	25000	1		
1	9	732.791000	ms	total	nbody	PIR-LLVM	shootout_reduced	25000	1		
1	10	735.325000	ms	total	nbody	PIR-LLVM	shootout_reduced	25000	1		
1	11	737.499000	ms	total	nbody	PIR-LLVM	shootout_reduced	25000	1		
1	12	747.122000	ms	total	nbody	PIR-LLVM	shootout_reduced	25000	1		
1	13	741.296000	ms	total	nbody	PIR-LLVM	shootout_reduced	25000	1		
1	14	732.461000	ms	total	nbody	PIR-LLVM	shootout_reduced	25000	1		
1	15	732.379000	ms	total	nbody	PIR-LLVM	shootout_reduced	25000	1		
1	1	649.626000	ms	total	fastaredux	PIR-LLVM	shootout_reduced	80000	1		
1	2	1615.474000	ms	total	fastaredux	PIR-LLVM	shootout_reduced	80000	1		
1	3	2309.657000	ms	total	fastaredux	PIR-LLVM	shootout_reduced	80000	1		
1	4	377.651000	ms	total	fastaredux	PIR-LLVM	shootout_reduced	80000	1		
1	5	385.946000	ms	total	fastaredux	PIR-LLVM	shootout_reduced	80000	1		
1	6	375.388000	ms	total	fastaredux	PIR-LLVM	shootout_reduced	80000	1		
1	7	377.904000	ms	total	fastaredux	PIR-LLVM	shootout_reduced	80000	1		
1	8	381.060000	ms	total	fastaredux	PIR-LLVM	shootout_reduced	80000	1		
1	9	382.555000	ms	total	fastaredux	PIR-LLVM	shootout_reduced	80000	1		
1	10	378.459000	ms	total	fastaredux	PIR-LLVM	shootout_reduced	80000	1		
1	11	388.619000	ms	total	fastaredux	PIR-LLVM	shootout_reduced	80000	1		
1	12	378.120000	ms	total	fastaredux	PIR-LLVM	shootout_reduced	80000	1		
1	13	379.950000	ms	total	fastaredux	PIR-LLVM	shootout_reduced	80000	1		
1	14	377.909000	ms	total	fastaredux	PIR-LLVM	shootout_reduced	80000	1		
1	15	381.042000	ms	total	fastaredux	PIR-LLVM	shootout_reduced	80000	1		
1	1	4334.746000	ms	total	knucleotide_brute_3	PIR-LLVM	shootout_reduced	2000	1		
1	2	4378.297000	ms	total	knucleotide_brute_3	PIR-LLVM	shootout_reduced	2000	1		
1	3	11997.395000	ms	total	knucleotide_brute_3	PIR-LLVM	shootout_reduced	2000	1		
1	4	2748.112000	ms	total	knucleotide_brute_3	PIR-LLVM	shootout_reduced	2000	1		
1	5	2756.832000	ms	total	knucleotide_brute_3	PIR-LLVM	shootout_reduced	2000	1		
1	6	2747.429000	ms	total	knucleotide_brute_3	PIR-LLVM	shootout_reduced	2000	1		
1	7	2751.917000	ms	total	knucleotide_brute_3	PIR-LLVM	shootout_reduced	2000	1		
1	8	2739.163000	ms	total	knucleotide_brute_3	PIR-LLVM	shootout_reduced	2000	1		
1	9	2763.124000	ms	total	knucleotide_brute_3	PIR-LLVM	shootout_reduced	2000	1		
1	10	2741.682000	ms	total	knucleotide_brute_3	PIR-LLVM	shootout_reduced	2000	1		
1	11	2748.414000	ms	total	knucleotide_brute_3	PIR-LLVM	shootout_reduced	2000	1		
1	12	2745.401000	ms	total	knucleotide_brute_3	PIR-LLVM	shootout_reduced	2000	1		
1	13	2742.929000	ms	total	knucleotide_brute_3	PIR-LLVM	shootout_reduced	2000	1		
1	14	2742.671000	ms	total	knucleotide_brute_3	PIR-LLVM	shootout_reduced	2000	1		
1	15	2743.387000	ms	total	knucleotide_brute_3	PIR-LLVM	shootout_reduced	2000	1		
1	1	1003.506000	ms	total	fasta_naive_2	PIR-LLVM	shootout_reduced	80000	1		
1	2	1223.729000	ms	total	fasta_naive_2	PIR-LLVM	shootout_reduced	80000	1		
1	3	2328.111000	ms	total	fasta_naive_2	PIR-LLVM	shootout_reduced	80000	1		
1	4	658.978000	ms	total	fasta_naive_2	PIR-LLVM	shootout_reduced	80000	1		
1	5	640.489000	ms	total	fasta_naive_2	PIR-LLVM	shootout_reduced	80000	1		
1	6	631.711000	ms	total	fasta_naive_2	PIR-LLVM	shootout_reduced	80000	1		
1	7	619.024000	ms	total	fasta_naive_2	PIR-LLVM	shootout_reduced	80000	1		
1	8	620.456000	ms	total	fasta_naive_2	PIR-LLVM	shootout_reduced	80000	1		
1	9	649.270000	ms	total	fasta_naive_2	PIR-LLVM	shootout_reduced	80000	1		
1	10	604.853000	ms	total	fasta_naive_2	PIR-LLVM	shootout_reduced	80000	1		
1	11	619.532000	ms	total	fasta_naive_2	PIR-LLVM	shootout_reduced	80000	1		
1	12	639.856000	ms	total	fasta_naive_2	PIR-LLVM	shootout_reduced	80000	1		
1	13	606.933000	ms	total	fasta_naive_2	PIR-LLVM	shootout_reduced	80000	1		
1	14	618.351000	ms	total	fasta_naive_2	PIR-LLVM	shootout_reduced	80000	1		
1	15	639.848000	ms	total	fasta_naive_2	PIR-LLVM	shootout_reduced	80000	1		
1	1	17136.507000	ms	total	flexclust_no_s4	PIR-LLVM	real_thing_extra	5	1		
1	2	13952.504000	ms	total	flexclust_no_s4	PIR-LLVM	real_thing_extra	5	1		
1	3	26384.108000	ms	total	flexclust_no_s4	PIR-LLVM	real_thing_extra	5	1		
1	4	24136.870000	ms	total	flexclust_no_s4	PIR-LLVM	real_thing_extra	5	1		
1	5	17793.777000	ms	total	flexclust_no_s4	PIR-LLVM	real_thing_extra	5	1		
1	6	13474.905000	ms	total	flexclust_no_s4	PIR-LLVM	real_thing_extra	5	1		
1	7	13051.034000	ms	total	flexclust_no_s4	PIR-LLVM	real_thing_extra	5	1		
1	8	12702.495000	ms	total	flexclust_no_s4	PIR-LLVM	real_thing_extra	5	1		
1	9	12617.493000	ms	total	flexclust_no_s4	PIR-LLVM	real_thing_extra	5	1		
1	10	12618.569000	ms	total	flexclust_no_s4	PIR-LLVM	real_thing_extra	5	1		
1	11	12658.364000	ms	total	flexclust_no_s4	PIR-LLVM	real_thing_extra	5	1		
1	12	12619.074000	ms	total	flexclust_no_s4	PIR-LLVM	real_thing_extra	5	1		
1	13	12697.544000	ms	total	flexclust_no_s4	PIR-LLVM	real_thing_extra	5	1		
1	14	12699.345000	ms	total	flexclust_no_s4	PIR-LLVM	real_thing_extra	5	1		
1	15	12571.517000	ms	total	flexclust_no_s4	PIR-LLVM	real_thing_extra	5	1		
1	1	3247.140000	ms	total	Mandelbrot	PIR-LLVM	are-we-fast-r	500	1		
1	2	3163.430000	ms	total	Mandelbrot	PIR-LLVM	are-we-fast-r	500	1		
1	3	774.002000	ms	total	Mandelbrot	PIR-LLVM	are-we-fast-r	500	1		
1	4	1279.013000	ms	total	Mandelbrot	PIR-LLVM	are-we-fast-r	500	1		
1	5	65.048000	ms	total	Mandelbrot	PIR-LLVM	are-we-fast-r	500	1		
1	6	65.996000	ms	total	Mandelbrot	PIR-LLVM	are-we-fast-r	500	1		
1	7	64.986000	ms	total	Mandelbrot	PIR-LLVM	are-we-fast-r	500	1		
1	8	65.016000	ms	total	Mandelbrot	PIR-LLVM	are-we-fast-r	500	1		
1	9	65.045000	ms	total	Mandelbrot	PIR-LLVM	are-we-fast-r	500	1		
1	10	65.106000	ms	total	Mandelbrot	PIR-LLVM	are-we-fast-r	500	1		
1	11	64.834000	ms	total	Mandelbrot	PIR-LLVM	are-we-fast-r	500	1		
1	12	64.866000	ms	total	Mandelbrot	PIR-LLVM	are-we-fast-r	500	1		
1	13	64.907000	ms	total	Mandelbrot	PIR-LLVM	are-we-fast-r	500	1		
1	14	65.038000	ms	total	Mandelbrot	PIR-LLVM	are-we-fast-r	500	1		
1	15	65.024000	ms	total	Mandelbrot	PIR-LLVM	are-we-fast-r	500	1		
1	1	2213.979000	ms	total	fannkuchredux	PIR-LLVM	shootout_reduced	9	1		
1	2	2159.309000	ms	total	fannkuchredux	PIR-LLVM	shootout_reduced	9	1		
1	3	3614.935000	ms	total	fannkuchredux	PIR-LLVM	shootout_reduced	9	1		
1	4	831.807000	ms	total	fannkuchredux	PIR-LLVM	shootout_reduced	9	1		
1	5	853.024000	ms	total	fannkuchredux	PIR-LLVM	shootout_reduced	9	1		
1	6	848.617000	ms	total	fannkuchredux	PIR-LLVM	shootout_reduced	9	1		
1	7	861.390000	ms	total	fannkuchredux	PIR-LLVM	shootout_reduced	9	1		
1	8	849.481000	ms	total	fannkuchredux	PIR-LLVM	shootout_reduced	9	1		
1	9	848.740000	ms	total	fannkuchredux	PIR-LLVM	shootout_reduced	9	1		
1	10	861.795000	ms	total	fannkuchredux	PIR-LLVM	shootout_reduced	9	1		
1	11	852.732000	ms	total	fannkuchredux	PIR-LLVM	shootout_reduced	9	1		
1	12	858.277000	ms	total	fannkuchredux	PIR-LLVM	shootout_reduced	9	1		
1	13	853.528000	ms	total	fannkuchredux	PIR-LLVM	shootout_reduced	9	1		
1	14	859.665000	ms	total	fannkuchredux	PIR-LLVM	shootout_reduced	9	1		
1	15	847.064000	ms	total	fannkuchredux	PIR-LLVM	shootout_reduced	9	1		
1	1	2395.833000	ms	total	spectralnorm	PIR-LLVM	shootout_reduced	1200	1		
1	2	2613.185000	ms	total	spectralnorm	PIR-LLVM	shootout_reduced	1200	1		
1	3	2370.811000	ms	total	spectralnorm	PIR-LLVM	shootout_reduced	1200	1		
1	4	68.783000	ms	total	spectralnorm	PIR-LLVM	shootout_reduced	1200	1		
1	5	55.654000	ms	total	spectralnorm	PIR-LLVM	shootout_reduced	1200	1		
1	6	57.060000	ms	total	spectralnorm	PIR-LLVM	shootout_reduced	1200	1		
1	7	57.001000	ms	total	spectralnorm	PIR-LLVM	shootout_reduced	1200	1		
1	8	57.144000	ms	total	spectralnorm	PIR-LLVM	shootout_reduced	1200	1		
1	9	55.880000	ms	total	spectralnorm	PIR-LLVM	shootout_reduced	1200	1		
1	10	57.206000	ms	total	spectralnorm	PIR-LLVM	shootout_reduced	1200	1		
1	11	57.163000	ms	total	spectralnorm	PIR-LLVM	shootout_reduced	1200	1		
1	12	57.149000	ms	total	spectralnorm	PIR-LLVM	shootout_reduced	1200	1		
1	13	56.588000	ms	total	spectralnorm	PIR-LLVM	shootout_reduced	1200	1		
1	14	56.992000	ms	total	spectralnorm	PIR-LLVM	shootout_reduced	1200	1		
1	15	56.978000	ms	total	spectralnorm	PIR-LLVM	shootout_reduced	1200	1		
1	1	33208.103000	ms	total	pidigits	PIR-LLVM	shootout_reduced	30	1		
1	2	2016.036000	ms	total	pidigits	PIR-LLVM	shootout_reduced	30	1		
1	3	104723.251000	ms	total	pidigits	PIR-LLVM	shootout_reduced	30	1		
1	4	102.688000	ms	total	pidigits	PIR-LLVM	shootout_reduced	30	1		
1	5	114.053000	ms	total	pidigits	PIR-LLVM	shootout_reduced	30	1		
1	6	102.319000	ms	total	pidigits	PIR-LLVM	shootout_reduced	30	1		
1	7	103.804000	ms	total	pidigits	PIR-LLVM	shootout_reduced	30	1		
1	8	102.289000	ms	total	pidigits	PIR-LLVM	shootout_reduced	30	1		
1	9	103.478000	ms	total	pidigits	PIR-LLVM	shootout_reduced	30	1		
1	10	104.985000	ms	total	pidigits	PIR-LLVM	shootout_reduced	30	1		
1	11	103.159000	ms	total	pidigits	PIR-LLVM	shootout_reduced	30	1		
1	12	102.464000	ms	total	pidigits	PIR-LLVM	shootout_reduced	30	1		
1	13	102.990000	ms	total	pidigits	PIR-LLVM	shootout_reduced	30	1		
1	14	102.587000	ms	total	pidigits	PIR-LLVM	shootout_reduced	30	1		
1	15	103.563000	ms	total	pidigits	PIR-LLVM	shootout_reduced	30	1		
1	1	1927.985000	ms	total	Bounce_nonames_simple	PIR-LLVM	are-we-fast-r	35	1		
1	2	133.023000	ms	total	Bounce_nonames_simple	PIR-LLVM	are-we-fast-r	35	1		
1	3	142.945000	ms	total	Bounce_nonames_simple	PIR-LLVM	are-we-fast-r	35	1		
1	4	132.154000	ms	total	Bounce_nonames_simple	PIR-LLVM	are-we-fast-r	35	1		
1	5	131.780000	ms	total	Bounce_nonames_simple	PIR-LLVM	are-we-fast-r	35	1		
1	6	134.512000	ms	total	Bounce_nonames_simple	PIR-LLVM	are-we-fast-r	35	1		
1	7	133.259000	ms	total	Bounce_nonames_simple	PIR-LLVM	are-we-fast-r	35	1		
1	8	133.807000	ms	total	Bounce_nonames_simple	PIR-LLVM	are-we-fast-r	35	1		
1	9	131.354000	ms	total	Bounce_nonames_simple	PIR-LLVM	are-we-fast-r	35	1		
1	10	130.489000	ms	total	Bounce_nonames_simple	PIR-LLVM	are-we-fast-r	35	1		
1	11	131.629000	ms	total	Bounce_nonames_simple	PIR-LLVM	are-we-fast-r	35	1		
1	12	135.490000	ms	total	Bounce_nonames_simple	PIR-LLVM	are-we-fast-r	35	1		
1	13	132.717000	ms	total	Bounce_nonames_simple	PIR-LLVM	are-we-fast-r	35	1		
1	14	132.564000	ms	total	Bounce_nonames_simple	PIR-LLVM	are-we-fast-r	35	1		
1	15	131.251000	ms	total	Bounce_nonames_simple	PIR-LLVM	are-we-fast-r	35	1		
1	1	19926.192000	ms	total	nbody_naive	PIR-LLVM	shootout_reduced	20000	1		
1	2	2077.502000	ms	total	nbody_naive	PIR-LLVM	shootout_reduced	20000	1		
1	3	41369.027000	ms	total	nbody_naive	PIR-LLVM	shootout_reduced	20000	1		
1	4	145.966000	ms	total	nbody_naive	PIR-LLVM	shootout_reduced	20000	1		
1	5	150.876000	ms	total	nbody_naive	PIR-LLVM	shootout_reduced	20000	1		
1	6	146.844000	ms	total	nbody_naive	PIR-LLVM	shootout_reduced	20000	1		
1	7	146.625000	ms	total	nbody_naive	PIR-LLVM	shootout_reduced	20000	1		
1	8	143.036000	ms	total	nbody_naive	PIR-LLVM	shootout_reduced	20000	1		
1	9	142.860000	ms	total	nbody_naive	PIR-LLVM	shootout_reduced	20000	1		
1	10	149.674000	ms	total	nbody_naive	PIR-LLVM	shootout_reduced	20000	1		
1	11	147.559000	ms	total	nbody_naive	PIR-LLVM	shootout_reduced	20000	1		
1	12	145.286000	ms	total	nbody_naive	PIR-LLVM	shootout_reduced	20000	1		
1	13	142.883000	ms	total	nbody_naive	PIR-LLVM	shootout_reduced	20000	1		
1	14	155.302000	ms	total	nbody_naive	PIR-LLVM	shootout_reduced	20000	1		
1	15	146.953000	ms	total	nbody_naive	PIR-LLVM	shootout_reduced	20000	1		
1	1	986.740000	ms	total	binarytrees	PIR-LLVM	shootout_reduced	9	1		
1	2	194.060000	ms	total	binarytrees	PIR-LLVM	shootout_reduced	9	1		
1	3	1344.155000	ms	total	binarytrees	PIR-LLVM	shootout_reduced	9	1		
1	4	75.054000	ms	total	binarytrees	PIR-LLVM	shootout_reduced	9	1		
1	5	75.304000	ms	total	binarytrees	PIR-LLVM	shootout_reduced	9	1		
1	6	85.646000	ms	total	binarytrees	PIR-LLVM	shootout_reduced	9	1		
1	7	75.310000	ms	total	binarytrees	PIR-LLVM	shootout_reduced	9	1		
1	8	75.178000	ms	total	binarytrees	PIR-LLVM	shootout_reduced	9	1		
1	9	75.757000	ms	total	binarytrees	PIR-LLVM	shootout_reduced	9	1		
1	10	75.644000	ms	total	binarytrees	PIR-LLVM	shootout_reduced	9	1		
1	11	78.470000	ms	total	binarytrees	PIR-LLVM	shootout_reduced	9	1		
1	12	75.710000	ms	total	binarytrees	PIR-LLVM	shootout_reduced	9	1		
1	13	75.792000	ms	total	binarytrees	PIR-LLVM	shootout_reduced	9	1		
1	14	75.598000	ms	total	binarytrees	PIR-LLVM	shootout_reduced	9	1		
1	15	75.581000	ms	total	binarytrees	PIR-LLVM	shootout_reduced	9	1		
1	1	1203.772000	ms	total	Storage	PIR-LLVM	are-we-fast-r	100	1		
1	2	519.536000	ms	total	Storage	PIR-LLVM	are-we-fast-r	100	1		
1	3	526.408000	ms	total	Storage	PIR-LLVM	are-we-fast-r	100	1		
1	4	546.309000	ms	total	Storage	PIR-LLVM	are-we-fast-r	100	1		
1	5	533.231000	ms	total	Storage	PIR-LLVM	are-we-fast-r	100	1		
1	6	512.188000	ms	total	Storage	PIR-LLVM	are-we-fast-r	100	1		
1	7	512.051000	ms	total	Storage	PIR-LLVM	are-we-fast-r	100	1		
1	8	517.650000	ms	total	Storage	PIR-LLVM	are-we-fast-r	100	1		
1	9	523.215000	ms	total	Storage	PIR-LLVM	are-we-fast-r	100	1		
1	10	533.868000	ms	total	Storage	PIR-LLVM	are-we-fast-r	100	1		
1	11	519.790000	ms	total	Storage	PIR-LLVM	are-we-fast-r	100	1		
1	12	513.117000	ms	total	Storage	PIR-LLVM	are-we-fast-r	100	1		
1	13	511.713000	ms	total	Storage	PIR-LLVM	are-we-fast-r	100	1		
1	14	522.474000	ms	total	Storage	PIR-LLVM	are-we-fast-r	100	1		
1	15	539.295000	ms	total	Storage	PIR-LLVM	are-we-fast-r	100	1		
1	1	366.137000	ms	total	matrixFor	PIR-LLVM	simple_reduced	2000	1		
1	2	372.554000	ms	total	matrixFor	PIR-LLVM	simple_reduced	2000	1		
1	3	158.845000	ms	total	matrixFor	PIR-LLVM	simple_reduced	2000	1		
1	4	51.652000	ms	total	matrixFor	PIR-LLVM	simple_reduced	2000	1		
1	5	51.627000	ms	total	matrixFor	PIR-LLVM	simple_reduced	2000	1		
1	6	51.623000	ms	total	matrixFor	PIR-LLVM	simple_reduced	2000	1		
1	7	51.584000	ms	total	matrixFor	PIR-LLVM	simple_reduced	2000	1		
1	8	51.617000	ms	total	matrixFor	PIR-LLVM	simple_reduced	2000	1		
1	9	51.591000	ms	total	matrixFor	PIR-LLVM	simple_reduced	2000	1		
1	10	51.624000	ms	total	matrixFor	PIR-LLVM	simple_reduced	2000	1		
1	11	51.826000	ms	total	matrixFor	PIR-LLVM	simple_reduced	2000	1		
1	12	51.575000	ms	total	matrixFor	PIR-LLVM	simple_reduced	2000	1		
1	13	51.630000	ms	total	matrixFor	PIR-LLVM	simple_reduced	2000	1		
1	14	51.605000	ms	total	matrixFor	PIR-LLVM	simple_reduced	2000	1		
1	15	51.613000	ms	total	matrixFor	PIR-LLVM	simple_reduced	2000	1		
1	1	1984.309000	ms	total	vectorWhile	PIR-LLVM	simple_reduced	20000000	1		
1	2	1967.997000	ms	total	vectorWhile	PIR-LLVM	simple_reduced	20000000	1		
1	3	180.252000	ms	total	vectorWhile	PIR-LLVM	simple_reduced	20000000	1		
1	4	125.281000	ms	total	vectorWhile	PIR-LLVM	simple_reduced	20000000	1		
1	5	140.175000	ms	total	vectorWhile	PIR-LLVM	simple_reduced	20000000	1		
1	6	126.930000	ms	total	vectorWhile	PIR-LLVM	simple_reduced	20000000	1		
1	7	126.971000	ms	total	vectorWhile	PIR-LLVM	simple_reduced	20000000	1		
1	8	126.983000	ms	total	vectorWhile	PIR-LLVM	simple_reduced	20000000	1		
1	9	126.978000	ms	total	vectorWhile	PIR-LLVM	simple_reduced	20000000	1		
1	10	126.921000	ms	total	vectorWhile	PIR-LLVM	simple_reduced	20000000	1		
1	11	126.930000	ms	total	vectorWhile	PIR-LLVM	simple_reduced	20000000	1		
1	12	126.957000	ms	total	vectorWhile	PIR-LLVM	simple_reduced	20000000	1		
1	13	126.966000	ms	total	vectorWhile	PIR-LLVM	simple_reduced	20000000	1		
1	14	127.232000	ms	total	vectorWhile	PIR-LLVM	simple_reduced	20000000	1		
1	15	126.892000	ms	total	vectorWhile	PIR-LLVM	simple_reduced	20000000	1		
1	1	705.580000	ms	total	convolution	PIR-LLVM	real_thing_reduced	500	1		
1	2	12.733000	ms	total	convolution	PIR-LLVM	real_thing_reduced	500	1		
1	3	565.874000	ms	total	convolution	PIR-LLVM	real_thing_reduced	500	1		
1	4	12.064000	ms	total	convolution	PIR-LLVM	real_thing_reduced	500	1		
1	5	12.067000	ms	total	convolution	PIR-LLVM	real_thing_reduced	500	1		
1	6	12.060000	ms	total	convolution	PIR-LLVM	real_thing_reduced	500	1		
1	7	12.054000	ms	total	convolution	PIR-LLVM	real_thing_reduced	500	1		
1	8	12.049000	ms	total	convolution	PIR-LLVM	real_thing_reduced	500	1		
1	9	12.045000	ms	total	convolution	PIR-LLVM	real_thing_reduced	500	1		
1	10	12.049000	ms	total	convolution	PIR-LLVM	real_thing_reduced	500	1		
1	11	12.043000	ms	total	convolution	PIR-LLVM	real_thing_reduced	500	1		
1	12	12.058000	ms	total	convolution	PIR-LLVM	real_thing_reduced	500	1		
1	13	12.047000	ms	total	convolution	PIR-LLVM	real_thing_reduced	500	1		
1	14	12.047000	ms	total	convolution	PIR-LLVM	real_thing_reduced	500	1		
1	15	12.042000	ms	total	convolution	PIR-LLVM	real_thing_reduced	500	1		
1	1	3478.519000	ms	total	knucleotide_brute_2	PIR-LLVM	shootout_reduced	2000	1		
1	2	4454.759000	ms	total	knucleotide_brute_2	PIR-LLVM	shootout_reduced	2000	1		
1	3	13122.899000	ms	total	knucleotide_brute_2	PIR-LLVM	shootout_reduced	2000	1		
1	4	2856.909000	ms	total	knucleotide_brute_2	PIR-LLVM	shootout_reduced	2000	1		
1	5	3133.826000	ms	total	knucleotide_brute_2	PIR-LLVM	shootout_reduced	2000	1		
1	6	3634.367000	ms	total	knucleotide_brute_2	PIR-LLVM	shootout_reduced	2000	1		
1	7	2831.653000	ms	total	knucleotide_brute_2	PIR-LLVM	shootout_reduced	2000	1		
1	8	3472.757000	ms	total	knucleotide_brute_2	PIR-LLVM	shootout_reduced	2000	1		
1	9	3967.229000	ms	total	knucleotide_brute_2	PIR-LLVM	shootout_reduced	2000	1		
1	10	4106.573000	ms	total	knucleotide_brute_2	PIR-LLVM	shootout_reduced	2000	1		
1	11	2085.740000	ms	total	knucleotide_brute_2	PIR-LLVM	shootout_reduced	2000	1		
1	12	2116.749000	ms	total	knucleotide_brute_2	PIR-LLVM	shootout_reduced	2000	1		
1	13	2183.876000	ms	total	knucleotide_brute_2	PIR-LLVM	shootout_reduced	2000	1		
1	14	2895.395000	ms	total	knucleotide_brute_2	PIR-LLVM	shootout_reduced	2000	1		
1	15	3213.757000	ms	total	knucleotide_brute_2	PIR-LLVM	shootout_reduced	2000	1		
1	1	1119.263000	ms	total	binarytrees_2	PIR-LLVM	shootout_reduced	9	1		
1	2	135.125000	ms	total	binarytrees_2	PIR-LLVM	shootout_reduced	9	1		
1	3	1379.120000	ms	total	binarytrees_2	PIR-LLVM	shootout_reduced	9	1		
1	4	91.730000	ms	total	binarytrees_2	PIR-LLVM	shootout_reduced	9	1		
1	5	102.181000	ms	total	binarytrees_2	PIR-LLVM	shootout_reduced	9	1		
1	6	91.291000	ms	total	binarytrees_2	PIR-LLVM	shootout_reduced	9	1		
1	7	91.344000	ms	total	binarytrees_2	PIR-LLVM	shootout_reduced	9	1		
1	8	91.164000	ms	total	binarytrees_2	PIR-LLVM	shootout_reduced	9	1		
1	9	94.306000	ms	total	binarytrees_2	PIR-LLVM	shootout_reduced	9	1		
1	10	91.263000	ms	total	binarytrees_2	PIR-LLVM	shootout_reduced	9	1		
1	11	91.343000	ms	total	binarytrees_2	PIR-LLVM	shootout_reduced	9	1		
1	12	91.555000	ms	total	binarytrees_2	PIR-LLVM	shootout_reduced	9	1		
1	13	92.325000	ms	total	binarytrees_2	PIR-LLVM	shootout_reduced	9	1		
1	14	92.452000	ms	total	binarytrees_2	PIR-LLVM	shootout_reduced	9	1		
1	15	92.746000	ms	total	binarytrees_2	PIR-LLVM	shootout_reduced	9	1		
1	1	3021.208000	ms	total	emptyFor	PIR-LLVM	simple_reduced	100000000	1		
1	2	2984.156000	ms	total	emptyFor	PIR-LLVM	simple_reduced	100000000	1		
1	3	15.446000	ms	total	emptyFor	PIR-LLVM	simple_reduced	100000000	1		
1	4	0.028000	ms	total	emptyFor	PIR-LLVM	simple_reduced	100000000	1		
1	5	0.011000	ms	total	emptyFor	PIR-LLVM	simple_reduced	100000000	1		
1	6	0.008000	ms	total	emptyFor	PIR-LLVM	simple_reduced	100000000	1		
1	7	0.008000	ms	total	emptyFor	PIR-LLVM	simple_reduced	100000000	1		
1	8	0.007000	ms	total	emptyFor	PIR-LLVM	simple_reduced	100000000	1		
1	9	0.007000	ms	total	emptyFor	PIR-LLVM	simple_reduced	100000000	1		
1	10	0.008000	ms	total	emptyFor	PIR-LLVM	simple_reduced	100000000	1		
1	11	0.007000	ms	total	emptyFor	PIR-LLVM	simple_reduced	100000000	1		
1	12	0.007000	ms	total	emptyFor	PIR-LLVM	simple_reduced	100000000	1		
1	13	0.007000	ms	total	emptyFor	PIR-LLVM	simple_reduced	100000000	1		
1	14	0.007000	ms	total	emptyFor	PIR-LLVM	simple_reduced	100000000	1		
1	15	0.007000	ms	total	emptyFor	PIR-LLVM	simple_reduced	100000000	1		
1	1	749.748000	ms	total	lapplyDots	PIR-LLVM	simple_reduced	1000000	1		
1	2	873.737000	ms	total	lapplyDots	PIR-LLVM	simple_reduced	1000000	1		
1	3	794.643000	ms	total	lapplyDots	PIR-LLVM	simple_reduced	1000000	1		
1	4	1014.985000	ms	total	lapplyDots	PIR-LLVM	simple_reduced	1000000	1		
1	5	952.626000	ms	total	lapplyDots	PIR-LLVM	simple_reduced	1000000	1		
1	6	897.319000	ms	total	lapplyDots	PIR-LLVM	simple_reduced	1000000	1		
1	7	917.469000	ms	total	lapplyDots	PIR-LLVM	simple_reduced	1000000	1		
1	8	791.599000	ms	total	lapplyDots	PIR-LLVM	simple_reduced	1000000	1		
1	9	897.100000	ms	total	lapplyDots	PIR-LLVM	simple_reduced	1000000	1		
1	10	917.340000	ms	total	lapplyDots	PIR-LLVM	simple_reduced	1000000	1		
1	11	936.723000	ms	total	lapplyDots	PIR-LLVM	simple_reduced	1000000	1		
1	12	771.623000	ms	total	lapplyDots	PIR-LLVM	simple_reduced	1000000	1		
1	13	916.546000	ms	total	lapplyDots	PIR-LLVM	simple_reduced	1000000	1		
1	14	937.205000	ms	total	lapplyDots	PIR-LLVM	simple_reduced	1000000	1		
1	15	897.156000	ms	total	lapplyDots	PIR-LLVM	simple_reduced	1000000	1		
1	1	3035.383000	ms	total	nbody_naive_2	PIR-LLVM	shootout_reduced	20000	1		
1	2	1755.469000	ms	total	nbody_naive_2	PIR-LLVM	shootout_reduced	20000	1		
1	3	4614.650000	ms	total	nbody_naive_2	PIR-LLVM	shootout_reduced	20000	1		
1	4	964.431000	ms	total	nbody_naive_2	PIR-LLVM	shootout_reduced	20000	1		
1	5	960.807000	ms	total	nbody_naive_2	PIR-LLVM	shootout_reduced	20000	1		
1	6	950.148000	ms	total	nbody_naive_2	PIR-LLVM	shootout_reduced	20000	1		
1	7	963.384000	ms	total	nbody_naive_2	PIR-LLVM	shootout_reduced	20000	1		
1	8	953.866000	ms	total	nbody_naive_2	PIR-LLVM	shootout_reduced	20000	1		
1	9	963.531000	ms	total	nbody_naive_2	PIR-LLVM	shootout_reduced	20000	1		
1	10	962.828000	ms	total	nbody_naive_2	PIR-LLVM	shootout_reduced	20000	1		
1	11	949.463000	ms	total	nbody_naive_2	PIR-LLVM	shootout_reduced	20000	1		
1	12	967.162000	ms	total	nbody_naive_2	PIR-LLVM	shootout_reduced	20000	1		
1	13	953.119000	ms	total	nbody_naive_2	PIR-LLVM	shootout_reduced	20000	1		
1	14	962.596000	ms	total	nbody_naive_2	PIR-LLVM	shootout_reduced	20000	1		
1	15	963.026000	ms	total	nbody_naive_2	PIR-LLVM	shootout_reduced	20000	1		
1	1	538.708000	ms	total	reversecomplement_naive	PIR-LLVM	shootout_reduced	50000	1		
1	2	562.951000	ms	total	reversecomplement_naive	PIR-LLVM	shootout_reduced	50000	1		
1	3	1174.712000	ms	total	reversecomplement_naive	PIR-LLVM	shootout_reduced	50000	1		
1	4	337.301000	ms	total	reversecomplement_naive	PIR-LLVM	shootout_reduced	50000	1		
1	5	337.855000	ms	total	reversecomplement_naive	PIR-LLVM	shootout_reduced	50000	1		
1	6	335.836000	ms	total	reversecomplement_naive	PIR-LLVM	shootout_reduced	50000	1		
1	7	336.772000	ms	total	reversecomplement_naive	PIR-LLVM	shootout_reduced	50000	1		
1	8	348.521000	ms	total	reversecomplement_naive	PIR-LLVM	shootout_reduced	50000	1		
1	9	331.877000	ms	total	reversecomplement_naive	PIR-LLVM	shootout_reduced	50000	1		
1	10	336.883000	ms	total	reversecomplement_naive	PIR-LLVM	shootout_reduced	50000	1		
1	11	332.880000	ms	total	reversecomplement_naive	PIR-LLVM	shootout_reduced	50000	1		
1	12	330.786000	ms	total	reversecomplement_naive	PIR-LLVM	shootout_reduced	50000	1		
1	13	336.653000	ms	total	reversecomplement_naive	PIR-LLVM	shootout_reduced	50000	1		
1	14	331.785000	ms	total	reversecomplement_naive	PIR-LLVM	shootout_reduced	50000	1		
1	15	346.045000	ms	total	reversecomplement_naive	PIR-LLVM	shootout_reduced	50000	1		
1	1	1670.921000	ms	total	spectralnorm_alt_2	PIR-LLVM	shootout_reduced	1200	1		
1	2	1381.331000	ms	total	spectralnorm_alt_2	PIR-LLVM	shootout_reduced	1200	1		
1	3	2557.388000	ms	total	spectralnorm_alt_2	PIR-LLVM	shootout_reduced	1200	1		
1	4	1185.873000	ms	total	spectralnorm_alt_2	PIR-LLVM	shootout_reduced	1200	1		
1	5	1192.978000	ms	total	spectralnorm_alt_2	PIR-LLVM	shootout_reduced	1200	1		
1	6	1215.748000	ms	total	spectralnorm_alt_2	PIR-LLVM	shootout_reduced	1200	1		
1	7	1182.411000	ms	total	spectralnorm_alt_2	PIR-LLVM	shootout_reduced	1200	1		
1	8	1185.785000	ms	total	spectralnorm_alt_2	PIR-LLVM	shootout_reduced	1200	1		
1	9	1198.429000	ms	total	spectralnorm_alt_2	PIR-LLVM	shootout_reduced	1200	1		
1	10	1229.543000	ms	total	spectralnorm_alt_2	PIR-LLVM	shootout_reduced	1200	1		
1	11	1174.551000	ms	total	spectralnorm_alt_2	PIR-LLVM	shootout_reduced	1200	1		
1	12	1206.685000	ms	total	spectralnorm_alt_2	PIR-LLVM	shootout_reduced	1200	1		
1	13	1200.634000	ms	total	spectralnorm_alt_2	PIR-LLVM	shootout_reduced	1200	1		
1	14	1208.216000	ms	total	spectralnorm_alt_2	PIR-LLVM	shootout_reduced	1200	1		
1	15	1162.992000	ms	total	spectralnorm_alt_2	PIR-LLVM	shootout_reduced	1200	1		
1	1	44242.119000	ms	total	flexclust	PIR-LLVM	real_thing_extra	5	1		
1	2	28407.622000	ms	total	flexclust	PIR-LLVM	real_thing_extra	5	1		
1	3	30376.043000	ms	total	flexclust	PIR-LLVM	real_thing_extra	5	1		
1	4	37720.978000	ms	total	flexclust	PIR-LLVM	real_thing_extra	5	1		
1	5	25357.761000	ms	total	flexclust	PIR-LLVM	real_thing_extra	5	1		
1	6	15208.215000	ms	total	flexclust	PIR-LLVM	real_thing_extra	5	1		
1	7	15454.943000	ms	total	flexclust	PIR-LLVM	real_thing_extra	5	1		
1	8	15152.477000	ms	total	flexclust	PIR-LLVM	real_thing_extra	5	1		
1	9	14783.055000	ms	total	flexclust	PIR-LLVM	real_thing_extra	5	1		
1	10	14892.838000	ms	total	flexclust	PIR-LLVM	real_thing_extra	5	1		
1	11	14924.191000	ms	total	flexclust	PIR-LLVM	real_thing_extra	5	1		
1	12	14949.028000	ms	total	flexclust	PIR-LLVM	real_thing_extra	5	1		
1	13	14953.107000	ms	total	flexclust	PIR-LLVM	real_thing_extra	5	1		
1	14	15009.666000	ms	total	flexclust	PIR-LLVM	real_thing_extra	5	1		
1	15	14851.950000	ms	total	flexclust	PIR-LLVM	real_thing_extra	5	1		
1	1	1900.155000	ms	total	scalarWhile	PIR-LLVM	simple_reduced	25000000	1		
1	2	1902.107000	ms	total	scalarWhile	PIR-LLVM	simple_reduced	25000000	1		
1	3	43.812000	ms	total	scalarWhile	PIR-LLVM	simple_reduced	25000000	1		
1	4	25.243000	ms	total	scalarWhile	PIR-LLVM	simple_reduced	25000000	1		
1	5	25.236000	ms	total	scalarWhile	PIR-LLVM	simple_reduced	25000000	1		
1	6	25.233000	ms	total	scalarWhile	PIR-LLVM	simple_reduced	25000000	1		
1	7	25.241000	ms	total	scalarWhile	PIR-LLVM	simple_reduced	25000000	1		
1	8	25.229000	ms	total	scalarWhile	PIR-LLVM	simple_reduced	25000000	1		
1	9	25.233000	ms	total	scalarWhile	PIR-LLVM	simple_reduced	25000000	1		
1	10	25.229000	ms	total	scalarWhile	PIR-LLVM	simple_reduced	25000000	1		
1	11	25.231000	ms	total	scalarWhile	PIR-LLVM	simple_reduced	25000000	1		
1	12	25.238000	ms	total	scalarWhile	PIR-LLVM	simple_reduced	25000000	1		
1	13	25.225000	ms	total	scalarWhile	PIR-LLVM	simple_reduced	25000000	1		
1	14	25.242000	ms	total	scalarWhile	PIR-LLVM	simple_reduced	25000000	1		
1	15	25.241000	ms	total	scalarWhile	PIR-LLVM	simple_reduced	25000000	1		
1	1	522.211000	ms	total	reversecomplement_2	PIR-LLVM	shootout_reduced	150000	1		
1	2	519.971000	ms	total	reversecomplement_2	PIR-LLVM	shootout_reduced	150000	1		
1	3	1500.068000	ms	total	reversecomplement_2	PIR-LLVM	shootout_reduced	150000	1		
1	4	401.795000	ms	total	reversecomplement_2	PIR-LLVM	shootout_reduced	150000	1		
1	5	415.781000	ms	total	reversecomplement_2	PIR-LLVM	shootout_reduced	150000	1		
1	6	402.640000	ms	total	reversecomplement_2	PIR-LLVM	shootout_reduced	150000	1		
1	7	402.869000	ms	total	reversecomplement_2	PIR-LLVM	shootout_reduced	150000	1		
1	8	405.471000	ms	total	reversecomplement_2	PIR-LLVM	shootout_reduced	150000	1		
1	9	404.356000	ms	total	reversecomplement_2	PIR-LLVM	shootout_reduced	150000	1		
1	10	401.307000	ms	total	reversecomplement_2	PIR-LLVM	shootout_reduced	150000	1		
1	11	402.259000	ms	total	reversecomplement_2	PIR-LLVM	shootout_reduced	150000	1		
1	12	405.556000	ms	total	reversecomplement_2	PIR-LLVM	shootout_reduced	150000	1		
1	13	402.119000	ms	total	reversecomplement_2	PIR-LLVM	shootout_reduced	150000	1		
1	14	400.930000	ms	total	reversecomplement_2	PIR-LLVM	shootout_reduced	150000	1		
1	15	405.996000	ms	total	reversecomplement_2	PIR-LLVM	shootout_reduced	150000	1		
1	1	1479.860000	ms	total	fasta	PIR-LLVM	shootout_reduced	60000	1		
1	2	1261.318000	ms	total	fasta	PIR-LLVM	shootout_reduced	60000	1		
1	3	1988.794000	ms	total	fasta	PIR-LLVM	shootout_reduced	60000	1		
1	4	913.719000	ms	total	fasta	PIR-LLVM	shootout_reduced	60000	1		
1	5	898.443000	ms	total	fasta	PIR-LLVM	shootout_reduced	60000	1		
1	6	910.574000	ms	total	fasta	PIR-LLVM	shootout_reduced	60000	1		
1	7	914.697000	ms	total	fasta	PIR-LLVM	shootout_reduced	60000	1		
1	8	922.468000	ms	total	fasta	PIR-LLVM	shootout_reduced	60000	1		
1	9	924.222000	ms	total	fasta	PIR-LLVM	shootout_reduced	60000	1		
1	10	914.193000	ms	total	fasta	PIR-LLVM	shootout_reduced	60000	1		
1	11	921.717000	ms	total	fasta	PIR-LLVM	shootout_reduced	60000	1		
1	12	923.534000	ms	total	fasta	PIR-LLVM	shootout_reduced	60000	1		
1	13	931.184000	ms	total	fasta	PIR-LLVM	shootout_reduced	60000	1		
1	14	923.564000	ms	total	fasta	PIR-LLVM	shootout_reduced	60000	1		
1	15	901.336000	ms	total	fasta	PIR-LLVM	shootout_reduced	60000	1		
1	1	2359.469000	ms	total	fannkuchredux_naive	PIR-LLVM	shootout_reduced	9	1		
1	2	2335.341000	ms	total	fannkuchredux_naive	PIR-LLVM	shootout_reduced	9	1		
1	3	2813.606000	ms	total	fannkuchredux_naive	PIR-LLVM	shootout_reduced	9	1		
1	4	215.709000	ms	total	fannkuchredux_naive	PIR-LLVM	shootout_reduced	9	1		
1	5	210.413000	ms	total	fannkuchredux_naive	PIR-LLVM	shootout_reduced	9	1		
1	6	209.068000	ms	total	fannkuchredux_naive	PIR-LLVM	shootout_reduced	9	1		
1	7	215.153000	ms	total	fannkuchredux_naive	PIR-LLVM	shootout_reduced	9	1		
1	8	209.779000	ms	total	fannkuchredux_naive	PIR-LLVM	shootout_reduced	9	1		
1	9	209.225000	ms	total	fannkuchredux_naive	PIR-LLVM	shootout_reduced	9	1		
1	10	224.210000	ms	total	fannkuchredux_naive	PIR-LLVM	shootout_reduced	9	1		
1	11	210.637000	ms	total	fannkuchredux_naive	PIR-LLVM	shootout_reduced	9	1		
1	12	214.520000	ms	total	fannkuchredux_naive	PIR-LLVM	shootout_reduced	9	1		
1	13	209.932000	ms	total	fannkuchredux_naive	PIR-LLVM	shootout_reduced	9	1		
1	14	209.648000	ms	total	fannkuchredux_naive	PIR-LLVM	shootout_reduced	9	1		
1	15	213.675000	ms	total	fannkuchredux_naive	PIR-LLVM	shootout_reduced	9	1		
1	1	384.575000	ms	total	mandelbrot_ascii	PIR-LLVM	shootout_reduced	300	1		
1	2	79.859000	ms	total	mandelbrot_ascii	PIR-LLVM	shootout_reduced	300	1		
1	3	933.322000	ms	total	mandelbrot_ascii	PIR-LLVM	shootout_reduced	300	1		
1	4	63.635000	ms	total	mandelbrot_ascii	PIR-LLVM	shootout_reduced	300	1		
1	5	62.280000	ms	total	mandelbrot_ascii	PIR-LLVM	shootout_reduced	300	1		
1	6	61.163000	ms	total	mandelbrot_ascii	PIR-LLVM	shootout_reduced	300	1		
1	7	61.584000	ms	total	mandelbrot_ascii	PIR-LLVM	shootout_reduced	300	1		
1	8	62.862000	ms	total	mandelbrot_ascii	PIR-LLVM	shootout_reduced	300	1		
1	9	61.986000	ms	total	mandelbrot_ascii	PIR-LLVM	shootout_reduced	300	1		
1	10	61.973000	ms	total	mandelbrot_ascii	PIR-LLVM	shootout_reduced	300	1		
1	11	61.926000	ms	total	mandelbrot_ascii	PIR-LLVM	shootout_reduced	300	1		
1	12	63.446000	ms	total	mandelbrot_ascii	PIR-LLVM	shootout_reduced	300	1		
1	13	62.088000	ms	total	mandelbrot_ascii	PIR-LLVM	shootout_reduced	300	1		
1	14	62.060000	ms	total	mandelbrot_ascii	PIR-LLVM	shootout_reduced	300	1		
1	15	61.984000	ms	total	mandelbrot_ascii	PIR-LLVM	shootout_reduced	300	1		
1	1	148.193000	ms	total	listWhile	PIR-LLVM	simple_extra	500000	1		
1	2	139.746000	ms	total	listWhile	PIR-LLVM	simple_extra	500000	1		
1	3	128.511000	ms	total	listWhile	PIR-LLVM	simple_extra	500000	1		
1	4	67.216000	ms	total	listWhile	PIR-LLVM	simple_extra	500000	1		
1	5	62.673000	ms	total	listWhile	PIR-LLVM	simple_extra	500000	1		
1	6	70.800000	ms	total	listWhile	PIR-LLVM	simple_extra	500000	1		
1	7	84.070000	ms	total	listWhile	PIR-LLVM	simple_extra	500000	1		
1	8	52.671000	ms	total	listWhile	PIR-LLVM	simple_extra	500000	1		
1	9	66.735000	ms	total	listWhile	PIR-LLVM	simple_extra	500000	1		
1	10	55.994000	ms	total	listWhile	PIR-LLVM	simple_extra	500000	1		
1	11	65.052000	ms	total	listWhile	PIR-LLVM	simple_extra	500000	1		
1	12	57.122000	ms	total	listWhile	PIR-LLVM	simple_extra	500000	1		
1	13	79.173000	ms	total	listWhile	PIR-LLVM	simple_extra	500000	1		
1	14	57.307000	ms	total	listWhile	PIR-LLVM	simple_extra	500000	1		
1	15	63.744000	ms	total	listWhile	PIR-LLVM	simple_extra	500000	1		
1	1	1519.543000	ms	total	regexdna	PIR-LLVM	shootout_extra	500000	1		
1	2	1523.504000	ms	total	regexdna	PIR-LLVM	shootout_extra	500000	1		
1	3	3634.851000	ms	total	regexdna	PIR-LLVM	shootout_extra	500000	1		
1	4	1430.897000	ms	total	regexdna	PIR-LLVM	shootout_extra	500000	1		
1	5	1433.660000	ms	total	regexdna	PIR-LLVM	shootout_extra	500000	1		
1	6	1445.097000	ms	total	regexdna	PIR-LLVM	shootout_extra	500000	1		
1	7	1431.970000	ms	total	regexdna	PIR-LLVM	shootout_extra	500000	1		
1	8	1434.394000	ms	total	regexdna	PIR-LLVM	shootout_extra	500000	1		
1	9	1434.630000	ms	total	regexdna	PIR-LLVM	shootout_extra	500000	1		
1	10	1457.415000	ms	total	regexdna	PIR-LLVM	shootout_extra	500000	1		
1	11	1430.287000	ms	total	regexdna	PIR-LLVM	shootout_extra	500000	1		
1	12	1432.812000	ms	total	regexdna	PIR-LLVM	shootout_extra	500000	1		
1	13	1431.808000	ms	total	regexdna	PIR-LLVM	shootout_extra	500000	1		
1	14	1454.247000	ms	total	regexdna	PIR-LLVM	shootout_extra	500000	1		
1	15	1430.217000	ms	total	regexdna	PIR-LLVM	shootout_extra	500000	1		
1	1	616.539000	ms	total	convolution_v	PIR-LLVM	real_thing_reduced	100000	1		
1	2	94.697000	ms	total	convolution_v	PIR-LLVM	real_thing_reduced	100000	1		
1	3	698.901000	ms	total	convolution_v	PIR-LLVM	real_thing_reduced	100000	1		
1	4	91.235000	ms	total	convolution_v	PIR-LLVM	real_thing_reduced	100000	1		
1	5	101.963000	ms	total	convolution_v	PIR-LLVM	real_thing_reduced	100000	1		
1	6	92.256000	ms	total	convolution_v	PIR-LLVM	real_thing_reduced	100000	1		
1	7	91.213000	ms	total	convolution_v	PIR-LLVM	real_thing_reduced	100000	1		
1	8	91.670000	ms	total	convolution_v	PIR-LLVM	real_thing_reduced	100000	1		
1	9	91.147000	ms	total	convolution_v	PIR-LLVM	real_thing_reduced	100000	1		
1	10	92.845000	ms	total	convolution_v	PIR-LLVM	real_thing_reduced	100000	1		
1	11	93.579000	ms	total	convolution_v	PIR-LLVM	real_thing_reduced	100000	1		
1	12	90.612000	ms	total	convolution_v	PIR-LLVM	real_thing_reduced	100000	1		
1	13	93.778000	ms	total	convolution_v	PIR-LLVM	real_thing_reduced	100000	1		
1	14	90.335000	ms	total	convolution_v	PIR-LLVM	real_thing_reduced	100000	1		
1	15	91.540000	ms	total	convolution_v	PIR-LLVM	real_thing_reduced	100000	1		
1	1	1470.869000	ms	total	Bounce_nonames	PIR-LLVM	are-we-fast-r	35	1		
1	2	150.188000	ms	total	Bounce_nonames	PIR-LLVM	are-we-fast-r	35	1		
1	3	159.939000	ms	total	Bounce_nonames	PIR-LLVM	are-we-fast-r	35	1		
1	4	149.718000	ms	total	Bounce_nonames	PIR-LLVM	are-we-fast-r	35	1		
1	5	149.350000	ms	total	Bounce_nonames	PIR-LLVM	are-we-fast-r	35	1		
1	6	151.365000	ms	total	Bounce_nonames	PIR-LLVM	are-we-fast-r	35	1		
1	7	148.543000	ms	total	Bounce_nonames	PIR-LLVM	are-we-fast-r	35	1		
1	8	147.895000	ms	total	Bounce_nonames	PIR-LLVM	are-we-fast-r	35	1		
1	9	149.549000	ms	total	Bounce_nonames	PIR-LLVM	are-we-fast-r	35	1		
1	10	147.905000	ms	total	Bounce_nonames	PIR-LLVM	are-we-fast-r	35	1		
1	11	148.844000	ms	total	Bounce_nonames	PIR-LLVM	are-we-fast-r	35	1		
1	12	151.085000	ms	total	Bounce_nonames	PIR-LLVM	are-we-fast-r	35	1		
1	13	148.728000	ms	total	Bounce_nonames	PIR-LLVM	are-we-fast-r	35	1		
1	14	148.398000	ms	total	Bounce_nonames	PIR-LLVM	are-we-fast-r	35	1		
1	15	148.792000	ms	total	Bounce_nonames	PIR-LLVM	are-we-fast-r	35	1		
1	1	2290.381000	ms	total	Bounce	PIR-LLVM	are-we-fast-r	35	1		
1	2	895.550000	ms	total	Bounce	PIR-LLVM	are-we-fast-r	35	1		
1	3	913.959000	ms	total	Bounce	PIR-LLVM	are-we-fast-r	35	1		
1	4	890.188000	ms	total	Bounce	PIR-LLVM	are-we-fast-r	35	1		
1	5	872.330000	ms	total	Bounce	PIR-LLVM	are-we-fast-r	35	1		
1	6	892.597000	ms	total	Bounce	PIR-LLVM	are-we-fast-r	35	1		
1	7	909.681000	ms	total	Bounce	PIR-LLVM	are-we-fast-r	35	1		
1	8	863.374000	ms	total	Bounce	PIR-LLVM	are-we-fast-r	35	1		
1	9	884.473000	ms	total	Bounce	PIR-LLVM	are-we-fast-r	35	1		
1	10	905.449000	ms	total	Bounce	PIR-LLVM	are-we-fast-r	35	1		
1	11	882.528000	ms	total	Bounce	PIR-LLVM	are-we-fast-r	35	1		
1	12	878.075000	ms	total	Bounce	PIR-LLVM	are-we-fast-r	35	1		
1	13	897.050000	ms	total	Bounce	PIR-LLVM	are-we-fast-r	35	1		
1	14	899.768000	ms	total	Bounce	PIR-LLVM	are-we-fast-r	35	1		
1	15	868.921000	ms	total	Bounce	PIR-LLVM	are-we-fast-r	35	1		
1	1	774.591000	ms	total	fasta_naive	PIR-LLVM	shootout_reduced	80000	1		
1	2	851.376000	ms	total	fasta_naive	PIR-LLVM	shootout_reduced	80000	1		
1	3	1944.382000	ms	total	fasta_naive	PIR-LLVM	shootout_reduced	80000	1		
1	4	438.705000	ms	total	fasta_naive	PIR-LLVM	shootout_reduced	80000	1		
1	5	453.825000	ms	total	fasta_naive	PIR-LLVM	shootout_reduced	80000	1		
1	6	410.349000	ms	total	fasta_naive	PIR-LLVM	shootout_reduced	80000	1		
1	7	419.289000	ms	total	fasta_naive	PIR-LLVM	shootout_reduced	80000	1		
1	8	425.947000	ms	total	fasta_naive	PIR-LLVM	shootout_reduced	80000	1		
1	9	435.099000	ms	total	fasta_naive	PIR-LLVM	shootout_reduced	80000	1		
1	10	437.233000	ms	total	fasta_naive	PIR-LLVM	shootout_reduced	80000	1		
1	11	435.560000	ms	total	fasta_naive	PIR-LLVM	shootout_reduced	80000	1		
1	12	416.605000	ms	total	fasta_naive	PIR-LLVM	shootout_reduced	80000	1		
1	13	426.765000	ms	total	fasta_naive	PIR-LLVM	shootout_reduced	80000	1		
1	14	432.200000	ms	total	fasta_naive	PIR-LLVM	shootout_reduced	80000	1		
1	15	434.941000	ms	total	fasta_naive	PIR-LLVM	shootout_reduced	80000	1		
1	1	3034.804000	ms	total	knucleotide	PIR-LLVM	shootout_reduced	2000	1		
1	2	2166.655000	ms	total	knucleotide	PIR-LLVM	shootout_reduced	2000	1		
1	3	8804.534000	ms	total	knucleotide	PIR-LLVM	shootout_reduced	2000	1		
1	4	498.761000	ms	total	knucleotide	PIR-LLVM	shootout_reduced	2000	1		
1	5	518.268000	ms	total	knucleotide	PIR-LLVM	shootout_reduced	2000	1		
1	6	538.989000	ms	total	knucleotide	PIR-LLVM	shootout_reduced	2000	1		
1	7	490.365000	ms	total	knucleotide	PIR-LLVM	shootout_reduced	2000	1		
1	8	432.221000	ms	total	knucleotide	PIR-LLVM	shootout_reduced	2000	1		
1	9	467.622000	ms	total	knucleotide	PIR-LLVM	shootout_reduced	2000	1		
1	10	491.988000	ms	total	knucleotide	PIR-LLVM	shootout_reduced	2000	1		
1	11	514.198000	ms	total	knucleotide	PIR-LLVM	shootout_reduced	2000	1		
1	12	533.207000	ms	total	knucleotide	PIR-LLVM	shootout_reduced	2000	1		
1	13	494.142000	ms	total	knucleotide	PIR-LLVM	shootout_reduced	2000	1		
1	14	435.115000	ms	total	knucleotide	PIR-LLVM	shootout_reduced	2000	1		
1	15	467.538000	ms	total	knucleotide	PIR-LLVM	shootout_reduced	2000	1		
1	1	3520.074000	ms	total	spectralnorm_math	PIR-LLVM	shootout_reduced	1200	1		
1	2	3360.089000	ms	total	spectralnorm_math	PIR-LLVM	shootout_reduced	1200	1		
1	3	3807.808000	ms	total	spectralnorm_math	PIR-LLVM	shootout_reduced	1200	1		
1	4	3202.009000	ms	total	spectralnorm_math	PIR-LLVM	shootout_reduced	1200	1		
1	5	3200.801000	ms	total	spectralnorm_math	PIR-LLVM	shootout_reduced	1200	1		
1	6	3180.254000	ms	total	spectralnorm_math	PIR-LLVM	shootout_reduced	1200	1		
1	7	3214.428000	ms	total	spectralnorm_math	PIR-LLVM	shootout_reduced	1200	1		
1	8	3186.109000	ms	total	spectralnorm_math	PIR-LLVM	shootout_reduced	1200	1		
1	9	3200.806000	ms	total	spectralnorm_math	PIR-LLVM	shootout_reduced	1200	1		
1	10	3196.784000	ms	total	spectralnorm_math	PIR-LLVM	shootout_reduced	1200	1		
1	11	3202.196000	ms	total	spectralnorm_math	PIR-LLVM	shootout_reduced	1200	1		
1	12	3192.103000	ms	total	spectralnorm_math	PIR-LLVM	shootout_reduced	1200	1		
1	13	3197.517000	ms	total	spectralnorm_math	PIR-LLVM	shootout_reduced	1200	1		
1	14	3201.912000	ms	total	spectralnorm_math	PIR-LLVM	shootout_reduced	1200	1		
1	15	3210.122000	ms	total	spectralnorm_math	PIR-LLVM	shootout_reduced	1200	1		
1	1	4235.320000	ms	total	scalarFor	PIR-LLVM	simple_reduced	100000000	1		
1	2	4222.867000	ms	total	scalarFor	PIR-LLVM	simple_reduced	100000000	1		
1	3	17.354000	ms	total	scalarFor	PIR-LLVM	simple_reduced	100000000	1		
1	4	0.030000	ms	total	scalarFor	PIR-LLVM	simple_reduced	100000000	1		
1	5	0.010000	ms	total	scalarFor	PIR-LLVM	simple_reduced	100000000	1		
1	6	0.008000	ms	total	scalarFor	PIR-LLVM	simple_reduced	100000000	1		
1	7	0.008000	ms	total	scalarFor	PIR-LLVM	simple_reduced	100000000	1		
1	8	0.007000	ms	total	scalarFor	PIR-LLVM	simple_reduced	100000000	1		
1	9	0.007000	ms	total	scalarFor	PIR-LLVM	simple_reduced	100000000	1		
1	10	0.007000	ms	total	scalarFor	PIR-LLVM	simple_reduced	100000000	1		
1	11	0.007000	ms	total	scalarFor	PIR-LLVM	simple_reduced	100000000	1		
1	12	0.007000	ms	total	scalarFor	PIR-LLVM	simple_reduced	100000000	1		
1	13	0.007000	ms	total	scalarFor	PIR-LLVM	simple_reduced	100000000	1		
1	14	0.007000	ms	total	scalarFor	PIR-LLVM	simple_reduced	100000000	1		
1	15	0.007000	ms	total	scalarFor	PIR-LLVM	simple_reduced	100000000	1		
1	1	700.115000	ms	total	fastaredux_naive	PIR-LLVM	shootout_reduced	80000	1		
1	2	1346.697000	ms	total	fastaredux_naive	PIR-LLVM	shootout_reduced	80000	1		
1	3	2425.619000	ms	total	fastaredux_naive	PIR-LLVM	shootout_reduced	80000	1		
1	4	436.559000	ms	total	fastaredux_naive	PIR-LLVM	shootout_reduced	80000	1		
1	5	437.529000	ms	total	fastaredux_naive	PIR-LLVM	shootout_reduced	80000	1		
1	6	429.108000	ms	total	fastaredux_naive	PIR-LLVM	shootout_reduced	80000	1		
1	7	411.569000	ms	total	fastaredux_naive	PIR-LLVM	shootout_reduced	80000	1		
1	8	421.824000	ms	total	fastaredux_naive	PIR-LLVM	shootout_reduced	80000	1		
1	9	431.103000	ms	total	fastaredux_naive	PIR-LLVM	shootout_reduced	80000	1		
1	10	433.593000	ms	total	fastaredux_naive	PIR-LLVM	shootout_reduced	80000	1		
1	11	436.604000	ms	total	fastaredux_naive	PIR-LLVM	shootout_reduced	80000	1		
1	12	408.825000	ms	total	fastaredux_naive	PIR-LLVM	shootout_reduced	80000	1		
1	13	417.616000	ms	total	fastaredux_naive	PIR-LLVM	shootout_reduced	80000	1		
1	14	425.102000	ms	total	fastaredux_naive	PIR-LLVM	shootout_reduced	80000	1		
1	15	434.302000	ms	total	fastaredux_naive	PIR-LLVM	shootout_reduced	80000	1		
1	1	254.733000	ms	total	mandelbrot_noout_naive	PIR-LLVM	shootout_reduced	500	1		
1	2	242.361000	ms	total	mandelbrot_noout_naive	PIR-LLVM	shootout_reduced	500	1		
1	3	1150.275000	ms	total	mandelbrot_noout_naive	PIR-LLVM	shootout_reduced	500	1		
1	4	216.885000	ms	total	mandelbrot_noout_naive	PIR-LLVM	shootout_reduced	500	1		
1	5	217.383000	ms	total	mandelbrot_noout_naive	PIR-LLVM	shootout_reduced	500	1		
1	6	217.670000	ms	total	mandelbrot_noout_naive	PIR-LLVM	shootout_reduced	500	1		
1	7	227.220000	ms	total	mandelbrot_noout_naive	PIR-LLVM	shootout_reduced	500	1		
1	8	218.639000	ms	total	mandelbrot_noout_naive	PIR-LLVM	shootout_reduced	500	1		
1	9	226.854000	ms	total	mandelbrot_noout_naive	PIR-LLVM	shootout_reduced	500	1		
1	10	225.690000	ms	total	mandelbrot_noout_naive	PIR-LLVM	shootout_reduced	500	1		
1	11	235.043000	ms	total	mandelbrot_noout_naive	PIR-LLVM	shootout_reduced	500	1		
1	12	222.190000	ms	total	mandelbrot_noout_naive	PIR-LLVM	shootout_reduced	500	1		
1	13	224.087000	ms	total	mandelbrot_noout_naive	PIR-LLVM	shootout_reduced	500	1		
1	14	226.081000	ms	total	mandelbrot_noout_naive	PIR-LLVM	shootout_reduced	500	1		
1	15	237.252000	ms	total	mandelbrot_noout_naive	PIR-LLVM	shootout_reduced	500	1		
1	1	4465.036000	ms	total	knucleotide_brute	PIR-LLVM	shootout_reduced	2000	1		
1	2	5388.729000	ms	total	knucleotide_brute	PIR-LLVM	shootout_reduced	2000	1		
1	3	14293.012000	ms	total	knucleotide_brute	PIR-LLVM	shootout_reduced	2000	1		
1	4	3808.002000	ms	total	knucleotide_brute	PIR-LLVM	shootout_reduced	2000	1		
1	5	3940.937000	ms	total	knucleotide_brute	PIR-LLVM	shootout_reduced	2000	1		
1	6	4004.647000	ms	total	knucleotide_brute	PIR-LLVM	shootout_reduced	2000	1		
1	7	4091.400000	ms	total	knucleotide_brute	PIR-LLVM	shootout_reduced	2000	1		
1	8	4120.794000	ms	total	knucleotide_brute	PIR-LLVM	shootout_reduced	2000	1		
1	9	4090.134000	ms	total	knucleotide_brute	PIR-LLVM	shootout_reduced	2000	1		
1	10	4146.367000	ms	total	knucleotide_brute	PIR-LLVM	shootout_reduced	2000	1		
1	11	3509.718000	ms	total	knucleotide_brute	PIR-LLVM	shootout_reduced	2000	1		
1	12	3506.917000	ms	total	knucleotide_brute	PIR-LLVM	shootout_reduced	2000	1		
1	13	3739.719000	ms	total	knucleotide_brute	PIR-LLVM	shootout_reduced	2000	1		
1	14	3813.761000	ms	total	knucleotide_brute	PIR-LLVM	shootout_reduced	2000	1		
1	15	3963.640000	ms	total	knucleotide_brute	PIR-LLVM	shootout_reduced	2000	1		
1	1	631.573000	ms	total	lapply	PIR-LLVM	simple_reduced	1000000	1		
1	2	750.002000	ms	total	lapply	PIR-LLVM	simple_reduced	1000000	1		
1	3	806.337000	ms	total	lapply	PIR-LLVM	simple_reduced	1000000	1		
1	4	804.251000	ms	total	lapply	PIR-LLVM	simple_reduced	1000000	1		
1	5	875.465000	ms	total	lapply	PIR-LLVM	simple_reduced	1000000	1		
1	6	759.849000	ms	total	lapply	PIR-LLVM	simple_reduced	1000000	1		
1	7	770.527000	ms	total	lapply	PIR-LLVM	simple_reduced	1000000	1		
1	8	768.031000	ms	total	lapply	PIR-LLVM	simple_reduced	1000000	1		
1	9	573.045000	ms	total	lapply	PIR-LLVM	simple_reduced	1000000	1		
1	10	679.373000	ms	total	lapply	PIR-LLVM	simple_reduced	1000000	1		
1	11	689.751000	ms	total	lapply	PIR-LLVM	simple_reduced	1000000	1		
1	12	712.836000	ms	total	lapply	PIR-LLVM	simple_reduced	1000000	1		
1	13	658.477000	ms	total	lapply	PIR-LLVM	simple_reduced	1000000	1		
1	14	584.464000	ms	total	lapply	PIR-LLVM	simple_reduced	1000000	1		
1	15	686.324000	ms	total	lapply	PIR-LLVM	simple_reduced	1000000	1		
1	1	1101.112000	ms	total	spectralnorm_alt_3	PIR-LLVM	shootout_reduced	250	1		
1	2	859.528000	ms	total	spectralnorm_alt_3	PIR-LLVM	shootout_reduced	250	1		
1	3	1456.342000	ms	total	spectralnorm_alt_3	PIR-LLVM	shootout_reduced	250	1		
1	4	97.156000	ms	total	spectralnorm_alt_3	PIR-LLVM	shootout_reduced	250	1		
1	5	98.138000	ms	total	spectralnorm_alt_3	PIR-LLVM	shootout_reduced	250	1		
1	6	97.276000	ms	total	spectralnorm_alt_3	PIR-LLVM	shootout_reduced	250	1		
1	7	100.095000	ms	total	spectralnorm_alt_3	PIR-LLVM	shootout_reduced	250	1		
1	8	98.090000	ms	total	spectralnorm_alt_3	PIR-LLVM	shootout_reduced	250	1		
1	9	98.274000	ms	total	spectralnorm_alt_3	PIR-LLVM	shootout_reduced	250	1		
1	10	98.688000	ms	total	spectralnorm_alt_3	PIR-LLVM	shootout_reduced	250	1		
1	11	98.761000	ms	total	spectralnorm_alt_3	PIR-LLVM	shootout_reduced	250	1		
1	12	98.055000	ms	total	spectralnorm_alt_3	PIR-LLVM	shootout_reduced	250	1		
1	13	98.513000	ms	total	spectralnorm_alt_3	PIR-LLVM	shootout_reduced	250	1		
1	14	100.832000	ms	total	spectralnorm_alt_3	PIR-LLVM	shootout_reduced	250	1		
1	15	98.216000	ms	total	spectralnorm_alt_3	PIR-LLVM	shootout_reduced	250	1		
1	1	382.576000	ms	total	mandelbrot_noout	PIR-LLVM	shootout_reduced	400	1		
1	2	67.908000	ms	total	mandelbrot_noout	PIR-LLVM	shootout_reduced	400	1		
1	3	719.784000	ms	total	mandelbrot_noout	PIR-LLVM	shootout_reduced	400	1		
1	4	63.916000	ms	total	mandelbrot_noout	PIR-LLVM	shootout_reduced	400	1		
1	5	64.883000	ms	total	mandelbrot_noout	PIR-LLVM	shootout_reduced	400	1		
1	6	63.692000	ms	total	mandelbrot_noout	PIR-LLVM	shootout_reduced	400	1		
1	7	63.698000	ms	total	mandelbrot_noout	PIR-LLVM	shootout_reduced	400	1		
1	8	63.760000	ms	total	mandelbrot_noout	PIR-LLVM	shootout_reduced	400	1		
1	9	64.755000	ms	total	mandelbrot_noout	PIR-LLVM	shootout_reduced	400	1		
1	10	73.576000	ms	total	mandelbrot_noout	PIR-LLVM	shootout_reduced	400	1		
1	11	63.742000	ms	total	mandelbrot_noout	PIR-LLVM	shootout_reduced	400	1		
1	12	63.839000	ms	total	mandelbrot_noout	PIR-LLVM	shootout_reduced	400	1		
1	13	63.625000	ms	total	mandelbrot_noout	PIR-LLVM	shootout_reduced	400	1		
1	14	64.580000	ms	total	mandelbrot_noout	PIR-LLVM	shootout_reduced	400	1		
1	15	63.477000	ms	total	mandelbrot_noout	PIR-LLVM	shootout_reduced	400	1		
1	1	959.646000	ms	total	vectorFor	PIR-LLVM	simple_reduced	15000000	1		
1	2	964.819000	ms	total	vectorFor	PIR-LLVM	simple_reduced	15000000	1		
1	3	73.770000	ms	total	vectorFor	PIR-LLVM	simple_reduced	15000000	1		
1	4	32.567000	ms	total	vectorFor	PIR-LLVM	simple_reduced	15000000	1		
1	5	32.444000	ms	total	vectorFor	PIR-LLVM	simple_reduced	15000000	1		
1	6	32.450000	ms	total	vectorFor	PIR-LLVM	simple_reduced	15000000	1		
1	7	32.469000	ms	total	vectorFor	PIR-LLVM	simple_reduced	15000000	1		
1	8	32.469000	ms	total	vectorFor	PIR-LLVM	simple_reduced	15000000	1		
1	9	32.473000	ms	total	vectorFor	PIR-LLVM	simple_reduced	15000000	1		
1	10	32.480000	ms	total	vectorFor	PIR-LLVM	simple_reduced	15000000	1		
1	11	32.466000	ms	total	vectorFor	PIR-LLVM	simple_reduced	15000000	1		
1	12	32.451000	ms	total	vectorFor	PIR-LLVM	simple_reduced	15000000	1		
1	13	32.457000	ms	total	vectorFor	PIR-LLVM	simple_reduced	15000000	1		
1	14	32.436000	ms	total	vectorFor	PIR-LLVM	simple_reduced	15000000	1		
1	15	32.441000	ms	total	vectorFor	PIR-LLVM	simple_reduced	15000000	1		
1	1	1205.542000	ms	total	fasta_3	PIR-LLVM	shootout_reduced	60000	1		
1	2	3479.490000	ms	total	fasta_3	PIR-LLVM	shootout_reduced	60000	1		
1	3	4196.314000	ms	total	fasta_3	PIR-LLVM	shootout_reduced	60000	1		
1	4	928.904000	ms	total	fasta_3	PIR-LLVM	shootout_reduced	60000	1		
1	5	908.307000	ms	total	fasta_3	PIR-LLVM	shootout_reduced	60000	1		
1	6	913.461000	ms	total	fasta_3	PIR-LLVM	shootout_reduced	60000	1		
1	7	904.061000	ms	total	fasta_3	PIR-LLVM	shootout_reduced	60000	1		
1	8	908.628000	ms	total	fasta_3	PIR-LLVM	shootout_reduced	60000	1		
1	9	909.008000	ms	total	fasta_3	PIR-LLVM	shootout_reduced	60000	1		
1	10	904.623000	ms	total	fasta_3	PIR-LLVM	shootout_reduced	60000	1		
1	11	907.158000	ms	total	fasta_3	PIR-LLVM	shootout_reduced	60000	1		
1	12	903.954000	ms	total	fasta_3	PIR-LLVM	shootout_reduced	60000	1		
1	13	906.629000	ms	total	fasta_3	PIR-LLVM	shootout_reduced	60000	1		
1	14	903.114000	ms	total	fasta_3	PIR-LLVM	shootout_reduced	60000	1		
1	15	910.343000	ms	total	fasta_3	PIR-LLVM	shootout_reduced	60000	1		
1	1	3364.225000	ms	total	bytecodes	PIR-LLVM	simple_reduced	9000000	1		
1	2	3376.472000	ms	total	bytecodes	PIR-LLVM	simple_reduced	9000000	1		
1	3	232.106000	ms	total	bytecodes	PIR-LLVM	simple_reduced	9000000	1		
1	4	9.110000	ms	total	bytecodes	PIR-LLVM	simple_reduced	9000000	1		
1	5	9.097000	ms	total	bytecodes	PIR-LLVM	simple_reduced	9000000	1		
1	6	9.094000	ms	total	bytecodes	PIR-LLVM	simple_reduced	9000000	1		
1	7	9.095000	ms	total	bytecodes	PIR-LLVM	simple_reduced	9000000	1		
1	8	9.088000	ms	total	bytecodes	PIR-LLVM	simple_reduced	9000000	1		
1	9	9.089000	ms	total	bytecodes	PIR-LLVM	simple_reduced	9000000	1		
1	10	9.087000	ms	total	bytecodes	PIR-LLVM	simple_reduced	9000000	1		
1	11	9.089000	ms	total	bytecodes	PIR-LLVM	simple_reduced	9000000	1		
1	12	9.088000	ms	total	bytecodes	PIR-LLVM	simple_reduced	9000000	1		
1	13	9.089000	ms	total	bytecodes	PIR-LLVM	simple_reduced	9000000	1		
1	14	9.087000	ms	total	bytecodes	PIR-LLVM	simple_reduced	9000000	1		
1	15	9.087000	ms	total	bytecodes	PIR-LLVM	simple_reduced	9000000	1		
1	1	1914.109000	ms	total	emptyWhile	PIR-LLVM	simple_reduced	30000000	1		
1	2	1895.265000	ms	total	emptyWhile	PIR-LLVM	simple_reduced	30000000	1		
1	3	46.821000	ms	total	emptyWhile	PIR-LLVM	simple_reduced	30000000	1		
1	4	30.295000	ms	total	emptyWhile	PIR-LLVM	simple_reduced	30000000	1		
1	5	30.279000	ms	total	emptyWhile	PIR-LLVM	simple_reduced	30000000	1		
1	6	30.289000	ms	total	emptyWhile	PIR-LLVM	simple_reduced	30000000	1		
1	7	30.298000	ms	total	emptyWhile	PIR-LLVM	simple_reduced	30000000	1		
1	8	30.286000	ms	total	emptyWhile	PIR-LLVM	simple_reduced	30000000	1		
1	9	30.288000	ms	total	emptyWhile	PIR-LLVM	simple_reduced	30000000	1		
1	10	30.286000	ms	total	emptyWhile	PIR-LLVM	simple_reduced	30000000	1		
1	11	30.273000	ms	total	emptyWhile	PIR-LLVM	simple_reduced	30000000	1		
1	12	30.276000	ms	total	emptyWhile	PIR-LLVM	simple_reduced	30000000	1		
1	13	30.275000	ms	total	emptyWhile	PIR-LLVM	simple_reduced	30000000	1		
1	14	30.276000	ms	total	emptyWhile	PIR-LLVM	simple_reduced	30000000	1		
1	15	30.276000	ms	total	emptyWhile	PIR-LLVM	simple_reduced	30000000	1		
1	1	871.608000	ms	total	binarytrees_naive	PIR-LLVM	shootout_reduced	9	1		
1	2	135.457000	ms	total	binarytrees_naive	PIR-LLVM	shootout_reduced	9	1		
1	3	3902.087000	ms	total	binarytrees_naive	PIR-LLVM	shootout_reduced	9	1		
1	4	90.879000	ms	total	binarytrees_naive	PIR-LLVM	shootout_reduced	9	1		
1	5	102.260000	ms	total	binarytrees_naive	PIR-LLVM	shootout_reduced	9	1		
1	6	91.044000	ms	total	binarytrees_naive	PIR-LLVM	shootout_reduced	9	1		
1	7	91.118000	ms	total	binarytrees_naive	PIR-LLVM	shootout_reduced	9	1		
1	8	91.488000	ms	total	binarytrees_naive	PIR-LLVM	shootout_reduced	9	1		
1	9	94.095000	ms	total	binarytrees_naive	PIR-LLVM	shootout_reduced	9	1		
1	10	90.741000	ms	total	binarytrees_naive	PIR-LLVM	shootout_reduced	9	1		
1	11	90.930000	ms	total	binarytrees_naive	PIR-LLVM	shootout_reduced	9	1		
1	12	90.626000	ms	total	binarytrees_naive	PIR-LLVM	shootout_reduced	9	1		
1	13	91.522000	ms	total	binarytrees_naive	PIR-LLVM	shootout_reduced	9	1		
1	14	91.448000	ms	total	binarytrees_naive	PIR-LLVM	shootout_reduced	9	1		
1	15	92.469000	ms	total	binarytrees_naive	PIR-LLVM	shootout_reduced	9	1		
1	1	390.199000	ms	total	spectralnorm_alt	PIR-LLVM	shootout_reduced	1500	1		
1	2	266.623000	ms	total	spectralnorm_alt	PIR-LLVM	shootout_reduced	1500	1		
1	3	1506.751000	ms	total	spectralnorm_alt	PIR-LLVM	shootout_reduced	1500	1		
1	4	210.156000	ms	total	spectralnorm_alt	PIR-LLVM	shootout_reduced	1500	1		
1	5	197.889000	ms	total	spectralnorm_alt	PIR-LLVM	shootout_reduced	1500	1		
1	6	213.554000	ms	total	spectralnorm_alt	PIR-LLVM	shootout_reduced	1500	1		
1	7	202.402000	ms	total	spectralnorm_alt	PIR-LLVM	shootout_reduced	1500	1		
1	8	187.594000	ms	total	spectralnorm_alt	PIR-LLVM	shootout_reduced	1500	1		
1	9	188.246000	ms	total	spectralnorm_alt	PIR-LLVM	shootout_reduced	1500	1		
1	10	198.071000	ms	total	spectralnorm_alt	PIR-LLVM	shootout_reduced	1500	1		
1	11	185.393000	ms	total	spectralnorm_alt	PIR-LLVM	shootout_reduced	1500	1		
1	12	195.102000	ms	total	spectralnorm_alt	PIR-LLVM	shootout_reduced	1500	1		
1	13	192.976000	ms	total	spectralnorm_alt	PIR-LLVM	shootout_reduced	1500	1		
1	14	202.308000	ms	total	spectralnorm_alt	PIR-LLVM	shootout_reduced	1500	1		
1	15	187.177000	ms	total	spectralnorm_alt	PIR-LLVM	shootout_reduced	1500	1		
1	1	1532.431000	ms	total	nbody_2	PIR-LLVM	shootout_reduced	12000	1		
1	2	1403.709000	ms	total	nbody_2	PIR-LLVM	shootout_reduced	12000	1		
1	3	1726.358000	ms	total	nbody_2	PIR-LLVM	shootout_reduced	12000	1		
1	4	641.207000	ms	total	nbody_2	PIR-LLVM	shootout_reduced	12000	1		
1	5	619.915000	ms	total	nbody_2	PIR-LLVM	shootout_reduced	12000	1		
1	6	618.620000	ms	total	nbody_2	PIR-LLVM	shootout_reduced	12000	1		
1	7	619.817000	ms	total	nbody_2	PIR-LLVM	shootout_reduced	12000	1		
1	8	629.719000	ms	total	nbody_2	PIR-LLVM	shootout_reduced	12000	1		
1	9	619.770000	ms	total	nbody_2	PIR-LLVM	shootout_reduced	12000	1		
1	10	619.786000	ms	total	nbody_2	PIR-LLVM	shootout_reduced	12000	1		
1	11	617.374000	ms	total	nbody_2	PIR-LLVM	shootout_reduced	12000	1		
1	12	630.410000	ms	total	nbody_2	PIR-LLVM	shootout_reduced	12000	1		
1	13	617.792000	ms	total	nbody_2	PIR-LLVM	shootout_reduced	12000	1		
1	14	619.012000	ms	total	nbody_2	PIR-LLVM	shootout_reduced	12000	1		
1	15	630.430000	ms	total	nbody_2	PIR-LLVM	shootout_reduced	12000	1		
1	1	616.937000	ms	total	convolution_slow	PIR-LLVM	real_thing_reduced	100000	1		
1	2	94.771000	ms	total	convolution_slow	PIR-LLVM	real_thing_reduced	100000	1		
1	3	700.442000	ms	total	convolution_slow	PIR-LLVM	real_thing_reduced	100000	1		
1	4	91.727000	ms	total	convolution_slow	PIR-LLVM	real_thing_reduced	100000	1		
1	5	102.108000	ms	total	convolution_slow	PIR-LLVM	real_thing_reduced	100000	1		
1	6	91.936000	ms	total	convolution_slow	PIR-LLVM	real_thing_reduced	100000	1		
1	7	91.185000	ms	total	convolution_slow	PIR-LLVM	real_thing_reduced	100000	1		
1	8	91.255000	ms	total	convolution_slow	PIR-LLVM	real_thing_reduced	100000	1		
1	9	91.763000	ms	total	convolution_slow	PIR-LLVM	real_thing_reduced	100000	1		
1	10	92.739000	ms	total	convolution_slow	PIR-LLVM	real_thing_reduced	100000	1		
1	11	93.160000	ms	total	convolution_slow	PIR-LLVM	real_thing_reduced	100000	1		
1	12	90.554000	ms	total	convolution_slow	PIR-LLVM	real_thing_reduced	100000	1		
1	13	94.185000	ms	total	convolution_slow	PIR-LLVM	real_thing_reduced	100000	1		
1	14	90.375000	ms	total	convolution_slow	PIR-LLVM	real_thing_reduced	100000	1		
1	15	91.235000	ms	total	convolution_slow	PIR-LLVM	real_thing_reduced	100000	1		
1	1	192.905000	ms	total	listFor	PIR-LLVM	simple_extra	500000	1		
1	2	196.250000	ms	total	listFor	PIR-LLVM	simple_extra	500000	1		
1	3	86.761000	ms	total	listFor	PIR-LLVM	simple_extra	500000	1		
1	4	65.573000	ms	total	listFor	PIR-LLVM	simple_extra	500000	1		
1	5	75.982000	ms	total	listFor	PIR-LLVM	simple_extra	500000	1		
1	6	53.478000	ms	total	listFor	PIR-LLVM	simple_extra	500000	1		
1	7	64.869000	ms	total	listFor	PIR-LLVM	simple_extra	500000	1		
1	8	54.465000	ms	total	listFor	PIR-LLVM	simple_extra	500000	1		
1	9	65.582000	ms	total	listFor	PIR-LLVM	simple_extra	500000	1		
1	10	79.425000	ms	total	listFor	PIR-LLVM	simple_extra	500000	1		
1	11	60.219000	ms	total	listFor	PIR-LLVM	simple_extra	500000	1		
1	12	61.054000	ms	total	listFor	PIR-LLVM	simple_extra	500000	1		
1	13	69.074000	ms	total	listFor	PIR-LLVM	simple_extra	500000	1		
1	14	74.746000	ms	total	listFor	PIR-LLVM	simple_extra	500000	1		
1	15	50.348000	ms	total	listFor	PIR-LLVM	simple_extra	500000	1		
