#!/usr/local/bin/rebench rebench.conf e:PIR-LLVM -df /builds/rirvm/rir_mirror/benchmarks.data -R
# Execution Start: 2022-05-05T08:34:36.850771+00:00
# Environment: {"userName": "root", "manualRun": false, "hostName": "runner-8zkb9w1v-project-10979413-concurrent-0", "osType": "Linux", "memory": 33399554048, "denoise": {}, "cpu": "Intel(R) Core(TM) i7-6700K CPU @ 4.00GHz", "clockSpeed": 4000000000, "software": [{"name": "kernel", "version": "#157-Ubuntu SMP Fri Jul 9 23:07:57 UTC 2021"}, {"name": "kernel-release", "version": "4.15.0-151-generic"}, {"name": "architecture", "version": "x86_64"}]}
# Source: {"repoURL": null, "branchOrTag": null, "commitId": null, "commitMsg": null, "authorName": null, "committerName": null, "authorEmail": null, "committerEmail": null}
1	1	9820.270000	ms	total	profiler-shared	PIR-LLVM	simple_reduced	20	1			
1	2	9573.196000	ms	total	profiler-shared	PIR-LLVM	simple_reduced	20	1			
1	3	9597.009000	ms	total	profiler-shared	PIR-LLVM	simple_reduced	20	1			
1	4	9646.390000	ms	total	profiler-shared	PIR-LLVM	simple_reduced	20	1			
1	5	9564.105000	ms	total	profiler-shared	PIR-LLVM	simple_reduced	20	1			
1	6	9680.248000	ms	total	profiler-shared	PIR-LLVM	simple_reduced	20	1			
1	7	9709.409000	ms	total	profiler-shared	PIR-LLVM	simple_reduced	20	1			
1	8	9691.822000	ms	total	profiler-shared	PIR-LLVM	simple_reduced	20	1			
1	9	9795.910000	ms	total	profiler-shared	PIR-LLVM	simple_reduced	20	1			
1	10	9785.475000	ms	total	profiler-shared	PIR-LLVM	simple_reduced	20	1			
1	11	9744.556000	ms	total	profiler-shared	PIR-LLVM	simple_reduced	20	1			
1	12	9681.931000	ms	total	profiler-shared	PIR-LLVM	simple_reduced	20	1			
1	13	10046.393000	ms	total	profiler-shared	PIR-LLVM	simple_reduced	20	1			
1	14	9693.013000	ms	total	profiler-shared	PIR-LLVM	simple_reduced	20	1			
1	15	9977.487000	ms	total	profiler-shared	PIR-LLVM	simple_reduced	20	1			
1	1	224.898000	ms	total	binarytrees_naive	PIR-LLVM	shootout	9	1			
1	2	86.300000	ms	total	binarytrees_naive	PIR-LLVM	shootout	9	1			
1	3	287.053000	ms	total	binarytrees_naive	PIR-LLVM	shootout	9	1			
1	4	82.442000	ms	total	binarytrees_naive	PIR-LLVM	shootout	9	1			
1	5	83.261000	ms	total	binarytrees_naive	PIR-LLVM	shootout	9	1			
1	6	84.223000	ms	total	binarytrees_naive	PIR-LLVM	shootout	9	1			
1	7	91.823000	ms	total	binarytrees_naive	PIR-LLVM	shootout	9	1			
1	8	84.975000	ms	total	binarytrees_naive	PIR-LLVM	shootout	9	1			
1	9	83.546000	ms	total	binarytrees_naive	PIR-LLVM	shootout	9	1			
1	10	83.769000	ms	total	binarytrees_naive	PIR-LLVM	shootout	9	1			
1	11	84.219000	ms	total	binarytrees_naive	PIR-LLVM	shootout	9	1			
1	12	82.151000	ms	total	binarytrees_naive	PIR-LLVM	shootout	9	1			
1	13	85.328000	ms	total	binarytrees_naive	PIR-LLVM	shootout	9	1			
1	14	84.561000	ms	total	binarytrees_naive	PIR-LLVM	shootout	9	1			
1	15	81.879000	ms	total	binarytrees_naive	PIR-LLVM	shootout	9	1			
1	1	6276.148000	ms	total	nbody_naive	PIR-LLVM	shootout	20000	1			
1	2	920.146000	ms	total	nbody_naive	PIR-LLVM	shootout	20000	1			
1	3	768.005000	ms	total	nbody_naive	PIR-LLVM	shootout	20000	1			
1	4	760.715000	ms	total	nbody_naive	PIR-LLVM	shootout	20000	1			
1	5	1049.757000	ms	total	nbody_naive	PIR-LLVM	shootout	20000	1			
1	6	1045.084000	ms	total	nbody_naive	PIR-LLVM	shootout	20000	1			
1	7	762.059000	ms	total	nbody_naive	PIR-LLVM	shootout	20000	1			
1	8	760.335000	ms	total	nbody_naive	PIR-LLVM	shootout	20000	1			
1	9	753.357000	ms	total	nbody_naive	PIR-LLVM	shootout	20000	1			
1	10	765.866000	ms	total	nbody_naive	PIR-LLVM	shootout	20000	1			
1	11	757.243000	ms	total	nbody_naive	PIR-LLVM	shootout	20000	1			
1	12	760.533000	ms	total	nbody_naive	PIR-LLVM	shootout	20000	1			
1	13	760.235000	ms	total	nbody_naive	PIR-LLVM	shootout	20000	1			
1	14	753.421000	ms	total	nbody_naive	PIR-LLVM	shootout	20000	1			
1	15	768.263000	ms	total	nbody_naive	PIR-LLVM	shootout	20000	1			
1	1	1448.491000	ms	total	spectralnorm_alt_2	PIR-LLVM	shootout	1200	1			
1	2	1123.265000	ms	total	spectralnorm_alt_2	PIR-LLVM	shootout	1200	1			
1	3	1174.269000	ms	total	spectralnorm_alt_2	PIR-LLVM	shootout	1200	1			
1	4	1105.452000	ms	total	spectralnorm_alt_2	PIR-LLVM	shootout	1200	1			
1	5	1030.909000	ms	total	spectralnorm_alt_2	PIR-LLVM	shootout	1200	1			
1	6	1010.262000	ms	total	spectralnorm_alt_2	PIR-LLVM	shootout	1200	1			
1	7	1034.345000	ms	total	spectralnorm_alt_2	PIR-LLVM	shootout	1200	1			
1	8	1037.047000	ms	total	spectralnorm_alt_2	PIR-LLVM	shootout	1200	1			
1	9	1024.266000	ms	total	spectralnorm_alt_2	PIR-LLVM	shootout	1200	1			
1	10	1028.709000	ms	total	spectralnorm_alt_2	PIR-LLVM	shootout	1200	1			
1	11	1008.624000	ms	total	spectralnorm_alt_2	PIR-LLVM	shootout	1200	1			
1	12	1033.640000	ms	total	spectralnorm_alt_2	PIR-LLVM	shootout	1200	1			
1	13	1019.884000	ms	total	spectralnorm_alt_2	PIR-LLVM	shootout	1200	1			
1	14	1033.617000	ms	total	spectralnorm_alt_2	PIR-LLVM	shootout	1200	1			
1	15	1031.251000	ms	total	spectralnorm_alt_2	PIR-LLVM	shootout	1200	1			
1	1	1441.203000	ms	total	profiler-microbenchmark	PIR-LLVM	simple_reduced	5000000	1			
1	2	1270.387000	ms	total	profiler-microbenchmark	PIR-LLVM	simple_reduced	5000000	1			
1	3	1274.287000	ms	total	profiler-microbenchmark	PIR-LLVM	simple_reduced	5000000	1			
1	4	1270.054000	ms	total	profiler-microbenchmark	PIR-LLVM	simple_reduced	5000000	1			
1	5	1276.617000	ms	total	profiler-microbenchmark	PIR-LLVM	simple_reduced	5000000	1			
1	6	1260.212000	ms	total	profiler-microbenchmark	PIR-LLVM	simple_reduced	5000000	1			
1	7	1254.853000	ms	total	profiler-microbenchmark	PIR-LLVM	simple_reduced	5000000	1			
1	8	1257.807000	ms	total	profiler-microbenchmark	PIR-LLVM	simple_reduced	5000000	1			
1	9	1266.598000	ms	total	profiler-microbenchmark	PIR-LLVM	simple_reduced	5000000	1			
1	10	1271.947000	ms	total	profiler-microbenchmark	PIR-LLVM	simple_reduced	5000000	1			
1	11	1265.377000	ms	total	profiler-microbenchmark	PIR-LLVM	simple_reduced	5000000	1			
1	12	1253.418000	ms	total	profiler-microbenchmark	PIR-LLVM	simple_reduced	5000000	1			
1	13	1258.375000	ms	total	profiler-microbenchmark	PIR-LLVM	simple_reduced	5000000	1			
1	14	1261.141000	ms	total	profiler-microbenchmark	PIR-LLVM	simple_reduced	5000000	1			
1	15	1270.050000	ms	total	profiler-microbenchmark	PIR-LLVM	simple_reduced	5000000	1			
1	1	2898.367000	ms	total	vectorWhile	PIR-LLVM	simple_reduced	20000000	1			
1	2	2697.792000	ms	total	vectorWhile	PIR-LLVM	simple_reduced	20000000	1			
1	3	1519.582000	ms	total	vectorWhile	PIR-LLVM	simple_reduced	20000000	1			
1	4	1469.627000	ms	total	vectorWhile	PIR-LLVM	simple_reduced	20000000	1			
1	5	1464.428000	ms	total	vectorWhile	PIR-LLVM	simple_reduced	20000000	1			
1	6	1472.123000	ms	total	vectorWhile	PIR-LLVM	simple_reduced	20000000	1			
1	7	1474.894000	ms	total	vectorWhile	PIR-LLVM	simple_reduced	20000000	1			
1	8	1473.721000	ms	total	vectorWhile	PIR-LLVM	simple_reduced	20000000	1			
1	9	1474.457000	ms	total	vectorWhile	PIR-LLVM	simple_reduced	20000000	1			
1	10	1488.243000	ms	total	vectorWhile	PIR-LLVM	simple_reduced	20000000	1			
1	11	1469.259000	ms	total	vectorWhile	PIR-LLVM	simple_reduced	20000000	1			
1	12	1462.104000	ms	total	vectorWhile	PIR-LLVM	simple_reduced	20000000	1			
1	13	1473.339000	ms	total	vectorWhile	PIR-LLVM	simple_reduced	20000000	1			
1	14	1473.885000	ms	total	vectorWhile	PIR-LLVM	simple_reduced	20000000	1			
1	15	1472.312000	ms	total	vectorWhile	PIR-LLVM	simple_reduced	20000000	1			
1	1	3341.880000	ms	total	pidigits	PIR-LLVM	shootout	30	1			
1	2	201.577000	ms	total	pidigits	PIR-LLVM	shootout	30	1			
1	3	622.212000	ms	total	pidigits	PIR-LLVM	shootout	30	1			
1	4	217.000000	ms	total	pidigits	PIR-LLVM	shootout	30	1			
1	5	137.624000	ms	total	pidigits	PIR-LLVM	shootout	30	1			
1	6	157.336000	ms	total	pidigits	PIR-LLVM	shootout	30	1			
1	7	145.550000	ms	total	pidigits	PIR-LLVM	shootout	30	1			
1	8	136.616000	ms	total	pidigits	PIR-LLVM	shootout	30	1			
1	9	136.451000	ms	total	pidigits	PIR-LLVM	shootout	30	1			
1	10	136.589000	ms	total	pidigits	PIR-LLVM	shootout	30	1			
1	11	137.283000	ms	total	pidigits	PIR-LLVM	shootout	30	1			
1	12	137.659000	ms	total	pidigits	PIR-LLVM	shootout	30	1			
1	13	136.574000	ms	total	pidigits	PIR-LLVM	shootout	30	1			
1	14	150.333000	ms	total	pidigits	PIR-LLVM	shootout	30	1			
1	15	136.731000	ms	total	pidigits	PIR-LLVM	shootout	30	1			
1	1	1334.857000	ms	total	vectorFor	PIR-LLVM	simple_reduced	15000000	1			
1	2	864.844000	ms	total	vectorFor	PIR-LLVM	simple_reduced	15000000	1			
1	3	219.985000	ms	total	vectorFor	PIR-LLVM	simple_reduced	15000000	1			
1	4	175.955000	ms	total	vectorFor	PIR-LLVM	simple_reduced	15000000	1			
1	5	176.047000	ms	total	vectorFor	PIR-LLVM	simple_reduced	15000000	1			
1	6	175.934000	ms	total	vectorFor	PIR-LLVM	simple_reduced	15000000	1			
1	7	177.014000	ms	total	vectorFor	PIR-LLVM	simple_reduced	15000000	1			
1	8	175.524000	ms	total	vectorFor	PIR-LLVM	simple_reduced	15000000	1			
1	9	175.777000	ms	total	vectorFor	PIR-LLVM	simple_reduced	15000000	1			
1	10	176.146000	ms	total	vectorFor	PIR-LLVM	simple_reduced	15000000	1			
1	11	175.684000	ms	total	vectorFor	PIR-LLVM	simple_reduced	15000000	1			
1	12	176.429000	ms	total	vectorFor	PIR-LLVM	simple_reduced	15000000	1			
1	13	175.995000	ms	total	vectorFor	PIR-LLVM	simple_reduced	15000000	1			
1	14	175.828000	ms	total	vectorFor	PIR-LLVM	simple_reduced	15000000	1			
1	15	176.279000	ms	total	vectorFor	PIR-LLVM	simple_reduced	15000000	1			
1	1	802.410000	ms	total	Storage	PIR-LLVM	are-we-fast-r	100	1			
1	2	719.155000	ms	total	Storage	PIR-LLVM	are-we-fast-r	100	1			
1	3	716.558000	ms	total	Storage	PIR-LLVM	are-we-fast-r	100	1			
1	4	702.389000	ms	total	Storage	PIR-LLVM	are-we-fast-r	100	1			
1	5	739.157000	ms	total	Storage	PIR-LLVM	are-we-fast-r	100	1			
1	6	689.095000	ms	total	Storage	PIR-LLVM	are-we-fast-r	100	1			
1	7	721.723000	ms	total	Storage	PIR-LLVM	are-we-fast-r	100	1			
1	8	756.338000	ms	total	Storage	PIR-LLVM	are-we-fast-r	100	1			
1	9	706.485000	ms	total	Storage	PIR-LLVM	are-we-fast-r	100	1			
1	10	737.677000	ms	total	Storage	PIR-LLVM	are-we-fast-r	100	1			
1	11	707.974000	ms	total	Storage	PIR-LLVM	are-we-fast-r	100	1			
1	12	699.778000	ms	total	Storage	PIR-LLVM	are-we-fast-r	100	1			
1	13	733.485000	ms	total	Storage	PIR-LLVM	are-we-fast-r	100	1			
1	14	753.287000	ms	total	Storage	PIR-LLVM	are-we-fast-r	100	1			
1	15	736.552000	ms	total	Storage	PIR-LLVM	are-we-fast-r	100	1			
1	1	1359.748000	ms	total	Bounce	PIR-LLVM	are-we-fast-r	35	1			
1	2	908.394000	ms	total	Bounce	PIR-LLVM	are-we-fast-r	35	1			
1	3	922.996000	ms	total	Bounce	PIR-LLVM	are-we-fast-r	35	1			
1	4	911.720000	ms	total	Bounce	PIR-LLVM	are-we-fast-r	35	1			
1	5	890.211000	ms	total	Bounce	PIR-LLVM	are-we-fast-r	35	1			
1	6	897.685000	ms	total	Bounce	PIR-LLVM	are-we-fast-r	35	1			
1	7	915.555000	ms	total	Bounce	PIR-LLVM	are-we-fast-r	35	1			
1	8	884.346000	ms	total	Bounce	PIR-LLVM	are-we-fast-r	35	1			
1	9	893.818000	ms	total	Bounce	PIR-LLVM	are-we-fast-r	35	1			
1	10	898.914000	ms	total	Bounce	PIR-LLVM	are-we-fast-r	35	1			
1	11	900.032000	ms	total	Bounce	PIR-LLVM	are-we-fast-r	35	1			
1	12	891.955000	ms	total	Bounce	PIR-LLVM	are-we-fast-r	35	1			
1	13	898.388000	ms	total	Bounce	PIR-LLVM	are-we-fast-r	35	1			
1	14	914.354000	ms	total	Bounce	PIR-LLVM	are-we-fast-r	35	1			
1	15	881.390000	ms	total	Bounce	PIR-LLVM	are-we-fast-r	35	1			
1	1	505.868000	ms	total	binarytrees	PIR-LLVM	shootout	9	1			
1	2	79.242000	ms	total	binarytrees	PIR-LLVM	shootout	9	1			
1	3	326.421000	ms	total	binarytrees	PIR-LLVM	shootout	9	1			
1	4	78.857000	ms	total	binarytrees	PIR-LLVM	shootout	9	1			
1	5	78.795000	ms	total	binarytrees	PIR-LLVM	shootout	9	1			
1	6	88.771000	ms	total	binarytrees	PIR-LLVM	shootout	9	1			
1	7	148.705000	ms	total	binarytrees	PIR-LLVM	shootout	9	1			
1	8	80.211000	ms	total	binarytrees	PIR-LLVM	shootout	9	1			
1	9	79.057000	ms	total	binarytrees	PIR-LLVM	shootout	9	1			
1	10	79.873000	ms	total	binarytrees	PIR-LLVM	shootout	9	1			
1	11	82.548000	ms	total	binarytrees	PIR-LLVM	shootout	9	1			
1	12	79.798000	ms	total	binarytrees	PIR-LLVM	shootout	9	1			
1	13	79.850000	ms	total	binarytrees	PIR-LLVM	shootout	9	1			
1	14	79.864000	ms	total	binarytrees	PIR-LLVM	shootout	9	1			
1	15	80.145000	ms	total	binarytrees	PIR-LLVM	shootout	9	1			
1	1	1437.892000	ms	total	nbody_2	PIR-LLVM	shootout	12000	1			
1	2	1061.244000	ms	total	nbody_2	PIR-LLVM	shootout	12000	1			
1	3	750.451000	ms	total	nbody_2	PIR-LLVM	shootout	12000	1			
1	4	740.843000	ms	total	nbody_2	PIR-LLVM	shootout	12000	1			
1	5	743.132000	ms	total	nbody_2	PIR-LLVM	shootout	12000	1			
1	6	731.426000	ms	total	nbody_2	PIR-LLVM	shootout	12000	1			
1	7	729.858000	ms	total	nbody_2	PIR-LLVM	shootout	12000	1			
1	8	732.282000	ms	total	nbody_2	PIR-LLVM	shootout	12000	1			
1	9	740.745000	ms	total	nbody_2	PIR-LLVM	shootout	12000	1			
1	10	731.259000	ms	total	nbody_2	PIR-LLVM	shootout	12000	1			
1	11	728.664000	ms	total	nbody_2	PIR-LLVM	shootout	12000	1			
1	12	732.950000	ms	total	nbody_2	PIR-LLVM	shootout	12000	1			
1	13	743.072000	ms	total	nbody_2	PIR-LLVM	shootout	12000	1			
1	14	728.261000	ms	total	nbody_2	PIR-LLVM	shootout	12000	1			
1	15	730.873000	ms	total	nbody_2	PIR-LLVM	shootout	12000	1			
1	1	3478.629000	ms	total	spectralnorm	PIR-LLVM	shootout	1200	1			
1	2	2736.449000	ms	total	spectralnorm	PIR-LLVM	shootout	1200	1			
1	3	2869.617000	ms	total	spectralnorm	PIR-LLVM	shootout	1200	1			
1	4	2715.222000	ms	total	spectralnorm	PIR-LLVM	shootout	1200	1			
1	5	2746.196000	ms	total	spectralnorm	PIR-LLVM	shootout	1200	1			
1	6	2727.723000	ms	total	spectralnorm	PIR-LLVM	shootout	1200	1			
1	7	2728.542000	ms	total	spectralnorm	PIR-LLVM	shootout	1200	1			
1	8	2723.507000	ms	total	spectralnorm	PIR-LLVM	shootout	1200	1			
1	9	2725.201000	ms	total	spectralnorm	PIR-LLVM	shootout	1200	1			
1	10	2734.191000	ms	total	spectralnorm	PIR-LLVM	shootout	1200	1			
1	11	2730.091000	ms	total	spectralnorm	PIR-LLVM	shootout	1200	1			
1	12	2725.573000	ms	total	spectralnorm	PIR-LLVM	shootout	1200	1			
1	13	2731.281000	ms	total	spectralnorm	PIR-LLVM	shootout	1200	1			
1	14	2732.440000	ms	total	spectralnorm	PIR-LLVM	shootout	1200	1			
1	15	2749.760000	ms	total	spectralnorm	PIR-LLVM	shootout	1200	1			
1	1	5873.740000	ms	total	scalarFor	PIR-LLVM	simple_reduced	100000000	1			
1	2	81.903000	ms	total	scalarFor	PIR-LLVM	simple_reduced	100000000	1			
1	3	1547.420000	ms	total	scalarFor	PIR-LLVM	simple_reduced	100000000	1			
1	4	1514.665000	ms	total	scalarFor	PIR-LLVM	simple_reduced	100000000	1			
1	5	1519.791000	ms	total	scalarFor	PIR-LLVM	simple_reduced	100000000	1			
1	6	1517.842000	ms	total	scalarFor	PIR-LLVM	simple_reduced	100000000	1			
1	7	1516.290000	ms	total	scalarFor	PIR-LLVM	simple_reduced	100000000	1			
1	8	1519.270000	ms	total	scalarFor	PIR-LLVM	simple_reduced	100000000	1			
1	9	1519.025000	ms	total	scalarFor	PIR-LLVM	simple_reduced	100000000	1			
1	10	1521.363000	ms	total	scalarFor	PIR-LLVM	simple_reduced	100000000	1			
1	11	1518.558000	ms	total	scalarFor	PIR-LLVM	simple_reduced	100000000	1			
1	12	1518.472000	ms	total	scalarFor	PIR-LLVM	simple_reduced	100000000	1			
1	13	1519.058000	ms	total	scalarFor	PIR-LLVM	simple_reduced	100000000	1			
1	14	1518.372000	ms	total	scalarFor	PIR-LLVM	simple_reduced	100000000	1			
1	15	1515.591000	ms	total	scalarFor	PIR-LLVM	simple_reduced	100000000	1			
1	1	611.826000	ms	total	reversecomplement_2	PIR-LLVM	shootout	150000	1			
1	2	641.395000	ms	total	reversecomplement_2	PIR-LLVM	shootout	150000	1			
1	3	531.038000	ms	total	reversecomplement_2	PIR-LLVM	shootout	150000	1			
1	4	563.984000	ms	total	reversecomplement_2	PIR-LLVM	shootout	150000	1			
1	5	584.355000	ms	total	reversecomplement_2	PIR-LLVM	shootout	150000	1			
1	6	583.322000	ms	total	reversecomplement_2	PIR-LLVM	shootout	150000	1			
1	7	586.074000	ms	total	reversecomplement_2	PIR-LLVM	shootout	150000	1			
1	8	593.637000	ms	total	reversecomplement_2	PIR-LLVM	shootout	150000	1			
1	9	587.705000	ms	total	reversecomplement_2	PIR-LLVM	shootout	150000	1			
1	10	588.926000	ms	total	reversecomplement_2	PIR-LLVM	shootout	150000	1			
1	11	584.924000	ms	total	reversecomplement_2	PIR-LLVM	shootout	150000	1			
1	12	586.707000	ms	total	reversecomplement_2	PIR-LLVM	shootout	150000	1			
1	13	520.699000	ms	total	reversecomplement_2	PIR-LLVM	shootout	150000	1			
1	14	502.869000	ms	total	reversecomplement_2	PIR-LLVM	shootout	150000	1			
1	15	506.853000	ms	total	reversecomplement_2	PIR-LLVM	shootout	150000	1			
1	1	731.383000	ms	total	Bounce_nonames_simple	PIR-LLVM	are-we-fast-r	35	1			
1	2	267.564000	ms	total	Bounce_nonames_simple	PIR-LLVM	are-we-fast-r	35	1			
1	3	267.303000	ms	total	Bounce_nonames_simple	PIR-LLVM	are-we-fast-r	35	1			
1	4	262.961000	ms	total	Bounce_nonames_simple	PIR-LLVM	are-we-fast-r	35	1			
1	5	259.804000	ms	total	Bounce_nonames_simple	PIR-LLVM	are-we-fast-r	35	1			
1	6	257.891000	ms	total	Bounce_nonames_simple	PIR-LLVM	are-we-fast-r	35	1			
1	7	261.834000	ms	total	Bounce_nonames_simple	PIR-LLVM	are-we-fast-r	35	1			
1	8	257.917000	ms	total	Bounce_nonames_simple	PIR-LLVM	are-we-fast-r	35	1			
1	9	258.548000	ms	total	Bounce_nonames_simple	PIR-LLVM	are-we-fast-r	35	1			
1	10	267.852000	ms	total	Bounce_nonames_simple	PIR-LLVM	are-we-fast-r	35	1			
1	11	254.728000	ms	total	Bounce_nonames_simple	PIR-LLVM	are-we-fast-r	35	1			
1	12	255.211000	ms	total	Bounce_nonames_simple	PIR-LLVM	are-we-fast-r	35	1			
1	13	257.474000	ms	total	Bounce_nonames_simple	PIR-LLVM	are-we-fast-r	35	1			
1	14	254.044000	ms	total	Bounce_nonames_simple	PIR-LLVM	are-we-fast-r	35	1			
1	15	255.386000	ms	total	Bounce_nonames_simple	PIR-LLVM	are-we-fast-r	35	1			
1	1	1473.395000	ms	total	fastaredux_naive	PIR-LLVM	shootout	80000	1			
1	2	696.863000	ms	total	fastaredux_naive	PIR-LLVM	shootout	80000	1			
1	3	1064.162000	ms	total	fastaredux_naive	PIR-LLVM	shootout	80000	1			
1	4	716.667000	ms	total	fastaredux_naive	PIR-LLVM	shootout	80000	1			
1	5	742.484000	ms	total	fastaredux_naive	PIR-LLVM	shootout	80000	1			
1	6	686.340000	ms	total	fastaredux_naive	PIR-LLVM	shootout	80000	1			
1	7	702.836000	ms	total	fastaredux_naive	PIR-LLVM	shootout	80000	1			
1	8	710.145000	ms	total	fastaredux_naive	PIR-LLVM	shootout	80000	1			
1	9	714.070000	ms	total	fastaredux_naive	PIR-LLVM	shootout	80000	1			
1	10	715.210000	ms	total	fastaredux_naive	PIR-LLVM	shootout	80000	1			
1	11	688.133000	ms	total	fastaredux_naive	PIR-LLVM	shootout	80000	1			
1	12	698.649000	ms	total	fastaredux_naive	PIR-LLVM	shootout	80000	1			
1	13	706.051000	ms	total	fastaredux_naive	PIR-LLVM	shootout	80000	1			
1	14	720.352000	ms	total	fastaredux_naive	PIR-LLVM	shootout	80000	1			
1	15	707.775000	ms	total	fastaredux_naive	PIR-LLVM	shootout	80000	1			
1	1	40401.007000	ms	total	volcano	PIR-LLVM	real_thing	1	1			
1	2	32321.565000	ms	total	volcano	PIR-LLVM	real_thing	1	1			
1	3	32755.827000	ms	total	volcano	PIR-LLVM	real_thing	1	1			
1	4	32526.962000	ms	total	volcano	PIR-LLVM	real_thing	1	1			
1	5	32359.203000	ms	total	volcano	PIR-LLVM	real_thing	1	1			
1	6	32320.585000	ms	total	volcano	PIR-LLVM	real_thing	1	1			
1	7	32308.803000	ms	total	volcano	PIR-LLVM	real_thing	1	1			
1	8	32412.968000	ms	total	volcano	PIR-LLVM	real_thing	1	1			
1	9	32326.580000	ms	total	volcano	PIR-LLVM	real_thing	1	1			
1	10	32474.626000	ms	total	volcano	PIR-LLVM	real_thing	1	1			
1	11	32378.230000	ms	total	volcano	PIR-LLVM	real_thing	1	1			
1	12	32397.547000	ms	total	volcano	PIR-LLVM	real_thing	1	1			
1	13	32259.242000	ms	total	volcano	PIR-LLVM	real_thing	1	1			
1	14	32540.605000	ms	total	volcano	PIR-LLVM	real_thing	1	1			
1	15	32406.977000	ms	total	volcano	PIR-LLVM	real_thing	1	1			
1	1	1301.967000	ms	total	fasta_naive	PIR-LLVM	shootout	80000	1			
1	2	794.231000	ms	total	fasta_naive	PIR-LLVM	shootout	80000	1			
1	3	1177.793000	ms	total	fasta_naive	PIR-LLVM	shootout	80000	1			
1	4	839.431000	ms	total	fasta_naive	PIR-LLVM	shootout	80000	1			
1	5	780.957000	ms	total	fasta_naive	PIR-LLVM	shootout	80000	1			
1	6	796.318000	ms	total	fasta_naive	PIR-LLVM	shootout	80000	1			
1	7	804.045000	ms	total	fasta_naive	PIR-LLVM	shootout	80000	1			
1	8	826.389000	ms	total	fasta_naive	PIR-LLVM	shootout	80000	1			
1	9	780.633000	ms	total	fasta_naive	PIR-LLVM	shootout	80000	1			
1	10	796.299000	ms	total	fasta_naive	PIR-LLVM	shootout	80000	1			
1	11	802.523000	ms	total	fasta_naive	PIR-LLVM	shootout	80000	1			
1	12	825.319000	ms	total	fasta_naive	PIR-LLVM	shootout	80000	1			
1	13	781.607000	ms	total	fasta_naive	PIR-LLVM	shootout	80000	1			
1	14	795.151000	ms	total	fasta_naive	PIR-LLVM	shootout	80000	1			
1	15	808.438000	ms	total	fasta_naive	PIR-LLVM	shootout	80000	1			
1	1	528.108000	ms	total	mandelbrot_ascii	PIR-LLVM	shootout	300	1			
1	2	339.487000	ms	total	mandelbrot_ascii	PIR-LLVM	shootout	300	1			
1	3	74.014000	ms	total	mandelbrot_ascii	PIR-LLVM	shootout	300	1			
1	4	69.170000	ms	total	mandelbrot_ascii	PIR-LLVM	shootout	300	1			
1	5	66.708000	ms	total	mandelbrot_ascii	PIR-LLVM	shootout	300	1			
1	6	66.853000	ms	total	mandelbrot_ascii	PIR-LLVM	shootout	300	1			
1	7	66.422000	ms	total	mandelbrot_ascii	PIR-LLVM	shootout	300	1			
1	8	69.222000	ms	total	mandelbrot_ascii	PIR-LLVM	shootout	300	1			
1	9	67.437000	ms	total	mandelbrot_ascii	PIR-LLVM	shootout	300	1			
1	10	68.384000	ms	total	mandelbrot_ascii	PIR-LLVM	shootout	300	1			
1	11	68.480000	ms	total	mandelbrot_ascii	PIR-LLVM	shootout	300	1			
1	12	69.098000	ms	total	mandelbrot_ascii	PIR-LLVM	shootout	300	1			
1	13	67.518000	ms	total	mandelbrot_ascii	PIR-LLVM	shootout	300	1			
1	14	68.426000	ms	total	mandelbrot_ascii	PIR-LLVM	shootout	300	1			
1	15	69.566000	ms	total	mandelbrot_ascii	PIR-LLVM	shootout	300	1			
1	1	4859.396000	ms	total	Mandelbrot	PIR-LLVM	are-we-fast-r	500	1			
1	2	4652.809000	ms	total	Mandelbrot	PIR-LLVM	are-we-fast-r	500	1			
1	3	3055.405000	ms	total	Mandelbrot	PIR-LLVM	are-we-fast-r	500	1			
1	4	2742.641000	ms	total	Mandelbrot	PIR-LLVM	are-we-fast-r	500	1			
1	5	2725.260000	ms	total	Mandelbrot	PIR-LLVM	are-we-fast-r	500	1			
1	6	2712.798000	ms	total	Mandelbrot	PIR-LLVM	are-we-fast-r	500	1			
1	7	2691.663000	ms	total	Mandelbrot	PIR-LLVM	are-we-fast-r	500	1			
1	8	2734.458000	ms	total	Mandelbrot	PIR-LLVM	are-we-fast-r	500	1			
1	9	2705.601000	ms	total	Mandelbrot	PIR-LLVM	are-we-fast-r	500	1			
1	10	2718.843000	ms	total	Mandelbrot	PIR-LLVM	are-we-fast-r	500	1			
1	11	2708.083000	ms	total	Mandelbrot	PIR-LLVM	are-we-fast-r	500	1			
1	12	2703.171000	ms	total	Mandelbrot	PIR-LLVM	are-we-fast-r	500	1			
1	13	2702.228000	ms	total	Mandelbrot	PIR-LLVM	are-we-fast-r	500	1			
1	14	2707.923000	ms	total	Mandelbrot	PIR-LLVM	are-we-fast-r	500	1			
1	15	2715.099000	ms	total	Mandelbrot	PIR-LLVM	are-we-fast-r	500	1			
1	1	220.261000	ms	total	mandelbrot_noout_naive	PIR-LLVM	shootout	500	1			
1	2	198.246000	ms	total	mandelbrot_noout_naive	PIR-LLVM	shootout	500	1			
1	3	483.929000	ms	total	mandelbrot_noout_naive	PIR-LLVM	shootout	500	1			
1	4	192.528000	ms	total	mandelbrot_noout_naive	PIR-LLVM	shootout	500	1			
1	5	188.636000	ms	total	mandelbrot_noout_naive	PIR-LLVM	shootout	500	1			
1	6	195.411000	ms	total	mandelbrot_noout_naive	PIR-LLVM	shootout	500	1			
1	7	196.049000	ms	total	mandelbrot_noout_naive	PIR-LLVM	shootout	500	1			
1	8	191.466000	ms	total	mandelbrot_noout_naive	PIR-LLVM	shootout	500	1			
1	9	187.687000	ms	total	mandelbrot_noout_naive	PIR-LLVM	shootout	500	1			
1	10	189.279000	ms	total	mandelbrot_noout_naive	PIR-LLVM	shootout	500	1			
1	11	181.650000	ms	total	mandelbrot_noout_naive	PIR-LLVM	shootout	500	1			
1	12	194.878000	ms	total	mandelbrot_noout_naive	PIR-LLVM	shootout	500	1			
1	13	194.534000	ms	total	mandelbrot_noout_naive	PIR-LLVM	shootout	500	1			
1	14	191.344000	ms	total	mandelbrot_noout_naive	PIR-LLVM	shootout	500	1			
1	15	185.337000	ms	total	mandelbrot_noout_naive	PIR-LLVM	shootout	500	1			
1	1	2688.703000	ms	total	fannkuchredux_naive	PIR-LLVM	shootout	9	1			
1	2	1999.710000	ms	total	fannkuchredux_naive	PIR-LLVM	shootout	9	1			
1	3	1184.159000	ms	total	fannkuchredux_naive	PIR-LLVM	shootout	9	1			
1	4	1132.586000	ms	total	fannkuchredux_naive	PIR-LLVM	shootout	9	1			
1	5	1148.839000	ms	total	fannkuchredux_naive	PIR-LLVM	shootout	9	1			
1	6	1132.863000	ms	total	fannkuchredux_naive	PIR-LLVM	shootout	9	1			
1	7	1148.963000	ms	total	fannkuchredux_naive	PIR-LLVM	shootout	9	1			
1	8	1134.748000	ms	total	fannkuchredux_naive	PIR-LLVM	shootout	9	1			
1	9	1136.130000	ms	total	fannkuchredux_naive	PIR-LLVM	shootout	9	1			
1	10	1141.009000	ms	total	fannkuchredux_naive	PIR-LLVM	shootout	9	1			
1	11	1145.373000	ms	total	fannkuchredux_naive	PIR-LLVM	shootout	9	1			
1	12	1138.285000	ms	total	fannkuchredux_naive	PIR-LLVM	shootout	9	1			
1	13	1147.021000	ms	total	fannkuchredux_naive	PIR-LLVM	shootout	9	1			
1	14	1139.407000	ms	total	fannkuchredux_naive	PIR-LLVM	shootout	9	1			
1	15	1147.577000	ms	total	fannkuchredux_naive	PIR-LLVM	shootout	9	1			
1	1	1980.597000	ms	total	nbody_3	PIR-LLVM	shootout	20000	1			
1	2	1610.199000	ms	total	nbody_3	PIR-LLVM	shootout	20000	1			
1	3	1304.478000	ms	total	nbody_3	PIR-LLVM	shootout	20000	1			
1	4	1278.039000	ms	total	nbody_3	PIR-LLVM	shootout	20000	1			
1	5	1278.818000	ms	total	nbody_3	PIR-LLVM	shootout	20000	1			
1	6	1285.397000	ms	total	nbody_3	PIR-LLVM	shootout	20000	1			
1	7	1276.701000	ms	total	nbody_3	PIR-LLVM	shootout	20000	1			
1	8	1287.676000	ms	total	nbody_3	PIR-LLVM	shootout	20000	1			
1	9	1278.423000	ms	total	nbody_3	PIR-LLVM	shootout	20000	1			
1	10	1279.256000	ms	total	nbody_3	PIR-LLVM	shootout	20000	1			
1	11	1306.875000	ms	total	nbody_3	PIR-LLVM	shootout	20000	1			
1	12	1281.746000	ms	total	nbody_3	PIR-LLVM	shootout	20000	1			
1	13	1287.253000	ms	total	nbody_3	PIR-LLVM	shootout	20000	1			
1	14	1277.675000	ms	total	nbody_3	PIR-LLVM	shootout	20000	1			
1	15	1280.934000	ms	total	nbody_3	PIR-LLVM	shootout	20000	1			
1	1	633.923000	ms	total	reversecomplement	PIR-LLVM	shootout	150000	1			
1	2	624.858000	ms	total	reversecomplement	PIR-LLVM	shootout	150000	1			
1	3	563.918000	ms	total	reversecomplement	PIR-LLVM	shootout	150000	1			
1	4	558.380000	ms	total	reversecomplement	PIR-LLVM	shootout	150000	1			
1	5	549.654000	ms	total	reversecomplement	PIR-LLVM	shootout	150000	1			
1	6	542.342000	ms	total	reversecomplement	PIR-LLVM	shootout	150000	1			
1	7	550.496000	ms	total	reversecomplement	PIR-LLVM	shootout	150000	1			
1	8	542.288000	ms	total	reversecomplement	PIR-LLVM	shootout	150000	1			
1	9	547.039000	ms	total	reversecomplement	PIR-LLVM	shootout	150000	1			
1	10	555.281000	ms	total	reversecomplement	PIR-LLVM	shootout	150000	1			
1	11	553.826000	ms	total	reversecomplement	PIR-LLVM	shootout	150000	1			
1	12	549.121000	ms	total	reversecomplement	PIR-LLVM	shootout	150000	1			
1	13	542.664000	ms	total	reversecomplement	PIR-LLVM	shootout	150000	1			
1	14	556.108000	ms	total	reversecomplement	PIR-LLVM	shootout	150000	1			
1	15	550.894000	ms	total	reversecomplement	PIR-LLVM	shootout	150000	1			
1	1	759.930000	ms	total	mandelbrot_naive_ascii	PIR-LLVM	shootout	200	1			
1	2	710.322000	ms	total	mandelbrot_naive_ascii	PIR-LLVM	shootout	200	1			
1	3	405.288000	ms	total	mandelbrot_naive_ascii	PIR-LLVM	shootout	200	1			
1	4	388.986000	ms	total	mandelbrot_naive_ascii	PIR-LLVM	shootout	200	1			
1	5	393.819000	ms	total	mandelbrot_naive_ascii	PIR-LLVM	shootout	200	1			
1	6	387.554000	ms	total	mandelbrot_naive_ascii	PIR-LLVM	shootout	200	1			
1	7	387.166000	ms	total	mandelbrot_naive_ascii	PIR-LLVM	shootout	200	1			
1	8	388.978000	ms	total	mandelbrot_naive_ascii	PIR-LLVM	shootout	200	1			
1	9	388.083000	ms	total	mandelbrot_naive_ascii	PIR-LLVM	shootout	200	1			
1	10	394.034000	ms	total	mandelbrot_naive_ascii	PIR-LLVM	shootout	200	1			
1	11	387.943000	ms	total	mandelbrot_naive_ascii	PIR-LLVM	shootout	200	1			
1	12	387.506000	ms	total	mandelbrot_naive_ascii	PIR-LLVM	shootout	200	1			
1	13	388.893000	ms	total	mandelbrot_naive_ascii	PIR-LLVM	shootout	200	1			
1	14	401.178000	ms	total	mandelbrot_naive_ascii	PIR-LLVM	shootout	200	1			
1	15	395.113000	ms	total	mandelbrot_naive_ascii	PIR-LLVM	shootout	200	1			
1	1	5538.780000	ms	total	bytecodes	PIR-LLVM	simple_reduced	9000000	1			
1	2	6685.661000	ms	total	bytecodes	PIR-LLVM	simple_reduced	9000000	1			
1	3	5526.363000	ms	total	bytecodes	PIR-LLVM	simple_reduced	9000000	1			
1	4	5228.210000	ms	total	bytecodes	PIR-LLVM	simple_reduced	9000000	1			
1	5	5390.980000	ms	total	bytecodes	PIR-LLVM	simple_reduced	9000000	1			
1	6	5196.971000	ms	total	bytecodes	PIR-LLVM	simple_reduced	9000000	1			
1	7	5416.572000	ms	total	bytecodes	PIR-LLVM	simple_reduced	9000000	1			
1	8	5650.246000	ms	total	bytecodes	PIR-LLVM	simple_reduced	9000000	1			
1	9	5168.724000	ms	total	bytecodes	PIR-LLVM	simple_reduced	9000000	1			
1	10	5231.066000	ms	total	bytecodes	PIR-LLVM	simple_reduced	9000000	1			
1	11	5453.077000	ms	total	bytecodes	PIR-LLVM	simple_reduced	9000000	1			
1	12	5433.749000	ms	total	bytecodes	PIR-LLVM	simple_reduced	9000000	1			
1	13	5607.697000	ms	total	bytecodes	PIR-LLVM	simple_reduced	9000000	1			
1	14	5164.917000	ms	total	bytecodes	PIR-LLVM	simple_reduced	9000000	1			
1	15	5217.032000	ms	total	bytecodes	PIR-LLVM	simple_reduced	9000000	1			
1	1	676.494000	ms	total	Bounce_nonames	PIR-LLVM	are-we-fast-r	35	1			
1	2	259.879000	ms	total	Bounce_nonames	PIR-LLVM	are-we-fast-r	35	1			
1	3	259.472000	ms	total	Bounce_nonames	PIR-LLVM	are-we-fast-r	35	1			
1	4	255.172000	ms	total	Bounce_nonames	PIR-LLVM	are-we-fast-r	35	1			
1	5	251.096000	ms	total	Bounce_nonames	PIR-LLVM	are-we-fast-r	35	1			
1	6	249.399000	ms	total	Bounce_nonames	PIR-LLVM	are-we-fast-r	35	1			
1	7	253.794000	ms	total	Bounce_nonames	PIR-LLVM	are-we-fast-r	35	1			
1	8	251.967000	ms	total	Bounce_nonames	PIR-LLVM	are-we-fast-r	35	1			
1	9	251.396000	ms	total	Bounce_nonames	PIR-LLVM	are-we-fast-r	35	1			
1	10	262.750000	ms	total	Bounce_nonames	PIR-LLVM	are-we-fast-r	35	1			
1	11	248.597000	ms	total	Bounce_nonames	PIR-LLVM	are-we-fast-r	35	1			
1	12	247.663000	ms	total	Bounce_nonames	PIR-LLVM	are-we-fast-r	35	1			
1	13	252.500000	ms	total	Bounce_nonames	PIR-LLVM	are-we-fast-r	35	1			
1	14	248.021000	ms	total	Bounce_nonames	PIR-LLVM	are-we-fast-r	35	1			
1	15	249.188000	ms	total	Bounce_nonames	PIR-LLVM	are-we-fast-r	35	1			
1	1	714.015000	ms	total	lapply	PIR-LLVM	simple_reduced	1000000	1			
1	2	747.984000	ms	total	lapply	PIR-LLVM	simple_reduced	1000000	1			
1	3	798.820000	ms	total	lapply	PIR-LLVM	simple_reduced	1000000	1			
1	4	626.261000	ms	total	lapply	PIR-LLVM	simple_reduced	1000000	1			
1	5	789.992000	ms	total	lapply	PIR-LLVM	simple_reduced	1000000	1			
1	6	749.769000	ms	total	lapply	PIR-LLVM	simple_reduced	1000000	1			
1	7	778.612000	ms	total	lapply	PIR-LLVM	simple_reduced	1000000	1			
1	8	777.505000	ms	total	lapply	PIR-LLVM	simple_reduced	1000000	1			
1	9	651.353000	ms	total	lapply	PIR-LLVM	simple_reduced	1000000	1			
1	10	822.997000	ms	total	lapply	PIR-LLVM	simple_reduced	1000000	1			
1	11	769.668000	ms	total	lapply	PIR-LLVM	simple_reduced	1000000	1			
1	12	780.059000	ms	total	lapply	PIR-LLVM	simple_reduced	1000000	1			
1	13	778.592000	ms	total	lapply	PIR-LLVM	simple_reduced	1000000	1			
1	14	647.768000	ms	total	lapply	PIR-LLVM	simple_reduced	1000000	1			
1	15	821.200000	ms	total	lapply	PIR-LLVM	simple_reduced	1000000	1			
1	1	3384.338000	ms	total	knucleotide_brute_3	PIR-LLVM	shootout	2000	1			
1	2	2851.114000	ms	total	knucleotide_brute_3	PIR-LLVM	shootout	2000	1			
1	3	3035.482000	ms	total	knucleotide_brute_3	PIR-LLVM	shootout	2000	1			
1	4	2676.383000	ms	total	knucleotide_brute_3	PIR-LLVM	shootout	2000	1			
1	5	2686.959000	ms	total	knucleotide_brute_3	PIR-LLVM	shootout	2000	1			
1	6	2702.828000	ms	total	knucleotide_brute_3	PIR-LLVM	shootout	2000	1			
1	7	2681.960000	ms	total	knucleotide_brute_3	PIR-LLVM	shootout	2000	1			
1	8	2669.711000	ms	total	knucleotide_brute_3	PIR-LLVM	shootout	2000	1			
1	9	2688.320000	ms	total	knucleotide_brute_3	PIR-LLVM	shootout	2000	1			
1	10	2660.501000	ms	total	knucleotide_brute_3	PIR-LLVM	shootout	2000	1			
1	11	2682.022000	ms	total	knucleotide_brute_3	PIR-LLVM	shootout	2000	1			
1	12	2704.318000	ms	total	knucleotide_brute_3	PIR-LLVM	shootout	2000	1			
1	13	2703.369000	ms	total	knucleotide_brute_3	PIR-LLVM	shootout	2000	1			
1	14	2677.411000	ms	total	knucleotide_brute_3	PIR-LLVM	shootout	2000	1			
1	15	2756.037000	ms	total	knucleotide_brute_3	PIR-LLVM	shootout	2000	1			
1	1	1485.217000	ms	total	knucleotide	PIR-LLVM	shootout	2000	1			
1	2	939.215000	ms	total	knucleotide	PIR-LLVM	shootout	2000	1			
1	3	1006.528000	ms	total	knucleotide	PIR-LLVM	shootout	2000	1			
1	4	710.694000	ms	total	knucleotide	PIR-LLVM	shootout	2000	1			
1	5	702.562000	ms	total	knucleotide	PIR-LLVM	shootout	2000	1			
1	6	709.360000	ms	total	knucleotide	PIR-LLVM	shootout	2000	1			
1	7	747.986000	ms	total	knucleotide	PIR-LLVM	shootout	2000	1			
1	8	624.952000	ms	total	knucleotide	PIR-LLVM	shootout	2000	1			
1	9	612.002000	ms	total	knucleotide	PIR-LLVM	shootout	2000	1			
1	10	645.723000	ms	total	knucleotide	PIR-LLVM	shootout	2000	1			
1	11	663.688000	ms	total	knucleotide	PIR-LLVM	shootout	2000	1			
1	12	688.061000	ms	total	knucleotide	PIR-LLVM	shootout	2000	1			
1	13	718.282000	ms	total	knucleotide	PIR-LLVM	shootout	2000	1			
1	14	725.116000	ms	total	knucleotide	PIR-LLVM	shootout	2000	1			
1	15	639.327000	ms	total	knucleotide	PIR-LLVM	shootout	2000	1			
1	1	1899.359000	ms	total	fasta_naive_2	PIR-LLVM	shootout	80000	1			
1	2	1208.644000	ms	total	fasta_naive_2	PIR-LLVM	shootout	80000	1			
1	3	1582.068000	ms	total	fasta_naive_2	PIR-LLVM	shootout	80000	1			
1	4	1223.456000	ms	total	fasta_naive_2	PIR-LLVM	shootout	80000	1			
1	5	1212.913000	ms	total	fasta_naive_2	PIR-LLVM	shootout	80000	1			
1	6	1237.190000	ms	total	fasta_naive_2	PIR-LLVM	shootout	80000	1			
1	7	1242.468000	ms	total	fasta_naive_2	PIR-LLVM	shootout	80000	1			
1	8	1198.461000	ms	total	fasta_naive_2	PIR-LLVM	shootout	80000	1			
1	9	1214.582000	ms	total	fasta_naive_2	PIR-LLVM	shootout	80000	1			
1	10	1232.924000	ms	total	fasta_naive_2	PIR-LLVM	shootout	80000	1			
1	11	1211.444000	ms	total	fasta_naive_2	PIR-LLVM	shootout	80000	1			
1	12	1204.865000	ms	total	fasta_naive_2	PIR-LLVM	shootout	80000	1			
1	13	1221.712000	ms	total	fasta_naive_2	PIR-LLVM	shootout	80000	1			
1	14	1235.822000	ms	total	fasta_naive_2	PIR-LLVM	shootout	80000	1			
1	15	1226.488000	ms	total	fasta_naive_2	PIR-LLVM	shootout	80000	1			
1	1	1553.308000	ms	total	fasta_2	PIR-LLVM	shootout	60000	1			
1	2	988.165000	ms	total	fasta_2	PIR-LLVM	shootout	60000	1			
1	3	1202.143000	ms	total	fasta_2	PIR-LLVM	shootout	60000	1			
1	4	1011.574000	ms	total	fasta_2	PIR-LLVM	shootout	60000	1			
1	5	1015.692000	ms	total	fasta_2	PIR-LLVM	shootout	60000	1			
1	6	1010.431000	ms	total	fasta_2	PIR-LLVM	shootout	60000	1			
1	7	1005.949000	ms	total	fasta_2	PIR-LLVM	shootout	60000	1			
1	8	1003.414000	ms	total	fasta_2	PIR-LLVM	shootout	60000	1			
1	9	1005.004000	ms	total	fasta_2	PIR-LLVM	shootout	60000	1			
1	10	1009.706000	ms	total	fasta_2	PIR-LLVM	shootout	60000	1			
1	11	1004.391000	ms	total	fasta_2	PIR-LLVM	shootout	60000	1			
1	12	1006.824000	ms	total	fasta_2	PIR-LLVM	shootout	60000	1			
1	13	1004.273000	ms	total	fasta_2	PIR-LLVM	shootout	60000	1			
1	14	1006.740000	ms	total	fasta_2	PIR-LLVM	shootout	60000	1			
1	15	1016.614000	ms	total	fasta_2	PIR-LLVM	shootout	60000	1			
1	1	3408.218000	ms	total	profiler-rsa	PIR-LLVM	simple_reduced	600000	1			
1	2	3307.093000	ms	total	profiler-rsa	PIR-LLVM	simple_reduced	600000	1			
1	3	3316.241000	ms	total	profiler-rsa	PIR-LLVM	simple_reduced	600000	1			
1	4	3364.033000	ms	total	profiler-rsa	PIR-LLVM	simple_reduced	600000	1			
1	5	3316.406000	ms	total	profiler-rsa	PIR-LLVM	simple_reduced	600000	1			
1	6	3355.534000	ms	total	profiler-rsa	PIR-LLVM	simple_reduced	600000	1			
1	7	3308.466000	ms	total	profiler-rsa	PIR-LLVM	simple_reduced	600000	1			
1	8	3368.333000	ms	total	profiler-rsa	PIR-LLVM	simple_reduced	600000	1			
1	9	3365.861000	ms	total	profiler-rsa	PIR-LLVM	simple_reduced	600000	1			
1	10	3360.423000	ms	total	profiler-rsa	PIR-LLVM	simple_reduced	600000	1			
1	11	3309.503000	ms	total	profiler-rsa	PIR-LLVM	simple_reduced	600000	1			
1	12	3307.313000	ms	total	profiler-rsa	PIR-LLVM	simple_reduced	600000	1			
1	13	3308.373000	ms	total	profiler-rsa	PIR-LLVM	simple_reduced	600000	1			
1	14	3316.600000	ms	total	profiler-rsa	PIR-LLVM	simple_reduced	600000	1			
1	15	3294.438000	ms	total	profiler-rsa	PIR-LLVM	simple_reduced	600000	1			
1	1	2884.821000	ms	total	scalarWhile	PIR-LLVM	simple_reduced	25000000	1			
1	2	2654.403000	ms	total	scalarWhile	PIR-LLVM	simple_reduced	25000000	1			
1	3	1752.216000	ms	total	scalarWhile	PIR-LLVM	simple_reduced	25000000	1			
1	4	1732.647000	ms	total	scalarWhile	PIR-LLVM	simple_reduced	25000000	1			
1	5	1718.889000	ms	total	scalarWhile	PIR-LLVM	simple_reduced	25000000	1			
1	6	1706.249000	ms	total	scalarWhile	PIR-LLVM	simple_reduced	25000000	1			
1	7	1722.015000	ms	total	scalarWhile	PIR-LLVM	simple_reduced	25000000	1			
1	8	1705.320000	ms	total	scalarWhile	PIR-LLVM	simple_reduced	25000000	1			
1	9	1720.785000	ms	total	scalarWhile	PIR-LLVM	simple_reduced	25000000	1			
1	10	1704.424000	ms	total	scalarWhile	PIR-LLVM	simple_reduced	25000000	1			
1	11	1721.608000	ms	total	scalarWhile	PIR-LLVM	simple_reduced	25000000	1			
1	12	1705.434000	ms	total	scalarWhile	PIR-LLVM	simple_reduced	25000000	1			
1	13	1719.390000	ms	total	scalarWhile	PIR-LLVM	simple_reduced	25000000	1			
1	14	1705.523000	ms	total	scalarWhile	PIR-LLVM	simple_reduced	25000000	1			
1	15	1727.602000	ms	total	scalarWhile	PIR-LLVM	simple_reduced	25000000	1			
1	1	219.898000	ms	total	listFor	PIR-LLVM	simple_extra	500000	1			
1	2	109.404000	ms	total	listFor	PIR-LLVM	simple_extra	500000	1			
1	3	112.221000	ms	total	listFor	PIR-LLVM	simple_extra	500000	1			
1	4	79.454000	ms	total	listFor	PIR-LLVM	simple_extra	500000	1			
1	5	75.696000	ms	total	listFor	PIR-LLVM	simple_extra	500000	1			
1	6	75.037000	ms	total	listFor	PIR-LLVM	simple_extra	500000	1			
1	7	92.780000	ms	total	listFor	PIR-LLVM	simple_extra	500000	1			
1	8	59.866000	ms	total	listFor	PIR-LLVM	simple_extra	500000	1			
1	9	85.402000	ms	total	listFor	PIR-LLVM	simple_extra	500000	1			
1	10	67.309000	ms	total	listFor	PIR-LLVM	simple_extra	500000	1			
1	11	86.563000	ms	total	listFor	PIR-LLVM	simple_extra	500000	1			
1	12	107.167000	ms	total	listFor	PIR-LLVM	simple_extra	500000	1			
1	13	61.505000	ms	total	listFor	PIR-LLVM	simple_extra	500000	1			
1	14	86.392000	ms	total	listFor	PIR-LLVM	simple_extra	500000	1			
1	15	79.567000	ms	total	listFor	PIR-LLVM	simple_extra	500000	1			
1	1	3186.354000	ms	total	fannkuchredux	PIR-LLVM	shootout	9	1			
1	2	2863.518000	ms	total	fannkuchredux	PIR-LLVM	shootout	9	1			
1	3	2141.507000	ms	total	fannkuchredux	PIR-LLVM	shootout	9	1			
1	4	2100.116000	ms	total	fannkuchredux	PIR-LLVM	shootout	9	1			
1	5	2107.308000	ms	total	fannkuchredux	PIR-LLVM	shootout	9	1			
1	6	2119.009000	ms	total	fannkuchredux	PIR-LLVM	shootout	9	1			
1	7	2106.394000	ms	total	fannkuchredux	PIR-LLVM	shootout	9	1			
1	8	2101.192000	ms	total	fannkuchredux	PIR-LLVM	shootout	9	1			
1	9	2116.096000	ms	total	fannkuchredux	PIR-LLVM	shootout	9	1			
1	10	2122.630000	ms	total	fannkuchredux	PIR-LLVM	shootout	9	1			
1	11	2109.004000	ms	total	fannkuchredux	PIR-LLVM	shootout	9	1			
1	12	2102.380000	ms	total	fannkuchredux	PIR-LLVM	shootout	9	1			
1	13	2116.992000	ms	total	fannkuchredux	PIR-LLVM	shootout	9	1			
1	14	2115.375000	ms	total	fannkuchredux	PIR-LLVM	shootout	9	1			
1	15	2106.498000	ms	total	fannkuchredux	PIR-LLVM	shootout	9	1			
1	1	17667.317000	ms	total	flexclust_no_s4	PIR-LLVM	real_thing	5	1			
1	2	13221.344000	ms	total	flexclust_no_s4	PIR-LLVM	real_thing	5	1			
1	3	13950.802000	ms	total	flexclust_no_s4	PIR-LLVM	real_thing	5	1			
1	4	12641.160000	ms	total	flexclust_no_s4	PIR-LLVM	real_thing	5	1			
1	5	12144.074000	ms	total	flexclust_no_s4	PIR-LLVM	real_thing	5	1			
1	6	12329.738000	ms	total	flexclust_no_s4	PIR-LLVM	real_thing	5	1			
1	7	12406.512000	ms	total	flexclust_no_s4	PIR-LLVM	real_thing	5	1			
1	8	12207.737000	ms	total	flexclust_no_s4	PIR-LLVM	real_thing	5	1			
1	9	12292.539000	ms	total	flexclust_no_s4	PIR-LLVM	real_thing	5	1			
1	10	12358.737000	ms	total	flexclust_no_s4	PIR-LLVM	real_thing	5	1			
1	11	12261.680000	ms	total	flexclust_no_s4	PIR-LLVM	real_thing	5	1			
1	12	12294.572000	ms	total	flexclust_no_s4	PIR-LLVM	real_thing	5	1			
1	13	12412.975000	ms	total	flexclust_no_s4	PIR-LLVM	real_thing	5	1			
1	14	12275.358000	ms	total	flexclust_no_s4	PIR-LLVM	real_thing	5	1			
1	15	12271.356000	ms	total	flexclust_no_s4	PIR-LLVM	real_thing	5	1			
1	1	2505.124000	ms	total	nbody_naive_2	PIR-LLVM	shootout	20000	1			
1	2	1644.609000	ms	total	nbody_naive_2	PIR-LLVM	shootout	20000	1			
1	3	1309.525000	ms	total	nbody_naive_2	PIR-LLVM	shootout	20000	1			
1	4	1310.339000	ms	total	nbody_naive_2	PIR-LLVM	shootout	20000	1			
1	5	1299.819000	ms	total	nbody_naive_2	PIR-LLVM	shootout	20000	1			
1	6	1306.823000	ms	total	nbody_naive_2	PIR-LLVM	shootout	20000	1			
1	7	1307.322000	ms	total	nbody_naive_2	PIR-LLVM	shootout	20000	1			
1	8	1306.041000	ms	total	nbody_naive_2	PIR-LLVM	shootout	20000	1			
1	9	1580.189000	ms	total	nbody_naive_2	PIR-LLVM	shootout	20000	1			
1	10	1309.479000	ms	total	nbody_naive_2	PIR-LLVM	shootout	20000	1			
1	11	1301.706000	ms	total	nbody_naive_2	PIR-LLVM	shootout	20000	1			
1	12	1309.836000	ms	total	nbody_naive_2	PIR-LLVM	shootout	20000	1			
1	13	1304.571000	ms	total	nbody_naive_2	PIR-LLVM	shootout	20000	1			
1	14	1307.368000	ms	total	nbody_naive_2	PIR-LLVM	shootout	20000	1			
1	15	1311.439000	ms	total	nbody_naive_2	PIR-LLVM	shootout	20000	1			
1	1	506.324000	ms	total	mandelbrot_noout	PIR-LLVM	shootout	400	1			
1	2	333.418000	ms	total	mandelbrot_noout	PIR-LLVM	shootout	400	1			
1	3	80.518000	ms	total	mandelbrot_noout	PIR-LLVM	shootout	400	1			
1	4	73.332000	ms	total	mandelbrot_noout	PIR-LLVM	shootout	400	1			
1	5	74.504000	ms	total	mandelbrot_noout	PIR-LLVM	shootout	400	1			
1	6	73.106000	ms	total	mandelbrot_noout	PIR-LLVM	shootout	400	1			
1	7	73.213000	ms	total	mandelbrot_noout	PIR-LLVM	shootout	400	1			
1	8	73.180000	ms	total	mandelbrot_noout	PIR-LLVM	shootout	400	1			
1	9	74.385000	ms	total	mandelbrot_noout	PIR-LLVM	shootout	400	1			
1	10	81.783000	ms	total	mandelbrot_noout	PIR-LLVM	shootout	400	1			
1	11	73.263000	ms	total	mandelbrot_noout	PIR-LLVM	shootout	400	1			
1	12	73.356000	ms	total	mandelbrot_noout	PIR-LLVM	shootout	400	1			
1	13	73.216000	ms	total	mandelbrot_noout	PIR-LLVM	shootout	400	1			
1	14	74.458000	ms	total	mandelbrot_noout	PIR-LLVM	shootout	400	1			
1	15	73.161000	ms	total	mandelbrot_noout	PIR-LLVM	shootout	400	1			
1	1	1476.799000	ms	total	spectralnorm_naive	PIR-LLVM	shootout	150	1			
1	2	630.383000	ms	total	spectralnorm_naive	PIR-LLVM	shootout	150	1			
1	3	848.088000	ms	total	spectralnorm_naive	PIR-LLVM	shootout	150	1			
1	4	624.510000	ms	total	spectralnorm_naive	PIR-LLVM	shootout	150	1			
1	5	633.887000	ms	total	spectralnorm_naive	PIR-LLVM	shootout	150	1			
1	6	618.958000	ms	total	spectralnorm_naive	PIR-LLVM	shootout	150	1			
1	7	616.947000	ms	total	spectralnorm_naive	PIR-LLVM	shootout	150	1			
1	8	619.792000	ms	total	spectralnorm_naive	PIR-LLVM	shootout	150	1			
1	9	628.902000	ms	total	spectralnorm_naive	PIR-LLVM	shootout	150	1			
1	10	616.856000	ms	total	spectralnorm_naive	PIR-LLVM	shootout	150	1			
1	11	621.332000	ms	total	spectralnorm_naive	PIR-LLVM	shootout	150	1			
1	12	619.994000	ms	total	spectralnorm_naive	PIR-LLVM	shootout	150	1			
1	13	635.796000	ms	total	spectralnorm_naive	PIR-LLVM	shootout	150	1			
1	14	621.499000	ms	total	spectralnorm_naive	PIR-LLVM	shootout	150	1			
1	15	623.033000	ms	total	spectralnorm_naive	PIR-LLVM	shootout	150	1			
1	1	838.962000	ms	total	lapplyDots	PIR-LLVM	simple_reduced	1000000	1			
1	2	919.417000	ms	total	lapplyDots	PIR-LLVM	simple_reduced	1000000	1			
1	3	885.483000	ms	total	lapplyDots	PIR-LLVM	simple_reduced	1000000	1			
1	4	1057.440000	ms	total	lapplyDots	PIR-LLVM	simple_reduced	1000000	1			
1	5	1038.965000	ms	total	lapplyDots	PIR-LLVM	simple_reduced	1000000	1			
1	6	1054.928000	ms	total	lapplyDots	PIR-LLVM	simple_reduced	1000000	1			
1	7	992.896000	ms	total	lapplyDots	PIR-LLVM	simple_reduced	1000000	1			
1	8	1051.152000	ms	total	lapplyDots	PIR-LLVM	simple_reduced	1000000	1			
1	9	1047.491000	ms	total	lapplyDots	PIR-LLVM	simple_reduced	1000000	1			
1	10	1053.642000	ms	total	lapplyDots	PIR-LLVM	simple_reduced	1000000	1			
1	11	1194.083000	ms	total	lapplyDots	PIR-LLVM	simple_reduced	1000000	1			
1	12	1024.530000	ms	total	lapplyDots	PIR-LLVM	simple_reduced	1000000	1			
1	13	1054.961000	ms	total	lapplyDots	PIR-LLVM	simple_reduced	1000000	1			
1	14	1044.302000	ms	total	lapplyDots	PIR-LLVM	simple_reduced	1000000	1			
1	15	1054.183000	ms	total	lapplyDots	PIR-LLVM	simple_reduced	1000000	1			
1	1	2577.478000	ms	total	superWhile	PIR-LLVM	simple_reduced	20000000	1			
1	2	2080.346000	ms	total	superWhile	PIR-LLVM	simple_reduced	20000000	1			
1	3	1991.425000	ms	total	superWhile	PIR-LLVM	simple_reduced	20000000	1			
1	4	1946.560000	ms	total	superWhile	PIR-LLVM	simple_reduced	20000000	1			
1	5	1961.737000	ms	total	superWhile	PIR-LLVM	simple_reduced	20000000	1			
1	6	1947.033000	ms	total	superWhile	PIR-LLVM	simple_reduced	20000000	1			
1	7	1946.939000	ms	total	superWhile	PIR-LLVM	simple_reduced	20000000	1			
1	8	1954.596000	ms	total	superWhile	PIR-LLVM	simple_reduced	20000000	1			
1	9	1951.573000	ms	total	superWhile	PIR-LLVM	simple_reduced	20000000	1			
1	10	1956.965000	ms	total	superWhile	PIR-LLVM	simple_reduced	20000000	1			
1	11	1946.226000	ms	total	superWhile	PIR-LLVM	simple_reduced	20000000	1			
1	12	1947.193000	ms	total	superWhile	PIR-LLVM	simple_reduced	20000000	1			
1	13	1954.179000	ms	total	superWhile	PIR-LLVM	simple_reduced	20000000	1			
1	14	1952.316000	ms	total	superWhile	PIR-LLVM	simple_reduced	20000000	1			
1	15	1956.471000	ms	total	superWhile	PIR-LLVM	simple_reduced	20000000	1			
1	1	435.562000	ms	total	binarytrees_2	PIR-LLVM	shootout	9	1			
1	2	83.499000	ms	total	binarytrees_2	PIR-LLVM	shootout	9	1			
1	3	331.338000	ms	total	binarytrees_2	PIR-LLVM	shootout	9	1			
1	4	81.771000	ms	total	binarytrees_2	PIR-LLVM	shootout	9	1			
1	5	82.554000	ms	total	binarytrees_2	PIR-LLVM	shootout	9	1			
1	6	92.079000	ms	total	binarytrees_2	PIR-LLVM	shootout	9	1			
1	7	151.275000	ms	total	binarytrees_2	PIR-LLVM	shootout	9	1			
1	8	82.377000	ms	total	binarytrees_2	PIR-LLVM	shootout	9	1			
1	9	83.305000	ms	total	binarytrees_2	PIR-LLVM	shootout	9	1			
1	10	83.286000	ms	total	binarytrees_2	PIR-LLVM	shootout	9	1			
1	11	82.141000	ms	total	binarytrees_2	PIR-LLVM	shootout	9	1			
1	12	85.690000	ms	total	binarytrees_2	PIR-LLVM	shootout	9	1			
1	13	82.426000	ms	total	binarytrees_2	PIR-LLVM	shootout	9	1			
1	14	82.603000	ms	total	binarytrees_2	PIR-LLVM	shootout	9	1			
1	15	81.819000	ms	total	binarytrees_2	PIR-LLVM	shootout	9	1			
1	1	2684.667000	ms	total	knucleotide_brute_2	PIR-LLVM	shootout	2000	1			
1	2	2335.066000	ms	total	knucleotide_brute_2	PIR-LLVM	shootout	2000	1			
1	3	3073.207000	ms	total	knucleotide_brute_2	PIR-LLVM	shootout	2000	1			
1	4	2534.729000	ms	total	knucleotide_brute_2	PIR-LLVM	shootout	2000	1			
1	5	2623.125000	ms	total	knucleotide_brute_2	PIR-LLVM	shootout	2000	1			
1	6	2876.083000	ms	total	knucleotide_brute_2	PIR-LLVM	shootout	2000	1			
1	7	3092.997000	ms	total	knucleotide_brute_2	PIR-LLVM	shootout	2000	1			
1	8	2899.004000	ms	total	knucleotide_brute_2	PIR-LLVM	shootout	2000	1			
1	9	3079.509000	ms	total	knucleotide_brute_2	PIR-LLVM	shootout	2000	1			
1	10	3325.758000	ms	total	knucleotide_brute_2	PIR-LLVM	shootout	2000	1			
1	11	3653.290000	ms	total	knucleotide_brute_2	PIR-LLVM	shootout	2000	1			
1	12	3047.813000	ms	total	knucleotide_brute_2	PIR-LLVM	shootout	2000	1			
1	13	2149.082000	ms	total	knucleotide_brute_2	PIR-LLVM	shootout	2000	1			
1	14	2135.052000	ms	total	knucleotide_brute_2	PIR-LLVM	shootout	2000	1			
1	15	2427.387000	ms	total	knucleotide_brute_2	PIR-LLVM	shootout	2000	1			
1	1	1125.462000	ms	total	convolution	PIR-LLVM	real_thing	500	1			
1	2	562.657000	ms	total	convolution	PIR-LLVM	real_thing	500	1			
1	3	633.410000	ms	total	convolution	PIR-LLVM	real_thing	500	1			
1	4	557.590000	ms	total	convolution	PIR-LLVM	real_thing	500	1			
1	5	569.328000	ms	total	convolution	PIR-LLVM	real_thing	500	1			
1	6	558.782000	ms	total	convolution	PIR-LLVM	real_thing	500	1			
1	7	556.705000	ms	total	convolution	PIR-LLVM	real_thing	500	1			
1	8	564.314000	ms	total	convolution	PIR-LLVM	real_thing	500	1			
1	9	560.658000	ms	total	convolution	PIR-LLVM	real_thing	500	1			
1	10	572.679000	ms	total	convolution	PIR-LLVM	real_thing	500	1			
1	11	559.031000	ms	total	convolution	PIR-LLVM	real_thing	500	1			
1	12	555.725000	ms	total	convolution	PIR-LLVM	real_thing	500	1			
1	13	563.694000	ms	total	convolution	PIR-LLVM	real_thing	500	1			
1	14	560.712000	ms	total	convolution	PIR-LLVM	real_thing	500	1			
1	15	566.205000	ms	total	convolution	PIR-LLVM	real_thing	500	1			
1	1	2060.371000	ms	total	spectralnorm_alt_3	PIR-LLVM	shootout	250	1			
1	2	1718.544000	ms	total	spectralnorm_alt_3	PIR-LLVM	shootout	250	1			
1	3	1305.197000	ms	total	spectralnorm_alt_3	PIR-LLVM	shootout	250	1			
1	4	1301.325000	ms	total	spectralnorm_alt_3	PIR-LLVM	shootout	250	1			
1	5	1297.415000	ms	total	spectralnorm_alt_3	PIR-LLVM	shootout	250	1			
1	6	1319.516000	ms	total	spectralnorm_alt_3	PIR-LLVM	shootout	250	1			
1	7	1315.746000	ms	total	spectralnorm_alt_3	PIR-LLVM	shootout	250	1			
1	8	1292.793000	ms	total	spectralnorm_alt_3	PIR-LLVM	shootout	250	1			
1	9	1312.122000	ms	total	spectralnorm_alt_3	PIR-LLVM	shootout	250	1			
1	10	1287.562000	ms	total	spectralnorm_alt_3	PIR-LLVM	shootout	250	1			
1	11	1299.730000	ms	total	spectralnorm_alt_3	PIR-LLVM	shootout	250	1			
1	12	1308.711000	ms	total	spectralnorm_alt_3	PIR-LLVM	shootout	250	1			
1	13	1301.785000	ms	total	spectralnorm_alt_3	PIR-LLVM	shootout	250	1			
1	14	1311.671000	ms	total	spectralnorm_alt_3	PIR-LLVM	shootout	250	1			
1	15	1292.993000	ms	total	spectralnorm_alt_3	PIR-LLVM	shootout	250	1			
1	1	20439.837000	ms	total	flexclust	PIR-LLVM	real_thing	5	1			
1	2	14447.574000	ms	total	flexclust	PIR-LLVM	real_thing	5	1			
1	3	16080.534000	ms	total	flexclust	PIR-LLVM	real_thing	5	1			
1	4	13862.674000	ms	total	flexclust	PIR-LLVM	real_thing	5	1			
1	5	13867.816000	ms	total	flexclust	PIR-LLVM	real_thing	5	1			
1	6	14019.017000	ms	total	flexclust	PIR-LLVM	real_thing	5	1			
1	7	13975.559000	ms	total	flexclust	PIR-LLVM	real_thing	5	1			
1	8	13847.009000	ms	total	flexclust	PIR-LLVM	real_thing	5	1			
1	9	13980.395000	ms	total	flexclust	PIR-LLVM	real_thing	5	1			
1	10	13850.988000	ms	total	flexclust	PIR-LLVM	real_thing	5	1			
1	11	13788.136000	ms	total	flexclust	PIR-LLVM	real_thing	5	1			
1	12	13740.394000	ms	total	flexclust	PIR-LLVM	real_thing	5	1			
1	13	13949.486000	ms	total	flexclust	PIR-LLVM	real_thing	5	1			
1	14	13714.996000	ms	total	flexclust	PIR-LLVM	real_thing	5	1			
1	15	13800.795000	ms	total	flexclust	PIR-LLVM	real_thing	5	1			
1	1	3185.444000	ms	total	spectralnorm_math	PIR-LLVM	shootout	1200	1			
1	2	3108.953000	ms	total	spectralnorm_math	PIR-LLVM	shootout	1200	1			
1	3	3745.197000	ms	total	spectralnorm_math	PIR-LLVM	shootout	1200	1			
1	4	3019.140000	ms	total	spectralnorm_math	PIR-LLVM	shootout	1200	1			
1	5	3022.645000	ms	total	spectralnorm_math	PIR-LLVM	shootout	1200	1			
1	6	3026.441000	ms	total	spectralnorm_math	PIR-LLVM	shootout	1200	1			
1	7	3013.346000	ms	total	spectralnorm_math	PIR-LLVM	shootout	1200	1			
1	8	3038.013000	ms	total	spectralnorm_math	PIR-LLVM	shootout	1200	1			
1	9	3015.290000	ms	total	spectralnorm_math	PIR-LLVM	shootout	1200	1			
1	10	3016.817000	ms	total	spectralnorm_math	PIR-LLVM	shootout	1200	1			
1	11	3027.126000	ms	total	spectralnorm_math	PIR-LLVM	shootout	1200	1			
1	12	3009.728000	ms	total	spectralnorm_math	PIR-LLVM	shootout	1200	1			
1	13	3017.624000	ms	total	spectralnorm_math	PIR-LLVM	shootout	1200	1			
1	14	3008.298000	ms	total	spectralnorm_math	PIR-LLVM	shootout	1200	1			
1	15	3004.350000	ms	total	spectralnorm_math	PIR-LLVM	shootout	1200	1			
1	1	3687.136000	ms	total	knucleotide_brute	PIR-LLVM	shootout	2000	1			
1	2	3494.847000	ms	total	knucleotide_brute	PIR-LLVM	shootout	2000	1			
1	3	3901.839000	ms	total	knucleotide_brute	PIR-LLVM	shootout	2000	1			
1	4	3836.402000	ms	total	knucleotide_brute	PIR-LLVM	shootout	2000	1			
1	5	3800.086000	ms	total	knucleotide_brute	PIR-LLVM	shootout	2000	1			
1	6	4034.920000	ms	total	knucleotide_brute	PIR-LLVM	shootout	2000	1			
1	7	4122.901000	ms	total	knucleotide_brute	PIR-LLVM	shootout	2000	1			
1	8	4109.059000	ms	total	knucleotide_brute	PIR-LLVM	shootout	2000	1			
1	9	4241.007000	ms	total	knucleotide_brute	PIR-LLVM	shootout	2000	1			
1	10	4241.155000	ms	total	knucleotide_brute	PIR-LLVM	shootout	2000	1			
1	11	4264.843000	ms	total	knucleotide_brute	PIR-LLVM	shootout	2000	1			
1	12	4327.688000	ms	total	knucleotide_brute	PIR-LLVM	shootout	2000	1			
1	13	4305.056000	ms	total	knucleotide_brute	PIR-LLVM	shootout	2000	1			
1	14	4286.803000	ms	total	knucleotide_brute	PIR-LLVM	shootout	2000	1			
1	15	4327.639000	ms	total	knucleotide_brute	PIR-LLVM	shootout	2000	1			
1	1	1409.062000	ms	total	fastaredux	PIR-LLVM	shootout	80000	1			
1	2	625.766000	ms	total	fastaredux	PIR-LLVM	shootout	80000	1			
1	3	841.821000	ms	total	fastaredux	PIR-LLVM	shootout	80000	1			
1	4	629.263000	ms	total	fastaredux	PIR-LLVM	shootout	80000	1			
1	5	623.659000	ms	total	fastaredux	PIR-LLVM	shootout	80000	1			
1	6	632.011000	ms	total	fastaredux	PIR-LLVM	shootout	80000	1			
1	7	630.113000	ms	total	fastaredux	PIR-LLVM	shootout	80000	1			
1	8	642.333000	ms	total	fastaredux	PIR-LLVM	shootout	80000	1			
1	9	635.102000	ms	total	fastaredux	PIR-LLVM	shootout	80000	1			
1	10	634.053000	ms	total	fastaredux	PIR-LLVM	shootout	80000	1			
1	11	647.287000	ms	total	fastaredux	PIR-LLVM	shootout	80000	1			
1	12	633.930000	ms	total	fastaredux	PIR-LLVM	shootout	80000	1			
1	13	645.699000	ms	total	fastaredux	PIR-LLVM	shootout	80000	1			
1	14	637.355000	ms	total	fastaredux	PIR-LLVM	shootout	80000	1			
1	15	648.852000	ms	total	fastaredux	PIR-LLVM	shootout	80000	1			
1	1	1865.012000	ms	total	fasta	PIR-LLVM	shootout	60000	1			
1	2	1073.292000	ms	total	fasta	PIR-LLVM	shootout	60000	1			
1	3	1278.790000	ms	total	fasta	PIR-LLVM	shootout	60000	1			
1	4	1069.396000	ms	total	fasta	PIR-LLVM	shootout	60000	1			
1	5	1079.859000	ms	total	fasta	PIR-LLVM	shootout	60000	1			
1	6	1070.176000	ms	total	fasta	PIR-LLVM	shootout	60000	1			
1	7	1070.296000	ms	total	fasta	PIR-LLVM	shootout	60000	1			
1	8	1070.399000	ms	total	fasta	PIR-LLVM	shootout	60000	1			
1	9	1081.496000	ms	total	fasta	PIR-LLVM	shootout	60000	1			
1	10	1087.039000	ms	total	fasta	PIR-LLVM	shootout	60000	1			
1	11	1080.044000	ms	total	fasta	PIR-LLVM	shootout	60000	1			
1	12	1087.131000	ms	total	fasta	PIR-LLVM	shootout	60000	1			
1	13	1087.921000	ms	total	fasta	PIR-LLVM	shootout	60000	1			
1	14	1101.993000	ms	total	fasta	PIR-LLVM	shootout	60000	1			
1	15	1081.106000	ms	total	fasta	PIR-LLVM	shootout	60000	1			
1	1	3714.043000	ms	total	emptyFor	PIR-LLVM	simple_reduced	100000000	1			
1	2	81.120000	ms	total	emptyFor	PIR-LLVM	simple_reduced	100000000	1			
1	3	738.695000	ms	total	emptyFor	PIR-LLVM	simple_reduced	100000000	1			
1	4	716.484000	ms	total	emptyFor	PIR-LLVM	simple_reduced	100000000	1			
1	5	720.443000	ms	total	emptyFor	PIR-LLVM	simple_reduced	100000000	1			
1	6	713.444000	ms	total	emptyFor	PIR-LLVM	simple_reduced	100000000	1			
1	7	723.775000	ms	total	emptyFor	PIR-LLVM	simple_reduced	100000000	1			
1	8	714.777000	ms	total	emptyFor	PIR-LLVM	simple_reduced	100000000	1			
1	9	711.478000	ms	total	emptyFor	PIR-LLVM	simple_reduced	100000000	1			
1	10	717.865000	ms	total	emptyFor	PIR-LLVM	simple_reduced	100000000	1			
1	11	720.206000	ms	total	emptyFor	PIR-LLVM	simple_reduced	100000000	1			
1	12	717.971000	ms	total	emptyFor	PIR-LLVM	simple_reduced	100000000	1			
1	13	719.269000	ms	total	emptyFor	PIR-LLVM	simple_reduced	100000000	1			
1	14	722.696000	ms	total	emptyFor	PIR-LLVM	simple_reduced	100000000	1			
1	15	721.561000	ms	total	emptyFor	PIR-LLVM	simple_reduced	100000000	1			
1	1	2761.513000	ms	total	emptyWhile	PIR-LLVM	simple_reduced	30000000	1			
1	2	3288.139000	ms	total	emptyWhile	PIR-LLVM	simple_reduced	30000000	1			
1	3	1666.437000	ms	total	emptyWhile	PIR-LLVM	simple_reduced	30000000	1			
1	4	1651.002000	ms	total	emptyWhile	PIR-LLVM	simple_reduced	30000000	1			
1	5	1652.277000	ms	total	emptyWhile	PIR-LLVM	simple_reduced	30000000	1			
1	6	1640.044000	ms	total	emptyWhile	PIR-LLVM	simple_reduced	30000000	1			
1	7	1644.916000	ms	total	emptyWhile	PIR-LLVM	simple_reduced	30000000	1			
1	8	1640.132000	ms	total	emptyWhile	PIR-LLVM	simple_reduced	30000000	1			
1	9	1647.184000	ms	total	emptyWhile	PIR-LLVM	simple_reduced	30000000	1			
1	10	1651.662000	ms	total	emptyWhile	PIR-LLVM	simple_reduced	30000000	1			
1	11	1644.254000	ms	total	emptyWhile	PIR-LLVM	simple_reduced	30000000	1			
1	12	1650.381000	ms	total	emptyWhile	PIR-LLVM	simple_reduced	30000000	1			
1	13	1639.479000	ms	total	emptyWhile	PIR-LLVM	simple_reduced	30000000	1			
1	14	1647.572000	ms	total	emptyWhile	PIR-LLVM	simple_reduced	30000000	1			
1	15	1645.568000	ms	total	emptyWhile	PIR-LLVM	simple_reduced	30000000	1			
1	1	847.446000	ms	total	convolution_v	PIR-LLVM	real_thing	1000	1			
1	2	330.973000	ms	total	convolution_v	PIR-LLVM	real_thing	1000	1			
1	3	376.982000	ms	total	convolution_v	PIR-LLVM	real_thing	1000	1			
1	4	342.182000	ms	total	convolution_v	PIR-LLVM	real_thing	1000	1			
1	5	328.981000	ms	total	convolution_v	PIR-LLVM	real_thing	1000	1			
1	6	278.642000	ms	total	convolution_v	PIR-LLVM	real_thing	1000	1			
1	7	317.334000	ms	total	convolution_v	PIR-LLVM	real_thing	1000	1			
1	8	321.949000	ms	total	convolution_v	PIR-LLVM	real_thing	1000	1			
1	9	291.563000	ms	total	convolution_v	PIR-LLVM	real_thing	1000	1			
1	10	331.550000	ms	total	convolution_v	PIR-LLVM	real_thing	1000	1			
1	11	331.400000	ms	total	convolution_v	PIR-LLVM	real_thing	1000	1			
1	12	310.421000	ms	total	convolution_v	PIR-LLVM	real_thing	1000	1			
1	13	329.015000	ms	total	convolution_v	PIR-LLVM	real_thing	1000	1			
1	14	312.254000	ms	total	convolution_v	PIR-LLVM	real_thing	1000	1			
1	15	326.882000	ms	total	convolution_v	PIR-LLVM	real_thing	1000	1			
1	1	627.030000	ms	total	reversecomplement_naive	PIR-LLVM	shootout	50000	1			
1	2	543.906000	ms	total	reversecomplement_naive	PIR-LLVM	shootout	50000	1			
1	3	375.671000	ms	total	reversecomplement_naive	PIR-LLVM	shootout	50000	1			
1	4	366.693000	ms	total	reversecomplement_naive	PIR-LLVM	shootout	50000	1			
1	5	364.881000	ms	total	reversecomplement_naive	PIR-LLVM	shootout	50000	1			
1	6	363.572000	ms	total	reversecomplement_naive	PIR-LLVM	shootout	50000	1			
1	7	365.967000	ms	total	reversecomplement_naive	PIR-LLVM	shootout	50000	1			
1	8	363.073000	ms	total	reversecomplement_naive	PIR-LLVM	shootout	50000	1			
1	9	362.826000	ms	total	reversecomplement_naive	PIR-LLVM	shootout	50000	1			
1	10	372.269000	ms	total	reversecomplement_naive	PIR-LLVM	shootout	50000	1			
1	11	360.217000	ms	total	reversecomplement_naive	PIR-LLVM	shootout	50000	1			
1	12	360.136000	ms	total	reversecomplement_naive	PIR-LLVM	shootout	50000	1			
1	13	363.331000	ms	total	reversecomplement_naive	PIR-LLVM	shootout	50000	1			
1	14	360.680000	ms	total	reversecomplement_naive	PIR-LLVM	shootout	50000	1			
1	15	359.965000	ms	total	reversecomplement_naive	PIR-LLVM	shootout	50000	1			
1	1	177.790000	ms	total	listWhile	PIR-LLVM	simple_extra	500000	1			
1	2	135.704000	ms	total	listWhile	PIR-LLVM	simple_extra	500000	1			
1	3	118.575000	ms	total	listWhile	PIR-LLVM	simple_extra	500000	1			
1	4	78.637000	ms	total	listWhile	PIR-LLVM	simple_extra	500000	1			
1	5	89.329000	ms	total	listWhile	PIR-LLVM	simple_extra	500000	1			
1	6	81.692000	ms	total	listWhile	PIR-LLVM	simple_extra	500000	1			
1	7	75.231000	ms	total	listWhile	PIR-LLVM	simple_extra	500000	1			
1	8	80.172000	ms	total	listWhile	PIR-LLVM	simple_extra	500000	1			
1	9	75.552000	ms	total	listWhile	PIR-LLVM	simple_extra	500000	1			
1	10	76.865000	ms	total	listWhile	PIR-LLVM	simple_extra	500000	1			
1	11	76.420000	ms	total	listWhile	PIR-LLVM	simple_extra	500000	1			
1	12	79.192000	ms	total	listWhile	PIR-LLVM	simple_extra	500000	1			
1	13	78.176000	ms	total	listWhile	PIR-LLVM	simple_extra	500000	1			
1	14	74.865000	ms	total	listWhile	PIR-LLVM	simple_extra	500000	1			
1	15	76.973000	ms	total	listWhile	PIR-LLVM	simple_extra	500000	1			
1	1	1354.974000	ms	total	nbody	PIR-LLVM	shootout	25000	1			
1	2	1275.367000	ms	total	nbody	PIR-LLVM	shootout	25000	1			
1	3	838.236000	ms	total	nbody	PIR-LLVM	shootout	25000	1			
1	4	828.627000	ms	total	nbody	PIR-LLVM	shootout	25000	1			
1	5	842.088000	ms	total	nbody	PIR-LLVM	shootout	25000	1			
1	6	822.656000	ms	total	nbody	PIR-LLVM	shootout	25000	1			
1	7	823.310000	ms	total	nbody	PIR-LLVM	shootout	25000	1			
1	8	818.420000	ms	total	nbody	PIR-LLVM	shootout	25000	1			
1	9	816.936000	ms	total	nbody	PIR-LLVM	shootout	25000	1			
1	10	832.432000	ms	total	nbody	PIR-LLVM	shootout	25000	1			
1	11	818.802000	ms	total	nbody	PIR-LLVM	shootout	25000	1			
1	12	829.056000	ms	total	nbody	PIR-LLVM	shootout	25000	1			
1	13	821.605000	ms	total	nbody	PIR-LLVM	shootout	25000	1			
1	14	821.866000	ms	total	nbody	PIR-LLVM	shootout	25000	1			
1	15	833.923000	ms	total	nbody	PIR-LLVM	shootout	25000	1			
1	1	505.003000	ms	total	matrixFor	PIR-LLVM	simple_reduced	2000	1			
1	2	315.391000	ms	total	matrixFor	PIR-LLVM	simple_reduced	2000	1			
1	3	238.386000	ms	total	matrixFor	PIR-LLVM	simple_reduced	2000	1			
1	4	136.342000	ms	total	matrixFor	PIR-LLVM	simple_reduced	2000	1			
1	5	140.670000	ms	total	matrixFor	PIR-LLVM	simple_reduced	2000	1			
1	6	136.415000	ms	total	matrixFor	PIR-LLVM	simple_reduced	2000	1			
1	7	137.093000	ms	total	matrixFor	PIR-LLVM	simple_reduced	2000	1			
1	8	136.112000	ms	total	matrixFor	PIR-LLVM	simple_reduced	2000	1			
1	9	136.610000	ms	total	matrixFor	PIR-LLVM	simple_reduced	2000	1			
1	10	137.066000	ms	total	matrixFor	PIR-LLVM	simple_reduced	2000	1			
1	11	136.977000	ms	total	matrixFor	PIR-LLVM	simple_reduced	2000	1			
1	12	136.681000	ms	total	matrixFor	PIR-LLVM	simple_reduced	2000	1			
1	13	136.081000	ms	total	matrixFor	PIR-LLVM	simple_reduced	2000	1			
1	14	136.640000	ms	total	matrixFor	PIR-LLVM	simple_reduced	2000	1			
1	15	136.724000	ms	total	matrixFor	PIR-LLVM	simple_reduced	2000	1			
1	1	1437.300000	ms	total	regexdna	PIR-LLVM	shootout	500000	1			
1	2	1374.670000	ms	total	regexdna	PIR-LLVM	shootout	500000	1			
1	3	1599.277000	ms	total	regexdna	PIR-LLVM	shootout	500000	1			
1	4	1369.946000	ms	total	regexdna	PIR-LLVM	shootout	500000	1			
1	5	1400.555000	ms	total	regexdna	PIR-LLVM	shootout	500000	1			
1	6	1364.721000	ms	total	regexdna	PIR-LLVM	shootout	500000	1			
1	7	1377.990000	ms	total	regexdna	PIR-LLVM	shootout	500000	1			
1	8	1400.497000	ms	total	regexdna	PIR-LLVM	shootout	500000	1			
1	9	1363.907000	ms	total	regexdna	PIR-LLVM	shootout	500000	1			
1	10	1436.440000	ms	total	regexdna	PIR-LLVM	shootout	500000	1			
1	11	1365.422000	ms	total	regexdna	PIR-LLVM	shootout	500000	1			
1	12	1392.699000	ms	total	regexdna	PIR-LLVM	shootout	500000	1			
1	13	1362.993000	ms	total	regexdna	PIR-LLVM	shootout	500000	1			
1	14	1374.043000	ms	total	regexdna	PIR-LLVM	shootout	500000	1			
1	15	1388.867000	ms	total	regexdna	PIR-LLVM	shootout	500000	1			
1	1	4792.815000	ms	total	convolution_slow	PIR-LLVM	real_thing	1500	1			
1	2	4165.735000	ms	total	convolution_slow	PIR-LLVM	real_thing	1500	1			
1	3	4235.857000	ms	total	convolution_slow	PIR-LLVM	real_thing	1500	1			
1	4	4168.341000	ms	total	convolution_slow	PIR-LLVM	real_thing	1500	1			
1	5	4163.172000	ms	total	convolution_slow	PIR-LLVM	real_thing	1500	1			
1	6	4164.072000	ms	total	convolution_slow	PIR-LLVM	real_thing	1500	1			
1	7	4168.559000	ms	total	convolution_slow	PIR-LLVM	real_thing	1500	1			
1	8	4162.784000	ms	total	convolution_slow	PIR-LLVM	real_thing	1500	1			
1	9	4160.857000	ms	total	convolution_slow	PIR-LLVM	real_thing	1500	1			
1	10	4178.956000	ms	total	convolution_slow	PIR-LLVM	real_thing	1500	1			
1	11	4171.530000	ms	total	convolution_slow	PIR-LLVM	real_thing	1500	1			
1	12	4168.353000	ms	total	convolution_slow	PIR-LLVM	real_thing	1500	1			
1	13	4167.496000	ms	total	convolution_slow	PIR-LLVM	real_thing	1500	1			
1	14	4166.074000	ms	total	convolution_slow	PIR-LLVM	real_thing	1500	1			
1	15	4160.195000	ms	total	convolution_slow	PIR-LLVM	real_thing	1500	1			
1	1	2120.929000	ms	total	fasta_3	PIR-LLVM	shootout	60000	1			
1	2	1120.159000	ms	total	fasta_3	PIR-LLVM	shootout	60000	1			
1	3	1331.719000	ms	total	fasta_3	PIR-LLVM	shootout	60000	1			
1	4	1121.870000	ms	total	fasta_3	PIR-LLVM	shootout	60000	1			
1	5	1123.807000	ms	total	fasta_3	PIR-LLVM	shootout	60000	1			
1	6	1124.120000	ms	total	fasta_3	PIR-LLVM	shootout	60000	1			
1	7	1119.730000	ms	total	fasta_3	PIR-LLVM	shootout	60000	1			
1	8	1122.062000	ms	total	fasta_3	PIR-LLVM	shootout	60000	1			
1	9	1122.962000	ms	total	fasta_3	PIR-LLVM	shootout	60000	1			
1	10	1130.904000	ms	total	fasta_3	PIR-LLVM	shootout	60000	1			
1	11	1129.929000	ms	total	fasta_3	PIR-LLVM	shootout	60000	1			
1	12	1124.666000	ms	total	fasta_3	PIR-LLVM	shootout	60000	1			
1	13	1125.725000	ms	total	fasta_3	PIR-LLVM	shootout	60000	1			
1	14	1130.431000	ms	total	fasta_3	PIR-LLVM	shootout	60000	1			
1	15	1138.453000	ms	total	fasta_3	PIR-LLVM	shootout	60000	1			
1	1	257.699000	ms	total	spectralnorm_alt	PIR-LLVM	shootout	1500	1			
1	2	209.971000	ms	total	spectralnorm_alt	PIR-LLVM	shootout	1500	1			
1	3	589.251000	ms	total	spectralnorm_alt	PIR-LLVM	shootout	1500	1			
1	4	199.741000	ms	total	spectralnorm_alt	PIR-LLVM	shootout	1500	1			
1	5	187.443000	ms	total	spectralnorm_alt	PIR-LLVM	shootout	1500	1			
1	6	203.954000	ms	total	spectralnorm_alt	PIR-LLVM	shootout	1500	1			
1	7	192.021000	ms	total	spectralnorm_alt	PIR-LLVM	shootout	1500	1			
1	8	176.708000	ms	total	spectralnorm_alt	PIR-LLVM	shootout	1500	1			
1	9	177.176000	ms	total	spectralnorm_alt	PIR-LLVM	shootout	1500	1			
1	10	187.941000	ms	total	spectralnorm_alt	PIR-LLVM	shootout	1500	1			
1	11	174.787000	ms	total	spectralnorm_alt	PIR-LLVM	shootout	1500	1			
1	12	184.985000	ms	total	spectralnorm_alt	PIR-LLVM	shootout	1500	1			
1	13	182.705000	ms	total	spectralnorm_alt	PIR-LLVM	shootout	1500	1			
1	14	191.827000	ms	total	spectralnorm_alt	PIR-LLVM	shootout	1500	1			
1	15	176.858000	ms	total	spectralnorm_alt	PIR-LLVM	shootout	1500	1			
