#!/usr/local/bin/rebench rebench.conf e:PIR-LLVM -df /builds/rirvm/rir_mirror/benchmarks.data -R
# Execution Start: 2022-05-05T08:05:11.132695+00:00
# Environment: {"userName": "root", "manualRun": false, "hostName": "runner-8zkb9w1v-project-10979413-concurrent-0", "osType": "Linux", "memory": 33399554048, "denoise": {}, "cpu": "Intel(R) Core(TM) i7-6700K CPU @ 4.00GHz", "clockSpeed": 4000000000, "software": [{"name": "kernel", "version": "#157-Ubuntu SMP Fri Jul 9 23:07:57 UTC 2021"}, {"name": "kernel-release", "version": "4.15.0-151-generic"}, {"name": "architecture", "version": "x86_64"}]}
# Source: {"repoURL": null, "branchOrTag": null, "commitId": null, "commitMsg": null, "authorName": null, "committerName": null, "authorEmail": null, "committerEmail": null}
1	1	1991.708000	ms	total	fastaredux	PIR-LLVM	shootout	80000	1			
1	2	1319.795000	ms	total	fastaredux	PIR-LLVM	shootout	80000	1			
1	3	915.579000	ms	total	fastaredux	PIR-LLVM	shootout	80000	1			
1	4	385.064000	ms	total	fastaredux	PIR-LLVM	shootout	80000	1			
1	5	404.079000	ms	total	fastaredux	PIR-LLVM	shootout	80000	1			
1	6	381.984000	ms	total	fastaredux	PIR-LLVM	shootout	80000	1			
1	7	386.832000	ms	total	fastaredux	PIR-LLVM	shootout	80000	1			
1	8	385.140000	ms	total	fastaredux	PIR-LLVM	shootout	80000	1			
1	9	389.610000	ms	total	fastaredux	PIR-LLVM	shootout	80000	1			
1	10	390.295000	ms	total	fastaredux	PIR-LLVM	shootout	80000	1			
1	11	395.747000	ms	total	fastaredux	PIR-LLVM	shootout	80000	1			
1	12	391.609000	ms	total	fastaredux	PIR-LLVM	shootout	80000	1			
1	13	388.795000	ms	total	fastaredux	PIR-LLVM	shootout	80000	1			
1	14	391.962000	ms	total	fastaredux	PIR-LLVM	shootout	80000	1			
1	15	392.428000	ms	total	fastaredux	PIR-LLVM	shootout	80000	1			
1	1	1971.107000	ms	total	fannkuchredux	PIR-LLVM	shootout	9	1			
1	2	1738.595000	ms	total	fannkuchredux	PIR-LLVM	shootout	9	1			
1	3	826.573000	ms	total	fannkuchredux	PIR-LLVM	shootout	9	1			
1	4	753.019000	ms	total	fannkuchredux	PIR-LLVM	shootout	9	1			
1	5	760.572000	ms	total	fannkuchredux	PIR-LLVM	shootout	9	1			
1	6	771.038000	ms	total	fannkuchredux	PIR-LLVM	shootout	9	1			
1	7	763.598000	ms	total	fannkuchredux	PIR-LLVM	shootout	9	1			
1	8	763.618000	ms	total	fannkuchredux	PIR-LLVM	shootout	9	1			
1	9	772.331000	ms	total	fannkuchredux	PIR-LLVM	shootout	9	1			
1	10	753.261000	ms	total	fannkuchredux	PIR-LLVM	shootout	9	1			
1	11	754.458000	ms	total	fannkuchredux	PIR-LLVM	shootout	9	1			
1	12	778.379000	ms	total	fannkuchredux	PIR-LLVM	shootout	9	1			
1	13	753.920000	ms	total	fannkuchredux	PIR-LLVM	shootout	9	1			
1	14	762.549000	ms	total	fannkuchredux	PIR-LLVM	shootout	9	1			
1	15	762.418000	ms	total	fannkuchredux	PIR-LLVM	shootout	9	1			
1	1	7410.512000	ms	total	nbody_naive	PIR-LLVM	shootout	20000	1			
1	2	611.061000	ms	total	nbody_naive	PIR-LLVM	shootout	20000	1			
1	3	446.709000	ms	total	nbody_naive	PIR-LLVM	shootout	20000	1			
1	4	271.995000	ms	total	nbody_naive	PIR-LLVM	shootout	20000	1			
1	5	798.208000	ms	total	nbody_naive	PIR-LLVM	shootout	20000	1			
1	6	712.815000	ms	total	nbody_naive	PIR-LLVM	shootout	20000	1			
1	7	269.453000	ms	total	nbody_naive	PIR-LLVM	shootout	20000	1			
1	8	277.932000	ms	total	nbody_naive	PIR-LLVM	shootout	20000	1			
1	9	269.876000	ms	total	nbody_naive	PIR-LLVM	shootout	20000	1			
1	10	269.959000	ms	total	nbody_naive	PIR-LLVM	shootout	20000	1			
1	11	268.361000	ms	total	nbody_naive	PIR-LLVM	shootout	20000	1			
1	12	270.278000	ms	total	nbody_naive	PIR-LLVM	shootout	20000	1			
1	13	269.790000	ms	total	nbody_naive	PIR-LLVM	shootout	20000	1			
1	14	271.752000	ms	total	nbody_naive	PIR-LLVM	shootout	20000	1			
1	15	272.448000	ms	total	nbody_naive	PIR-LLVM	shootout	20000	1			
1	1	962.722000	ms	total	convolution_v	PIR-LLVM	real_thing	1000	1			
1	2	337.097000	ms	total	convolution_v	PIR-LLVM	real_thing	1000	1			
1	3	686.510000	ms	total	convolution_v	PIR-LLVM	real_thing	1000	1			
1	4	272.780000	ms	total	convolution_v	PIR-LLVM	real_thing	1000	1			
1	5	287.258000	ms	total	convolution_v	PIR-LLVM	real_thing	1000	1			
1	6	267.260000	ms	total	convolution_v	PIR-LLVM	real_thing	1000	1			
1	7	278.505000	ms	total	convolution_v	PIR-LLVM	real_thing	1000	1			
1	8	298.403000	ms	total	convolution_v	PIR-LLVM	real_thing	1000	1			
1	9	258.164000	ms	total	convolution_v	PIR-LLVM	real_thing	1000	1			
1	10	273.678000	ms	total	convolution_v	PIR-LLVM	real_thing	1000	1			
1	11	257.449000	ms	total	convolution_v	PIR-LLVM	real_thing	1000	1			
1	12	320.168000	ms	total	convolution_v	PIR-LLVM	real_thing	1000	1			
1	13	287.295000	ms	total	convolution_v	PIR-LLVM	real_thing	1000	1			
1	14	298.604000	ms	total	convolution_v	PIR-LLVM	real_thing	1000	1			
1	15	278.828000	ms	total	convolution_v	PIR-LLVM	real_thing	1000	1			
1	1	1165.158000	ms	total	binarytrees_2	PIR-LLVM	shootout	9	1			
1	2	2500.813000	ms	total	binarytrees_2	PIR-LLVM	shootout	9	1			
1	3	2799.437000	ms	total	binarytrees_2	PIR-LLVM	shootout	9	1			
1	4	1532.677000	ms	total	binarytrees_2	PIR-LLVM	shootout	9	1			
1	5	70.941000	ms	total	binarytrees_2	PIR-LLVM	shootout	9	1			
1	6	208.985000	ms	total	binarytrees_2	PIR-LLVM	shootout	9	1			
1	7	71.705000	ms	total	binarytrees_2	PIR-LLVM	shootout	9	1			
1	8	72.049000	ms	total	binarytrees_2	PIR-LLVM	shootout	9	1			
1	9	71.298000	ms	total	binarytrees_2	PIR-LLVM	shootout	9	1			
1	10	72.245000	ms	total	binarytrees_2	PIR-LLVM	shootout	9	1			
1	11	71.393000	ms	total	binarytrees_2	PIR-LLVM	shootout	9	1			
1	12	74.394000	ms	total	binarytrees_2	PIR-LLVM	shootout	9	1			
1	13	71.923000	ms	total	binarytrees_2	PIR-LLVM	shootout	9	1			
1	14	71.654000	ms	total	binarytrees_2	PIR-LLVM	shootout	9	1			
1	15	70.901000	ms	total	binarytrees_2	PIR-LLVM	shootout	9	1			
1	1	966.344000	ms	total	reversecomplement_naive	PIR-LLVM	shootout	50000	1			
1	2	906.722000	ms	total	reversecomplement_naive	PIR-LLVM	shootout	50000	1			
1	3	915.425000	ms	total	reversecomplement_naive	PIR-LLVM	shootout	50000	1			
1	4	344.490000	ms	total	reversecomplement_naive	PIR-LLVM	shootout	50000	1			
1	5	343.926000	ms	total	reversecomplement_naive	PIR-LLVM	shootout	50000	1			
1	6	347.545000	ms	total	reversecomplement_naive	PIR-LLVM	shootout	50000	1			
1	7	343.459000	ms	total	reversecomplement_naive	PIR-LLVM	shootout	50000	1			
1	8	355.745000	ms	total	reversecomplement_naive	PIR-LLVM	shootout	50000	1			
1	9	339.151000	ms	total	reversecomplement_naive	PIR-LLVM	shootout	50000	1			
1	10	340.514000	ms	total	reversecomplement_naive	PIR-LLVM	shootout	50000	1			
1	11	343.810000	ms	total	reversecomplement_naive	PIR-LLVM	shootout	50000	1			
1	12	340.106000	ms	total	reversecomplement_naive	PIR-LLVM	shootout	50000	1			
1	13	342.903000	ms	total	reversecomplement_naive	PIR-LLVM	shootout	50000	1			
1	14	342.370000	ms	total	reversecomplement_naive	PIR-LLVM	shootout	50000	1			
1	15	340.619000	ms	total	reversecomplement_naive	PIR-LLVM	shootout	50000	1			
1	1	1621.826000	ms	total	spectralnorm_alt_2	PIR-LLVM	shootout	1200	1			
1	2	1274.191000	ms	total	spectralnorm_alt_2	PIR-LLVM	shootout	1200	1			
1	3	1991.917000	ms	total	spectralnorm_alt_2	PIR-LLVM	shootout	1200	1			
1	4	968.116000	ms	total	spectralnorm_alt_2	PIR-LLVM	shootout	1200	1			
1	5	958.718000	ms	total	spectralnorm_alt_2	PIR-LLVM	shootout	1200	1			
1	6	951.577000	ms	total	spectralnorm_alt_2	PIR-LLVM	shootout	1200	1			
1	7	980.356000	ms	total	spectralnorm_alt_2	PIR-LLVM	shootout	1200	1			
1	8	947.635000	ms	total	spectralnorm_alt_2	PIR-LLVM	shootout	1200	1			
1	9	991.888000	ms	total	spectralnorm_alt_2	PIR-LLVM	shootout	1200	1			
1	10	968.850000	ms	total	spectralnorm_alt_2	PIR-LLVM	shootout	1200	1			
1	11	1008.882000	ms	total	spectralnorm_alt_2	PIR-LLVM	shootout	1200	1			
1	12	991.619000	ms	total	spectralnorm_alt_2	PIR-LLVM	shootout	1200	1			
1	13	974.507000	ms	total	spectralnorm_alt_2	PIR-LLVM	shootout	1200	1			
1	14	946.839000	ms	total	spectralnorm_alt_2	PIR-LLVM	shootout	1200	1			
1	15	1005.225000	ms	total	spectralnorm_alt_2	PIR-LLVM	shootout	1200	1			
1	1	4868.466000	ms	total	Mandelbrot	PIR-LLVM	are-we-fast-r	500	1			
1	2	914.761000	ms	total	Mandelbrot	PIR-LLVM	are-we-fast-r	500	1			
1	3	421.265000	ms	total	Mandelbrot	PIR-LLVM	are-we-fast-r	500	1			
1	4	467.648000	ms	total	Mandelbrot	PIR-LLVM	are-we-fast-r	500	1			
1	5	64.455000	ms	total	Mandelbrot	PIR-LLVM	are-we-fast-r	500	1			
1	6	65.420000	ms	total	Mandelbrot	PIR-LLVM	are-we-fast-r	500	1			
1	7	64.465000	ms	total	Mandelbrot	PIR-LLVM	are-we-fast-r	500	1			
1	8	64.684000	ms	total	Mandelbrot	PIR-LLVM	are-we-fast-r	500	1			
1	9	64.590000	ms	total	Mandelbrot	PIR-LLVM	are-we-fast-r	500	1			
1	10	64.416000	ms	total	Mandelbrot	PIR-LLVM	are-we-fast-r	500	1			
1	11	64.475000	ms	total	Mandelbrot	PIR-LLVM	are-we-fast-r	500	1			
1	12	64.544000	ms	total	Mandelbrot	PIR-LLVM	are-we-fast-r	500	1			
1	13	64.556000	ms	total	Mandelbrot	PIR-LLVM	are-we-fast-r	500	1			
1	14	64.585000	ms	total	Mandelbrot	PIR-LLVM	are-we-fast-r	500	1			
1	15	64.557000	ms	total	Mandelbrot	PIR-LLVM	are-we-fast-r	500	1			
1	1	3501.267000	ms	total	emptyFor	PIR-LLVM	simple_reduced	100000000	1			
1	2	81.849000	ms	total	emptyFor	PIR-LLVM	simple_reduced	100000000	1			
1	3	725.897000	ms	total	emptyFor	PIR-LLVM	simple_reduced	100000000	1			
1	4	704.998000	ms	total	emptyFor	PIR-LLVM	simple_reduced	100000000	1			
1	5	709.069000	ms	total	emptyFor	PIR-LLVM	simple_reduced	100000000	1			
1	6	709.491000	ms	total	emptyFor	PIR-LLVM	simple_reduced	100000000	1			
1	7	714.891000	ms	total	emptyFor	PIR-LLVM	simple_reduced	100000000	1			
1	8	712.194000	ms	total	emptyFor	PIR-LLVM	simple_reduced	100000000	1			
1	9	713.341000	ms	total	emptyFor	PIR-LLVM	simple_reduced	100000000	1			
1	10	710.401000	ms	total	emptyFor	PIR-LLVM	simple_reduced	100000000	1			
1	11	713.171000	ms	total	emptyFor	PIR-LLVM	simple_reduced	100000000	1			
1	12	709.069000	ms	total	emptyFor	PIR-LLVM	simple_reduced	100000000	1			
1	13	708.962000	ms	total	emptyFor	PIR-LLVM	simple_reduced	100000000	1			
1	14	702.963000	ms	total	emptyFor	PIR-LLVM	simple_reduced	100000000	1			
1	15	710.683000	ms	total	emptyFor	PIR-LLVM	simple_reduced	100000000	1			
1	1	176.733000	ms	total	listWhile	PIR-LLVM	simple_extra	500000	1			
1	2	144.055000	ms	total	listWhile	PIR-LLVM	simple_extra	500000	1			
1	3	95.191000	ms	total	listWhile	PIR-LLVM	simple_extra	500000	1			
1	4	70.913000	ms	total	listWhile	PIR-LLVM	simple_extra	500000	1			
1	5	71.928000	ms	total	listWhile	PIR-LLVM	simple_extra	500000	1			
1	6	89.758000	ms	total	listWhile	PIR-LLVM	simple_extra	500000	1			
1	7	53.033000	ms	total	listWhile	PIR-LLVM	simple_extra	500000	1			
1	8	71.793000	ms	total	listWhile	PIR-LLVM	simple_extra	500000	1			
1	9	57.235000	ms	total	listWhile	PIR-LLVM	simple_extra	500000	1			
1	10	64.266000	ms	total	listWhile	PIR-LLVM	simple_extra	500000	1			
1	11	79.022000	ms	total	listWhile	PIR-LLVM	simple_extra	500000	1			
1	12	55.086000	ms	total	listWhile	PIR-LLVM	simple_extra	500000	1			
1	13	57.232000	ms	total	listWhile	PIR-LLVM	simple_extra	500000	1			
1	14	65.722000	ms	total	listWhile	PIR-LLVM	simple_extra	500000	1			
1	15	53.110000	ms	total	listWhile	PIR-LLVM	simple_extra	500000	1			
1	1	1296.726000	ms	total	Bounce_nonames_simple	PIR-LLVM	are-we-fast-r	35	1			
1	2	118.376000	ms	total	Bounce_nonames_simple	PIR-LLVM	are-we-fast-r	35	1			
1	3	118.922000	ms	total	Bounce_nonames_simple	PIR-LLVM	are-we-fast-r	35	1			
1	4	118.252000	ms	total	Bounce_nonames_simple	PIR-LLVM	are-we-fast-r	35	1			
1	5	126.608000	ms	total	Bounce_nonames_simple	PIR-LLVM	are-we-fast-r	35	1			
1	6	118.018000	ms	total	Bounce_nonames_simple	PIR-LLVM	are-we-fast-r	35	1			
1	7	117.488000	ms	total	Bounce_nonames_simple	PIR-LLVM	are-we-fast-r	35	1			
1	8	117.499000	ms	total	Bounce_nonames_simple	PIR-LLVM	are-we-fast-r	35	1			
1	9	116.547000	ms	total	Bounce_nonames_simple	PIR-LLVM	are-we-fast-r	35	1			
1	10	119.687000	ms	total	Bounce_nonames_simple	PIR-LLVM	are-we-fast-r	35	1			
1	11	116.124000	ms	total	Bounce_nonames_simple	PIR-LLVM	are-we-fast-r	35	1			
1	12	116.748000	ms	total	Bounce_nonames_simple	PIR-LLVM	are-we-fast-r	35	1			
1	13	115.832000	ms	total	Bounce_nonames_simple	PIR-LLVM	are-we-fast-r	35	1			
1	14	116.002000	ms	total	Bounce_nonames_simple	PIR-LLVM	are-we-fast-r	35	1			
1	15	116.448000	ms	total	Bounce_nonames_simple	PIR-LLVM	are-we-fast-r	35	1			
1	1	1431.873000	ms	total	regexdna	PIR-LLVM	shootout	500000	1			
1	2	1377.765000	ms	total	regexdna	PIR-LLVM	shootout	500000	1			
1	3	2834.998000	ms	total	regexdna	PIR-LLVM	shootout	500000	1			
1	4	1360.713000	ms	total	regexdna	PIR-LLVM	shootout	500000	1			
1	5	1381.402000	ms	total	regexdna	PIR-LLVM	shootout	500000	1			
1	6	1367.175000	ms	total	regexdna	PIR-LLVM	shootout	500000	1			
1	7	1376.641000	ms	total	regexdna	PIR-LLVM	shootout	500000	1			
1	8	1369.752000	ms	total	regexdna	PIR-LLVM	shootout	500000	1			
1	9	1395.468000	ms	total	regexdna	PIR-LLVM	shootout	500000	1			
1	10	1359.929000	ms	total	regexdna	PIR-LLVM	shootout	500000	1			
1	11	1381.326000	ms	total	regexdna	PIR-LLVM	shootout	500000	1			
1	12	1363.994000	ms	total	regexdna	PIR-LLVM	shootout	500000	1			
1	13	1372.931000	ms	total	regexdna	PIR-LLVM	shootout	500000	1			
1	14	1359.918000	ms	total	regexdna	PIR-LLVM	shootout	500000	1			
1	15	1370.994000	ms	total	regexdna	PIR-LLVM	shootout	500000	1			
1	1	222.721000	ms	total	mandelbrot_noout_naive	PIR-LLVM	shootout	500	1			
1	2	200.709000	ms	total	mandelbrot_noout_naive	PIR-LLVM	shootout	500	1			
1	3	660.293000	ms	total	mandelbrot_noout_naive	PIR-LLVM	shootout	500	1			
1	4	192.800000	ms	total	mandelbrot_noout_naive	PIR-LLVM	shootout	500	1			
1	5	190.348000	ms	total	mandelbrot_noout_naive	PIR-LLVM	shootout	500	1			
1	6	198.018000	ms	total	mandelbrot_noout_naive	PIR-LLVM	shootout	500	1			
1	7	196.553000	ms	total	mandelbrot_noout_naive	PIR-LLVM	shootout	500	1			
1	8	193.640000	ms	total	mandelbrot_noout_naive	PIR-LLVM	shootout	500	1			
1	9	187.310000	ms	total	mandelbrot_noout_naive	PIR-LLVM	shootout	500	1			
1	10	188.750000	ms	total	mandelbrot_noout_naive	PIR-LLVM	shootout	500	1			
1	11	183.303000	ms	total	mandelbrot_noout_naive	PIR-LLVM	shootout	500	1			
1	12	196.528000	ms	total	mandelbrot_noout_naive	PIR-LLVM	shootout	500	1			
1	13	195.818000	ms	total	mandelbrot_noout_naive	PIR-LLVM	shootout	500	1			
1	14	193.900000	ms	total	mandelbrot_noout_naive	PIR-LLVM	shootout	500	1			
1	15	186.479000	ms	total	mandelbrot_noout_naive	PIR-LLVM	shootout	500	1			
1	1	5566.646000	ms	total	scalarFor	PIR-LLVM	simple_reduced	100000000	1			
1	2	82.001000	ms	total	scalarFor	PIR-LLVM	simple_reduced	100000000	1			
1	3	1513.109000	ms	total	scalarFor	PIR-LLVM	simple_reduced	100000000	1			
1	4	1484.726000	ms	total	scalarFor	PIR-LLVM	simple_reduced	100000000	1			
1	5	1488.961000	ms	total	scalarFor	PIR-LLVM	simple_reduced	100000000	1			
1	6	1486.593000	ms	total	scalarFor	PIR-LLVM	simple_reduced	100000000	1			
1	7	1487.896000	ms	total	scalarFor	PIR-LLVM	simple_reduced	100000000	1			
1	8	1482.506000	ms	total	scalarFor	PIR-LLVM	simple_reduced	100000000	1			
1	9	1492.124000	ms	total	scalarFor	PIR-LLVM	simple_reduced	100000000	1			
1	10	1488.023000	ms	total	scalarFor	PIR-LLVM	simple_reduced	100000000	1			
1	11	1483.116000	ms	total	scalarFor	PIR-LLVM	simple_reduced	100000000	1			
1	12	1481.513000	ms	total	scalarFor	PIR-LLVM	simple_reduced	100000000	1			
1	13	1485.091000	ms	total	scalarFor	PIR-LLVM	simple_reduced	100000000	1			
1	14	1479.487000	ms	total	scalarFor	PIR-LLVM	simple_reduced	100000000	1			
1	15	1486.798000	ms	total	scalarFor	PIR-LLVM	simple_reduced	100000000	1			
1	1	4431.270000	ms	total	knucleotide_brute	PIR-LLVM	shootout	2000	1			
1	2	4155.038000	ms	total	knucleotide_brute	PIR-LLVM	shootout	2000	1			
1	3	7807.511000	ms	total	knucleotide_brute	PIR-LLVM	shootout	2000	1			
1	4	3652.967000	ms	total	knucleotide_brute	PIR-LLVM	shootout	2000	1			
1	5	3827.211000	ms	total	knucleotide_brute	PIR-LLVM	shootout	2000	1			
1	6	3939.297000	ms	total	knucleotide_brute	PIR-LLVM	shootout	2000	1			
1	7	4028.484000	ms	total	knucleotide_brute	PIR-LLVM	shootout	2000	1			
1	8	4119.280000	ms	total	knucleotide_brute	PIR-LLVM	shootout	2000	1			
1	9	4129.943000	ms	total	knucleotide_brute	PIR-LLVM	shootout	2000	1			
1	10	4151.353000	ms	total	knucleotide_brute	PIR-LLVM	shootout	2000	1			
1	11	4180.415000	ms	total	knucleotide_brute	PIR-LLVM	shootout	2000	1			
1	12	4302.553000	ms	total	knucleotide_brute	PIR-LLVM	shootout	2000	1			
1	13	4200.315000	ms	total	knucleotide_brute	PIR-LLVM	shootout	2000	1			
1	14	4205.388000	ms	total	knucleotide_brute	PIR-LLVM	shootout	2000	1			
1	15	3510.621000	ms	total	knucleotide_brute	PIR-LLVM	shootout	2000	1			
1	1	5861.479000	ms	total	fasta_3	PIR-LLVM	shootout	60000	1			
1	2	877.483000	ms	total	fasta_3	PIR-LLVM	shootout	60000	1			
1	3	1394.750000	ms	total	fasta_3	PIR-LLVM	shootout	60000	1			
1	4	870.842000	ms	total	fasta_3	PIR-LLVM	shootout	60000	1			
1	5	865.305000	ms	total	fasta_3	PIR-LLVM	shootout	60000	1			
1	6	883.111000	ms	total	fasta_3	PIR-LLVM	shootout	60000	1			
1	7	873.500000	ms	total	fasta_3	PIR-LLVM	shootout	60000	1			
1	8	868.014000	ms	total	fasta_3	PIR-LLVM	shootout	60000	1			
1	9	870.168000	ms	total	fasta_3	PIR-LLVM	shootout	60000	1			
1	10	868.166000	ms	total	fasta_3	PIR-LLVM	shootout	60000	1			
1	11	871.863000	ms	total	fasta_3	PIR-LLVM	shootout	60000	1			
1	12	863.520000	ms	total	fasta_3	PIR-LLVM	shootout	60000	1			
1	13	862.233000	ms	total	fasta_3	PIR-LLVM	shootout	60000	1			
1	14	869.017000	ms	total	fasta_3	PIR-LLVM	shootout	60000	1			
1	15	875.240000	ms	total	fasta_3	PIR-LLVM	shootout	60000	1			
1	1	2648.124000	ms	total	spectralnorm_alt_3	PIR-LLVM	shootout	250	1			
1	2	3774.397000	ms	total	spectralnorm_alt_3	PIR-LLVM	shootout	250	1			
1	3	4263.180000	ms	total	spectralnorm_alt_3	PIR-LLVM	shootout	250	1			
1	4	1137.570000	ms	total	spectralnorm_alt_3	PIR-LLVM	shootout	250	1			
1	5	1129.654000	ms	total	spectralnorm_alt_3	PIR-LLVM	shootout	250	1			
1	6	1134.457000	ms	total	spectralnorm_alt_3	PIR-LLVM	shootout	250	1			
1	7	1120.349000	ms	total	spectralnorm_alt_3	PIR-LLVM	shootout	250	1			
1	8	1141.733000	ms	total	spectralnorm_alt_3	PIR-LLVM	shootout	250	1			
1	9	1139.324000	ms	total	spectralnorm_alt_3	PIR-LLVM	shootout	250	1			
1	10	1145.050000	ms	total	spectralnorm_alt_3	PIR-LLVM	shootout	250	1			
1	11	1138.456000	ms	total	spectralnorm_alt_3	PIR-LLVM	shootout	250	1			
1	12	1145.591000	ms	total	spectralnorm_alt_3	PIR-LLVM	shootout	250	1			
1	13	1119.941000	ms	total	spectralnorm_alt_3	PIR-LLVM	shootout	250	1			
1	14	1147.798000	ms	total	spectralnorm_alt_3	PIR-LLVM	shootout	250	1			
1	15	1154.205000	ms	total	spectralnorm_alt_3	PIR-LLVM	shootout	250	1			
1	1	1863.545000	ms	total	nbody_2	PIR-LLVM	shootout	12000	1			
1	2	1714.968000	ms	total	nbody_2	PIR-LLVM	shootout	12000	1			
1	3	1336.758000	ms	total	nbody_2	PIR-LLVM	shootout	12000	1			
1	4	629.490000	ms	total	nbody_2	PIR-LLVM	shootout	12000	1			
1	5	625.654000	ms	total	nbody_2	PIR-LLVM	shootout	12000	1			
1	6	620.435000	ms	total	nbody_2	PIR-LLVM	shootout	12000	1			
1	7	615.290000	ms	total	nbody_2	PIR-LLVM	shootout	12000	1			
1	8	612.633000	ms	total	nbody_2	PIR-LLVM	shootout	12000	1			
1	9	624.951000	ms	total	nbody_2	PIR-LLVM	shootout	12000	1			
1	10	614.720000	ms	total	nbody_2	PIR-LLVM	shootout	12000	1			
1	11	617.055000	ms	total	nbody_2	PIR-LLVM	shootout	12000	1			
1	12	612.659000	ms	total	nbody_2	PIR-LLVM	shootout	12000	1			
1	13	625.774000	ms	total	nbody_2	PIR-LLVM	shootout	12000	1			
1	14	615.230000	ms	total	nbody_2	PIR-LLVM	shootout	12000	1			
1	15	615.406000	ms	total	nbody_2	PIR-LLVM	shootout	12000	1			
1	1	214.917000	ms	total	listFor	PIR-LLVM	simple_extra	500000	1			
1	2	106.830000	ms	total	listFor	PIR-LLVM	simple_extra	500000	1			
1	3	115.307000	ms	total	listFor	PIR-LLVM	simple_extra	500000	1			
1	4	79.294000	ms	total	listFor	PIR-LLVM	simple_extra	500000	1			
1	5	75.214000	ms	total	listFor	PIR-LLVM	simple_extra	500000	1			
1	6	74.706000	ms	total	listFor	PIR-LLVM	simple_extra	500000	1			
1	7	90.717000	ms	total	listFor	PIR-LLVM	simple_extra	500000	1			
1	8	59.747000	ms	total	listFor	PIR-LLVM	simple_extra	500000	1			
1	9	85.676000	ms	total	listFor	PIR-LLVM	simple_extra	500000	1			
1	10	69.255000	ms	total	listFor	PIR-LLVM	simple_extra	500000	1			
1	11	85.150000	ms	total	listFor	PIR-LLVM	simple_extra	500000	1			
1	12	105.319000	ms	total	listFor	PIR-LLVM	simple_extra	500000	1			
1	13	60.640000	ms	total	listFor	PIR-LLVM	simple_extra	500000	1			
1	14	83.487000	ms	total	listFor	PIR-LLVM	simple_extra	500000	1			
1	15	76.737000	ms	total	listFor	PIR-LLVM	simple_extra	500000	1			
1	1	38813.635000	ms	total	volcano	PIR-LLVM	real_thing	1	1			
1	2	18942.757000	ms	total	volcano	PIR-LLVM	real_thing	1	1			
1	3	19120.511000	ms	total	volcano	PIR-LLVM	real_thing	1	1			
1	4	19042.584000	ms	total	volcano	PIR-LLVM	real_thing	1	1			
1	5	18931.512000	ms	total	volcano	PIR-LLVM	real_thing	1	1			
1	6	18913.880000	ms	total	volcano	PIR-LLVM	real_thing	1	1			
1	7	18890.954000	ms	total	volcano	PIR-LLVM	real_thing	1	1			
1	8	18916.725000	ms	total	volcano	PIR-LLVM	real_thing	1	1			
1	9	18888.801000	ms	total	volcano	PIR-LLVM	real_thing	1	1			
1	10	18925.601000	ms	total	volcano	PIR-LLVM	real_thing	1	1			
1	11	18914.216000	ms	total	volcano	PIR-LLVM	real_thing	1	1			
1	12	18902.119000	ms	total	volcano	PIR-LLVM	real_thing	1	1			
1	13	18874.440000	ms	total	volcano	PIR-LLVM	real_thing	1	1			
1	14	18946.744000	ms	total	volcano	PIR-LLVM	real_thing	1	1			
1	15	18979.938000	ms	total	volcano	PIR-LLVM	real_thing	1	1			
1	1	844.943000	ms	total	Storage	PIR-LLVM	are-we-fast-r	100	1			
1	2	325.076000	ms	total	Storage	PIR-LLVM	are-we-fast-r	100	1			
1	3	309.902000	ms	total	Storage	PIR-LLVM	are-we-fast-r	100	1			
1	4	335.105000	ms	total	Storage	PIR-LLVM	are-we-fast-r	100	1			
1	5	316.884000	ms	total	Storage	PIR-LLVM	are-we-fast-r	100	1			
1	6	330.862000	ms	total	Storage	PIR-LLVM	are-we-fast-r	100	1			
1	7	314.875000	ms	total	Storage	PIR-LLVM	are-we-fast-r	100	1			
1	8	304.530000	ms	total	Storage	PIR-LLVM	are-we-fast-r	100	1			
1	9	309.947000	ms	total	Storage	PIR-LLVM	are-we-fast-r	100	1			
1	10	313.733000	ms	total	Storage	PIR-LLVM	are-we-fast-r	100	1			
1	11	320.502000	ms	total	Storage	PIR-LLVM	are-we-fast-r	100	1			
1	12	307.847000	ms	total	Storage	PIR-LLVM	are-we-fast-r	100	1			
1	13	327.237000	ms	total	Storage	PIR-LLVM	are-we-fast-r	100	1			
1	14	292.770000	ms	total	Storage	PIR-LLVM	are-we-fast-r	100	1			
1	15	317.112000	ms	total	Storage	PIR-LLVM	are-we-fast-r	100	1			
1	1	884.172000	ms	total	convolution	PIR-LLVM	real_thing	500	1			
1	2	270.688000	ms	total	convolution	PIR-LLVM	real_thing	500	1			
1	3	1103.908000	ms	total	convolution	PIR-LLVM	real_thing	500	1			
1	4	278.384000	ms	total	convolution	PIR-LLVM	real_thing	500	1			
1	5	270.202000	ms	total	convolution	PIR-LLVM	real_thing	500	1			
1	6	270.105000	ms	total	convolution	PIR-LLVM	real_thing	500	1			
1	7	279.232000	ms	total	convolution	PIR-LLVM	real_thing	500	1			
1	8	270.948000	ms	total	convolution	PIR-LLVM	real_thing	500	1			
1	9	270.386000	ms	total	convolution	PIR-LLVM	real_thing	500	1			
1	10	279.472000	ms	total	convolution	PIR-LLVM	real_thing	500	1			
1	11	270.896000	ms	total	convolution	PIR-LLVM	real_thing	500	1			
1	12	270.572000	ms	total	convolution	PIR-LLVM	real_thing	500	1			
1	13	278.275000	ms	total	convolution	PIR-LLVM	real_thing	500	1			
1	14	267.543000	ms	total	convolution	PIR-LLVM	real_thing	500	1			
1	15	270.550000	ms	total	convolution	PIR-LLVM	real_thing	500	1			
1	1	1789.869000	ms	total	fastaredux_naive	PIR-LLVM	shootout	80000	1			
1	2	1096.564000	ms	total	fastaredux_naive	PIR-LLVM	shootout	80000	1			
1	3	1261.867000	ms	total	fastaredux_naive	PIR-LLVM	shootout	80000	1			
1	4	450.904000	ms	total	fastaredux_naive	PIR-LLVM	shootout	80000	1			
1	5	453.361000	ms	total	fastaredux_naive	PIR-LLVM	shootout	80000	1			
1	6	474.120000	ms	total	fastaredux_naive	PIR-LLVM	shootout	80000	1			
1	7	428.607000	ms	total	fastaredux_naive	PIR-LLVM	shootout	80000	1			
1	8	437.271000	ms	total	fastaredux_naive	PIR-LLVM	shootout	80000	1			
1	9	441.805000	ms	total	fastaredux_naive	PIR-LLVM	shootout	80000	1			
1	10	452.326000	ms	total	fastaredux_naive	PIR-LLVM	shootout	80000	1			
1	11	451.824000	ms	total	fastaredux_naive	PIR-LLVM	shootout	80000	1			
1	12	466.225000	ms	total	fastaredux_naive	PIR-LLVM	shootout	80000	1			
1	13	429.947000	ms	total	fastaredux_naive	PIR-LLVM	shootout	80000	1			
1	14	439.901000	ms	total	fastaredux_naive	PIR-LLVM	shootout	80000	1			
1	15	444.765000	ms	total	fastaredux_naive	PIR-LLVM	shootout	80000	1			
1	1	24228.893000	ms	total	flexclust	PIR-LLVM	real_thing	5	1			
1	2	15218.984000	ms	total	flexclust	PIR-LLVM	real_thing	5	1			
1	3	19777.017000	ms	total	flexclust	PIR-LLVM	real_thing	5	1			
1	4	13207.451000	ms	total	flexclust	PIR-LLVM	real_thing	5	1			
1	5	13485.949000	ms	total	flexclust	PIR-LLVM	real_thing	5	1			
1	6	13540.344000	ms	total	flexclust	PIR-LLVM	real_thing	5	1			
1	7	13171.682000	ms	total	flexclust	PIR-LLVM	real_thing	5	1			
1	8	13343.621000	ms	total	flexclust	PIR-LLVM	real_thing	5	1			
1	9	13611.907000	ms	total	flexclust	PIR-LLVM	real_thing	5	1			
1	10	13029.782000	ms	total	flexclust	PIR-LLVM	real_thing	5	1			
1	11	12972.371000	ms	total	flexclust	PIR-LLVM	real_thing	5	1			
1	12	13175.492000	ms	total	flexclust	PIR-LLVM	real_thing	5	1			
1	13	13098.812000	ms	total	flexclust	PIR-LLVM	real_thing	5	1			
1	14	13155.618000	ms	total	flexclust	PIR-LLVM	real_thing	5	1			
1	15	13108.983000	ms	total	flexclust	PIR-LLVM	real_thing	5	1			
1	1	705.693000	ms	total	mandelbrot_ascii	PIR-LLVM	shootout	300	1			
1	2	529.713000	ms	total	mandelbrot_ascii	PIR-LLVM	shootout	300	1			
1	3	549.042000	ms	total	mandelbrot_ascii	PIR-LLVM	shootout	300	1			
1	4	66.087000	ms	total	mandelbrot_ascii	PIR-LLVM	shootout	300	1			
1	5	64.388000	ms	total	mandelbrot_ascii	PIR-LLVM	shootout	300	1			
1	6	64.934000	ms	total	mandelbrot_ascii	PIR-LLVM	shootout	300	1			
1	7	64.915000	ms	total	mandelbrot_ascii	PIR-LLVM	shootout	300	1			
1	8	66.492000	ms	total	mandelbrot_ascii	PIR-LLVM	shootout	300	1			
1	9	65.024000	ms	total	mandelbrot_ascii	PIR-LLVM	shootout	300	1			
1	10	65.004000	ms	total	mandelbrot_ascii	PIR-LLVM	shootout	300	1			
1	11	64.936000	ms	total	mandelbrot_ascii	PIR-LLVM	shootout	300	1			
1	12	66.424000	ms	total	mandelbrot_ascii	PIR-LLVM	shootout	300	1			
1	13	64.903000	ms	total	mandelbrot_ascii	PIR-LLVM	shootout	300	1			
1	14	64.969000	ms	total	mandelbrot_ascii	PIR-LLVM	shootout	300	1			
1	15	64.945000	ms	total	mandelbrot_ascii	PIR-LLVM	shootout	300	1			
1	1	842.287000	ms	total	lapplyDots	PIR-LLVM	simple_reduced	1000000	1			
1	2	850.156000	ms	total	lapplyDots	PIR-LLVM	simple_reduced	1000000	1			
1	3	1010.437000	ms	total	lapplyDots	PIR-LLVM	simple_reduced	1000000	1			
1	4	982.603000	ms	total	lapplyDots	PIR-LLVM	simple_reduced	1000000	1			
1	5	995.861000	ms	total	lapplyDots	PIR-LLVM	simple_reduced	1000000	1			
1	6	995.479000	ms	total	lapplyDots	PIR-LLVM	simple_reduced	1000000	1			
1	7	1021.888000	ms	total	lapplyDots	PIR-LLVM	simple_reduced	1000000	1			
1	8	833.326000	ms	total	lapplyDots	PIR-LLVM	simple_reduced	1000000	1			
1	9	994.891000	ms	total	lapplyDots	PIR-LLVM	simple_reduced	1000000	1			
1	10	998.575000	ms	total	lapplyDots	PIR-LLVM	simple_reduced	1000000	1			
1	11	1004.843000	ms	total	lapplyDots	PIR-LLVM	simple_reduced	1000000	1			
1	12	1009.690000	ms	total	lapplyDots	PIR-LLVM	simple_reduced	1000000	1			
1	13	715.310000	ms	total	lapplyDots	PIR-LLVM	simple_reduced	1000000	1			
1	14	855.522000	ms	total	lapplyDots	PIR-LLVM	simple_reduced	1000000	1			
1	15	917.075000	ms	total	lapplyDots	PIR-LLVM	simple_reduced	1000000	1			
1	1	2102.395000	ms	total	fasta	PIR-LLVM	shootout	60000	1			
1	2	855.496000	ms	total	fasta	PIR-LLVM	shootout	60000	1			
1	3	1448.063000	ms	total	fasta	PIR-LLVM	shootout	60000	1			
1	4	820.753000	ms	total	fasta	PIR-LLVM	shootout	60000	1			
1	5	831.906000	ms	total	fasta	PIR-LLVM	shootout	60000	1			
1	6	825.505000	ms	total	fasta	PIR-LLVM	shootout	60000	1			
1	7	820.296000	ms	total	fasta	PIR-LLVM	shootout	60000	1			
1	8	815.352000	ms	total	fasta	PIR-LLVM	shootout	60000	1			
1	9	820.652000	ms	total	fasta	PIR-LLVM	shootout	60000	1			
1	10	818.509000	ms	total	fasta	PIR-LLVM	shootout	60000	1			
1	11	819.346000	ms	total	fasta	PIR-LLVM	shootout	60000	1			
1	12	826.607000	ms	total	fasta	PIR-LLVM	shootout	60000	1			
1	13	820.836000	ms	total	fasta	PIR-LLVM	shootout	60000	1			
1	14	825.328000	ms	total	fasta	PIR-LLVM	shootout	60000	1			
1	15	834.331000	ms	total	fasta	PIR-LLVM	shootout	60000	1			
1	1	1104.707000	ms	total	fasta_naive	PIR-LLVM	shootout	80000	1			
1	2	444.912000	ms	total	fasta_naive	PIR-LLVM	shootout	80000	1			
1	3	1349.826000	ms	total	fasta_naive	PIR-LLVM	shootout	80000	1			
1	4	440.564000	ms	total	fasta_naive	PIR-LLVM	shootout	80000	1			
1	5	450.393000	ms	total	fasta_naive	PIR-LLVM	shootout	80000	1			
1	6	452.248000	ms	total	fasta_naive	PIR-LLVM	shootout	80000	1			
1	7	442.159000	ms	total	fasta_naive	PIR-LLVM	shootout	80000	1			
1	8	428.506000	ms	total	fasta_naive	PIR-LLVM	shootout	80000	1			
1	9	437.917000	ms	total	fasta_naive	PIR-LLVM	shootout	80000	1			
1	10	437.777000	ms	total	fasta_naive	PIR-LLVM	shootout	80000	1			
1	11	447.011000	ms	total	fasta_naive	PIR-LLVM	shootout	80000	1			
1	12	449.222000	ms	total	fasta_naive	PIR-LLVM	shootout	80000	1			
1	13	443.708000	ms	total	fasta_naive	PIR-LLVM	shootout	80000	1			
1	14	428.417000	ms	total	fasta_naive	PIR-LLVM	shootout	80000	1			
1	15	437.511000	ms	total	fasta_naive	PIR-LLVM	shootout	80000	1			
1	1	1142.457000	ms	total	spectralnorm	PIR-LLVM	shootout	1200	1			
1	2	241.031000	ms	total	spectralnorm	PIR-LLVM	shootout	1200	1			
1	3	2958.430000	ms	total	spectralnorm	PIR-LLVM	shootout	1200	1			
1	4	97.803000	ms	total	spectralnorm	PIR-LLVM	shootout	1200	1			
1	5	99.052000	ms	total	spectralnorm	PIR-LLVM	shootout	1200	1			
1	6	99.238000	ms	total	spectralnorm	PIR-LLVM	shootout	1200	1			
1	7	99.091000	ms	total	spectralnorm	PIR-LLVM	shootout	1200	1			
1	8	97.749000	ms	total	spectralnorm	PIR-LLVM	shootout	1200	1			
1	9	99.122000	ms	total	spectralnorm	PIR-LLVM	shootout	1200	1			
1	10	99.223000	ms	total	spectralnorm	PIR-LLVM	shootout	1200	1			
1	11	99.083000	ms	total	spectralnorm	PIR-LLVM	shootout	1200	1			
1	12	97.852000	ms	total	spectralnorm	PIR-LLVM	shootout	1200	1			
1	13	99.146000	ms	total	spectralnorm	PIR-LLVM	shootout	1200	1			
1	14	99.301000	ms	total	spectralnorm	PIR-LLVM	shootout	1200	1			
1	15	99.224000	ms	total	spectralnorm	PIR-LLVM	shootout	1200	1			
1	1	612.822000	ms	total	mandelbrot_noout	PIR-LLVM	shootout	400	1			
1	2	421.322000	ms	total	mandelbrot_noout	PIR-LLVM	shootout	400	1			
1	3	435.662000	ms	total	mandelbrot_noout	PIR-LLVM	shootout	400	1			
1	4	70.817000	ms	total	mandelbrot_noout	PIR-LLVM	shootout	400	1			
1	5	71.906000	ms	total	mandelbrot_noout	PIR-LLVM	shootout	400	1			
1	6	70.641000	ms	total	mandelbrot_noout	PIR-LLVM	shootout	400	1			
1	7	70.595000	ms	total	mandelbrot_noout	PIR-LLVM	shootout	400	1			
1	8	70.623000	ms	total	mandelbrot_noout	PIR-LLVM	shootout	400	1			
1	9	71.797000	ms	total	mandelbrot_noout	PIR-LLVM	shootout	400	1			
1	10	79.391000	ms	total	mandelbrot_noout	PIR-LLVM	shootout	400	1			
1	11	70.600000	ms	total	mandelbrot_noout	PIR-LLVM	shootout	400	1			
1	12	70.489000	ms	total	mandelbrot_noout	PIR-LLVM	shootout	400	1			
1	13	70.425000	ms	total	mandelbrot_noout	PIR-LLVM	shootout	400	1			
1	14	71.501000	ms	total	mandelbrot_noout	PIR-LLVM	shootout	400	1			
1	15	70.469000	ms	total	mandelbrot_noout	PIR-LLVM	shootout	400	1			
1	1	2334.549000	ms	total	convolution_slow	PIR-LLVM	real_thing	1500	1			
1	2	1774.535000	ms	total	convolution_slow	PIR-LLVM	real_thing	1500	1			
1	3	2316.610000	ms	total	convolution_slow	PIR-LLVM	real_thing	1500	1			
1	4	1772.634000	ms	total	convolution_slow	PIR-LLVM	real_thing	1500	1			
1	5	1784.182000	ms	total	convolution_slow	PIR-LLVM	real_thing	1500	1			
1	6	1775.394000	ms	total	convolution_slow	PIR-LLVM	real_thing	1500	1			
1	7	1769.646000	ms	total	convolution_slow	PIR-LLVM	real_thing	1500	1			
1	8	1777.687000	ms	total	convolution_slow	PIR-LLVM	real_thing	1500	1			
1	9	1774.689000	ms	total	convolution_slow	PIR-LLVM	real_thing	1500	1			
1	10	1779.656000	ms	total	convolution_slow	PIR-LLVM	real_thing	1500	1			
1	11	1774.372000	ms	total	convolution_slow	PIR-LLVM	real_thing	1500	1			
1	12	1772.126000	ms	total	convolution_slow	PIR-LLVM	real_thing	1500	1			
1	13	1776.472000	ms	total	convolution_slow	PIR-LLVM	real_thing	1500	1			
1	14	1777.216000	ms	total	convolution_slow	PIR-LLVM	real_thing	1500	1			
1	15	1779.719000	ms	total	convolution_slow	PIR-LLVM	real_thing	1500	1			
1	1	1500.678000	ms	total	fasta_naive_2	PIR-LLVM	shootout	80000	1			
1	2	620.130000	ms	total	fasta_naive_2	PIR-LLVM	shootout	80000	1			
1	3	1596.490000	ms	total	fasta_naive_2	PIR-LLVM	shootout	80000	1			
1	4	642.164000	ms	total	fasta_naive_2	PIR-LLVM	shootout	80000	1			
1	5	602.098000	ms	total	fasta_naive_2	PIR-LLVM	shootout	80000	1			
1	6	615.812000	ms	total	fasta_naive_2	PIR-LLVM	shootout	80000	1			
1	7	627.177000	ms	total	fasta_naive_2	PIR-LLVM	shootout	80000	1			
1	8	635.749000	ms	total	fasta_naive_2	PIR-LLVM	shootout	80000	1			
1	9	610.035000	ms	total	fasta_naive_2	PIR-LLVM	shootout	80000	1			
1	10	624.167000	ms	total	fasta_naive_2	PIR-LLVM	shootout	80000	1			
1	11	636.809000	ms	total	fasta_naive_2	PIR-LLVM	shootout	80000	1			
1	12	628.829000	ms	total	fasta_naive_2	PIR-LLVM	shootout	80000	1			
1	13	610.923000	ms	total	fasta_naive_2	PIR-LLVM	shootout	80000	1			
1	14	622.383000	ms	total	fasta_naive_2	PIR-LLVM	shootout	80000	1			
1	15	634.998000	ms	total	fasta_naive_2	PIR-LLVM	shootout	80000	1			
1	1	2819.938000	ms	total	scalarWhile	PIR-LLVM	simple_reduced	25000000	1			
1	2	487.398000	ms	total	scalarWhile	PIR-LLVM	simple_reduced	25000000	1			
1	3	36.485000	ms	total	scalarWhile	PIR-LLVM	simple_reduced	25000000	1			
1	4	25.240000	ms	total	scalarWhile	PIR-LLVM	simple_reduced	25000000	1			
1	5	25.235000	ms	total	scalarWhile	PIR-LLVM	simple_reduced	25000000	1			
1	6	25.232000	ms	total	scalarWhile	PIR-LLVM	simple_reduced	25000000	1			
1	7	25.236000	ms	total	scalarWhile	PIR-LLVM	simple_reduced	25000000	1			
1	8	25.233000	ms	total	scalarWhile	PIR-LLVM	simple_reduced	25000000	1			
1	9	25.233000	ms	total	scalarWhile	PIR-LLVM	simple_reduced	25000000	1			
1	10	25.230000	ms	total	scalarWhile	PIR-LLVM	simple_reduced	25000000	1			
1	11	25.285000	ms	total	scalarWhile	PIR-LLVM	simple_reduced	25000000	1			
1	12	25.234000	ms	total	scalarWhile	PIR-LLVM	simple_reduced	25000000	1			
1	13	25.233000	ms	total	scalarWhile	PIR-LLVM	simple_reduced	25000000	1			
1	14	25.238000	ms	total	scalarWhile	PIR-LLVM	simple_reduced	25000000	1			
1	15	25.234000	ms	total	scalarWhile	PIR-LLVM	simple_reduced	25000000	1			
1	1	1164.763000	ms	total	Bounce_nonames	PIR-LLVM	are-we-fast-r	35	1			
1	2	106.662000	ms	total	Bounce_nonames	PIR-LLVM	are-we-fast-r	35	1			
1	3	106.989000	ms	total	Bounce_nonames	PIR-LLVM	are-we-fast-r	35	1			
1	4	106.342000	ms	total	Bounce_nonames	PIR-LLVM	are-we-fast-r	35	1			
1	5	115.334000	ms	total	Bounce_nonames	PIR-LLVM	are-we-fast-r	35	1			
1	6	107.068000	ms	total	Bounce_nonames	PIR-LLVM	are-we-fast-r	35	1			
1	7	106.329000	ms	total	Bounce_nonames	PIR-LLVM	are-we-fast-r	35	1			
1	8	106.953000	ms	total	Bounce_nonames	PIR-LLVM	are-we-fast-r	35	1			
1	9	106.484000	ms	total	Bounce_nonames	PIR-LLVM	are-we-fast-r	35	1			
1	10	109.126000	ms	total	Bounce_nonames	PIR-LLVM	are-we-fast-r	35	1			
1	11	106.051000	ms	total	Bounce_nonames	PIR-LLVM	are-we-fast-r	35	1			
1	12	106.500000	ms	total	Bounce_nonames	PIR-LLVM	are-we-fast-r	35	1			
1	13	105.782000	ms	total	Bounce_nonames	PIR-LLVM	are-we-fast-r	35	1			
1	14	105.748000	ms	total	Bounce_nonames	PIR-LLVM	are-we-fast-r	35	1			
1	15	106.223000	ms	total	Bounce_nonames	PIR-LLVM	are-we-fast-r	35	1			
1	1	2658.935000	ms	total	knucleotide	PIR-LLVM	shootout	2000	1			
1	2	1205.265000	ms	total	knucleotide	PIR-LLVM	shootout	2000	1			
1	3	4063.088000	ms	total	knucleotide	PIR-LLVM	shootout	2000	1			
1	4	528.652000	ms	total	knucleotide	PIR-LLVM	shootout	2000	1			
1	5	553.257000	ms	total	knucleotide	PIR-LLVM	shootout	2000	1			
1	6	578.680000	ms	total	knucleotide	PIR-LLVM	shootout	2000	1			
1	7	582.709000	ms	total	knucleotide	PIR-LLVM	shootout	2000	1			
1	8	450.247000	ms	total	knucleotide	PIR-LLVM	shootout	2000	1			
1	9	494.512000	ms	total	knucleotide	PIR-LLVM	shootout	2000	1			
1	10	518.514000	ms	total	knucleotide	PIR-LLVM	shootout	2000	1			
1	11	541.957000	ms	total	knucleotide	PIR-LLVM	shootout	2000	1			
1	12	558.538000	ms	total	knucleotide	PIR-LLVM	shootout	2000	1			
1	13	576.920000	ms	total	knucleotide	PIR-LLVM	shootout	2000	1			
1	14	505.857000	ms	total	knucleotide	PIR-LLVM	shootout	2000	1			
1	15	552.813000	ms	total	knucleotide	PIR-LLVM	shootout	2000	1			
1	1	719.656000	ms	total	mandelbrot_naive_ascii	PIR-LLVM	shootout	200	1			
1	2	699.811000	ms	total	mandelbrot_naive_ascii	PIR-LLVM	shootout	200	1			
1	3	712.087000	ms	total	mandelbrot_naive_ascii	PIR-LLVM	shootout	200	1			
1	4	224.838000	ms	total	mandelbrot_naive_ascii	PIR-LLVM	shootout	200	1			
1	5	215.584000	ms	total	mandelbrot_naive_ascii	PIR-LLVM	shootout	200	1			
1	6	215.272000	ms	total	mandelbrot_naive_ascii	PIR-LLVM	shootout	200	1			
1	7	218.084000	ms	total	mandelbrot_naive_ascii	PIR-LLVM	shootout	200	1			
1	8	216.539000	ms	total	mandelbrot_naive_ascii	PIR-LLVM	shootout	200	1			
1	9	215.600000	ms	total	mandelbrot_naive_ascii	PIR-LLVM	shootout	200	1			
1	10	215.442000	ms	total	mandelbrot_naive_ascii	PIR-LLVM	shootout	200	1			
1	11	215.359000	ms	total	mandelbrot_naive_ascii	PIR-LLVM	shootout	200	1			
1	12	215.533000	ms	total	mandelbrot_naive_ascii	PIR-LLVM	shootout	200	1			
1	13	215.813000	ms	total	mandelbrot_naive_ascii	PIR-LLVM	shootout	200	1			
1	14	214.079000	ms	total	mandelbrot_naive_ascii	PIR-LLVM	shootout	200	1			
1	15	202.251000	ms	total	mandelbrot_naive_ascii	PIR-LLVM	shootout	200	1			
1	1	2080.388000	ms	total	Bounce	PIR-LLVM	are-we-fast-r	35	1			
1	2	840.889000	ms	total	Bounce	PIR-LLVM	are-we-fast-r	35	1			
1	3	849.854000	ms	total	Bounce	PIR-LLVM	are-we-fast-r	35	1			
1	4	853.980000	ms	total	Bounce	PIR-LLVM	are-we-fast-r	35	1			
1	5	826.703000	ms	total	Bounce	PIR-LLVM	are-we-fast-r	35	1			
1	6	834.321000	ms	total	Bounce	PIR-LLVM	are-we-fast-r	35	1			
1	7	845.487000	ms	total	Bounce	PIR-LLVM	are-we-fast-r	35	1			
1	8	836.984000	ms	total	Bounce	PIR-LLVM	are-we-fast-r	35	1			
1	9	827.718000	ms	total	Bounce	PIR-LLVM	are-we-fast-r	35	1			
1	10	839.099000	ms	total	Bounce	PIR-LLVM	are-we-fast-r	35	1			
1	11	857.727000	ms	total	Bounce	PIR-LLVM	are-we-fast-r	35	1			
1	12	816.406000	ms	total	Bounce	PIR-LLVM	are-we-fast-r	35	1			
1	13	836.258000	ms	total	Bounce	PIR-LLVM	are-we-fast-r	35	1			
1	14	843.350000	ms	total	Bounce	PIR-LLVM	are-we-fast-r	35	1			
1	15	849.608000	ms	total	Bounce	PIR-LLVM	are-we-fast-r	35	1			
1	1	5266.596000	ms	total	bytecodes	PIR-LLVM	simple_reduced	9000000	1			
1	2	3038.602000	ms	total	bytecodes	PIR-LLVM	simple_reduced	9000000	1			
1	3	184.076000	ms	total	bytecodes	PIR-LLVM	simple_reduced	9000000	1			
1	4	9.102000	ms	total	bytecodes	PIR-LLVM	simple_reduced	9000000	1			
1	5	9.092000	ms	total	bytecodes	PIR-LLVM	simple_reduced	9000000	1			
1	6	9.099000	ms	total	bytecodes	PIR-LLVM	simple_reduced	9000000	1			
1	7	9.094000	ms	total	bytecodes	PIR-LLVM	simple_reduced	9000000	1			
1	8	9.091000	ms	total	bytecodes	PIR-LLVM	simple_reduced	9000000	1			
1	9	9.092000	ms	total	bytecodes	PIR-LLVM	simple_reduced	9000000	1			
1	10	9.092000	ms	total	bytecodes	PIR-LLVM	simple_reduced	9000000	1			
1	11	9.091000	ms	total	bytecodes	PIR-LLVM	simple_reduced	9000000	1			
1	12	9.090000	ms	total	bytecodes	PIR-LLVM	simple_reduced	9000000	1			
1	13	9.091000	ms	total	bytecodes	PIR-LLVM	simple_reduced	9000000	1			
1	14	9.092000	ms	total	bytecodes	PIR-LLVM	simple_reduced	9000000	1			
1	15	9.104000	ms	total	bytecodes	PIR-LLVM	simple_reduced	9000000	1			
1	1	1072.049000	ms	total	profiler-microbenchmark	PIR-LLVM	simple_reduced	5000000	1			
1	2	518.011000	ms	total	profiler-microbenchmark	PIR-LLVM	simple_reduced	5000000	1			
1	3	521.772000	ms	total	profiler-microbenchmark	PIR-LLVM	simple_reduced	5000000	1			
1	4	519.970000	ms	total	profiler-microbenchmark	PIR-LLVM	simple_reduced	5000000	1			
1	5	524.982000	ms	total	profiler-microbenchmark	PIR-LLVM	simple_reduced	5000000	1			
1	6	522.217000	ms	total	profiler-microbenchmark	PIR-LLVM	simple_reduced	5000000	1			
1	7	520.141000	ms	total	profiler-microbenchmark	PIR-LLVM	simple_reduced	5000000	1			
1	8	519.470000	ms	total	profiler-microbenchmark	PIR-LLVM	simple_reduced	5000000	1			
1	9	530.468000	ms	total	profiler-microbenchmark	PIR-LLVM	simple_reduced	5000000	1			
1	10	518.840000	ms	total	profiler-microbenchmark	PIR-LLVM	simple_reduced	5000000	1			
1	11	518.855000	ms	total	profiler-microbenchmark	PIR-LLVM	simple_reduced	5000000	1			
1	12	520.664000	ms	total	profiler-microbenchmark	PIR-LLVM	simple_reduced	5000000	1			
1	13	518.229000	ms	total	profiler-microbenchmark	PIR-LLVM	simple_reduced	5000000	1			
1	14	518.994000	ms	total	profiler-microbenchmark	PIR-LLVM	simple_reduced	5000000	1			
1	15	518.671000	ms	total	profiler-microbenchmark	PIR-LLVM	simple_reduced	5000000	1			
1	1	1139.914000	ms	total	fannkuchredux_naive	PIR-LLVM	shootout	9	1			
1	2	1243.320000	ms	total	fannkuchredux_naive	PIR-LLVM	shootout	9	1			
1	3	307.420000	ms	total	fannkuchredux_naive	PIR-LLVM	shootout	9	1			
1	4	254.981000	ms	total	fannkuchredux_naive	PIR-LLVM	shootout	9	1			
1	5	254.118000	ms	total	fannkuchredux_naive	PIR-LLVM	shootout	9	1			
1	6	256.364000	ms	total	fannkuchredux_naive	PIR-LLVM	shootout	9	1			
1	7	255.326000	ms	total	fannkuchredux_naive	PIR-LLVM	shootout	9	1			
1	8	254.635000	ms	total	fannkuchredux_naive	PIR-LLVM	shootout	9	1			
1	9	256.494000	ms	total	fannkuchredux_naive	PIR-LLVM	shootout	9	1			
1	10	254.277000	ms	total	fannkuchredux_naive	PIR-LLVM	shootout	9	1			
1	11	253.921000	ms	total	fannkuchredux_naive	PIR-LLVM	shootout	9	1			
1	12	265.211000	ms	total	fannkuchredux_naive	PIR-LLVM	shootout	9	1			
1	13	255.045000	ms	total	fannkuchredux_naive	PIR-LLVM	shootout	9	1			
1	14	252.886000	ms	total	fannkuchredux_naive	PIR-LLVM	shootout	9	1			
1	15	254.656000	ms	total	fannkuchredux_naive	PIR-LLVM	shootout	9	1			
1	1	272.008000	ms	total	spectralnorm_alt	PIR-LLVM	shootout	1500	1			
1	2	272.235000	ms	total	spectralnorm_alt	PIR-LLVM	shootout	1500	1			
1	3	1471.212000	ms	total	spectralnorm_alt	PIR-LLVM	shootout	1500	1			
1	4	200.960000	ms	total	spectralnorm_alt	PIR-LLVM	shootout	1500	1			
1	5	188.651000	ms	total	spectralnorm_alt	PIR-LLVM	shootout	1500	1			
1	6	205.453000	ms	total	spectralnorm_alt	PIR-LLVM	shootout	1500	1			
1	7	192.344000	ms	total	spectralnorm_alt	PIR-LLVM	shootout	1500	1			
1	8	177.472000	ms	total	spectralnorm_alt	PIR-LLVM	shootout	1500	1			
1	9	177.621000	ms	total	spectralnorm_alt	PIR-LLVM	shootout	1500	1			
1	10	188.855000	ms	total	spectralnorm_alt	PIR-LLVM	shootout	1500	1			
1	11	175.945000	ms	total	spectralnorm_alt	PIR-LLVM	shootout	1500	1			
1	12	185.602000	ms	total	spectralnorm_alt	PIR-LLVM	shootout	1500	1			
1	13	184.058000	ms	total	spectralnorm_alt	PIR-LLVM	shootout	1500	1			
1	14	192.451000	ms	total	spectralnorm_alt	PIR-LLVM	shootout	1500	1			
1	15	177.481000	ms	total	spectralnorm_alt	PIR-LLVM	shootout	1500	1			
1	1	1882.946000	ms	total	profiler-rsa	PIR-LLVM	simple_reduced	600000	1			
1	2	1927.964000	ms	total	profiler-rsa	PIR-LLVM	simple_reduced	600000	1			
1	3	1925.259000	ms	total	profiler-rsa	PIR-LLVM	simple_reduced	600000	1			
1	4	1903.929000	ms	total	profiler-rsa	PIR-LLVM	simple_reduced	600000	1			
1	5	1913.816000	ms	total	profiler-rsa	PIR-LLVM	simple_reduced	600000	1			
1	6	1910.608000	ms	total	profiler-rsa	PIR-LLVM	simple_reduced	600000	1			
1	7	1906.873000	ms	total	profiler-rsa	PIR-LLVM	simple_reduced	600000	1			
1	8	1912.640000	ms	total	profiler-rsa	PIR-LLVM	simple_reduced	600000	1			
1	9	1907.551000	ms	total	profiler-rsa	PIR-LLVM	simple_reduced	600000	1			
1	10	1910.568000	ms	total	profiler-rsa	PIR-LLVM	simple_reduced	600000	1			
1	11	1910.375000	ms	total	profiler-rsa	PIR-LLVM	simple_reduced	600000	1			
1	12	1904.752000	ms	total	profiler-rsa	PIR-LLVM	simple_reduced	600000	1			
1	13	1908.840000	ms	total	profiler-rsa	PIR-LLVM	simple_reduced	600000	1			
1	14	1903.533000	ms	total	profiler-rsa	PIR-LLVM	simple_reduced	600000	1			
1	15	1912.127000	ms	total	profiler-rsa	PIR-LLVM	simple_reduced	600000	1			
1	1	3336.711000	ms	total	spectralnorm_math	PIR-LLVM	shootout	1200	1			
1	2	3293.920000	ms	total	spectralnorm_math	PIR-LLVM	shootout	1200	1			
1	3	4242.186000	ms	total	spectralnorm_math	PIR-LLVM	shootout	1200	1			
1	4	3013.324000	ms	total	spectralnorm_math	PIR-LLVM	shootout	1200	1			
1	5	3021.554000	ms	total	spectralnorm_math	PIR-LLVM	shootout	1200	1			
1	6	3013.684000	ms	total	spectralnorm_math	PIR-LLVM	shootout	1200	1			
1	7	3005.930000	ms	total	spectralnorm_math	PIR-LLVM	shootout	1200	1			
1	8	3303.871000	ms	total	spectralnorm_math	PIR-LLVM	shootout	1200	1			
1	9	3015.737000	ms	total	spectralnorm_math	PIR-LLVM	shootout	1200	1			
1	10	3030.479000	ms	total	spectralnorm_math	PIR-LLVM	shootout	1200	1			
1	11	3018.621000	ms	total	spectralnorm_math	PIR-LLVM	shootout	1200	1			
1	12	3016.149000	ms	total	spectralnorm_math	PIR-LLVM	shootout	1200	1			
1	13	3002.358000	ms	total	spectralnorm_math	PIR-LLVM	shootout	1200	1			
1	14	3008.700000	ms	total	spectralnorm_math	PIR-LLVM	shootout	1200	1			
1	15	3023.577000	ms	total	spectralnorm_math	PIR-LLVM	shootout	1200	1			
1	1	6184.589000	ms	total	profiler-shared	PIR-LLVM	simple_reduced	20	1			
1	2	6237.353000	ms	total	profiler-shared	PIR-LLVM	simple_reduced	20	1			
1	3	6201.391000	ms	total	profiler-shared	PIR-LLVM	simple_reduced	20	1			
1	4	6240.254000	ms	total	profiler-shared	PIR-LLVM	simple_reduced	20	1			
1	5	6189.378000	ms	total	profiler-shared	PIR-LLVM	simple_reduced	20	1			
1	6	6213.826000	ms	total	profiler-shared	PIR-LLVM	simple_reduced	20	1			
1	7	6351.674000	ms	total	profiler-shared	PIR-LLVM	simple_reduced	20	1			
1	8	6190.109000	ms	total	profiler-shared	PIR-LLVM	simple_reduced	20	1			
1	9	6228.522000	ms	total	profiler-shared	PIR-LLVM	simple_reduced	20	1			
1	10	6194.490000	ms	total	profiler-shared	PIR-LLVM	simple_reduced	20	1			
1	11	6202.321000	ms	total	profiler-shared	PIR-LLVM	simple_reduced	20	1			
1	12	6308.482000	ms	total	profiler-shared	PIR-LLVM	simple_reduced	20	1			
1	13	6218.310000	ms	total	profiler-shared	PIR-LLVM	simple_reduced	20	1			
1	14	6270.195000	ms	total	profiler-shared	PIR-LLVM	simple_reduced	20	1			
1	15	6228.620000	ms	total	profiler-shared	PIR-LLVM	simple_reduced	20	1			
1	1	2889.360000	ms	total	vectorWhile	PIR-LLVM	simple_reduced	20000000	1			
1	2	609.719000	ms	total	vectorWhile	PIR-LLVM	simple_reduced	20000000	1			
1	3	279.013000	ms	total	vectorWhile	PIR-LLVM	simple_reduced	20000000	1			
1	4	231.797000	ms	total	vectorWhile	PIR-LLVM	simple_reduced	20000000	1			
1	5	232.012000	ms	total	vectorWhile	PIR-LLVM	simple_reduced	20000000	1			
1	6	231.792000	ms	total	vectorWhile	PIR-LLVM	simple_reduced	20000000	1			
1	7	231.939000	ms	total	vectorWhile	PIR-LLVM	simple_reduced	20000000	1			
1	8	231.715000	ms	total	vectorWhile	PIR-LLVM	simple_reduced	20000000	1			
1	9	231.972000	ms	total	vectorWhile	PIR-LLVM	simple_reduced	20000000	1			
1	10	231.583000	ms	total	vectorWhile	PIR-LLVM	simple_reduced	20000000	1			
1	11	232.077000	ms	total	vectorWhile	PIR-LLVM	simple_reduced	20000000	1			
1	12	231.775000	ms	total	vectorWhile	PIR-LLVM	simple_reduced	20000000	1			
1	13	232.136000	ms	total	vectorWhile	PIR-LLVM	simple_reduced	20000000	1			
1	14	231.718000	ms	total	vectorWhile	PIR-LLVM	simple_reduced	20000000	1			
1	15	231.922000	ms	total	vectorWhile	PIR-LLVM	simple_reduced	20000000	1			
1	1	804.985000	ms	total	reversecomplement	PIR-LLVM	shootout	150000	1			
1	2	1124.869000	ms	total	reversecomplement	PIR-LLVM	shootout	150000	1			
1	3	1074.988000	ms	total	reversecomplement	PIR-LLVM	shootout	150000	1			
1	4	488.299000	ms	total	reversecomplement	PIR-LLVM	shootout	150000	1			
1	5	471.942000	ms	total	reversecomplement	PIR-LLVM	shootout	150000	1			
1	6	478.332000	ms	total	reversecomplement	PIR-LLVM	shootout	150000	1			
1	7	481.135000	ms	total	reversecomplement	PIR-LLVM	shootout	150000	1			
1	8	479.503000	ms	total	reversecomplement	PIR-LLVM	shootout	150000	1			
1	9	481.656000	ms	total	reversecomplement	PIR-LLVM	shootout	150000	1			
1	10	480.069000	ms	total	reversecomplement	PIR-LLVM	shootout	150000	1			
1	11	475.666000	ms	total	reversecomplement	PIR-LLVM	shootout	150000	1			
1	12	476.308000	ms	total	reversecomplement	PIR-LLVM	shootout	150000	1			
1	13	479.932000	ms	total	reversecomplement	PIR-LLVM	shootout	150000	1			
1	14	476.994000	ms	total	reversecomplement	PIR-LLVM	shootout	150000	1			
1	15	478.260000	ms	total	reversecomplement	PIR-LLVM	shootout	150000	1			
1	1	719.309000	ms	total	lapply	PIR-LLVM	simple_reduced	1000000	1			
1	2	828.540000	ms	total	lapply	PIR-LLVM	simple_reduced	1000000	1			
1	3	884.727000	ms	total	lapply	PIR-LLVM	simple_reduced	1000000	1			
1	4	775.228000	ms	total	lapply	PIR-LLVM	simple_reduced	1000000	1			
1	5	858.785000	ms	total	lapply	PIR-LLVM	simple_reduced	1000000	1			
1	6	832.293000	ms	total	lapply	PIR-LLVM	simple_reduced	1000000	1			
1	7	844.223000	ms	total	lapply	PIR-LLVM	simple_reduced	1000000	1			
1	8	840.644000	ms	total	lapply	PIR-LLVM	simple_reduced	1000000	1			
1	9	688.945000	ms	total	lapply	PIR-LLVM	simple_reduced	1000000	1			
1	10	892.399000	ms	total	lapply	PIR-LLVM	simple_reduced	1000000	1			
1	11	835.933000	ms	total	lapply	PIR-LLVM	simple_reduced	1000000	1			
1	12	844.027000	ms	total	lapply	PIR-LLVM	simple_reduced	1000000	1			
1	13	842.781000	ms	total	lapply	PIR-LLVM	simple_reduced	1000000	1			
1	14	690.660000	ms	total	lapply	PIR-LLVM	simple_reduced	1000000	1			
1	15	892.997000	ms	total	lapply	PIR-LLVM	simple_reduced	1000000	1			
1	1	2337.454000	ms	total	fasta_2	PIR-LLVM	shootout	60000	1			
1	2	806.086000	ms	total	fasta_2	PIR-LLVM	shootout	60000	1			
1	3	1699.197000	ms	total	fasta_2	PIR-LLVM	shootout	60000	1			
1	4	804.769000	ms	total	fasta_2	PIR-LLVM	shootout	60000	1			
1	5	799.193000	ms	total	fasta_2	PIR-LLVM	shootout	60000	1			
1	6	800.837000	ms	total	fasta_2	PIR-LLVM	shootout	60000	1			
1	7	806.753000	ms	total	fasta_2	PIR-LLVM	shootout	60000	1			
1	8	803.270000	ms	total	fasta_2	PIR-LLVM	shootout	60000	1			
1	9	798.929000	ms	total	fasta_2	PIR-LLVM	shootout	60000	1			
1	10	800.406000	ms	total	fasta_2	PIR-LLVM	shootout	60000	1			
1	11	803.600000	ms	total	fasta_2	PIR-LLVM	shootout	60000	1			
1	12	798.639000	ms	total	fasta_2	PIR-LLVM	shootout	60000	1			
1	13	802.052000	ms	total	fasta_2	PIR-LLVM	shootout	60000	1			
1	14	799.336000	ms	total	fasta_2	PIR-LLVM	shootout	60000	1			
1	15	801.479000	ms	total	fasta_2	PIR-LLVM	shootout	60000	1			
1	1	474.542000	ms	total	matrixFor	PIR-LLVM	simple_reduced	2000	1			
1	2	212.033000	ms	total	matrixFor	PIR-LLVM	simple_reduced	2000	1			
1	3	250.102000	ms	total	matrixFor	PIR-LLVM	simple_reduced	2000	1			
1	4	108.894000	ms	total	matrixFor	PIR-LLVM	simple_reduced	2000	1			
1	5	112.281000	ms	total	matrixFor	PIR-LLVM	simple_reduced	2000	1			
1	6	107.999000	ms	total	matrixFor	PIR-LLVM	simple_reduced	2000	1			
1	7	108.951000	ms	total	matrixFor	PIR-LLVM	simple_reduced	2000	1			
1	8	108.244000	ms	total	matrixFor	PIR-LLVM	simple_reduced	2000	1			
1	9	108.370000	ms	total	matrixFor	PIR-LLVM	simple_reduced	2000	1			
1	10	108.458000	ms	total	matrixFor	PIR-LLVM	simple_reduced	2000	1			
1	11	108.138000	ms	total	matrixFor	PIR-LLVM	simple_reduced	2000	1			
1	12	107.872000	ms	total	matrixFor	PIR-LLVM	simple_reduced	2000	1			
1	13	108.095000	ms	total	matrixFor	PIR-LLVM	simple_reduced	2000	1			
1	14	107.809000	ms	total	matrixFor	PIR-LLVM	simple_reduced	2000	1			
1	15	108.158000	ms	total	matrixFor	PIR-LLVM	simple_reduced	2000	1			
1	1	3764.323000	ms	total	knucleotide_brute_2	PIR-LLVM	shootout	2000	1			
1	2	3160.854000	ms	total	knucleotide_brute_2	PIR-LLVM	shootout	2000	1			
1	3	6679.333000	ms	total	knucleotide_brute_2	PIR-LLVM	shootout	2000	1			
1	4	2872.679000	ms	total	knucleotide_brute_2	PIR-LLVM	shootout	2000	1			
1	5	2829.063000	ms	total	knucleotide_brute_2	PIR-LLVM	shootout	2000	1			
1	6	3050.692000	ms	total	knucleotide_brute_2	PIR-LLVM	shootout	2000	1			
1	7	3362.994000	ms	total	knucleotide_brute_2	PIR-LLVM	shootout	2000	1			
1	8	3334.315000	ms	total	knucleotide_brute_2	PIR-LLVM	shootout	2000	1			
1	9	3372.300000	ms	total	knucleotide_brute_2	PIR-LLVM	shootout	2000	1			
1	10	3437.651000	ms	total	knucleotide_brute_2	PIR-LLVM	shootout	2000	1			
1	11	3961.878000	ms	total	knucleotide_brute_2	PIR-LLVM	shootout	2000	1			
1	12	4190.403000	ms	total	knucleotide_brute_2	PIR-LLVM	shootout	2000	1			
1	13	4024.732000	ms	total	knucleotide_brute_2	PIR-LLVM	shootout	2000	1			
1	14	2184.118000	ms	total	knucleotide_brute_2	PIR-LLVM	shootout	2000	1			
1	15	2156.450000	ms	total	knucleotide_brute_2	PIR-LLVM	shootout	2000	1			
1	1	2593.020000	ms	total	nbody_naive_2	PIR-LLVM	shootout	20000	1			
1	2	1732.336000	ms	total	nbody_naive_2	PIR-LLVM	shootout	20000	1			
1	3	1303.763000	ms	total	nbody_naive_2	PIR-LLVM	shootout	20000	1			
1	4	1127.162000	ms	total	nbody_naive_2	PIR-LLVM	shootout	20000	1			
1	5	1118.824000	ms	total	nbody_naive_2	PIR-LLVM	shootout	20000	1			
1	6	1129.768000	ms	total	nbody_naive_2	PIR-LLVM	shootout	20000	1			
1	7	1129.226000	ms	total	nbody_naive_2	PIR-LLVM	shootout	20000	1			
1	8	1494.138000	ms	total	nbody_naive_2	PIR-LLVM	shootout	20000	1			
1	9	1139.993000	ms	total	nbody_naive_2	PIR-LLVM	shootout	20000	1			
1	10	1120.945000	ms	total	nbody_naive_2	PIR-LLVM	shootout	20000	1			
1	11	1140.791000	ms	total	nbody_naive_2	PIR-LLVM	shootout	20000	1			
1	12	1114.971000	ms	total	nbody_naive_2	PIR-LLVM	shootout	20000	1			
1	13	1131.216000	ms	total	nbody_naive_2	PIR-LLVM	shootout	20000	1			
1	14	1132.723000	ms	total	nbody_naive_2	PIR-LLVM	shootout	20000	1			
1	15	1121.615000	ms	total	nbody_naive_2	PIR-LLVM	shootout	20000	1			
1	1	1297.682000	ms	total	vectorFor	PIR-LLVM	simple_reduced	15000000	1			
1	2	351.677000	ms	total	vectorFor	PIR-LLVM	simple_reduced	15000000	1			
1	3	319.360000	ms	total	vectorFor	PIR-LLVM	simple_reduced	15000000	1			
1	4	277.948000	ms	total	vectorFor	PIR-LLVM	simple_reduced	15000000	1			
1	5	276.448000	ms	total	vectorFor	PIR-LLVM	simple_reduced	15000000	1			
1	6	276.528000	ms	total	vectorFor	PIR-LLVM	simple_reduced	15000000	1			
1	7	278.976000	ms	total	vectorFor	PIR-LLVM	simple_reduced	15000000	1			
1	8	279.317000	ms	total	vectorFor	PIR-LLVM	simple_reduced	15000000	1			
1	9	276.890000	ms	total	vectorFor	PIR-LLVM	simple_reduced	15000000	1			
1	10	274.237000	ms	total	vectorFor	PIR-LLVM	simple_reduced	15000000	1			
1	11	279.041000	ms	total	vectorFor	PIR-LLVM	simple_reduced	15000000	1			
1	12	277.081000	ms	total	vectorFor	PIR-LLVM	simple_reduced	15000000	1			
1	13	275.112000	ms	total	vectorFor	PIR-LLVM	simple_reduced	15000000	1			
1	14	278.138000	ms	total	vectorFor	PIR-LLVM	simple_reduced	15000000	1			
1	15	277.658000	ms	total	vectorFor	PIR-LLVM	simple_reduced	15000000	1			
1	1	19891.080000	ms	total	flexclust_no_s4	PIR-LLVM	real_thing	5	1			
1	2	13489.950000	ms	total	flexclust_no_s4	PIR-LLVM	real_thing	5	1			
1	3	19795.829000	ms	total	flexclust_no_s4	PIR-LLVM	real_thing	5	1			
1	4	14892.358000	ms	total	flexclust_no_s4	PIR-LLVM	real_thing	5	1			
1	5	12071.345000	ms	total	flexclust_no_s4	PIR-LLVM	real_thing	5	1			
1	6	11411.902000	ms	total	flexclust_no_s4	PIR-LLVM	real_thing	5	1			
1	7	11455.374000	ms	total	flexclust_no_s4	PIR-LLVM	real_thing	5	1			
1	8	11352.583000	ms	total	flexclust_no_s4	PIR-LLVM	real_thing	5	1			
1	9	11337.769000	ms	total	flexclust_no_s4	PIR-LLVM	real_thing	5	1			
1	10	11385.855000	ms	total	flexclust_no_s4	PIR-LLVM	real_thing	5	1			
1	11	11370.764000	ms	total	flexclust_no_s4	PIR-LLVM	real_thing	5	1			
1	12	11206.114000	ms	total	flexclust_no_s4	PIR-LLVM	real_thing	5	1			
1	13	11463.792000	ms	total	flexclust_no_s4	PIR-LLVM	real_thing	5	1			
1	14	11267.134000	ms	total	flexclust_no_s4	PIR-LLVM	real_thing	5	1			
1	15	11412.541000	ms	total	flexclust_no_s4	PIR-LLVM	real_thing	5	1			
1	1	2263.865000	ms	total	nbody_3	PIR-LLVM	shootout	20000	1			
1	2	2125.802000	ms	total	nbody_3	PIR-LLVM	shootout	20000	1			
1	3	1748.638000	ms	total	nbody_3	PIR-LLVM	shootout	20000	1			
1	4	1029.742000	ms	total	nbody_3	PIR-LLVM	shootout	20000	1			
1	5	1043.126000	ms	total	nbody_3	PIR-LLVM	shootout	20000	1			
1	6	1029.391000	ms	total	nbody_3	PIR-LLVM	shootout	20000	1			
1	7	1028.506000	ms	total	nbody_3	PIR-LLVM	shootout	20000	1			
1	8	1037.832000	ms	total	nbody_3	PIR-LLVM	shootout	20000	1			
1	9	1029.417000	ms	total	nbody_3	PIR-LLVM	shootout	20000	1			
1	10	1041.252000	ms	total	nbody_3	PIR-LLVM	shootout	20000	1			
1	11	1033.284000	ms	total	nbody_3	PIR-LLVM	shootout	20000	1			
1	12	1031.201000	ms	total	nbody_3	PIR-LLVM	shootout	20000	1			
1	13	1045.511000	ms	total	nbody_3	PIR-LLVM	shootout	20000	1			
1	14	1051.940000	ms	total	nbody_3	PIR-LLVM	shootout	20000	1			
1	15	1045.646000	ms	total	nbody_3	PIR-LLVM	shootout	20000	1			
1	1	1044.317000	ms	total	superWhile	PIR-LLVM	simple_reduced	20000000	1			
1	2	853.846000	ms	total	superWhile	PIR-LLVM	simple_reduced	20000000	1			
1	3	39.446000	ms	total	superWhile	PIR-LLVM	simple_reduced	20000000	1			
1	4	20.200000	ms	total	superWhile	PIR-LLVM	simple_reduced	20000000	1			
1	5	20.189000	ms	total	superWhile	PIR-LLVM	simple_reduced	20000000	1			
1	6	20.189000	ms	total	superWhile	PIR-LLVM	simple_reduced	20000000	1			
1	7	20.188000	ms	total	superWhile	PIR-LLVM	simple_reduced	20000000	1			
1	8	20.190000	ms	total	superWhile	PIR-LLVM	simple_reduced	20000000	1			
1	9	20.189000	ms	total	superWhile	PIR-LLVM	simple_reduced	20000000	1			
1	10	20.189000	ms	total	superWhile	PIR-LLVM	simple_reduced	20000000	1			
1	11	20.188000	ms	total	superWhile	PIR-LLVM	simple_reduced	20000000	1			
1	12	20.188000	ms	total	superWhile	PIR-LLVM	simple_reduced	20000000	1			
1	13	20.188000	ms	total	superWhile	PIR-LLVM	simple_reduced	20000000	1			
1	14	20.188000	ms	total	superWhile	PIR-LLVM	simple_reduced	20000000	1			
1	15	20.188000	ms	total	superWhile	PIR-LLVM	simple_reduced	20000000	1			
1	1	2733.249000	ms	total	emptyWhile	PIR-LLVM	simple_reduced	30000000	1			
1	2	366.474000	ms	total	emptyWhile	PIR-LLVM	simple_reduced	30000000	1			
1	3	40.075000	ms	total	emptyWhile	PIR-LLVM	simple_reduced	30000000	1			
1	4	30.287000	ms	total	emptyWhile	PIR-LLVM	simple_reduced	30000000	1			
1	5	30.280000	ms	total	emptyWhile	PIR-LLVM	simple_reduced	30000000	1			
1	6	30.278000	ms	total	emptyWhile	PIR-LLVM	simple_reduced	30000000	1			
1	7	30.278000	ms	total	emptyWhile	PIR-LLVM	simple_reduced	30000000	1			
1	8	30.277000	ms	total	emptyWhile	PIR-LLVM	simple_reduced	30000000	1			
1	9	30.277000	ms	total	emptyWhile	PIR-LLVM	simple_reduced	30000000	1			
1	10	30.280000	ms	total	emptyWhile	PIR-LLVM	simple_reduced	30000000	1			
1	11	30.285000	ms	total	emptyWhile	PIR-LLVM	simple_reduced	30000000	1			
1	12	30.279000	ms	total	emptyWhile	PIR-LLVM	simple_reduced	30000000	1			
1	13	30.277000	ms	total	emptyWhile	PIR-LLVM	simple_reduced	30000000	1			
1	14	30.279000	ms	total	emptyWhile	PIR-LLVM	simple_reduced	30000000	1			
1	15	30.276000	ms	total	emptyWhile	PIR-LLVM	simple_reduced	30000000	1			
1	1	971.880000	ms	total	binarytrees	PIR-LLVM	shootout	9	1			
1	2	69.262000	ms	total	binarytrees	PIR-LLVM	shootout	9	1			
1	3	3281.947000	ms	total	binarytrees	PIR-LLVM	shootout	9	1			
1	4	68.824000	ms	total	binarytrees	PIR-LLVM	shootout	9	1			
1	5	68.981000	ms	total	binarytrees	PIR-LLVM	shootout	9	1			
1	6	78.550000	ms	total	binarytrees	PIR-LLVM	shootout	9	1			
1	7	197.974000	ms	total	binarytrees	PIR-LLVM	shootout	9	1			
1	8	69.398000	ms	total	binarytrees	PIR-LLVM	shootout	9	1			
1	9	68.637000	ms	total	binarytrees	PIR-LLVM	shootout	9	1			
1	10	69.462000	ms	total	binarytrees	PIR-LLVM	shootout	9	1			
1	11	72.560000	ms	total	binarytrees	PIR-LLVM	shootout	9	1			
1	12	68.882000	ms	total	binarytrees	PIR-LLVM	shootout	9	1			
1	13	68.773000	ms	total	binarytrees	PIR-LLVM	shootout	9	1			
1	14	68.743000	ms	total	binarytrees	PIR-LLVM	shootout	9	1			
1	15	68.815000	ms	total	binarytrees	PIR-LLVM	shootout	9	1			
1	1	4333.068000	ms	total	knucleotide_brute_3	PIR-LLVM	shootout	2000	1			
1	2	3403.310000	ms	total	knucleotide_brute_3	PIR-LLVM	shootout	2000	1			
1	3	6557.531000	ms	total	knucleotide_brute_3	PIR-LLVM	shootout	2000	1			
1	4	2667.706000	ms	total	knucleotide_brute_3	PIR-LLVM	shootout	2000	1			
1	5	2674.869000	ms	total	knucleotide_brute_3	PIR-LLVM	shootout	2000	1			
1	6	2667.520000	ms	total	knucleotide_brute_3	PIR-LLVM	shootout	2000	1			
1	7	2666.652000	ms	total	knucleotide_brute_3	PIR-LLVM	shootout	2000	1			
1	8	2644.701000	ms	total	knucleotide_brute_3	PIR-LLVM	shootout	2000	1			
1	9	2678.551000	ms	total	knucleotide_brute_3	PIR-LLVM	shootout	2000	1			
1	10	2649.452000	ms	total	knucleotide_brute_3	PIR-LLVM	shootout	2000	1			
1	11	2665.609000	ms	total	knucleotide_brute_3	PIR-LLVM	shootout	2000	1			
1	12	2669.663000	ms	total	knucleotide_brute_3	PIR-LLVM	shootout	2000	1			
1	13	2673.107000	ms	total	knucleotide_brute_3	PIR-LLVM	shootout	2000	1			
1	14	2739.908000	ms	total	knucleotide_brute_3	PIR-LLVM	shootout	2000	1			
1	15	2671.432000	ms	total	knucleotide_brute_3	PIR-LLVM	shootout	2000	1			
1	1	670.022000	ms	total	reversecomplement_2	PIR-LLVM	shootout	150000	1			
1	2	871.373000	ms	total	reversecomplement_2	PIR-LLVM	shootout	150000	1			
1	3	904.181000	ms	total	reversecomplement_2	PIR-LLVM	shootout	150000	1			
1	4	426.404000	ms	total	reversecomplement_2	PIR-LLVM	shootout	150000	1			
1	5	443.067000	ms	total	reversecomplement_2	PIR-LLVM	shootout	150000	1			
1	6	425.219000	ms	total	reversecomplement_2	PIR-LLVM	shootout	150000	1			
1	7	430.131000	ms	total	reversecomplement_2	PIR-LLVM	shootout	150000	1			
1	8	427.558000	ms	total	reversecomplement_2	PIR-LLVM	shootout	150000	1			
1	9	427.603000	ms	total	reversecomplement_2	PIR-LLVM	shootout	150000	1			
1	10	425.988000	ms	total	reversecomplement_2	PIR-LLVM	shootout	150000	1			
1	11	428.763000	ms	total	reversecomplement_2	PIR-LLVM	shootout	150000	1			
1	12	426.924000	ms	total	reversecomplement_2	PIR-LLVM	shootout	150000	1			
1	13	426.494000	ms	total	reversecomplement_2	PIR-LLVM	shootout	150000	1			
1	14	429.838000	ms	total	reversecomplement_2	PIR-LLVM	shootout	150000	1			
1	15	427.257000	ms	total	reversecomplement_2	PIR-LLVM	shootout	150000	1			
1	1	2094.349000	ms	total	nbody	PIR-LLVM	shootout	25000	1			
1	2	1984.184000	ms	total	nbody	PIR-LLVM	shootout	25000	1			
1	3	1364.448000	ms	total	nbody	PIR-LLVM	shootout	25000	1			
1	4	818.771000	ms	total	nbody	PIR-LLVM	shootout	25000	1			
1	5	822.291000	ms	total	nbody	PIR-LLVM	shootout	25000	1			
1	6	823.733000	ms	total	nbody	PIR-LLVM	shootout	25000	1			
1	7	799.215000	ms	total	nbody	PIR-LLVM	shootout	25000	1			
1	8	799.133000	ms	total	nbody	PIR-LLVM	shootout	25000	1			
1	9	799.833000	ms	total	nbody	PIR-LLVM	shootout	25000	1			
1	10	808.990000	ms	total	nbody	PIR-LLVM	shootout	25000	1			
1	11	814.337000	ms	total	nbody	PIR-LLVM	shootout	25000	1			
1	12	794.683000	ms	total	nbody	PIR-LLVM	shootout	25000	1			
1	13	799.766000	ms	total	nbody	PIR-LLVM	shootout	25000	1			
1	14	799.545000	ms	total	nbody	PIR-LLVM	shootout	25000	1			
1	15	836.458000	ms	total	nbody	PIR-LLVM	shootout	25000	1			
1	1	1553.251000	ms	total	spectralnorm_naive	PIR-LLVM	shootout	150	1			
1	2	66.620000	ms	total	spectralnorm_naive	PIR-LLVM	shootout	150	1			
1	3	3117.431000	ms	total	spectralnorm_naive	PIR-LLVM	shootout	150	1			
1	4	65.510000	ms	total	spectralnorm_naive	PIR-LLVM	shootout	150	1			
1	5	73.649000	ms	total	spectralnorm_naive	PIR-LLVM	shootout	150	1			
1	6	64.865000	ms	total	spectralnorm_naive	PIR-LLVM	shootout	150	1			
1	7	65.233000	ms	total	spectralnorm_naive	PIR-LLVM	shootout	150	1			
1	8	65.264000	ms	total	spectralnorm_naive	PIR-LLVM	shootout	150	1			
1	9	69.444000	ms	total	spectralnorm_naive	PIR-LLVM	shootout	150	1			
1	10	65.865000	ms	total	spectralnorm_naive	PIR-LLVM	shootout	150	1			
1	11	65.426000	ms	total	spectralnorm_naive	PIR-LLVM	shootout	150	1			
1	12	64.844000	ms	total	spectralnorm_naive	PIR-LLVM	shootout	150	1			
1	13	65.320000	ms	total	spectralnorm_naive	PIR-LLVM	shootout	150	1			
1	14	65.438000	ms	total	spectralnorm_naive	PIR-LLVM	shootout	150	1			
1	15	64.734000	ms	total	spectralnorm_naive	PIR-LLVM	shootout	150	1			
1	1	669.939000	ms	total	binarytrees_naive	PIR-LLVM	shootout	9	1			
1	2	2545.151000	ms	total	binarytrees_naive	PIR-LLVM	shootout	9	1			
1	3	2915.673000	ms	total	binarytrees_naive	PIR-LLVM	shootout	9	1			
1	4	1519.770000	ms	total	binarytrees_naive	PIR-LLVM	shootout	9	1			
1	5	70.193000	ms	total	binarytrees_naive	PIR-LLVM	shootout	9	1			
1	6	80.005000	ms	total	binarytrees_naive	PIR-LLVM	shootout	9	1			
1	7	70.203000	ms	total	binarytrees_naive	PIR-LLVM	shootout	9	1			
1	8	70.848000	ms	total	binarytrees_naive	PIR-LLVM	shootout	9	1			
1	9	70.100000	ms	total	binarytrees_naive	PIR-LLVM	shootout	9	1			
1	10	70.951000	ms	total	binarytrees_naive	PIR-LLVM	shootout	9	1			
1	11	70.226000	ms	total	binarytrees_naive	PIR-LLVM	shootout	9	1			
1	12	73.532000	ms	total	binarytrees_naive	PIR-LLVM	shootout	9	1			
1	13	70.781000	ms	total	binarytrees_naive	PIR-LLVM	shootout	9	1			
1	14	70.538000	ms	total	binarytrees_naive	PIR-LLVM	shootout	9	1			
1	15	69.933000	ms	total	binarytrees_naive	PIR-LLVM	shootout	9	1			
1	1	48465.809000	ms	total	pidigits	PIR-LLVM	shootout	30	1			
1	2	17849.195000	ms	total	pidigits	PIR-LLVM	shootout	30	1			
1	3	72.909000	ms	total	pidigits	PIR-LLVM	shootout	30	1			
1	4	62.520000	ms	total	pidigits	PIR-LLVM	shootout	30	1			
1	5	62.442000	ms	total	pidigits	PIR-LLVM	shootout	30	1			
1	6	61.511000	ms	total	pidigits	PIR-LLVM	shootout	30	1			
1	7	62.450000	ms	total	pidigits	PIR-LLVM	shootout	30	1			
1	8	71.055000	ms	total	pidigits	PIR-LLVM	shootout	30	1			
1	9	62.683000	ms	total	pidigits	PIR-LLVM	shootout	30	1			
1	10	61.477000	ms	total	pidigits	PIR-LLVM	shootout	30	1			
1	11	62.543000	ms	total	pidigits	PIR-LLVM	shootout	30	1			
1	12	61.505000	ms	total	pidigits	PIR-LLVM	shootout	30	1			
1	13	62.506000	ms	total	pidigits	PIR-LLVM	shootout	30	1			
1	14	61.518000	ms	total	pidigits	PIR-LLVM	shootout	30	1			
1	15	62.513000	ms	total	pidigits	PIR-LLVM	shootout	30	1			
