experiment, event, phase, run, s
deoptless,,integer,0,0.23
deoptless,,integer,1,0.0549999999999997
deoptless,,integer,2,0.00999999999999979
deoptless,,integer,3,0.011000000000001
deoptless,,double,4,0.0470000000000006
deoptless,,integer,5,0.0109999999999992
deoptless,,double,6,0.011000000000001
deoptless,,integer,7,0.0109999999999992
deoptless,,double,8,0.0109999999999992
deoptless,,integer,9,0.011000000000001
deoptless,,double,10,0.0109999999999992
deoptless,,integer,11,0.011000000000001
deoptless,,double,12,0.0109999999999992
deoptless,,integer,13,0.011000000000001
deoptless,,double,14,0.0109999999999992
deoptless,,integer,15,0.011000000000001
deoptless,,double,16,0.0109999999999992
deoptless,,integer,17,0.0109999999999992
deoptless,,double,18,0.011000000000001
deoptless,,integer,19,0.0109999999999992
deoptless,,double,20,0.011000000000001
deoptless,,integer,21,0.0109999999999992
deoptless,,double,22,0.011000000000001
deoptless,,integer,23,0.0109999999999992
deoptless,,double,24,0.011000000000001
deoptless,,integer,25,0.0109999999999992
deoptless,,double,26,0.0109999999999992
deoptless,,integer,27,0.011000000000001
deoptless,,double,28,0.0120000000000005
deoptless,,integer,29,0.00999999999999979
deoptless,,double,30,0.0120000000000005
deoptless,,integer,31,0.0109999999999992
deoptless,,double,32,0.0119999999999987
deoptless,,integer,33,0.0109999999999992
deoptless,,double,34,0.0109999999999992
deoptless,,integer,35,0.011000000000001
deoptless,,double,36,0.0109999999999992
deoptless,,integer,37,0.011000000000001
deoptless,,double,38,0.0109999999999992
deoptless,,integer,39,0.011000000000001
deoptless,,double,40,0.0109999999999992
deoptless,,integer,41,0.011000000000001
deoptless,,double,42,0.0109999999999992
deoptless,,integer,43,0.0109999999999992
deoptless,,double,44,0.011000000000001
deoptless,,integer,45,0.0109999999999992
deoptless,,double,46,0.011000000000001
deoptless,,integer,47,0.0109999999999992
deoptless,,double,48,0.011000000000001
deoptless,,integer,49,0.0109999999999992
deoptless,,integer,0,0.231
deoptless,,integer,1,0.0549999999999997
deoptless,,integer,2,0.00999999999999979
deoptless,,integer,3,0.0109999999999992
deoptless,,double,4,0.0459999999999994
deoptless,,integer,5,0.00999999999999979
deoptless,,double,6,0.0119999999999987
deoptless,,integer,7,0.0100000000000016
deoptless,,double,8,0.0119999999999987
deoptless,,integer,9,0.00999999999999979
deoptless,,double,10,0.0119999999999987
deoptless,,integer,11,0.011000000000001
deoptless,,double,12,0.0109999999999992
deoptless,,integer,13,0.011000000000001
deoptless,,double,14,0.0109999999999992
deoptless,,integer,15,0.011000000000001
deoptless,,double,16,0.0109999999999992
deoptless,,integer,17,0.011000000000001
deoptless,,double,18,0.0109999999999992
deoptless,,integer,19,0.0109999999999992
deoptless,,double,20,0.0120000000000005
deoptless,,integer,21,0.00999999999999979
deoptless,,double,22,0.0120000000000005
deoptless,,integer,23,0.011000000000001
deoptless,,double,24,0.0109999999999992
deoptless,,integer,25,0.0109999999999992
deoptless,,double,26,0.011000000000001
deoptless,,integer,27,0.0109999999999992
deoptless,,double,28,0.011000000000001
deoptless,,integer,29,0.0109999999999992
deoptless,,double,30,0.011000000000001
deoptless,,integer,31,0.00999999999999979
deoptless,,double,32,0.0120000000000005
deoptless,,integer,33,0.0109999999999992
deoptless,,double,34,0.011000000000001
deoptless,,integer,35,0.0109999999999992
deoptless,,double,36,0.011000000000001
deoptless,,integer,37,0.0109999999999992
deoptless,,double,38,0.011000000000001
deoptless,,integer,39,0.0109999999999992
deoptless,,double,40,0.0109999999999992
deoptless,,integer,41,0.00999999999999979
deoptless,,double,42,0.0120000000000005
deoptless,,integer,43,0.0109999999999992
deoptless,,double,44,0.011000000000001
deoptless,,integer,45,0.0109999999999992
deoptless,,double,46,0.0109999999999992
deoptless,,integer,47,0.0109999999999992
deoptless,,double,48,0.0109999999999992
deoptless,,integer,49,0.011000000000001
deoptless,,integer,0,0.23
deoptless,,integer,1,0.0540000000000003
deoptless,,integer,2,0.00999999999999979
deoptless,,integer,3,0.00999999999999979
deoptless,,double,4,0.0459999999999994
deoptless,,integer,5,0.00999999999999979
deoptless,,double,6,0.0119999999999987
deoptless,,integer,7,0.0100000000000016
deoptless,,double,8,0.0119999999999987
deoptless,,integer,9,0.00999999999999979
deoptless,,double,10,0.0120000000000005
deoptless,,integer,11,0.011000000000001
deoptless,,double,12,0.0109999999999992
deoptless,,integer,13,0.011000000000001
deoptless,,double,14,0.0109999999999992
deoptless,,integer,15,0.0109999999999992
deoptless,,double,16,0.011000000000001
deoptless,,integer,17,0.0109999999999992
deoptless,,double,18,0.011000000000001
deoptless,,integer,19,0.0109999999999992
deoptless,,double,20,0.0120000000000005
deoptless,,integer,21,0.00999999999999979
deoptless,,double,22,0.0129999999999999
deoptless,,integer,23,0.0109999999999992
deoptless,,double,24,0.0109999999999992
deoptless,,integer,25,0.0109999999999992
deoptless,,double,26,0.0109999999999992
deoptless,,integer,27,0.011000000000001
deoptless,,double,28,0.0109999999999992
deoptless,,integer,29,0.011000000000001
deoptless,,double,30,0.0119999999999987
deoptless,,integer,31,0.00999999999999979
deoptless,,double,32,0.0119999999999987
deoptless,,integer,33,0.011000000000001
deoptless,,double,34,0.0109999999999992
deoptless,,integer,35,0.011000000000001
deoptless,,double,36,0.0109999999999992
deoptless,,integer,37,0.011000000000001
deoptless,,double,38,0.0109999999999992
deoptless,,integer,39,0.011000000000001
deoptless,,double,40,0.0109999999999992
deoptless,,integer,41,0.00999999999999979
deoptless,,double,42,0.0119999999999987
deoptless,,integer,43,0.011000000000001
deoptless,,double,44,0.0119999999999987
deoptless,,integer,45,0.011000000000001
deoptless,,double,46,0.0109999999999992
deoptless,,integer,47,0.011000000000001
deoptless,,double,48,0.0109999999999992
deoptless,,integer,49,0.011000000000001
deoptless,,integer,0,0.229000000000001
deoptless,,integer,1,0.0540000000000003
deoptless,,integer,2,0.00999999999999979
deoptless,,integer,3,0.0109999999999992
deoptless,,double,4,0.0449999999999999
deoptless,,integer,5,0.0109999999999992
deoptless,,double,6,0.0109999999999992
deoptless,,integer,7,0.011000000000001
deoptless,,double,8,0.0109999999999992
deoptless,,integer,9,0.011000000000001
deoptless,,double,10,0.0109999999999992
deoptless,,integer,11,0.011000000000001
deoptless,,double,12,0.0119999999999987
deoptless,,integer,13,0.0100000000000016
deoptless,,double,14,0.0119999999999987
deoptless,,integer,15,0.011000000000001
deoptless,,double,16,0.0109999999999992
deoptless,,integer,17,0.011000000000001
deoptless,,double,18,0.0109999999999992
deoptless,,integer,19,0.011000000000001
deoptless,,double,20,0.0109999999999992
deoptless,,integer,21,0.0109999999999992
deoptless,,double,22,0.0109999999999992
deoptless,,integer,23,0.0109999999999992
deoptless,,double,24,0.011000000000001
deoptless,,integer,25,0.00999999999999979
deoptless,,double,26,0.0120000000000005
deoptless,,integer,27,0.0109999999999992
deoptless,,double,28,0.0109999999999992
deoptless,,integer,29,0.0109999999999992
deoptless,,double,30,0.011000000000001
deoptless,,integer,31,0.0109999999999992
deoptless,,double,32,0.011000000000001
deoptless,,integer,33,0.0109999999999992
deoptless,,double,34,0.0120000000000005
deoptless,,integer,35,0.00999999999999979
deoptless,,double,36,0.0120000000000005
deoptless,,integer,37,0.0109999999999992
deoptless,,double,38,0.011000000000001
deoptless,,integer,39,0.0109999999999992
deoptless,,double,40,0.011000000000001
deoptless,,integer,41,0.0109999999999992
deoptless,,double,42,0.011000000000001
deoptless,,integer,43,0.0109999999999992
deoptless,,double,44,0.0109999999999992
deoptless,,integer,45,0.011000000000001
deoptless,,double,46,0.0120000000000005
deoptless,,integer,47,0.00999999999999979
deoptless,,double,48,0.011000000000001
deoptless,,integer,49,0.0109999999999992
deoptless,,integer,0,0.23
deoptless,,integer,1,0.0540000000000003
deoptless,,integer,2,0.011000000000001
deoptless,,integer,3,0.0109999999999992
deoptless,,double,4,0.0459999999999994
deoptless,,integer,5,0.00999999999999979
deoptless,,double,6,0.0120000000000005
deoptless,,integer,7,0.00999999999999979
deoptless,,double,8,0.0120000000000005
deoptless,,integer,9,0.00999999999999979
deoptless,,double,10,0.0120000000000005
deoptless,,integer,11,0.0109999999999992
deoptless,,double,12,0.011000000000001
deoptless,,integer,13,0.0109999999999992
deoptless,,double,14,0.011000000000001
deoptless,,integer,15,0.0109999999999992
deoptless,,double,16,0.011000000000001
deoptless,,integer,17,0.0109999999999992
deoptless,,double,18,0.0109999999999992
deoptless,,integer,19,0.011000000000001
deoptless,,double,20,0.0109999999999992
deoptless,,integer,21,0.00999999999999979
deoptless,,double,22,0.0120000000000005
deoptless,,integer,23,0.0109999999999992
deoptless,,double,24,0.0109999999999992
deoptless,,integer,25,0.011000000000001
deoptless,,double,26,0.0109999999999992
deoptless,,integer,27,0.011000000000001
deoptless,,double,28,0.0109999999999992
deoptless,,integer,29,0.011000000000001
deoptless,,double,30,0.0109999999999992
deoptless,,integer,31,0.011000000000001
deoptless,,double,32,0.0109999999999992
deoptless,,integer,33,0.0109999999999992
deoptless,,double,34,0.011000000000001
deoptless,,integer,35,0.00999999999999979
deoptless,,double,36,0.0120000000000005
deoptless,,integer,37,0.011000000000001
deoptless,,double,38,0.0120000000000005
deoptless,,integer,39,0.0109999999999992
deoptless,,double,40,0.011000000000001
deoptless,,integer,41,0.0109999999999992
deoptless,,double,42,0.011000000000001
deoptless,,integer,43,0.0109999999999992
deoptless,,double,44,0.011000000000001
deoptless,,integer,45,0.0109999999999992
deoptless,,double,46,0.011000000000001
deoptless,,integer,47,0.0109999999999992
deoptless,,double,48,0.0109999999999992
deoptless,,integer,49,0.00999999999999979
deoptless,,integer,0,0.228999999999999
deoptless,,integer,1,0.0540000000000003
deoptless,,integer,2,0.011000000000001
deoptless,,integer,3,0.0100000000000016
deoptless,,double,4,0.0459999999999994
deoptless,,integer,5,0.0109999999999992
deoptless,,double,6,0.011000000000001
deoptless,,integer,7,0.0109999999999992
deoptless,,double,8,0.0120000000000005
deoptless,,integer,9,0.00999999999999979
deoptless,,double,10,0.0120000000000005
deoptless,,integer,11,0.00999999999999979
deoptless,,double,12,0.0120000000000005
deoptless,,integer,13,0.0109999999999992
deoptless,,double,14,0.011000000000001
deoptless,,integer,15,0.0109999999999992
deoptless,,double,16,0.0109999999999992
deoptless,,integer,17,0.0120000000000005
deoptless,,double,18,0.0109999999999992
deoptless,,integer,19,0.0109999999999992
deoptless,,double,20,0.011000000000001
deoptless,,integer,21,0.0109999999999992
deoptless,,double,22,0.011000000000001
deoptless,,integer,23,0.00999999999999979
deoptless,,double,24,0.0120000000000005
deoptless,,integer,25,0.0109999999999992
deoptless,,double,26,0.011000000000001
deoptless,,integer,27,0.0109999999999992
deoptless,,double,28,0.011000000000001
deoptless,,integer,29,0.0109999999999992
deoptless,,double,30,0.011000000000001
deoptless,,integer,31,0.0109999999999992
deoptless,,double,32,0.011000000000001
deoptless,,integer,33,0.00999999999999979
deoptless,,double,34,0.0120000000000005
deoptless,,integer,35,0.0109999999999992
deoptless,,double,36,0.011000000000001
deoptless,,integer,37,0.0109999999999992
deoptless,,double,38,0.011000000000001
deoptless,,integer,39,0.0109999999999992
deoptless,,double,40,0.011000000000001
deoptless,,integer,41,0.0120000000000005
deoptless,,double,42,0.0109999999999992
deoptless,,integer,43,0.011000000000001
deoptless,,double,44,0.0109999999999992
deoptless,,integer,45,0.0109999999999992
deoptless,,double,46,0.0120000000000005
deoptless,,integer,47,0.011000000000001
deoptless,,double,48,0.0109999999999992
deoptless,,integer,49,0.011000000000001
deoptless,,integer,0,0.23
deoptless,,integer,1,0.0539999999999985
deoptless,,integer,2,0.00999999999999979
deoptless,,integer,3,0.0109999999999992
deoptless,,double,4,0.0459999999999994
deoptless,,integer,5,0.0100000000000016
deoptless,,double,6,0.0119999999999987
deoptless,,integer,7,0.00999999999999979
deoptless,,double,8,0.0120000000000005
deoptless,,integer,9,0.011000000000001
deoptless,,double,10,0.0109999999999992
deoptless,,integer,11,0.011000000000001
deoptless,,double,12,0.0109999999999992
deoptless,,integer,13,0.0109999999999992
deoptless,,double,14,0.011000000000001
deoptless,,integer,15,0.0109999999999992
deoptless,,double,16,0.011000000000001
deoptless,,integer,17,0.0109999999999992
deoptless,,double,18,0.0120000000000005
deoptless,,integer,19,0.00999999999999979
deoptless,,double,20,0.0120000000000005
deoptless,,integer,21,0.0109999999999992
deoptless,,double,22,0.011000000000001
deoptless,,integer,23,0.0109999999999992
deoptless,,double,24,0.011000000000001
deoptless,,integer,25,0.0109999999999992
deoptless,,double,26,0.011000000000001
deoptless,,integer,27,0.0109999999999992
deoptless,,double,28,0.0120000000000005
deoptless,,integer,29,0.00999999999999979
deoptless,,double,30,0.011000000000001
deoptless,,integer,31,0.0109999999999992
deoptless,,double,32,0.011000000000001
deoptless,,integer,33,0.0109999999999992
deoptless,,double,34,0.011000000000001
deoptless,,integer,35,0.0109999999999992
deoptless,,double,36,0.0109999999999992
deoptless,,integer,37,0.011000000000001
deoptless,,double,38,0.0120000000000005
deoptless,,integer,39,0.0109999999999992
deoptless,,double,40,0.011000000000001
deoptless,,integer,41,0.0109999999999992
deoptless,,double,42,0.0109999999999992
deoptless,,integer,43,0.011000000000001
deoptless,,double,44,0.0109999999999992
deoptless,,integer,45,0.011000000000001
deoptless,,double,46,0.0109999999999992
deoptless,,integer,47,0.00999999999999979
deoptless,,double,48,0.0119999999999987
deoptless,,integer,49,0.011000000000001
deoptless,,integer,0,0.23
deoptless,,integer,1,0.0540000000000003
deoptless,,integer,2,0.0109999999999992
deoptless,,integer,3,0.00999999999999979
deoptless,,double,4,0.0459999999999994
deoptless,,integer,5,0.011000000000001
deoptless,,double,6,0.0109999999999992
deoptless,,integer,7,0.0109999999999992
deoptless,,double,8,0.011000000000001
deoptless,,integer,9,0.0109999999999992
deoptless,,double,10,0.0120000000000005
deoptless,,integer,11,0.00999999999999979
deoptless,,double,12,0.0120000000000005
deoptless,,integer,13,0.0109999999999992
deoptless,,double,14,0.011000000000001
deoptless,,integer,15,0.0109999999999992
deoptless,,double,16,0.011000000000001
deoptless,,integer,17,0.0109999999999992
deoptless,,double,18,0.011000000000001
deoptless,,integer,19,0.0109999999999992
deoptless,,double,20,0.011000000000001
deoptless,,integer,21,0.0109999999999992
deoptless,,double,22,0.0109999999999992
deoptless,,integer,23,0.011000000000001
deoptless,,double,24,0.0109999999999992
deoptless,,integer,25,0.011000000000001
deoptless,,double,26,0.0120000000000005
deoptless,,integer,27,0.00999999999999979
deoptless,,double,28,0.0119999999999987
deoptless,,integer,29,0.011000000000001
deoptless,,double,30,0.0109999999999992
deoptless,,integer,31,0.011000000000001
deoptless,,double,32,0.0109999999999992
deoptless,,integer,33,0.011000000000001
deoptless,,double,34,0.0109999999999992
deoptless,,integer,35,0.011000000000001
deoptless,,double,36,0.0109999999999992
deoptless,,integer,37,0.011000000000001
deoptless,,double,38,0.0119999999999987
deoptless,,integer,39,0.00999999999999979
deoptless,,double,40,0.0120000000000005
deoptless,,integer,41,0.00999999999999979
deoptless,,double,42,0.0120000000000005
deoptless,,integer,43,0.011000000000001
deoptless,,double,44,0.0109999999999992
deoptless,,integer,45,0.0109999999999992
deoptless,,double,46,0.011000000000001
deoptless,,integer,47,0.0109999999999992
deoptless,,double,48,0.011000000000001
deoptless,,integer,49,0.0109999999999992
deoptless,,integer,0,0.231
deoptless,,integer,1,0.0540000000000003
deoptless,,integer,2,0.0109999999999992
deoptless,,integer,3,0.0109999999999992
deoptless,,double,4,0.0459999999999994
deoptless,,integer,5,0.011000000000001
deoptless,,double,6,0.0109999999999992
deoptless,,integer,7,0.011000000000001
deoptless,,double,8,0.0109999999999992
deoptless,,integer,9,0.0109999999999992
deoptless,,double,10,0.011000000000001
deoptless,,integer,11,0.0109999999999992
deoptless,,double,12,0.011000000000001
deoptless,,integer,13,0.0109999999999992
deoptless,,double,14,0.011000000000001
deoptless,,integer,15,0.0109999999999992
deoptless,,double,16,0.011000000000001
deoptless,,integer,17,0.0109999999999992
deoptless,,double,18,0.0109999999999992
deoptless,,integer,19,0.011000000000001
deoptless,,double,20,0.0109999999999992
deoptless,,integer,21,0.011000000000001
deoptless,,double,22,0.0109999999999992
deoptless,,integer,23,0.011000000000001
deoptless,,double,24,0.0109999999999992
deoptless,,integer,25,0.011000000000001
deoptless,,double,26,0.0109999999999992
deoptless,,integer,27,0.0109999999999992
deoptless,,double,28,0.0120000000000005
deoptless,,integer,29,0.0109999999999992
deoptless,,double,30,0.0120000000000005
deoptless,,integer,31,0.00999999999999979
deoptless,,double,32,0.011000000000001
deoptless,,integer,33,0.0109999999999992
deoptless,,double,34,0.0120000000000005
deoptless,,integer,35,0.00699999999999967
deoptless,,double,36,0.0120000000000005
deoptless,,integer,37,0.00999999999999979
deoptless,,double,38,0.0120000000000005
deoptless,,integer,39,0.0109999999999992
deoptless,,double,40,0.0120000000000005
deoptless,,integer,41,0.00999999999999979
deoptless,,double,42,0.0120000000000005
deoptless,,integer,43,0.0109999999999992
deoptless,,double,44,0.011000000000001
deoptless,,integer,45,0.0109999999999992
deoptless,,double,46,0.011000000000001
deoptless,,integer,47,0.0109999999999992
deoptless,,double,48,0.011000000000001
deoptless,,integer,49,0.0109999999999992
deoptless,,integer,0,0.23
deoptless,,integer,1,0.0540000000000003
deoptless,,integer,2,0.0109999999999992
deoptless,,integer,3,0.0109999999999992
deoptless,,double,4,0.0470000000000006
deoptless,,integer,5,0.011000000000001
deoptless,,double,6,0.0109999999999992
deoptless,,integer,7,0.011000000000001
deoptless,,double,8,0.0109999999999992
deoptless,,integer,9,0.011000000000001
deoptless,,double,10,0.0109999999999992
deoptless,,integer,11,0.0109999999999992
deoptless,,double,12,0.011000000000001
deoptless,,integer,13,0.0109999999999992
deoptless,,double,14,0.0120000000000005
deoptless,,integer,15,0.00999999999999979
deoptless,,double,16,0.0120000000000005
deoptless,,integer,17,0.0109999999999992
deoptless,,double,18,0.011000000000001
deoptless,,integer,19,0.0109999999999992
deoptless,,double,20,0.011000000000001
deoptless,,integer,21,0.0109999999999992
deoptless,,double,22,0.011000000000001
deoptless,,integer,23,0.0109999999999992
deoptless,,double,24,0.011000000000001
deoptless,,integer,25,0.00999999999999979
deoptless,,double,26,0.0120000000000005
deoptless,,integer,27,0.0109999999999992
deoptless,,double,28,0.011000000000001
deoptless,,integer,29,0.0109999999999992
deoptless,,double,30,0.011000000000001
deoptless,,integer,31,0.0109999999999992
deoptless,,double,32,0.0109999999999992
deoptless,,integer,33,0.011000000000001
deoptless,,double,34,0.0109999999999992
deoptless,,integer,35,0.011000000000001
deoptless,,double,36,0.0109999999999992
deoptless,,integer,37,0.00999999999999979
deoptless,,double,38,0.0119999999999987
deoptless,,integer,39,0.0100000000000016
deoptless,,double,40,0.0119999999999987
deoptless,,integer,41,0.011000000000001
deoptless,,double,42,0.0109999999999992
deoptless,,integer,43,0.011000000000001
deoptless,,double,44,0.0109999999999992
deoptless,,integer,45,0.011000000000001
deoptless,,double,46,0.0109999999999992
deoptless,,integer,47,0.0109999999999992
deoptless,,double,48,0.0109999999999992
deoptless,,integer,49,0.0109999999999992
