#!/usr/local/bin/rebench rebench.conf e:PIR-LLVM -df /opt/experiments/dls-repro/benchmarks-baseline.data -R
# Execution Start: 2022-03-04T02:27:14.781279+00:00
# Environment: {"userName": "root", "manualRun": false, "hostName": "runner-8zkb9w1v-project-34101138-concurrent-0", "osType": "Linux", "memory": 33399554048, "denoise": {}, "cpu": "Intel(R) Core(TM) i7-6700K CPU @ 4.00GHz", "clockSpeed": 4000000000, "software": [{"name": "kernel", "version": "#157-Ubuntu SMP Fri Jul 9 23:07:57 UTC 2021"}, {"name": "kernel-release", "version": "4.15.0-151-generic"}, {"name": "architecture", "version": "x86_64"}]}
# Source: {"repoURL": null, "branchOrTag": null, "commitId": null, "commitMsg": null, "authorName": null, "committerName": null, "authorEmail": null, "committerEmail": null}
1	1	1196.364000	ms	total	profiler-microbenchmark	PIR-LLVM	simple_reduced	5000000	1			
1	2	506.688000	ms	total	profiler-microbenchmark	PIR-LLVM	simple_reduced	5000000	1			
1	3	537.562000	ms	total	profiler-microbenchmark	PIR-LLVM	simple_reduced	5000000	1			
1	4	523.953000	ms	total	profiler-microbenchmark	PIR-LLVM	simple_reduced	5000000	1			
1	5	509.362000	ms	total	profiler-microbenchmark	PIR-LLVM	simple_reduced	5000000	1			
1	6	511.149000	ms	total	profiler-microbenchmark	PIR-LLVM	simple_reduced	5000000	1			
1	7	524.198000	ms	total	profiler-microbenchmark	PIR-LLVM	simple_reduced	5000000	1			
1	8	522.521000	ms	total	profiler-microbenchmark	PIR-LLVM	simple_reduced	5000000	1			
1	9	535.532000	ms	total	profiler-microbenchmark	PIR-LLVM	simple_reduced	5000000	1			
1	10	508.422000	ms	total	profiler-microbenchmark	PIR-LLVM	simple_reduced	5000000	1			
1	11	506.851000	ms	total	profiler-microbenchmark	PIR-LLVM	simple_reduced	5000000	1			
1	12	511.323000	ms	total	profiler-microbenchmark	PIR-LLVM	simple_reduced	5000000	1			
1	13	523.569000	ms	total	profiler-microbenchmark	PIR-LLVM	simple_reduced	5000000	1			
1	14	508.725000	ms	total	profiler-microbenchmark	PIR-LLVM	simple_reduced	5000000	1			
1	15	523.465000	ms	total	profiler-microbenchmark	PIR-LLVM	simple_reduced	5000000	1			
1	16	511.448000	ms	total	profiler-microbenchmark	PIR-LLVM	simple_reduced	5000000	1			
1	17	507.913000	ms	total	profiler-microbenchmark	PIR-LLVM	simple_reduced	5000000	1			
1	18	521.824000	ms	total	profiler-microbenchmark	PIR-LLVM	simple_reduced	5000000	1			
1	19	533.649000	ms	total	profiler-microbenchmark	PIR-LLVM	simple_reduced	5000000	1			
1	20	523.682000	ms	total	profiler-microbenchmark	PIR-LLVM	simple_reduced	5000000	1			
1	21	506.625000	ms	total	profiler-microbenchmark	PIR-LLVM	simple_reduced	5000000	1			
1	22	511.482000	ms	total	profiler-microbenchmark	PIR-LLVM	simple_reduced	5000000	1			
1	23	506.568000	ms	total	profiler-microbenchmark	PIR-LLVM	simple_reduced	5000000	1			
1	24	508.472000	ms	total	profiler-microbenchmark	PIR-LLVM	simple_reduced	5000000	1			
1	25	524.555000	ms	total	profiler-microbenchmark	PIR-LLVM	simple_reduced	5000000	1			
1	26	509.324000	ms	total	profiler-microbenchmark	PIR-LLVM	simple_reduced	5000000	1			
1	27	509.826000	ms	total	profiler-microbenchmark	PIR-LLVM	simple_reduced	5000000	1			
1	28	510.302000	ms	total	profiler-microbenchmark	PIR-LLVM	simple_reduced	5000000	1			
1	29	521.937000	ms	total	profiler-microbenchmark	PIR-LLVM	simple_reduced	5000000	1			
1	30	523.297000	ms	total	profiler-microbenchmark	PIR-LLVM	simple_reduced	5000000	1			
2	1	1189.450000	ms	total	profiler-microbenchmark	PIR-LLVM	simple_reduced	5000000	1			
2	2	509.365000	ms	total	profiler-microbenchmark	PIR-LLVM	simple_reduced	5000000	1			
2	3	523.554000	ms	total	profiler-microbenchmark	PIR-LLVM	simple_reduced	5000000	1			
2	4	508.801000	ms	total	profiler-microbenchmark	PIR-LLVM	simple_reduced	5000000	1			
2	5	508.416000	ms	total	profiler-microbenchmark	PIR-LLVM	simple_reduced	5000000	1			
2	6	513.234000	ms	total	profiler-microbenchmark	PIR-LLVM	simple_reduced	5000000	1			
2	7	510.042000	ms	total	profiler-microbenchmark	PIR-LLVM	simple_reduced	5000000	1			
2	8	510.679000	ms	total	profiler-microbenchmark	PIR-LLVM	simple_reduced	5000000	1			
2	9	521.869000	ms	total	profiler-microbenchmark	PIR-LLVM	simple_reduced	5000000	1			
2	10	509.166000	ms	total	profiler-microbenchmark	PIR-LLVM	simple_reduced	5000000	1			
2	11	506.796000	ms	total	profiler-microbenchmark	PIR-LLVM	simple_reduced	5000000	1			
2	12	509.297000	ms	total	profiler-microbenchmark	PIR-LLVM	simple_reduced	5000000	1			
2	13	509.778000	ms	total	profiler-microbenchmark	PIR-LLVM	simple_reduced	5000000	1			
2	14	511.908000	ms	total	profiler-microbenchmark	PIR-LLVM	simple_reduced	5000000	1			
2	15	509.100000	ms	total	profiler-microbenchmark	PIR-LLVM	simple_reduced	5000000	1			
2	16	515.239000	ms	total	profiler-microbenchmark	PIR-LLVM	simple_reduced	5000000	1			
2	17	507.343000	ms	total	profiler-microbenchmark	PIR-LLVM	simple_reduced	5000000	1			
2	18	506.304000	ms	total	profiler-microbenchmark	PIR-LLVM	simple_reduced	5000000	1			
2	19	519.555000	ms	total	profiler-microbenchmark	PIR-LLVM	simple_reduced	5000000	1			
2	20	506.861000	ms	total	profiler-microbenchmark	PIR-LLVM	simple_reduced	5000000	1			
2	21	510.823000	ms	total	profiler-microbenchmark	PIR-LLVM	simple_reduced	5000000	1			
2	22	510.221000	ms	total	profiler-microbenchmark	PIR-LLVM	simple_reduced	5000000	1			
2	23	510.938000	ms	total	profiler-microbenchmark	PIR-LLVM	simple_reduced	5000000	1			
2	24	508.857000	ms	total	profiler-microbenchmark	PIR-LLVM	simple_reduced	5000000	1			
2	25	509.958000	ms	total	profiler-microbenchmark	PIR-LLVM	simple_reduced	5000000	1			
2	26	523.172000	ms	total	profiler-microbenchmark	PIR-LLVM	simple_reduced	5000000	1			
2	27	509.732000	ms	total	profiler-microbenchmark	PIR-LLVM	simple_reduced	5000000	1			
2	28	511.875000	ms	total	profiler-microbenchmark	PIR-LLVM	simple_reduced	5000000	1			
2	29	534.554000	ms	total	profiler-microbenchmark	PIR-LLVM	simple_reduced	5000000	1			
2	30	522.037000	ms	total	profiler-microbenchmark	PIR-LLVM	simple_reduced	5000000	1			
3	1	1186.581000	ms	total	profiler-microbenchmark	PIR-LLVM	simple_reduced	5000000	1			
3	2	506.390000	ms	total	profiler-microbenchmark	PIR-LLVM	simple_reduced	5000000	1			
3	3	524.297000	ms	total	profiler-microbenchmark	PIR-LLVM	simple_reduced	5000000	1			
3	4	508.749000	ms	total	profiler-microbenchmark	PIR-LLVM	simple_reduced	5000000	1			
3	5	503.947000	ms	total	profiler-microbenchmark	PIR-LLVM	simple_reduced	5000000	1			
3	6	511.493000	ms	total	profiler-microbenchmark	PIR-LLVM	simple_reduced	5000000	1			
3	7	508.591000	ms	total	profiler-microbenchmark	PIR-LLVM	simple_reduced	5000000	1			
3	8	515.609000	ms	total	profiler-microbenchmark	PIR-LLVM	simple_reduced	5000000	1			
3	9	526.993000	ms	total	profiler-microbenchmark	PIR-LLVM	simple_reduced	5000000	1			
3	10	508.781000	ms	total	profiler-microbenchmark	PIR-LLVM	simple_reduced	5000000	1			
3	11	506.139000	ms	total	profiler-microbenchmark	PIR-LLVM	simple_reduced	5000000	1			
3	12	510.745000	ms	total	profiler-microbenchmark	PIR-LLVM	simple_reduced	5000000	1			
3	13	525.306000	ms	total	profiler-microbenchmark	PIR-LLVM	simple_reduced	5000000	1			
3	14	523.629000	ms	total	profiler-microbenchmark	PIR-LLVM	simple_reduced	5000000	1			
3	15	511.504000	ms	total	profiler-microbenchmark	PIR-LLVM	simple_reduced	5000000	1			
3	16	513.656000	ms	total	profiler-microbenchmark	PIR-LLVM	simple_reduced	5000000	1			
3	17	521.239000	ms	total	profiler-microbenchmark	PIR-LLVM	simple_reduced	5000000	1			
3	18	508.044000	ms	total	profiler-microbenchmark	PIR-LLVM	simple_reduced	5000000	1			
3	19	520.066000	ms	total	profiler-microbenchmark	PIR-LLVM	simple_reduced	5000000	1			
3	20	507.733000	ms	total	profiler-microbenchmark	PIR-LLVM	simple_reduced	5000000	1			
3	21	529.341000	ms	total	profiler-microbenchmark	PIR-LLVM	simple_reduced	5000000	1			
3	22	512.929000	ms	total	profiler-microbenchmark	PIR-LLVM	simple_reduced	5000000	1			
3	23	524.308000	ms	total	profiler-microbenchmark	PIR-LLVM	simple_reduced	5000000	1			
3	24	508.583000	ms	total	profiler-microbenchmark	PIR-LLVM	simple_reduced	5000000	1			
3	25	524.538000	ms	total	profiler-microbenchmark	PIR-LLVM	simple_reduced	5000000	1			
3	26	510.558000	ms	total	profiler-microbenchmark	PIR-LLVM	simple_reduced	5000000	1			
3	27	522.947000	ms	total	profiler-microbenchmark	PIR-LLVM	simple_reduced	5000000	1			
3	28	521.557000	ms	total	profiler-microbenchmark	PIR-LLVM	simple_reduced	5000000	1			
3	29	519.164000	ms	total	profiler-microbenchmark	PIR-LLVM	simple_reduced	5000000	1			
3	30	506.175000	ms	total	profiler-microbenchmark	PIR-LLVM	simple_reduced	5000000	1			
1	1	1325.732000	ms	total	profiler-rsa	PIR-LLVM	simple_reduced	600000	1			
1	2	1246.825000	ms	total	profiler-rsa	PIR-LLVM	simple_reduced	600000	1			
1	3	1266.214000	ms	total	profiler-rsa	PIR-LLVM	simple_reduced	600000	1			
1	4	1257.779000	ms	total	profiler-rsa	PIR-LLVM	simple_reduced	600000	1			
1	5	1244.369000	ms	total	profiler-rsa	PIR-LLVM	simple_reduced	600000	1			
1	6	1244.391000	ms	total	profiler-rsa	PIR-LLVM	simple_reduced	600000	1			
1	7	1248.333000	ms	total	profiler-rsa	PIR-LLVM	simple_reduced	600000	1			
1	8	1254.807000	ms	total	profiler-rsa	PIR-LLVM	simple_reduced	600000	1			
1	9	1246.766000	ms	total	profiler-rsa	PIR-LLVM	simple_reduced	600000	1			
1	10	1241.804000	ms	total	profiler-rsa	PIR-LLVM	simple_reduced	600000	1			
1	11	1245.564000	ms	total	profiler-rsa	PIR-LLVM	simple_reduced	600000	1			
1	12	1258.005000	ms	total	profiler-rsa	PIR-LLVM	simple_reduced	600000	1			
1	13	1264.326000	ms	total	profiler-rsa	PIR-LLVM	simple_reduced	600000	1			
1	14	1242.854000	ms	total	profiler-rsa	PIR-LLVM	simple_reduced	600000	1			
1	15	1248.514000	ms	total	profiler-rsa	PIR-LLVM	simple_reduced	600000	1			
1	16	1255.638000	ms	total	profiler-rsa	PIR-LLVM	simple_reduced	600000	1			
1	17	1247.333000	ms	total	profiler-rsa	PIR-LLVM	simple_reduced	600000	1			
1	18	1246.840000	ms	total	profiler-rsa	PIR-LLVM	simple_reduced	600000	1			
1	19	1242.675000	ms	total	profiler-rsa	PIR-LLVM	simple_reduced	600000	1			
1	20	1258.189000	ms	total	profiler-rsa	PIR-LLVM	simple_reduced	600000	1			
1	21	1246.300000	ms	total	profiler-rsa	PIR-LLVM	simple_reduced	600000	1			
1	22	1246.678000	ms	total	profiler-rsa	PIR-LLVM	simple_reduced	600000	1			
1	23	1249.012000	ms	total	profiler-rsa	PIR-LLVM	simple_reduced	600000	1			
1	24	1257.481000	ms	total	profiler-rsa	PIR-LLVM	simple_reduced	600000	1			
1	25	1269.911000	ms	total	profiler-rsa	PIR-LLVM	simple_reduced	600000	1			
1	26	1253.632000	ms	total	profiler-rsa	PIR-LLVM	simple_reduced	600000	1			
1	27	1257.086000	ms	total	profiler-rsa	PIR-LLVM	simple_reduced	600000	1			
1	28	1246.176000	ms	total	profiler-rsa	PIR-LLVM	simple_reduced	600000	1			
1	29	1247.282000	ms	total	profiler-rsa	PIR-LLVM	simple_reduced	600000	1			
1	30	1262.597000	ms	total	profiler-rsa	PIR-LLVM	simple_reduced	600000	1			
2	1	1334.122000	ms	total	profiler-rsa	PIR-LLVM	simple_reduced	600000	1			
2	2	1252.758000	ms	total	profiler-rsa	PIR-LLVM	simple_reduced	600000	1			
2	3	1272.878000	ms	total	profiler-rsa	PIR-LLVM	simple_reduced	600000	1			
2	4	1262.696000	ms	total	profiler-rsa	PIR-LLVM	simple_reduced	600000	1			
2	5	1248.893000	ms	total	profiler-rsa	PIR-LLVM	simple_reduced	600000	1			
2	6	1254.107000	ms	total	profiler-rsa	PIR-LLVM	simple_reduced	600000	1			
2	7	1254.326000	ms	total	profiler-rsa	PIR-LLVM	simple_reduced	600000	1			
2	8	1270.756000	ms	total	profiler-rsa	PIR-LLVM	simple_reduced	600000	1			
2	9	1253.549000	ms	total	profiler-rsa	PIR-LLVM	simple_reduced	600000	1			
2	10	1254.738000	ms	total	profiler-rsa	PIR-LLVM	simple_reduced	600000	1			
2	11	1253.538000	ms	total	profiler-rsa	PIR-LLVM	simple_reduced	600000	1			
2	12	1263.222000	ms	total	profiler-rsa	PIR-LLVM	simple_reduced	600000	1			
2	13	1252.430000	ms	total	profiler-rsa	PIR-LLVM	simple_reduced	600000	1			
2	14	1251.176000	ms	total	profiler-rsa	PIR-LLVM	simple_reduced	600000	1			
2	15	1251.504000	ms	total	profiler-rsa	PIR-LLVM	simple_reduced	600000	1			
2	16	1262.309000	ms	total	profiler-rsa	PIR-LLVM	simple_reduced	600000	1			
2	17	1254.040000	ms	total	profiler-rsa	PIR-LLVM	simple_reduced	600000	1			
2	18	1262.210000	ms	total	profiler-rsa	PIR-LLVM	simple_reduced	600000	1			
2	19	1248.849000	ms	total	profiler-rsa	PIR-LLVM	simple_reduced	600000	1			
2	20	1261.571000	ms	total	profiler-rsa	PIR-LLVM	simple_reduced	600000	1			
2	21	1252.711000	ms	total	profiler-rsa	PIR-LLVM	simple_reduced	600000	1			
2	22	1253.391000	ms	total	profiler-rsa	PIR-LLVM	simple_reduced	600000	1			
2	23	1252.167000	ms	total	profiler-rsa	PIR-LLVM	simple_reduced	600000	1			
2	24	1259.010000	ms	total	profiler-rsa	PIR-LLVM	simple_reduced	600000	1			
2	25	1254.761000	ms	total	profiler-rsa	PIR-LLVM	simple_reduced	600000	1			
2	26	1253.957000	ms	total	profiler-rsa	PIR-LLVM	simple_reduced	600000	1			
2	27	1262.656000	ms	total	profiler-rsa	PIR-LLVM	simple_reduced	600000	1			
2	28	1250.935000	ms	total	profiler-rsa	PIR-LLVM	simple_reduced	600000	1			
2	29	1253.018000	ms	total	profiler-rsa	PIR-LLVM	simple_reduced	600000	1			
2	30	1290.131000	ms	total	profiler-rsa	PIR-LLVM	simple_reduced	600000	1			
3	1	1341.855000	ms	total	profiler-rsa	PIR-LLVM	simple_reduced	600000	1			
3	2	1258.414000	ms	total	profiler-rsa	PIR-LLVM	simple_reduced	600000	1			
3	3	1266.236000	ms	total	profiler-rsa	PIR-LLVM	simple_reduced	600000	1			
3	4	1268.793000	ms	total	profiler-rsa	PIR-LLVM	simple_reduced	600000	1			
3	5	1256.857000	ms	total	profiler-rsa	PIR-LLVM	simple_reduced	600000	1			
3	6	1256.714000	ms	total	profiler-rsa	PIR-LLVM	simple_reduced	600000	1			
3	7	1259.418000	ms	total	profiler-rsa	PIR-LLVM	simple_reduced	600000	1			
3	8	1268.373000	ms	total	profiler-rsa	PIR-LLVM	simple_reduced	600000	1			
3	9	1254.486000	ms	total	profiler-rsa	PIR-LLVM	simple_reduced	600000	1			
3	10	1254.637000	ms	total	profiler-rsa	PIR-LLVM	simple_reduced	600000	1			
3	11	1254.992000	ms	total	profiler-rsa	PIR-LLVM	simple_reduced	600000	1			
3	12	1271.312000	ms	total	profiler-rsa	PIR-LLVM	simple_reduced	600000	1			
3	13	1253.230000	ms	total	profiler-rsa	PIR-LLVM	simple_reduced	600000	1			
3	14	1251.949000	ms	total	profiler-rsa	PIR-LLVM	simple_reduced	600000	1			
3	15	1255.467000	ms	total	profiler-rsa	PIR-LLVM	simple_reduced	600000	1			
3	16	1266.275000	ms	total	profiler-rsa	PIR-LLVM	simple_reduced	600000	1			
3	17	1251.617000	ms	total	profiler-rsa	PIR-LLVM	simple_reduced	600000	1			
3	18	1248.822000	ms	total	profiler-rsa	PIR-LLVM	simple_reduced	600000	1			
3	19	1247.584000	ms	total	profiler-rsa	PIR-LLVM	simple_reduced	600000	1			
3	20	1261.858000	ms	total	profiler-rsa	PIR-LLVM	simple_reduced	600000	1			
3	21	1257.558000	ms	total	profiler-rsa	PIR-LLVM	simple_reduced	600000	1			
3	22	1251.248000	ms	total	profiler-rsa	PIR-LLVM	simple_reduced	600000	1			
3	23	1256.950000	ms	total	profiler-rsa	PIR-LLVM	simple_reduced	600000	1			
3	24	1265.547000	ms	total	profiler-rsa	PIR-LLVM	simple_reduced	600000	1			
3	25	1257.343000	ms	total	profiler-rsa	PIR-LLVM	simple_reduced	600000	1			
3	26	1252.056000	ms	total	profiler-rsa	PIR-LLVM	simple_reduced	600000	1			
3	27	1263.119000	ms	total	profiler-rsa	PIR-LLVM	simple_reduced	600000	1			
3	28	1254.438000	ms	total	profiler-rsa	PIR-LLVM	simple_reduced	600000	1			
3	29	1255.413000	ms	total	profiler-rsa	PIR-LLVM	simple_reduced	600000	1			
3	30	1250.978000	ms	total	profiler-rsa	PIR-LLVM	simple_reduced	600000	1			
1	1	4024.487000	ms	total	profiler-shared	PIR-LLVM	simple_reduced	20	1			
1	2	4091.495000	ms	total	profiler-shared	PIR-LLVM	simple_reduced	20	1			
1	3	4105.818000	ms	total	profiler-shared	PIR-LLVM	simple_reduced	20	1			
1	4	4099.947000	ms	total	profiler-shared	PIR-LLVM	simple_reduced	20	1			
1	5	4086.090000	ms	total	profiler-shared	PIR-LLVM	simple_reduced	20	1			
1	6	4079.371000	ms	total	profiler-shared	PIR-LLVM	simple_reduced	20	1			
1	7	4136.248000	ms	total	profiler-shared	PIR-LLVM	simple_reduced	20	1			
1	8	4220.073000	ms	total	profiler-shared	PIR-LLVM	simple_reduced	20	1			
1	9	4140.746000	ms	total	profiler-shared	PIR-LLVM	simple_reduced	20	1			
1	10	4094.800000	ms	total	profiler-shared	PIR-LLVM	simple_reduced	20	1			
1	11	4110.052000	ms	total	profiler-shared	PIR-LLVM	simple_reduced	20	1			
1	12	4108.833000	ms	total	profiler-shared	PIR-LLVM	simple_reduced	20	1			
1	13	4069.263000	ms	total	profiler-shared	PIR-LLVM	simple_reduced	20	1			
1	14	4099.016000	ms	total	profiler-shared	PIR-LLVM	simple_reduced	20	1			
1	15	4113.895000	ms	total	profiler-shared	PIR-LLVM	simple_reduced	20	1			
1	16	4081.671000	ms	total	profiler-shared	PIR-LLVM	simple_reduced	20	1			
1	17	4102.150000	ms	total	profiler-shared	PIR-LLVM	simple_reduced	20	1			
1	18	4203.727000	ms	total	profiler-shared	PIR-LLVM	simple_reduced	20	1			
1	19	4063.834000	ms	total	profiler-shared	PIR-LLVM	simple_reduced	20	1			
1	20	4104.466000	ms	total	profiler-shared	PIR-LLVM	simple_reduced	20	1			
1	21	4059.512000	ms	total	profiler-shared	PIR-LLVM	simple_reduced	20	1			
1	22	4086.641000	ms	total	profiler-shared	PIR-LLVM	simple_reduced	20	1			
1	23	4074.834000	ms	total	profiler-shared	PIR-LLVM	simple_reduced	20	1			
1	24	4071.539000	ms	total	profiler-shared	PIR-LLVM	simple_reduced	20	1			
1	25	4108.762000	ms	total	profiler-shared	PIR-LLVM	simple_reduced	20	1			
1	26	4085.297000	ms	total	profiler-shared	PIR-LLVM	simple_reduced	20	1			
1	27	4073.188000	ms	total	profiler-shared	PIR-LLVM	simple_reduced	20	1			
1	28	4053.850000	ms	total	profiler-shared	PIR-LLVM	simple_reduced	20	1			
1	29	4076.452000	ms	total	profiler-shared	PIR-LLVM	simple_reduced	20	1			
1	30	4086.356000	ms	total	profiler-shared	PIR-LLVM	simple_reduced	20	1			
2	1	3984.593000	ms	total	profiler-shared	PIR-LLVM	simple_reduced	20	1			
2	2	4028.556000	ms	total	profiler-shared	PIR-LLVM	simple_reduced	20	1			
2	3	3995.467000	ms	total	profiler-shared	PIR-LLVM	simple_reduced	20	1			
2	4	4054.116000	ms	total	profiler-shared	PIR-LLVM	simple_reduced	20	1			
2	5	4033.931000	ms	total	profiler-shared	PIR-LLVM	simple_reduced	20	1			
2	6	4340.703000	ms	total	profiler-shared	PIR-LLVM	simple_reduced	20	1			
2	7	3993.785000	ms	total	profiler-shared	PIR-LLVM	simple_reduced	20	1			
2	8	4017.518000	ms	total	profiler-shared	PIR-LLVM	simple_reduced	20	1			
2	9	4030.181000	ms	total	profiler-shared	PIR-LLVM	simple_reduced	20	1			
2	10	4004.605000	ms	total	profiler-shared	PIR-LLVM	simple_reduced	20	1			
2	11	4399.135000	ms	total	profiler-shared	PIR-LLVM	simple_reduced	20	1			
2	12	4087.116000	ms	total	profiler-shared	PIR-LLVM	simple_reduced	20	1			
2	13	4052.311000	ms	total	profiler-shared	PIR-LLVM	simple_reduced	20	1			
2	14	4040.515000	ms	total	profiler-shared	PIR-LLVM	simple_reduced	20	1			
2	15	4013.395000	ms	total	profiler-shared	PIR-LLVM	simple_reduced	20	1			
2	16	4058.376000	ms	total	profiler-shared	PIR-LLVM	simple_reduced	20	1			
2	17	4084.695000	ms	total	profiler-shared	PIR-LLVM	simple_reduced	20	1			
2	18	4043.706000	ms	total	profiler-shared	PIR-LLVM	simple_reduced	20	1			
2	19	4005.142000	ms	total	profiler-shared	PIR-LLVM	simple_reduced	20	1			
2	20	4020.095000	ms	total	profiler-shared	PIR-LLVM	simple_reduced	20	1			
2	21	4023.933000	ms	total	profiler-shared	PIR-LLVM	simple_reduced	20	1			
2	22	4388.181000	ms	total	profiler-shared	PIR-LLVM	simple_reduced	20	1			
2	23	4033.389000	ms	total	profiler-shared	PIR-LLVM	simple_reduced	20	1			
2	24	4021.279000	ms	total	profiler-shared	PIR-LLVM	simple_reduced	20	1			
2	25	4184.833000	ms	total	profiler-shared	PIR-LLVM	simple_reduced	20	1			
2	26	4003.515000	ms	total	profiler-shared	PIR-LLVM	simple_reduced	20	1			
2	27	4350.256000	ms	total	profiler-shared	PIR-LLVM	simple_reduced	20	1			
2	28	4032.701000	ms	total	profiler-shared	PIR-LLVM	simple_reduced	20	1			
2	29	4063.017000	ms	total	profiler-shared	PIR-LLVM	simple_reduced	20	1			
2	30	4028.973000	ms	total	profiler-shared	PIR-LLVM	simple_reduced	20	1			
3	1	4093.834000	ms	total	profiler-shared	PIR-LLVM	simple_reduced	20	1			
3	2	4171.255000	ms	total	profiler-shared	PIR-LLVM	simple_reduced	20	1			
3	3	4241.762000	ms	total	profiler-shared	PIR-LLVM	simple_reduced	20	1			
3	4	4210.273000	ms	total	profiler-shared	PIR-LLVM	simple_reduced	20	1			
3	5	4262.647000	ms	total	profiler-shared	PIR-LLVM	simple_reduced	20	1			
3	6	4185.434000	ms	total	profiler-shared	PIR-LLVM	simple_reduced	20	1			
3	7	4208.603000	ms	total	profiler-shared	PIR-LLVM	simple_reduced	20	1			
3	8	4208.420000	ms	total	profiler-shared	PIR-LLVM	simple_reduced	20	1			
3	9	4199.131000	ms	total	profiler-shared	PIR-LLVM	simple_reduced	20	1			
3	10	4217.383000	ms	total	profiler-shared	PIR-LLVM	simple_reduced	20	1			
3	11	4201.216000	ms	total	profiler-shared	PIR-LLVM	simple_reduced	20	1			
3	12	4282.580000	ms	total	profiler-shared	PIR-LLVM	simple_reduced	20	1			
3	13	4244.634000	ms	total	profiler-shared	PIR-LLVM	simple_reduced	20	1			
3	14	4159.579000	ms	total	profiler-shared	PIR-LLVM	simple_reduced	20	1			
3	15	4196.515000	ms	total	profiler-shared	PIR-LLVM	simple_reduced	20	1			
3	16	4194.933000	ms	total	profiler-shared	PIR-LLVM	simple_reduced	20	1			
3	17	4186.697000	ms	total	profiler-shared	PIR-LLVM	simple_reduced	20	1			
3	18	4178.625000	ms	total	profiler-shared	PIR-LLVM	simple_reduced	20	1			
3	19	4256.405000	ms	total	profiler-shared	PIR-LLVM	simple_reduced	20	1			
3	20	4200.036000	ms	total	profiler-shared	PIR-LLVM	simple_reduced	20	1			
3	21	4233.538000	ms	total	profiler-shared	PIR-LLVM	simple_reduced	20	1			
3	22	4335.835000	ms	total	profiler-shared	PIR-LLVM	simple_reduced	20	1			
3	23	4223.639000	ms	total	profiler-shared	PIR-LLVM	simple_reduced	20	1			
3	24	4211.080000	ms	total	profiler-shared	PIR-LLVM	simple_reduced	20	1			
3	25	4210.208000	ms	total	profiler-shared	PIR-LLVM	simple_reduced	20	1			
3	26	4232.619000	ms	total	profiler-shared	PIR-LLVM	simple_reduced	20	1			
3	27	4173.526000	ms	total	profiler-shared	PIR-LLVM	simple_reduced	20	1			
3	28	4211.418000	ms	total	profiler-shared	PIR-LLVM	simple_reduced	20	1			
3	29	4286.982000	ms	total	profiler-shared	PIR-LLVM	simple_reduced	20	1			
3	30	4207.138000	ms	total	profiler-shared	PIR-LLVM	simple_reduced	20	1			
