vm,commit,suite,benchmark,ms,warm
Ř,2d6f6198301c6c96a9f5b92dbcd4e3e073f5843a,simple,superWhile,2872.880000,0
Ř,2d6f6198301c6c96a9f5b92dbcd4e3e073f5843a,simple,superWhile,2856.795000,0
Ř,2d6f6198301c6c96a9f5b92dbcd4e3e073f5843a,simple,superWhile,54.189000,0
Ř,2d6f6198301c6c96a9f5b92dbcd4e3e073f5843a,simple,superWhile,20.230000,0
Ř,2d6f6198301c6c96a9f5b92dbcd4e3e073f5843a,simple,superWhile,20.201000,0
Ř,2d6f6198301c6c96a9f5b92dbcd4e3e073f5843a,simple,superWhile,20.257000,1
Ř,2d6f6198301c6c96a9f5b92dbcd4e3e073f5843a,simple,superWhile,20.201000,1
Ř,2d6f6198301c6c96a9f5b92dbcd4e3e073f5843a,simple,superWhile,20.197000,1
Ř,2d6f6198301c6c96a9f5b92dbcd4e3e073f5843a,simple,superWhile,20.199000,1
Ř,2d6f6198301c6c96a9f5b92dbcd4e3e073f5843a,simple,superWhile,20.203000,1
Ř,2d6f6198301c6c96a9f5b92dbcd4e3e073f5843a,simple,superWhile,20.244000,1
Ř,2d6f6198301c6c96a9f5b92dbcd4e3e073f5843a,simple,superWhile,20.196000,1
Ř,2d6f6198301c6c96a9f5b92dbcd4e3e073f5843a,simple,superWhile,20.195000,1
Ř,2d6f6198301c6c96a9f5b92dbcd4e3e073f5843a,simple,superWhile,20.198000,1
Ř,2d6f6198301c6c96a9f5b92dbcd4e3e073f5843a,simple,superWhile,20.196000,1
Ř,2d6f6198301c6c96a9f5b92dbcd4e3e073f5843a,simple,matrixFor,384.861000,0
Ř,2d6f6198301c6c96a9f5b92dbcd4e3e073f5843a,simple,matrixFor,391.015000,0
Ř,2d6f6198301c6c96a9f5b92dbcd4e3e073f5843a,simple,matrixFor,160.205000,0
Ř,2d6f6198301c6c96a9f5b92dbcd4e3e073f5843a,simple,matrixFor,52.886000,0
Ř,2d6f6198301c6c96a9f5b92dbcd4e3e073f5843a,simple,matrixFor,52.823000,0
Ř,2d6f6198301c6c96a9f5b92dbcd4e3e073f5843a,simple,matrixFor,52.802000,1
Ř,2d6f6198301c6c96a9f5b92dbcd4e3e073f5843a,simple,matrixFor,52.820000,1
Ř,2d6f6198301c6c96a9f5b92dbcd4e3e073f5843a,simple,matrixFor,52.737000,1
Ř,2d6f6198301c6c96a9f5b92dbcd4e3e073f5843a,simple,matrixFor,443.334000,1
Ř,2d6f6198301c6c96a9f5b92dbcd4e3e073f5843a,simple,matrixFor,367.718000,1
Ř,2d6f6198301c6c96a9f5b92dbcd4e3e073f5843a,simple,matrixFor,164.194000,1
Ř,2d6f6198301c6c96a9f5b92dbcd4e3e073f5843a,simple,matrixFor,56.480000,1
Ř,2d6f6198301c6c96a9f5b92dbcd4e3e073f5843a,simple,matrixFor,56.409000,1
Ř,2d6f6198301c6c96a9f5b92dbcd4e3e073f5843a,simple,matrixFor,52.339000,1
Ř,2d6f6198301c6c96a9f5b92dbcd4e3e073f5843a,simple,matrixFor,52.296000,1
Ř,2d6f6198301c6c96a9f5b92dbcd4e3e073f5843a,simple,vectorWhile,2183.255000,0
Ř,2d6f6198301c6c96a9f5b92dbcd4e3e073f5843a,simple,vectorWhile,2164.926000,0
Ř,2d6f6198301c6c96a9f5b92dbcd4e3e073f5843a,simple,vectorWhile,181.246000,0
Ř,2d6f6198301c6c96a9f5b92dbcd4e3e073f5843a,simple,vectorWhile,125.666000,0
Ř,2d6f6198301c6c96a9f5b92dbcd4e3e073f5843a,simple,vectorWhile,141.020000,0
Ř,2d6f6198301c6c96a9f5b92dbcd4e3e073f5843a,simple,vectorWhile,127.437000,1
Ř,2d6f6198301c6c96a9f5b92dbcd4e3e073f5843a,simple,vectorWhile,127.491000,1
Ř,2d6f6198301c6c96a9f5b92dbcd4e3e073f5843a,simple,vectorWhile,127.589000,1
Ř,2d6f6198301c6c96a9f5b92dbcd4e3e073f5843a,simple,vectorWhile,127.581000,1
Ř,2d6f6198301c6c96a9f5b92dbcd4e3e073f5843a,simple,vectorWhile,127.508000,1
Ř,2d6f6198301c6c96a9f5b92dbcd4e3e073f5843a,simple,vectorWhile,127.489000,1
Ř,2d6f6198301c6c96a9f5b92dbcd4e3e073f5843a,simple,vectorWhile,127.470000,1
Ř,2d6f6198301c6c96a9f5b92dbcd4e3e073f5843a,simple,vectorWhile,127.477000,1
Ř,2d6f6198301c6c96a9f5b92dbcd4e3e073f5843a,simple,vectorWhile,127.492000,1
Ř,2d6f6198301c6c96a9f5b92dbcd4e3e073f5843a,simple,vectorWhile,127.478000,1
Ř,2d6f6198301c6c96a9f5b92dbcd4e3e073f5843a,simple,emptyFor,3143.333000,0
Ř,2d6f6198301c6c96a9f5b92dbcd4e3e073f5843a,simple,emptyFor,3127.568000,0
Ř,2d6f6198301c6c96a9f5b92dbcd4e3e073f5843a,simple,emptyFor,15.485000,0
Ř,2d6f6198301c6c96a9f5b92dbcd4e3e073f5843a,simple,emptyFor,0.030000,0
Ř,2d6f6198301c6c96a9f5b92dbcd4e3e073f5843a,simple,emptyFor,0.017000,0
Ř,2d6f6198301c6c96a9f5b92dbcd4e3e073f5843a,simple,emptyFor,0.011000,1
Ř,2d6f6198301c6c96a9f5b92dbcd4e3e073f5843a,simple,emptyFor,0.008000,1
Ř,2d6f6198301c6c96a9f5b92dbcd4e3e073f5843a,simple,emptyFor,0.008000,1
Ř,2d6f6198301c6c96a9f5b92dbcd4e3e073f5843a,simple,emptyFor,0.008000,1
Ř,2d6f6198301c6c96a9f5b92dbcd4e3e073f5843a,simple,emptyFor,0.008000,1
Ř,2d6f6198301c6c96a9f5b92dbcd4e3e073f5843a,simple,emptyFor,0.008000,1
Ř,2d6f6198301c6c96a9f5b92dbcd4e3e073f5843a,simple,emptyFor,0.008000,1
Ř,2d6f6198301c6c96a9f5b92dbcd4e3e073f5843a,simple,emptyFor,0.008000,1
Ř,2d6f6198301c6c96a9f5b92dbcd4e3e073f5843a,simple,emptyFor,0.008000,1
Ř,2d6f6198301c6c96a9f5b92dbcd4e3e073f5843a,simple,emptyFor,0.008000,1
Ř,2d6f6198301c6c96a9f5b92dbcd4e3e073f5843a,simple,lapplyDots,753.575000,0
Ř,2d6f6198301c6c96a9f5b92dbcd4e3e073f5843a,simple,lapplyDots,878.352000,0
Ř,2d6f6198301c6c96a9f5b92dbcd4e3e073f5843a,simple,lapplyDots,799.207000,0
Ř,2d6f6198301c6c96a9f5b92dbcd4e3e073f5843a,simple,lapplyDots,1024.698000,0
Ř,2d6f6198301c6c96a9f5b92dbcd4e3e073f5843a,simple,lapplyDots,962.387000,0
Ř,2d6f6198301c6c96a9f5b92dbcd4e3e073f5843a,simple,lapplyDots,906.120000,1
Ř,2d6f6198301c6c96a9f5b92dbcd4e3e073f5843a,simple,lapplyDots,926.880000,1
Ř,2d6f6198301c6c96a9f5b92dbcd4e3e073f5843a,simple,lapplyDots,801.398000,1
Ř,2d6f6198301c6c96a9f5b92dbcd4e3e073f5843a,simple,lapplyDots,905.225000,1
Ř,2d6f6198301c6c96a9f5b92dbcd4e3e073f5843a,simple,lapplyDots,925.392000,1
Ř,2d6f6198301c6c96a9f5b92dbcd4e3e073f5843a,simple,lapplyDots,945.136000,1
Ř,2d6f6198301c6c96a9f5b92dbcd4e3e073f5843a,simple,lapplyDots,780.953000,1
Ř,2d6f6198301c6c96a9f5b92dbcd4e3e073f5843a,simple,lapplyDots,925.251000,1
Ř,2d6f6198301c6c96a9f5b92dbcd4e3e073f5843a,simple,lapplyDots,945.174000,1
Ř,2d6f6198301c6c96a9f5b92dbcd4e3e073f5843a,simple,lapplyDots,905.901000,1
Ř,2d6f6198301c6c96a9f5b92dbcd4e3e073f5843a,simple,scalarWhile,2211.102000,0
Ř,2d6f6198301c6c96a9f5b92dbcd4e3e073f5843a,simple,scalarWhile,2207.482000,0
Ř,2d6f6198301c6c96a9f5b92dbcd4e3e073f5843a,simple,scalarWhile,43.555000,0
Ř,2d6f6198301c6c96a9f5b92dbcd4e3e073f5843a,simple,scalarWhile,25.323000,0
Ř,2d6f6198301c6c96a9f5b92dbcd4e3e073f5843a,simple,scalarWhile,25.246000,0
Ř,2d6f6198301c6c96a9f5b92dbcd4e3e073f5843a,simple,scalarWhile,25.245000,1
Ř,2d6f6198301c6c96a9f5b92dbcd4e3e073f5843a,simple,scalarWhile,25.242000,1
Ř,2d6f6198301c6c96a9f5b92dbcd4e3e073f5843a,simple,scalarWhile,25.299000,1
Ř,2d6f6198301c6c96a9f5b92dbcd4e3e073f5843a,simple,scalarWhile,25.243000,1
Ř,2d6f6198301c6c96a9f5b92dbcd4e3e073f5843a,simple,scalarWhile,25.247000,1
Ř,2d6f6198301c6c96a9f5b92dbcd4e3e073f5843a,simple,scalarWhile,25.244000,1
Ř,2d6f6198301c6c96a9f5b92dbcd4e3e073f5843a,simple,scalarWhile,25.290000,1
Ř,2d6f6198301c6c96a9f5b92dbcd4e3e073f5843a,simple,scalarWhile,25.246000,1
Ř,2d6f6198301c6c96a9f5b92dbcd4e3e073f5843a,simple,scalarWhile,25.245000,1
Ř,2d6f6198301c6c96a9f5b92dbcd4e3e073f5843a,simple,scalarWhile,25.242000,1
Ř,2d6f6198301c6c96a9f5b92dbcd4e3e073f5843a,simple,listWhile,155.431000,0
Ř,2d6f6198301c6c96a9f5b92dbcd4e3e073f5843a,simple,listWhile,148.467000,0
Ř,2d6f6198301c6c96a9f5b92dbcd4e3e073f5843a,simple,listWhile,128.697000,0
Ř,2d6f6198301c6c96a9f5b92dbcd4e3e073f5843a,simple,listWhile,67.374000,0
Ř,2d6f6198301c6c96a9f5b92dbcd4e3e073f5843a,simple,listWhile,63.183000,0
Ř,2d6f6198301c6c96a9f5b92dbcd4e3e073f5843a,simple,listWhile,71.784000,1
Ř,2d6f6198301c6c96a9f5b92dbcd4e3e073f5843a,simple,listWhile,84.133000,1
Ř,2d6f6198301c6c96a9f5b92dbcd4e3e073f5843a,simple,listWhile,52.495000,1
Ř,2d6f6198301c6c96a9f5b92dbcd4e3e073f5843a,simple,listWhile,65.084000,1
Ř,2d6f6198301c6c96a9f5b92dbcd4e3e073f5843a,simple,listWhile,60.144000,1
Ř,2d6f6198301c6c96a9f5b92dbcd4e3e073f5843a,simple,listWhile,64.373000,1
Ř,2d6f6198301c6c96a9f5b92dbcd4e3e073f5843a,simple,listWhile,58.434000,1
Ř,2d6f6198301c6c96a9f5b92dbcd4e3e073f5843a,simple,listWhile,80.286000,1
Ř,2d6f6198301c6c96a9f5b92dbcd4e3e073f5843a,simple,listWhile,58.275000,1
Ř,2d6f6198301c6c96a9f5b92dbcd4e3e073f5843a,simple,listWhile,64.661000,1
Ř,2d6f6198301c6c96a9f5b92dbcd4e3e073f5843a,simple,scalarFor,4502.115000,0
Ř,2d6f6198301c6c96a9f5b92dbcd4e3e073f5843a,simple,scalarFor,5037.327000,0
Ř,2d6f6198301c6c96a9f5b92dbcd4e3e073f5843a,simple,scalarFor,16.885000,0
Ř,2d6f6198301c6c96a9f5b92dbcd4e3e073f5843a,simple,scalarFor,0.028000,0
Ř,2d6f6198301c6c96a9f5b92dbcd4e3e073f5843a,simple,scalarFor,0.010000,0
Ř,2d6f6198301c6c96a9f5b92dbcd4e3e073f5843a,simple,scalarFor,0.008000,1
Ř,2d6f6198301c6c96a9f5b92dbcd4e3e073f5843a,simple,scalarFor,0.008000,1
Ř,2d6f6198301c6c96a9f5b92dbcd4e3e073f5843a,simple,scalarFor,0.008000,1
Ř,2d6f6198301c6c96a9f5b92dbcd4e3e073f5843a,simple,scalarFor,0.007000,1
Ř,2d6f6198301c6c96a9f5b92dbcd4e3e073f5843a,simple,scalarFor,0.007000,1
Ř,2d6f6198301c6c96a9f5b92dbcd4e3e073f5843a,simple,scalarFor,0.008000,1
Ř,2d6f6198301c6c96a9f5b92dbcd4e3e073f5843a,simple,scalarFor,0.007000,1
Ř,2d6f6198301c6c96a9f5b92dbcd4e3e073f5843a,simple,scalarFor,0.008000,1
Ř,2d6f6198301c6c96a9f5b92dbcd4e3e073f5843a,simple,scalarFor,0.008000,1
Ř,2d6f6198301c6c96a9f5b92dbcd4e3e073f5843a,simple,scalarFor,0.007000,1
Ř,2d6f6198301c6c96a9f5b92dbcd4e3e073f5843a,simple,lapply,635.487000,0
Ř,2d6f6198301c6c96a9f5b92dbcd4e3e073f5843a,simple,lapply,765.895000,0
Ř,2d6f6198301c6c96a9f5b92dbcd4e3e073f5843a,simple,lapply,820.893000,0
Ř,2d6f6198301c6c96a9f5b92dbcd4e3e073f5843a,simple,lapply,761.797000,0
Ř,2d6f6198301c6c96a9f5b92dbcd4e3e073f5843a,simple,lapply,883.862000,0
Ř,2d6f6198301c6c96a9f5b92dbcd4e3e073f5843a,simple,lapply,764.290000,1
Ř,2d6f6198301c6c96a9f5b92dbcd4e3e073f5843a,simple,lapply,777.856000,1
Ř,2d6f6198301c6c96a9f5b92dbcd4e3e073f5843a,simple,lapply,774.104000,1
Ř,2d6f6198301c6c96a9f5b92dbcd4e3e073f5843a,simple,lapply,579.180000,1
Ř,2d6f6198301c6c96a9f5b92dbcd4e3e073f5843a,simple,lapply,682.957000,1
Ř,2d6f6198301c6c96a9f5b92dbcd4e3e073f5843a,simple,lapply,693.134000,1
Ř,2d6f6198301c6c96a9f5b92dbcd4e3e073f5843a,simple,lapply,720.973000,1
Ř,2d6f6198301c6c96a9f5b92dbcd4e3e073f5843a,simple,lapply,665.161000,1
Ř,2d6f6198301c6c96a9f5b92dbcd4e3e073f5843a,simple,lapply,586.267000,1
Ř,2d6f6198301c6c96a9f5b92dbcd4e3e073f5843a,simple,lapply,691.625000,1
Ř,2d6f6198301c6c96a9f5b92dbcd4e3e073f5843a,simple,vectorFor,1015.656000,0
Ř,2d6f6198301c6c96a9f5b92dbcd4e3e073f5843a,simple,vectorFor,988.406000,0
Ř,2d6f6198301c6c96a9f5b92dbcd4e3e073f5843a,simple,vectorFor,74.764000,0
Ř,2d6f6198301c6c96a9f5b92dbcd4e3e073f5843a,simple,vectorFor,33.348000,0
Ř,2d6f6198301c6c96a9f5b92dbcd4e3e073f5843a,simple,vectorFor,33.218000,0
Ř,2d6f6198301c6c96a9f5b92dbcd4e3e073f5843a,simple,vectorFor,33.282000,1
Ř,2d6f6198301c6c96a9f5b92dbcd4e3e073f5843a,simple,vectorFor,33.270000,1
Ř,2d6f6198301c6c96a9f5b92dbcd4e3e073f5843a,simple,vectorFor,33.200000,1
Ř,2d6f6198301c6c96a9f5b92dbcd4e3e073f5843a,simple,vectorFor,33.286000,1
Ř,2d6f6198301c6c96a9f5b92dbcd4e3e073f5843a,simple,vectorFor,33.232000,1
Ř,2d6f6198301c6c96a9f5b92dbcd4e3e073f5843a,simple,vectorFor,33.276000,1
Ř,2d6f6198301c6c96a9f5b92dbcd4e3e073f5843a,simple,vectorFor,33.289000,1
Ř,2d6f6198301c6c96a9f5b92dbcd4e3e073f5843a,simple,vectorFor,33.238000,1
Ř,2d6f6198301c6c96a9f5b92dbcd4e3e073f5843a,simple,vectorFor,33.273000,1
Ř,2d6f6198301c6c96a9f5b92dbcd4e3e073f5843a,simple,vectorFor,33.264000,1
Ř,2d6f6198301c6c96a9f5b92dbcd4e3e073f5843a,simple,bytecodes,3910.704000,0
Ř,2d6f6198301c6c96a9f5b92dbcd4e3e073f5843a,simple,bytecodes,3917.364000,0
Ř,2d6f6198301c6c96a9f5b92dbcd4e3e073f5843a,simple,bytecodes,234.606000,0
Ř,2d6f6198301c6c96a9f5b92dbcd4e3e073f5843a,simple,bytecodes,9.117000,0
Ř,2d6f6198301c6c96a9f5b92dbcd4e3e073f5843a,simple,bytecodes,9.096000,0
Ř,2d6f6198301c6c96a9f5b92dbcd4e3e073f5843a,simple,bytecodes,9.098000,1
Ř,2d6f6198301c6c96a9f5b92dbcd4e3e073f5843a,simple,bytecodes,9.094000,1
Ř,2d6f6198301c6c96a9f5b92dbcd4e3e073f5843a,simple,bytecodes,9.095000,1
Ř,2d6f6198301c6c96a9f5b92dbcd4e3e073f5843a,simple,bytecodes,9.093000,1
Ř,2d6f6198301c6c96a9f5b92dbcd4e3e073f5843a,simple,bytecodes,9.093000,1
Ř,2d6f6198301c6c96a9f5b92dbcd4e3e073f5843a,simple,bytecodes,9.094000,1
Ř,2d6f6198301c6c96a9f5b92dbcd4e3e073f5843a,simple,bytecodes,9.147000,1
Ř,2d6f6198301c6c96a9f5b92dbcd4e3e073f5843a,simple,bytecodes,9.094000,1
Ř,2d6f6198301c6c96a9f5b92dbcd4e3e073f5843a,simple,bytecodes,9.093000,1
Ř,2d6f6198301c6c96a9f5b92dbcd4e3e073f5843a,simple,bytecodes,9.104000,1
Ř,2d6f6198301c6c96a9f5b92dbcd4e3e073f5843a,simple,emptyWhile,2141.718000,0
Ř,2d6f6198301c6c96a9f5b92dbcd4e3e073f5843a,simple,emptyWhile,2143.065000,0
Ř,2d6f6198301c6c96a9f5b92dbcd4e3e073f5843a,simple,emptyWhile,46.400000,0
Ř,2d6f6198301c6c96a9f5b92dbcd4e3e073f5843a,simple,emptyWhile,30.367000,0
Ř,2d6f6198301c6c96a9f5b92dbcd4e3e073f5843a,simple,emptyWhile,30.293000,0
Ř,2d6f6198301c6c96a9f5b92dbcd4e3e073f5843a,simple,emptyWhile,30.353000,1
Ř,2d6f6198301c6c96a9f5b92dbcd4e3e073f5843a,simple,emptyWhile,30.301000,1
Ř,2d6f6198301c6c96a9f5b92dbcd4e3e073f5843a,simple,emptyWhile,30.339000,1
Ř,2d6f6198301c6c96a9f5b92dbcd4e3e073f5843a,simple,emptyWhile,30.292000,1
Ř,2d6f6198301c6c96a9f5b92dbcd4e3e073f5843a,simple,emptyWhile,30.290000,1
Ř,2d6f6198301c6c96a9f5b92dbcd4e3e073f5843a,simple,emptyWhile,30.335000,1
Ř,2d6f6198301c6c96a9f5b92dbcd4e3e073f5843a,simple,emptyWhile,30.295000,1
Ř,2d6f6198301c6c96a9f5b92dbcd4e3e073f5843a,simple,emptyWhile,30.292000,1
Ř,2d6f6198301c6c96a9f5b92dbcd4e3e073f5843a,simple,emptyWhile,30.289000,1
Ř,2d6f6198301c6c96a9f5b92dbcd4e3e073f5843a,simple,emptyWhile,30.335000,1
Ř,2d6f6198301c6c96a9f5b92dbcd4e3e073f5843a,simple,listFor,198.589000,0
Ř,2d6f6198301c6c96a9f5b92dbcd4e3e073f5843a,simple,listFor,200.721000,0
Ř,2d6f6198301c6c96a9f5b92dbcd4e3e073f5843a,simple,listFor,86.724000,0
Ř,2d6f6198301c6c96a9f5b92dbcd4e3e073f5843a,simple,listFor,65.858000,0
Ř,2d6f6198301c6c96a9f5b92dbcd4e3e073f5843a,simple,listFor,76.067000,0
Ř,2d6f6198301c6c96a9f5b92dbcd4e3e073f5843a,simple,listFor,52.120000,1
Ř,2d6f6198301c6c96a9f5b92dbcd4e3e073f5843a,simple,listFor,63.268000,1
Ř,2d6f6198301c6c96a9f5b92dbcd4e3e073f5843a,simple,listFor,53.619000,1
Ř,2d6f6198301c6c96a9f5b92dbcd4e3e073f5843a,simple,listFor,65.977000,1
Ř,2d6f6198301c6c96a9f5b92dbcd4e3e073f5843a,simple,listFor,77.152000,1
Ř,2d6f6198301c6c96a9f5b92dbcd4e3e073f5843a,simple,listFor,58.061000,1
Ř,2d6f6198301c6c96a9f5b92dbcd4e3e073f5843a,simple,listFor,62.207000,1
Ř,2d6f6198301c6c96a9f5b92dbcd4e3e073f5843a,simple,listFor,69.186000,1
Ř,2d6f6198301c6c96a9f5b92dbcd4e3e073f5843a,simple,listFor,76.102000,1
Ř,2d6f6198301c6c96a9f5b92dbcd4e3e073f5843a,simple,listFor,50.761000,1
Ř,2d6f6198301c6c96a9f5b92dbcd4e3e073f5843a,shootout,spectralnorm_naive,943.983000,0
Ř,2d6f6198301c6c96a9f5b92dbcd4e3e073f5843a,shootout,spectralnorm_naive,1052.248000,0
Ř,2d6f6198301c6c96a9f5b92dbcd4e3e073f5843a,shootout,spectralnorm_naive,1154.690000,0
Ř,2d6f6198301c6c96a9f5b92dbcd4e3e073f5843a,shootout,spectralnorm_naive,38.242000,0
Ř,2d6f6198301c6c96a9f5b92dbcd4e3e073f5843a,shootout,spectralnorm_naive,38.145000,0
Ř,2d6f6198301c6c96a9f5b92dbcd4e3e073f5843a,shootout,spectralnorm_naive,38.165000,1
Ř,2d6f6198301c6c96a9f5b92dbcd4e3e073f5843a,shootout,spectralnorm_naive,38.075000,1
Ř,2d6f6198301c6c96a9f5b92dbcd4e3e073f5843a,shootout,spectralnorm_naive,38.149000,1
Ř,2d6f6198301c6c96a9f5b92dbcd4e3e073f5843a,shootout,spectralnorm_naive,38.245000,1
Ř,2d6f6198301c6c96a9f5b92dbcd4e3e073f5843a,shootout,spectralnorm_naive,38.330000,1
Ř,2d6f6198301c6c96a9f5b92dbcd4e3e073f5843a,shootout,spectralnorm_naive,38.225000,1
Ř,2d6f6198301c6c96a9f5b92dbcd4e3e073f5843a,shootout,spectralnorm_naive,38.317000,1
Ř,2d6f6198301c6c96a9f5b92dbcd4e3e073f5843a,shootout,spectralnorm_naive,38.189000,1
Ř,2d6f6198301c6c96a9f5b92dbcd4e3e073f5843a,shootout,spectralnorm_naive,38.200000,1
Ř,2d6f6198301c6c96a9f5b92dbcd4e3e073f5843a,shootout,spectralnorm_naive,39.688000,1
Ř,2d6f6198301c6c96a9f5b92dbcd4e3e073f5843a,shootout,fasta_2,1193.741000,0
Ř,2d6f6198301c6c96a9f5b92dbcd4e3e073f5843a,shootout,fasta_2,1623.157000,0
Ř,2d6f6198301c6c96a9f5b92dbcd4e3e073f5843a,shootout,fasta_2,2334.195000,0
Ř,2d6f6198301c6c96a9f5b92dbcd4e3e073f5843a,shootout,fasta_2,934.407000,0
Ř,2d6f6198301c6c96a9f5b92dbcd4e3e073f5843a,shootout,fasta_2,924.519000,0
Ř,2d6f6198301c6c96a9f5b92dbcd4e3e073f5843a,shootout,fasta_2,911.813000,1
Ř,2d6f6198301c6c96a9f5b92dbcd4e3e073f5843a,shootout,fasta_2,918.173000,1
Ř,2d6f6198301c6c96a9f5b92dbcd4e3e073f5843a,shootout,fasta_2,910.846000,1
Ř,2d6f6198301c6c96a9f5b92dbcd4e3e073f5843a,shootout,fasta_2,921.611000,1
Ř,2d6f6198301c6c96a9f5b92dbcd4e3e073f5843a,shootout,fasta_2,929.383000,1
Ř,2d6f6198301c6c96a9f5b92dbcd4e3e073f5843a,shootout,fasta_2,934.048000,1
Ř,2d6f6198301c6c96a9f5b92dbcd4e3e073f5843a,shootout,fasta_2,929.951000,1
Ř,2d6f6198301c6c96a9f5b92dbcd4e3e073f5843a,shootout,fasta_2,925.031000,1
Ř,2d6f6198301c6c96a9f5b92dbcd4e3e073f5843a,shootout,fasta_2,933.351000,1
Ř,2d6f6198301c6c96a9f5b92dbcd4e3e073f5843a,shootout,fasta_2,931.533000,1
Ř,2d6f6198301c6c96a9f5b92dbcd4e3e073f5843a,shootout,nbody_3,1970.569000,0
Ř,2d6f6198301c6c96a9f5b92dbcd4e3e073f5843a,shootout,nbody_3,2082.197000,0
Ř,2d6f6198301c6c96a9f5b92dbcd4e3e073f5843a,shootout,nbody_3,2162.775000,0
Ř,2d6f6198301c6c96a9f5b92dbcd4e3e073f5843a,shootout,nbody_3,1052.742000,0
Ř,2d6f6198301c6c96a9f5b92dbcd4e3e073f5843a,shootout,nbody_3,1061.732000,0
Ř,2d6f6198301c6c96a9f5b92dbcd4e3e073f5843a,shootout,nbody_3,1055.073000,1
Ř,2d6f6198301c6c96a9f5b92dbcd4e3e073f5843a,shootout,nbody_3,1061.478000,1
Ř,2d6f6198301c6c96a9f5b92dbcd4e3e073f5843a,shootout,nbody_3,1049.777000,1
Ř,2d6f6198301c6c96a9f5b92dbcd4e3e073f5843a,shootout,nbody_3,1063.980000,1
Ř,2d6f6198301c6c96a9f5b92dbcd4e3e073f5843a,shootout,nbody_3,1049.039000,1
Ř,2d6f6198301c6c96a9f5b92dbcd4e3e073f5843a,shootout,nbody_3,1050.487000,1
Ř,2d6f6198301c6c96a9f5b92dbcd4e3e073f5843a,shootout,nbody_3,1062.608000,1
Ř,2d6f6198301c6c96a9f5b92dbcd4e3e073f5843a,shootout,nbody_3,1051.752000,1
Ř,2d6f6198301c6c96a9f5b92dbcd4e3e073f5843a,shootout,nbody_3,1061.627000,1
Ř,2d6f6198301c6c96a9f5b92dbcd4e3e073f5843a,shootout,nbody_3,1054.135000,1
Ř,2d6f6198301c6c96a9f5b92dbcd4e3e073f5843a,shootout,reversecomplement,525.948000,0
Ř,2d6f6198301c6c96a9f5b92dbcd4e3e073f5843a,shootout,reversecomplement,574.274000,0
Ř,2d6f6198301c6c96a9f5b92dbcd4e3e073f5843a,shootout,reversecomplement,1273.118000,0
Ř,2d6f6198301c6c96a9f5b92dbcd4e3e073f5843a,shootout,reversecomplement,444.414000,0
Ř,2d6f6198301c6c96a9f5b92dbcd4e3e073f5843a,shootout,reversecomplement,449.912000,0
Ř,2d6f6198301c6c96a9f5b92dbcd4e3e073f5843a,shootout,reversecomplement,454.417000,1
Ř,2d6f6198301c6c96a9f5b92dbcd4e3e073f5843a,shootout,reversecomplement,458.679000,1
Ř,2d6f6198301c6c96a9f5b92dbcd4e3e073f5843a,shootout,reversecomplement,451.029000,1
Ř,2d6f6198301c6c96a9f5b92dbcd4e3e073f5843a,shootout,reversecomplement,454.096000,1
Ř,2d6f6198301c6c96a9f5b92dbcd4e3e073f5843a,shootout,reversecomplement,450.830000,1
Ř,2d6f6198301c6c96a9f5b92dbcd4e3e073f5843a,shootout,reversecomplement,454.796000,1
Ř,2d6f6198301c6c96a9f5b92dbcd4e3e073f5843a,shootout,reversecomplement,450.600000,1
Ř,2d6f6198301c6c96a9f5b92dbcd4e3e073f5843a,shootout,reversecomplement,454.278000,1
Ř,2d6f6198301c6c96a9f5b92dbcd4e3e073f5843a,shootout,reversecomplement,450.053000,1
Ř,2d6f6198301c6c96a9f5b92dbcd4e3e073f5843a,shootout,reversecomplement,456.207000,1
Ř,2d6f6198301c6c96a9f5b92dbcd4e3e073f5843a,shootout,mandelbrot_naive_ascii,610.972000,0
Ř,2d6f6198301c6c96a9f5b92dbcd4e3e073f5843a,shootout,mandelbrot_naive_ascii,613.635000,0
Ř,2d6f6198301c6c96a9f5b92dbcd4e3e073f5843a,shootout,mandelbrot_naive_ascii,1153.421000,0
Ř,2d6f6198301c6c96a9f5b92dbcd4e3e073f5843a,shootout,mandelbrot_naive_ascii,198.713000,0
Ř,2d6f6198301c6c96a9f5b92dbcd4e3e073f5843a,shootout,mandelbrot_naive_ascii,193.396000,0
Ř,2d6f6198301c6c96a9f5b92dbcd4e3e073f5843a,shootout,mandelbrot_naive_ascii,193.349000,1
Ř,2d6f6198301c6c96a9f5b92dbcd4e3e073f5843a,shootout,mandelbrot_naive_ascii,193.594000,1
Ř,2d6f6198301c6c96a9f5b92dbcd4e3e073f5843a,shootout,mandelbrot_naive_ascii,194.694000,1
Ř,2d6f6198301c6c96a9f5b92dbcd4e3e073f5843a,shootout,mandelbrot_naive_ascii,193.731000,1
Ř,2d6f6198301c6c96a9f5b92dbcd4e3e073f5843a,shootout,mandelbrot_naive_ascii,193.922000,1
Ř,2d6f6198301c6c96a9f5b92dbcd4e3e073f5843a,shootout,mandelbrot_naive_ascii,198.984000,1
Ř,2d6f6198301c6c96a9f5b92dbcd4e3e073f5843a,shootout,mandelbrot_naive_ascii,193.265000,1
Ř,2d6f6198301c6c96a9f5b92dbcd4e3e073f5843a,shootout,mandelbrot_naive_ascii,193.064000,1
Ř,2d6f6198301c6c96a9f5b92dbcd4e3e073f5843a,shootout,mandelbrot_naive_ascii,193.998000,1
Ř,2d6f6198301c6c96a9f5b92dbcd4e3e073f5843a,shootout,mandelbrot_naive_ascii,193.216000,1
Ř,2d6f6198301c6c96a9f5b92dbcd4e3e073f5843a,shootout,nbody,2351.256000,0
Ř,2d6f6198301c6c96a9f5b92dbcd4e3e073f5843a,shootout,nbody,2157.160000,0
Ř,2d6f6198301c6c96a9f5b92dbcd4e3e073f5843a,shootout,nbody,2237.653000,0
Ř,2d6f6198301c6c96a9f5b92dbcd4e3e073f5843a,shootout,nbody,748.882000,0
Ř,2d6f6198301c6c96a9f5b92dbcd4e3e073f5843a,shootout,nbody,746.564000,0
Ř,2d6f6198301c6c96a9f5b92dbcd4e3e073f5843a,shootout,nbody,737.128000,1
Ř,2d6f6198301c6c96a9f5b92dbcd4e3e073f5843a,shootout,nbody,734.994000,1
Ř,2d6f6198301c6c96a9f5b92dbcd4e3e073f5843a,shootout,nbody,733.704000,1
Ř,2d6f6198301c6c96a9f5b92dbcd4e3e073f5843a,shootout,nbody,745.812000,1
Ř,2d6f6198301c6c96a9f5b92dbcd4e3e073f5843a,shootout,nbody,736.133000,1
Ř,2d6f6198301c6c96a9f5b92dbcd4e3e073f5843a,shootout,nbody,735.020000,1
Ř,2d6f6198301c6c96a9f5b92dbcd4e3e073f5843a,shootout,nbody,733.918000,1
Ř,2d6f6198301c6c96a9f5b92dbcd4e3e073f5843a,shootout,nbody,745.237000,1
Ř,2d6f6198301c6c96a9f5b92dbcd4e3e073f5843a,shootout,nbody,734.855000,1
Ř,2d6f6198301c6c96a9f5b92dbcd4e3e073f5843a,shootout,nbody,736.443000,1
Ř,2d6f6198301c6c96a9f5b92dbcd4e3e073f5843a,shootout,fastaredux,659.760000,0
Ř,2d6f6198301c6c96a9f5b92dbcd4e3e073f5843a,shootout,fastaredux,1649.446000,0
Ř,2d6f6198301c6c96a9f5b92dbcd4e3e073f5843a,shootout,fastaredux,2347.739000,0
Ř,2d6f6198301c6c96a9f5b92dbcd4e3e073f5843a,shootout,fastaredux,386.464000,0
Ř,2d6f6198301c6c96a9f5b92dbcd4e3e073f5843a,shootout,fastaredux,394.733000,0
Ř,2d6f6198301c6c96a9f5b92dbcd4e3e073f5843a,shootout,fastaredux,379.700000,1
Ř,2d6f6198301c6c96a9f5b92dbcd4e3e073f5843a,shootout,fastaredux,380.946000,1
Ř,2d6f6198301c6c96a9f5b92dbcd4e3e073f5843a,shootout,fastaredux,386.082000,1
Ř,2d6f6198301c6c96a9f5b92dbcd4e3e073f5843a,shootout,fastaredux,387.542000,1
Ř,2d6f6198301c6c96a9f5b92dbcd4e3e073f5843a,shootout,fastaredux,378.725000,1
Ř,2d6f6198301c6c96a9f5b92dbcd4e3e073f5843a,shootout,fastaredux,393.169000,1
Ř,2d6f6198301c6c96a9f5b92dbcd4e3e073f5843a,shootout,fastaredux,388.465000,1
Ř,2d6f6198301c6c96a9f5b92dbcd4e3e073f5843a,shootout,fastaredux,385.514000,1
Ř,2d6f6198301c6c96a9f5b92dbcd4e3e073f5843a,shootout,fastaredux,389.284000,1
Ř,2d6f6198301c6c96a9f5b92dbcd4e3e073f5843a,shootout,fastaredux,390.248000,1
Ř,2d6f6198301c6c96a9f5b92dbcd4e3e073f5843a,shootout,knucleotide_brute_3,4305.478000,0
Ř,2d6f6198301c6c96a9f5b92dbcd4e3e073f5843a,shootout,knucleotide_brute_3,4366.964000,0
Ř,2d6f6198301c6c96a9f5b92dbcd4e3e073f5843a,shootout,knucleotide_brute_3,12187.896000,0
Ř,2d6f6198301c6c96a9f5b92dbcd4e3e073f5843a,shootout,knucleotide_brute_3,2742.003000,0
Ř,2d6f6198301c6c96a9f5b92dbcd4e3e073f5843a,shootout,knucleotide_brute_3,2747.776000,0
Ř,2d6f6198301c6c96a9f5b92dbcd4e3e073f5843a,shootout,knucleotide_brute_3,2741.338000,1
Ř,2d6f6198301c6c96a9f5b92dbcd4e3e073f5843a,shootout,knucleotide_brute_3,2747.524000,1
Ř,2d6f6198301c6c96a9f5b92dbcd4e3e073f5843a,shootout,knucleotide_brute_3,2731.975000,1
Ř,2d6f6198301c6c96a9f5b92dbcd4e3e073f5843a,shootout,knucleotide_brute_3,2754.383000,1
Ř,2d6f6198301c6c96a9f5b92dbcd4e3e073f5843a,shootout,knucleotide_brute_3,2734.593000,1
Ř,2d6f6198301c6c96a9f5b92dbcd4e3e073f5843a,shootout,knucleotide_brute_3,2743.100000,1
Ř,2d6f6198301c6c96a9f5b92dbcd4e3e073f5843a,shootout,knucleotide_brute_3,2740.083000,1
Ř,2d6f6198301c6c96a9f5b92dbcd4e3e073f5843a,shootout,knucleotide_brute_3,2737.102000,1
Ř,2d6f6198301c6c96a9f5b92dbcd4e3e073f5843a,shootout,knucleotide_brute_3,2737.909000,1
Ř,2d6f6198301c6c96a9f5b92dbcd4e3e073f5843a,shootout,knucleotide_brute_3,2734.692000,1
Ř,2d6f6198301c6c96a9f5b92dbcd4e3e073f5843a,shootout,fasta_naive_2,1097.465000,0
Ř,2d6f6198301c6c96a9f5b92dbcd4e3e073f5843a,shootout,fasta_naive_2,1220.160000,0
Ř,2d6f6198301c6c96a9f5b92dbcd4e3e073f5843a,shootout,fasta_naive_2,2339.327000,0
Ř,2d6f6198301c6c96a9f5b92dbcd4e3e073f5843a,shootout,fasta_naive_2,629.971000,0
Ř,2d6f6198301c6c96a9f5b92dbcd4e3e073f5843a,shootout,fasta_naive_2,625.387000,0
Ř,2d6f6198301c6c96a9f5b92dbcd4e3e073f5843a,shootout,fasta_naive_2,643.226000,1
Ř,2d6f6198301c6c96a9f5b92dbcd4e3e073f5843a,shootout,fasta_naive_2,630.635000,1
Ř,2d6f6198301c6c96a9f5b92dbcd4e3e073f5843a,shootout,fasta_naive_2,631.689000,1
Ř,2d6f6198301c6c96a9f5b92dbcd4e3e073f5843a,shootout,fasta_naive_2,645.615000,1
Ř,2d6f6198301c6c96a9f5b92dbcd4e3e073f5843a,shootout,fasta_naive_2,611.585000,1
Ř,2d6f6198301c6c96a9f5b92dbcd4e3e073f5843a,shootout,fasta_naive_2,630.789000,1
Ř,2d6f6198301c6c96a9f5b92dbcd4e3e073f5843a,shootout,fasta_naive_2,649.652000,1
Ř,2d6f6198301c6c96a9f5b92dbcd4e3e073f5843a,shootout,fasta_naive_2,615.974000,1
Ř,2d6f6198301c6c96a9f5b92dbcd4e3e073f5843a,shootout,fasta_naive_2,629.309000,1
Ř,2d6f6198301c6c96a9f5b92dbcd4e3e073f5843a,shootout,fasta_naive_2,649.203000,1
Ř,2d6f6198301c6c96a9f5b92dbcd4e3e073f5843a,shootout,fannkuchredux,2180.358000,0
Ř,2d6f6198301c6c96a9f5b92dbcd4e3e073f5843a,shootout,fannkuchredux,2127.225000,0
Ř,2d6f6198301c6c96a9f5b92dbcd4e3e073f5843a,shootout,fannkuchredux,3584.193000,0
Ř,2d6f6198301c6c96a9f5b92dbcd4e3e073f5843a,shootout,fannkuchredux,767.066000,0
Ř,2d6f6198301c6c96a9f5b92dbcd4e3e073f5843a,shootout,fannkuchredux,764.385000,0
Ř,2d6f6198301c6c96a9f5b92dbcd4e3e073f5843a,shootout,fannkuchredux,775.380000,1
Ř,2d6f6198301c6c96a9f5b92dbcd4e3e073f5843a,shootout,fannkuchredux,763.693000,1
Ř,2d6f6198301c6c96a9f5b92dbcd4e3e073f5843a,shootout,fannkuchredux,765.729000,1
Ř,2d6f6198301c6c96a9f5b92dbcd4e3e073f5843a,shootout,fannkuchredux,777.377000,1
Ř,2d6f6198301c6c96a9f5b92dbcd4e3e073f5843a,shootout,fannkuchredux,765.964000,1
Ř,2d6f6198301c6c96a9f5b92dbcd4e3e073f5843a,shootout,fannkuchredux,782.769000,1
Ř,2d6f6198301c6c96a9f5b92dbcd4e3e073f5843a,shootout,fannkuchredux,766.980000,1
Ř,2d6f6198301c6c96a9f5b92dbcd4e3e073f5843a,shootout,fannkuchredux,765.145000,1
Ř,2d6f6198301c6c96a9f5b92dbcd4e3e073f5843a,shootout,fannkuchredux,773.729000,1
Ř,2d6f6198301c6c96a9f5b92dbcd4e3e073f5843a,shootout,fannkuchredux,763.571000,1
Ř,2d6f6198301c6c96a9f5b92dbcd4e3e073f5843a,shootout,spectralnorm,2417.878000,0
Ř,2d6f6198301c6c96a9f5b92dbcd4e3e073f5843a,shootout,spectralnorm,2618.650000,0
Ř,2d6f6198301c6c96a9f5b92dbcd4e3e073f5843a,shootout,spectralnorm,2379.645000,0
Ř,2d6f6198301c6c96a9f5b92dbcd4e3e073f5843a,shootout,spectralnorm,72.089000,0
Ř,2d6f6198301c6c96a9f5b92dbcd4e3e073f5843a,shootout,spectralnorm,57.661000,0
Ř,2d6f6198301c6c96a9f5b92dbcd4e3e073f5843a,shootout,spectralnorm,58.990000,1
Ř,2d6f6198301c6c96a9f5b92dbcd4e3e073f5843a,shootout,spectralnorm,59.035000,1
Ř,2d6f6198301c6c96a9f5b92dbcd4e3e073f5843a,shootout,spectralnorm,57.545000,1
Ř,2d6f6198301c6c96a9f5b92dbcd4e3e073f5843a,shootout,spectralnorm,58.900000,1
Ř,2d6f6198301c6c96a9f5b92dbcd4e3e073f5843a,shootout,spectralnorm,59.082000,1
Ř,2d6f6198301c6c96a9f5b92dbcd4e3e073f5843a,shootout,spectralnorm,59.025000,1
Ř,2d6f6198301c6c96a9f5b92dbcd4e3e073f5843a,shootout,spectralnorm,57.649000,1
Ř,2d6f6198301c6c96a9f5b92dbcd4e3e073f5843a,shootout,spectralnorm,58.962000,1
Ř,2d6f6198301c6c96a9f5b92dbcd4e3e073f5843a,shootout,spectralnorm,58.922000,1
Ř,2d6f6198301c6c96a9f5b92dbcd4e3e073f5843a,shootout,spectralnorm,59.044000,1
Ř,2d6f6198301c6c96a9f5b92dbcd4e3e073f5843a,shootout,pidigits,54952.397000,0
Ř,2d6f6198301c6c96a9f5b92dbcd4e3e073f5843a,shootout,pidigits,752.892000,0
Ř,2d6f6198301c6c96a9f5b92dbcd4e3e073f5843a,shootout,pidigits,33714.746000,0
Ř,2d6f6198301c6c96a9f5b92dbcd4e3e073f5843a,shootout,pidigits,100.731000,0
Ř,2d6f6198301c6c96a9f5b92dbcd4e3e073f5843a,shootout,pidigits,111.629000,0
Ř,2d6f6198301c6c96a9f5b92dbcd4e3e073f5843a,shootout,pidigits,101.148000,1
Ř,2d6f6198301c6c96a9f5b92dbcd4e3e073f5843a,shootout,pidigits,100.318000,1
Ř,2d6f6198301c6c96a9f5b92dbcd4e3e073f5843a,shootout,pidigits,100.361000,1
Ř,2d6f6198301c6c96a9f5b92dbcd4e3e073f5843a,shootout,pidigits,101.173000,1
Ř,2d6f6198301c6c96a9f5b92dbcd4e3e073f5843a,shootout,pidigits,103.189000,1
Ř,2d6f6198301c6c96a9f5b92dbcd4e3e073f5843a,shootout,pidigits,100.641000,1
Ř,2d6f6198301c6c96a9f5b92dbcd4e3e073f5843a,shootout,pidigits,101.540000,1
Ř,2d6f6198301c6c96a9f5b92dbcd4e3e073f5843a,shootout,pidigits,100.405000,1
Ř,2d6f6198301c6c96a9f5b92dbcd4e3e073f5843a,shootout,pidigits,100.207000,1
Ř,2d6f6198301c6c96a9f5b92dbcd4e3e073f5843a,shootout,pidigits,101.401000,1
Ř,2d6f6198301c6c96a9f5b92dbcd4e3e073f5843a,shootout,nbody_naive,21329.410000,0
Ř,2d6f6198301c6c96a9f5b92dbcd4e3e073f5843a,shootout,nbody_naive,2081.640000,0
Ř,2d6f6198301c6c96a9f5b92dbcd4e3e073f5843a,shootout,nbody_naive,42147.848000,0
Ř,2d6f6198301c6c96a9f5b92dbcd4e3e073f5843a,shootout,nbody_naive,146.670000,0
Ř,2d6f6198301c6c96a9f5b92dbcd4e3e073f5843a,shootout,nbody_naive,151.466000,0
Ř,2d6f6198301c6c96a9f5b92dbcd4e3e073f5843a,shootout,nbody_naive,148.626000,1
Ř,2d6f6198301c6c96a9f5b92dbcd4e3e073f5843a,shootout,nbody_naive,148.788000,1
Ř,2d6f6198301c6c96a9f5b92dbcd4e3e073f5843a,shootout,nbody_naive,143.754000,1
Ř,2d6f6198301c6c96a9f5b92dbcd4e3e073f5843a,shootout,nbody_naive,144.023000,1
Ř,2d6f6198301c6c96a9f5b92dbcd4e3e073f5843a,shootout,nbody_naive,150.668000,1
Ř,2d6f6198301c6c96a9f5b92dbcd4e3e073f5843a,shootout,nbody_naive,148.333000,1
Ř,2d6f6198301c6c96a9f5b92dbcd4e3e073f5843a,shootout,nbody_naive,147.577000,1
Ř,2d6f6198301c6c96a9f5b92dbcd4e3e073f5843a,shootout,nbody_naive,146.015000,1
Ř,2d6f6198301c6c96a9f5b92dbcd4e3e073f5843a,shootout,nbody_naive,157.942000,1
Ř,2d6f6198301c6c96a9f5b92dbcd4e3e073f5843a,shootout,nbody_naive,148.939000,1
Ř,2d6f6198301c6c96a9f5b92dbcd4e3e073f5843a,shootout,binarytrees,984.867000,0
Ř,2d6f6198301c6c96a9f5b92dbcd4e3e073f5843a,shootout,binarytrees,192.828000,0
Ř,2d6f6198301c6c96a9f5b92dbcd4e3e073f5843a,shootout,binarytrees,1358.994000,0
Ř,2d6f6198301c6c96a9f5b92dbcd4e3e073f5843a,shootout,binarytrees,72.851000,0
Ř,2d6f6198301c6c96a9f5b92dbcd4e3e073f5843a,shootout,binarytrees,72.708000,0
Ř,2d6f6198301c6c96a9f5b92dbcd4e3e073f5843a,shootout,binarytrees,83.556000,1
Ř,2d6f6198301c6c96a9f5b92dbcd4e3e073f5843a,shootout,binarytrees,72.874000,1
Ř,2d6f6198301c6c96a9f5b92dbcd4e3e073f5843a,shootout,binarytrees,72.844000,1
Ř,2d6f6198301c6c96a9f5b92dbcd4e3e073f5843a,shootout,binarytrees,73.636000,1
Ř,2d6f6198301c6c96a9f5b92dbcd4e3e073f5843a,shootout,binarytrees,72.949000,1
Ř,2d6f6198301c6c96a9f5b92dbcd4e3e073f5843a,shootout,binarytrees,76.119000,1
Ř,2d6f6198301c6c96a9f5b92dbcd4e3e073f5843a,shootout,binarytrees,73.154000,1
Ř,2d6f6198301c6c96a9f5b92dbcd4e3e073f5843a,shootout,binarytrees,73.068000,1
Ř,2d6f6198301c6c96a9f5b92dbcd4e3e073f5843a,shootout,binarytrees,73.310000,1
Ř,2d6f6198301c6c96a9f5b92dbcd4e3e073f5843a,shootout,binarytrees,73.802000,1
Ř,2d6f6198301c6c96a9f5b92dbcd4e3e073f5843a,shootout,knucleotide_brute_2,3438.702000,0
Ř,2d6f6198301c6c96a9f5b92dbcd4e3e073f5843a,shootout,knucleotide_brute_2,4650.225000,0
Ř,2d6f6198301c6c96a9f5b92dbcd4e3e073f5843a,shootout,knucleotide_brute_2,13111.638000,0
Ř,2d6f6198301c6c96a9f5b92dbcd4e3e073f5843a,shootout,knucleotide_brute_2,2495.519000,0
Ř,2d6f6198301c6c96a9f5b92dbcd4e3e073f5843a,shootout,knucleotide_brute_2,2630.624000,0
Ř,2d6f6198301c6c96a9f5b92dbcd4e3e073f5843a,shootout,knucleotide_brute_2,3274.020000,1
Ř,2d6f6198301c6c96a9f5b92dbcd4e3e073f5843a,shootout,knucleotide_brute_2,3572.098000,1
Ř,2d6f6198301c6c96a9f5b92dbcd4e3e073f5843a,shootout,knucleotide_brute_2,3294.742000,1
Ř,2d6f6198301c6c96a9f5b92dbcd4e3e073f5843a,shootout,knucleotide_brute_2,3538.855000,1
Ř,2d6f6198301c6c96a9f5b92dbcd4e3e073f5843a,shootout,knucleotide_brute_2,3808.157000,1
Ř,2d6f6198301c6c96a9f5b92dbcd4e3e073f5843a,shootout,knucleotide_brute_2,2059.002000,1
Ř,2d6f6198301c6c96a9f5b92dbcd4e3e073f5843a,shootout,knucleotide_brute_2,2086.708000,1
Ř,2d6f6198301c6c96a9f5b92dbcd4e3e073f5843a,shootout,knucleotide_brute_2,2168.804000,1
Ř,2d6f6198301c6c96a9f5b92dbcd4e3e073f5843a,shootout,knucleotide_brute_2,3055.550000,1
Ř,2d6f6198301c6c96a9f5b92dbcd4e3e073f5843a,shootout,knucleotide_brute_2,2528.284000,1
Ř,2d6f6198301c6c96a9f5b92dbcd4e3e073f5843a,shootout,binarytrees_2,1121.538000,0
Ř,2d6f6198301c6c96a9f5b92dbcd4e3e073f5843a,shootout,binarytrees_2,126.813000,0
Ř,2d6f6198301c6c96a9f5b92dbcd4e3e073f5843a,shootout,binarytrees_2,1383.634000,0
Ř,2d6f6198301c6c96a9f5b92dbcd4e3e073f5843a,shootout,binarytrees_2,83.428000,0
Ř,2d6f6198301c6c96a9f5b92dbcd4e3e073f5843a,shootout,binarytrees_2,93.419000,0
Ř,2d6f6198301c6c96a9f5b92dbcd4e3e073f5843a,shootout,binarytrees_2,82.938000,1
Ř,2d6f6198301c6c96a9f5b92dbcd4e3e073f5843a,shootout,binarytrees_2,82.738000,1
Ř,2d6f6198301c6c96a9f5b92dbcd4e3e073f5843a,shootout,binarytrees_2,82.879000,1
Ř,2d6f6198301c6c96a9f5b92dbcd4e3e073f5843a,shootout,binarytrees_2,85.621000,1
Ř,2d6f6198301c6c96a9f5b92dbcd4e3e073f5843a,shootout,binarytrees_2,82.887000,1
Ř,2d6f6198301c6c96a9f5b92dbcd4e3e073f5843a,shootout,binarytrees_2,82.991000,1
Ř,2d6f6198301c6c96a9f5b92dbcd4e3e073f5843a,shootout,binarytrees_2,83.211000,1
Ř,2d6f6198301c6c96a9f5b92dbcd4e3e073f5843a,shootout,binarytrees_2,83.679000,1
Ř,2d6f6198301c6c96a9f5b92dbcd4e3e073f5843a,shootout,binarytrees_2,83.825000,1
Ř,2d6f6198301c6c96a9f5b92dbcd4e3e073f5843a,shootout,binarytrees_2,83.713000,1
Ř,2d6f6198301c6c96a9f5b92dbcd4e3e073f5843a,shootout,nbody_naive_2,3066.415000,0
Ř,2d6f6198301c6c96a9f5b92dbcd4e3e073f5843a,shootout,nbody_naive_2,1762.991000,0
Ř,2d6f6198301c6c96a9f5b92dbcd4e3e073f5843a,shootout,nbody_naive_2,4711.175000,0
Ř,2d6f6198301c6c96a9f5b92dbcd4e3e073f5843a,shootout,nbody_naive_2,971.536000,0
Ř,2d6f6198301c6c96a9f5b92dbcd4e3e073f5843a,shootout,nbody_naive_2,965.534000,0
Ř,2d6f6198301c6c96a9f5b92dbcd4e3e073f5843a,shootout,nbody_naive_2,951.909000,1
Ř,2d6f6198301c6c96a9f5b92dbcd4e3e073f5843a,shootout,nbody_naive_2,966.073000,1
Ř,2d6f6198301c6c96a9f5b92dbcd4e3e073f5843a,shootout,nbody_naive_2,957.725000,1
Ř,2d6f6198301c6c96a9f5b92dbcd4e3e073f5843a,shootout,nbody_naive_2,970.345000,1
Ř,2d6f6198301c6c96a9f5b92dbcd4e3e073f5843a,shootout,nbody_naive_2,963.516000,1
Ř,2d6f6198301c6c96a9f5b92dbcd4e3e073f5843a,shootout,nbody_naive_2,952.490000,1
Ř,2d6f6198301c6c96a9f5b92dbcd4e3e073f5843a,shootout,nbody_naive_2,970.008000,1
Ř,2d6f6198301c6c96a9f5b92dbcd4e3e073f5843a,shootout,nbody_naive_2,953.120000,1
Ř,2d6f6198301c6c96a9f5b92dbcd4e3e073f5843a,shootout,nbody_naive_2,26158.507000,1
Ř,2d6f6198301c6c96a9f5b92dbcd4e3e073f5843a,shootout,nbody_naive_2,1355636.748000,1
Ř,2d6f6198301c6c96a9f5b92dbcd4e3e073f5843a,shootout,reversecomplement_naive,507.263000,0
Ř,2d6f6198301c6c96a9f5b92dbcd4e3e073f5843a,shootout,reversecomplement_naive,556.157000,0
Ř,2d6f6198301c6c96a9f5b92dbcd4e3e073f5843a,shootout,reversecomplement_naive,1174.566000,0
Ř,2d6f6198301c6c96a9f5b92dbcd4e3e073f5843a,shootout,reversecomplement_naive,331.071000,0
Ř,2d6f6198301c6c96a9f5b92dbcd4e3e073f5843a,shootout,reversecomplement_naive,333.675000,0
Ř,2d6f6198301c6c96a9f5b92dbcd4e3e073f5843a,shootout,reversecomplement_naive,332.434000,1
Ř,2d6f6198301c6c96a9f5b92dbcd4e3e073f5843a,shootout,reversecomplement_naive,330.869000,1
Ř,2d6f6198301c6c96a9f5b92dbcd4e3e073f5843a,shootout,reversecomplement_naive,342.095000,1
Ř,2d6f6198301c6c96a9f5b92dbcd4e3e073f5843a,shootout,reversecomplement_naive,327.720000,1
Ř,2d6f6198301c6c96a9f5b92dbcd4e3e073f5843a,shootout,reversecomplement_naive,330.379000,1
Ř,2d6f6198301c6c96a9f5b92dbcd4e3e073f5843a,shootout,reversecomplement_naive,329.237000,1
Ř,2d6f6198301c6c96a9f5b92dbcd4e3e073f5843a,shootout,reversecomplement_naive,328.073000,1
Ř,2d6f6198301c6c96a9f5b92dbcd4e3e073f5843a,shootout,reversecomplement_naive,332.088000,1
Ř,2d6f6198301c6c96a9f5b92dbcd4e3e073f5843a,shootout,reversecomplement_naive,329.075000,1
Ř,2d6f6198301c6c96a9f5b92dbcd4e3e073f5843a,shootout,reversecomplement_naive,340.707000,1
Ř,2d6f6198301c6c96a9f5b92dbcd4e3e073f5843a,shootout,spectralnorm_alt_2,1675.332000,0
Ř,2d6f6198301c6c96a9f5b92dbcd4e3e073f5843a,shootout,spectralnorm_alt_2,1383.883000,0
Ř,2d6f6198301c6c96a9f5b92dbcd4e3e073f5843a,shootout,spectralnorm_alt_2,2547.035000,0
Ř,2d6f6198301c6c96a9f5b92dbcd4e3e073f5843a,shootout,spectralnorm_alt_2,1150.179000,0
Ř,2d6f6198301c6c96a9f5b92dbcd4e3e073f5843a,shootout,spectralnorm_alt_2,1192.873000,0
Ř,2d6f6198301c6c96a9f5b92dbcd4e3e073f5843a,shootout,spectralnorm_alt_2,1223.165000,1
Ř,2d6f6198301c6c96a9f5b92dbcd4e3e073f5843a,shootout,spectralnorm_alt_2,1203.112000,1
Ř,2d6f6198301c6c96a9f5b92dbcd4e3e073f5843a,shootout,spectralnorm_alt_2,1165.594000,1
Ř,2d6f6198301c6c96a9f5b92dbcd4e3e073f5843a,shootout,spectralnorm_alt_2,1230.229000,1
Ř,2d6f6198301c6c96a9f5b92dbcd4e3e073f5843a,shootout,spectralnorm_alt_2,1199.747000,1
Ř,2d6f6198301c6c96a9f5b92dbcd4e3e073f5843a,shootout,spectralnorm_alt_2,1172.558000,1
Ř,2d6f6198301c6c96a9f5b92dbcd4e3e073f5843a,shootout,spectralnorm_alt_2,1180.807000,1
Ř,2d6f6198301c6c96a9f5b92dbcd4e3e073f5843a,shootout,spectralnorm_alt_2,1214.086000,1
Ř,2d6f6198301c6c96a9f5b92dbcd4e3e073f5843a,shootout,spectralnorm_alt_2,1178.261000,1
Ř,2d6f6198301c6c96a9f5b92dbcd4e3e073f5843a,shootout,spectralnorm_alt_2,1189.800000,1
Ř,2d6f6198301c6c96a9f5b92dbcd4e3e073f5843a,shootout,reversecomplement_2,503.935000,0
Ř,2d6f6198301c6c96a9f5b92dbcd4e3e073f5843a,shootout,reversecomplement_2,530.339000,0
Ř,2d6f6198301c6c96a9f5b92dbcd4e3e073f5843a,shootout,reversecomplement_2,1508.131000,0
Ř,2d6f6198301c6c96a9f5b92dbcd4e3e073f5843a,shootout,reversecomplement_2,429.274000,0
Ř,2d6f6198301c6c96a9f5b92dbcd4e3e073f5843a,shootout,reversecomplement_2,409.837000,0
Ř,2d6f6198301c6c96a9f5b92dbcd4e3e073f5843a,shootout,reversecomplement_2,410.955000,1
Ř,2d6f6198301c6c96a9f5b92dbcd4e3e073f5843a,shootout,reversecomplement_2,412.154000,1
Ř,2d6f6198301c6c96a9f5b92dbcd4e3e073f5843a,shootout,reversecomplement_2,415.854000,1
Ř,2d6f6198301c6c96a9f5b92dbcd4e3e073f5843a,shootout,reversecomplement_2,414.163000,1
Ř,2d6f6198301c6c96a9f5b92dbcd4e3e073f5843a,shootout,reversecomplement_2,414.546000,1
Ř,2d6f6198301c6c96a9f5b92dbcd4e3e073f5843a,shootout,reversecomplement_2,417.376000,1
Ř,2d6f6198301c6c96a9f5b92dbcd4e3e073f5843a,shootout,reversecomplement_2,410.729000,1
Ř,2d6f6198301c6c96a9f5b92dbcd4e3e073f5843a,shootout,reversecomplement_2,411.021000,1
Ř,2d6f6198301c6c96a9f5b92dbcd4e3e073f5843a,shootout,reversecomplement_2,416.451000,1
Ř,2d6f6198301c6c96a9f5b92dbcd4e3e073f5843a,shootout,reversecomplement_2,411.569000,1
Ř,2d6f6198301c6c96a9f5b92dbcd4e3e073f5843a,shootout,fasta,1498.606000,0
Ř,2d6f6198301c6c96a9f5b92dbcd4e3e073f5843a,shootout,fasta,1245.275000,0
Ř,2d6f6198301c6c96a9f5b92dbcd4e3e073f5843a,shootout,fasta,1959.695000,0
Ř,2d6f6198301c6c96a9f5b92dbcd4e3e073f5843a,shootout,fasta,897.447000,0
Ř,2d6f6198301c6c96a9f5b92dbcd4e3e073f5843a,shootout,fasta,898.371000,0
Ř,2d6f6198301c6c96a9f5b92dbcd4e3e073f5843a,shootout,fasta,914.129000,1
Ř,2d6f6198301c6c96a9f5b92dbcd4e3e073f5843a,shootout,fasta,914.266000,1
Ř,2d6f6198301c6c96a9f5b92dbcd4e3e073f5843a,shootout,fasta,909.880000,1
Ř,2d6f6198301c6c96a9f5b92dbcd4e3e073f5843a,shootout,fasta,893.563000,1
Ř,2d6f6198301c6c96a9f5b92dbcd4e3e073f5843a,shootout,fasta,894.156000,1
Ř,2d6f6198301c6c96a9f5b92dbcd4e3e073f5843a,shootout,fasta,901.138000,1
Ř,2d6f6198301c6c96a9f5b92dbcd4e3e073f5843a,shootout,fasta,909.568000,1
Ř,2d6f6198301c6c96a9f5b92dbcd4e3e073f5843a,shootout,fasta,904.318000,1
Ř,2d6f6198301c6c96a9f5b92dbcd4e3e073f5843a,shootout,fasta,907.820000,1
Ř,2d6f6198301c6c96a9f5b92dbcd4e3e073f5843a,shootout,fasta,914.584000,1
Ř,2d6f6198301c6c96a9f5b92dbcd4e3e073f5843a,shootout,fannkuchredux_naive,2558.449000,0
Ř,2d6f6198301c6c96a9f5b92dbcd4e3e073f5843a,shootout,fannkuchredux_naive,2534.709000,0
Ř,2d6f6198301c6c96a9f5b92dbcd4e3e073f5843a,shootout,fannkuchredux_naive,2854.402000,0
Ř,2d6f6198301c6c96a9f5b92dbcd4e3e073f5843a,shootout,fannkuchredux_naive,204.609000,0
Ř,2d6f6198301c6c96a9f5b92dbcd4e3e073f5843a,shootout,fannkuchredux_naive,198.639000,0
Ř,2d6f6198301c6c96a9f5b92dbcd4e3e073f5843a,shootout,fannkuchredux_naive,198.882000,1
Ř,2d6f6198301c6c96a9f5b92dbcd4e3e073f5843a,shootout,fannkuchredux_naive,204.784000,1
Ř,2d6f6198301c6c96a9f5b92dbcd4e3e073f5843a,shootout,fannkuchredux_naive,200.178000,1
Ř,2d6f6198301c6c96a9f5b92dbcd4e3e073f5843a,shootout,fannkuchredux_naive,213.127000,1
Ř,2d6f6198301c6c96a9f5b92dbcd4e3e073f5843a,shootout,fannkuchredux_naive,200.361000,1
Ř,2d6f6198301c6c96a9f5b92dbcd4e3e073f5843a,shootout,fannkuchredux_naive,199.368000,1
Ř,2d6f6198301c6c96a9f5b92dbcd4e3e073f5843a,shootout,fannkuchredux_naive,204.291000,1
Ř,2d6f6198301c6c96a9f5b92dbcd4e3e073f5843a,shootout,fannkuchredux_naive,200.143000,1
Ř,2d6f6198301c6c96a9f5b92dbcd4e3e073f5843a,shootout,fannkuchredux_naive,198.394000,1
Ř,2d6f6198301c6c96a9f5b92dbcd4e3e073f5843a,shootout,fannkuchredux_naive,203.258000,1
Ř,2d6f6198301c6c96a9f5b92dbcd4e3e073f5843a,shootout,mandelbrot_ascii,398.781000,0
Ř,2d6f6198301c6c96a9f5b92dbcd4e3e073f5843a,shootout,mandelbrot_ascii,79.018000,0
Ř,2d6f6198301c6c96a9f5b92dbcd4e3e073f5843a,shootout,mandelbrot_ascii,938.890000,0
Ř,2d6f6198301c6c96a9f5b92dbcd4e3e073f5843a,shootout,mandelbrot_ascii,64.416000,0
Ř,2d6f6198301c6c96a9f5b92dbcd4e3e073f5843a,shootout,mandelbrot_ascii,62.599000,0
Ř,2d6f6198301c6c96a9f5b92dbcd4e3e073f5843a,shootout,mandelbrot_ascii,62.709000,1
Ř,2d6f6198301c6c96a9f5b92dbcd4e3e073f5843a,shootout,mandelbrot_ascii,62.625000,1
Ř,2d6f6198301c6c96a9f5b92dbcd4e3e073f5843a,shootout,mandelbrot_ascii,63.938000,1
Ř,2d6f6198301c6c96a9f5b92dbcd4e3e073f5843a,shootout,mandelbrot_ascii,62.647000,1
Ř,2d6f6198301c6c96a9f5b92dbcd4e3e073f5843a,shootout,mandelbrot_ascii,62.622000,1
Ř,2d6f6198301c6c96a9f5b92dbcd4e3e073f5843a,shootout,mandelbrot_ascii,62.637000,1
Ř,2d6f6198301c6c96a9f5b92dbcd4e3e073f5843a,shootout,mandelbrot_ascii,64.099000,1
Ř,2d6f6198301c6c96a9f5b92dbcd4e3e073f5843a,shootout,mandelbrot_ascii,62.652000,1
Ř,2d6f6198301c6c96a9f5b92dbcd4e3e073f5843a,shootout,mandelbrot_ascii,62.643000,1
Ř,2d6f6198301c6c96a9f5b92dbcd4e3e073f5843a,shootout,mandelbrot_ascii,64.435000,1
Ř,2d6f6198301c6c96a9f5b92dbcd4e3e073f5843a,shootout,regexdna,1523.214000,0
Ř,2d6f6198301c6c96a9f5b92dbcd4e3e073f5843a,shootout,regexdna,1501.655000,0
Ř,2d6f6198301c6c96a9f5b92dbcd4e3e073f5843a,shootout,regexdna,3665.197000,0
Ř,2d6f6198301c6c96a9f5b92dbcd4e3e073f5843a,shootout,regexdna,1436.306000,0
Ř,2d6f6198301c6c96a9f5b92dbcd4e3e073f5843a,shootout,regexdna,1441.091000,0
Ř,2d6f6198301c6c96a9f5b92dbcd4e3e073f5843a,shootout,regexdna,1454.942000,1
Ř,2d6f6198301c6c96a9f5b92dbcd4e3e073f5843a,shootout,regexdna,1439.116000,1
Ř,2d6f6198301c6c96a9f5b92dbcd4e3e073f5843a,shootout,regexdna,1440.487000,1
Ř,2d6f6198301c6c96a9f5b92dbcd4e3e073f5843a,shootout,regexdna,1438.068000,1
Ř,2d6f6198301c6c96a9f5b92dbcd4e3e073f5843a,shootout,regexdna,1452.796000,1
Ř,2d6f6198301c6c96a9f5b92dbcd4e3e073f5843a,shootout,regexdna,1438.066000,1
Ř,2d6f6198301c6c96a9f5b92dbcd4e3e073f5843a,shootout,regexdna,1435.906000,1
Ř,2d6f6198301c6c96a9f5b92dbcd4e3e073f5843a,shootout,regexdna,1444.017000,1
Ř,2d6f6198301c6c96a9f5b92dbcd4e3e073f5843a,shootout,regexdna,1454.131000,1
Ř,2d6f6198301c6c96a9f5b92dbcd4e3e073f5843a,shootout,regexdna,1440.992000,1
Ř,2d6f6198301c6c96a9f5b92dbcd4e3e073f5843a,shootout,fasta_naive,798.891000,0
Ř,2d6f6198301c6c96a9f5b92dbcd4e3e073f5843a,shootout,fasta_naive,850.698000,0
Ř,2d6f6198301c6c96a9f5b92dbcd4e3e073f5843a,shootout,fasta_naive,1950.128000,0
Ř,2d6f6198301c6c96a9f5b92dbcd4e3e073f5843a,shootout,fasta_naive,431.263000,0
Ř,2d6f6198301c6c96a9f5b92dbcd4e3e073f5843a,shootout,fasta_naive,446.377000,0
Ř,2d6f6198301c6c96a9f5b92dbcd4e3e073f5843a,shootout,fasta_naive,405.890000,1
Ř,2d6f6198301c6c96a9f5b92dbcd4e3e073f5843a,shootout,fasta_naive,414.073000,1
Ř,2d6f6198301c6c96a9f5b92dbcd4e3e073f5843a,shootout,fasta_naive,419.669000,1
Ř,2d6f6198301c6c96a9f5b92dbcd4e3e073f5843a,shootout,fasta_naive,428.596000,1
Ř,2d6f6198301c6c96a9f5b92dbcd4e3e073f5843a,shootout,fasta_naive,431.141000,1
Ř,2d6f6198301c6c96a9f5b92dbcd4e3e073f5843a,shootout,fasta_naive,426.768000,1
Ř,2d6f6198301c6c96a9f5b92dbcd4e3e073f5843a,shootout,fasta_naive,407.918000,1
Ř,2d6f6198301c6c96a9f5b92dbcd4e3e073f5843a,shootout,fasta_naive,422.163000,1
Ř,2d6f6198301c6c96a9f5b92dbcd4e3e073f5843a,shootout,fasta_naive,427.996000,1
Ř,2d6f6198301c6c96a9f5b92dbcd4e3e073f5843a,shootout,fasta_naive,430.642000,1
Ř,2d6f6198301c6c96a9f5b92dbcd4e3e073f5843a,shootout,knucleotide,3022.026000,0
Ř,2d6f6198301c6c96a9f5b92dbcd4e3e073f5843a,shootout,knucleotide,2136.773000,0
Ř,2d6f6198301c6c96a9f5b92dbcd4e3e073f5843a,shootout,knucleotide,8903.781000,0
Ř,2d6f6198301c6c96a9f5b92dbcd4e3e073f5843a,shootout,knucleotide,504.611000,0
Ř,2d6f6198301c6c96a9f5b92dbcd4e3e073f5843a,shootout,knucleotide,522.581000,0
Ř,2d6f6198301c6c96a9f5b92dbcd4e3e073f5843a,shootout,knucleotide,546.747000,1
Ř,2d6f6198301c6c96a9f5b92dbcd4e3e073f5843a,shootout,knucleotide,491.340000,1
Ř,2d6f6198301c6c96a9f5b92dbcd4e3e073f5843a,shootout,knucleotide,438.646000,1
Ř,2d6f6198301c6c96a9f5b92dbcd4e3e073f5843a,shootout,knucleotide,471.081000,1
Ř,2d6f6198301c6c96a9f5b92dbcd4e3e073f5843a,shootout,knucleotide,496.647000,1
Ř,2d6f6198301c6c96a9f5b92dbcd4e3e073f5843a,shootout,knucleotide,516.808000,1
Ř,2d6f6198301c6c96a9f5b92dbcd4e3e073f5843a,shootout,knucleotide,537.514000,1
Ř,2d6f6198301c6c96a9f5b92dbcd4e3e073f5843a,shootout,knucleotide,492.288000,1
Ř,2d6f6198301c6c96a9f5b92dbcd4e3e073f5843a,shootout,knucleotide,438.899000,1
Ř,2d6f6198301c6c96a9f5b92dbcd4e3e073f5843a,shootout,knucleotide,473.682000,1
Ř,2d6f6198301c6c96a9f5b92dbcd4e3e073f5843a,shootout,spectralnorm_math,3538.847000,0
Ř,2d6f6198301c6c96a9f5b92dbcd4e3e073f5843a,shootout,spectralnorm_math,3338.407000,0
Ř,2d6f6198301c6c96a9f5b92dbcd4e3e073f5843a,shootout,spectralnorm_math,3796.431000,0
Ř,2d6f6198301c6c96a9f5b92dbcd4e3e073f5843a,shootout,spectralnorm_math,3171.720000,0
Ř,2d6f6198301c6c96a9f5b92dbcd4e3e073f5843a,shootout,spectralnorm_math,3193.302000,0
Ř,2d6f6198301c6c96a9f5b92dbcd4e3e073f5843a,shootout,spectralnorm_math,3181.395000,1
Ř,2d6f6198301c6c96a9f5b92dbcd4e3e073f5843a,shootout,spectralnorm_math,3173.399000,1
Ř,2d6f6198301c6c96a9f5b92dbcd4e3e073f5843a,shootout,spectralnorm_math,3176.155000,1
Ř,2d6f6198301c6c96a9f5b92dbcd4e3e073f5843a,shootout,spectralnorm_math,3188.537000,1
Ř,2d6f6198301c6c96a9f5b92dbcd4e3e073f5843a,shootout,spectralnorm_math,3195.082000,1
Ř,2d6f6198301c6c96a9f5b92dbcd4e3e073f5843a,shootout,spectralnorm_math,3183.711000,1
Ř,2d6f6198301c6c96a9f5b92dbcd4e3e073f5843a,shootout,spectralnorm_math,3189.639000,1
Ř,2d6f6198301c6c96a9f5b92dbcd4e3e073f5843a,shootout,spectralnorm_math,3184.830000,1
Ř,2d6f6198301c6c96a9f5b92dbcd4e3e073f5843a,shootout,spectralnorm_math,3203.762000,1
Ř,2d6f6198301c6c96a9f5b92dbcd4e3e073f5843a,shootout,spectralnorm_math,3184.394000,1
Ř,2d6f6198301c6c96a9f5b92dbcd4e3e073f5843a,shootout,fastaredux_naive,703.082000,0
Ř,2d6f6198301c6c96a9f5b92dbcd4e3e073f5843a,shootout,fastaredux_naive,1342.916000,0
Ř,2d6f6198301c6c96a9f5b92dbcd4e3e073f5843a,shootout,fastaredux_naive,2450.834000,0
Ř,2d6f6198301c6c96a9f5b92dbcd4e3e073f5843a,shootout,fastaredux_naive,435.933000,0
Ř,2d6f6198301c6c96a9f5b92dbcd4e3e073f5843a,shootout,fastaredux_naive,440.700000,0
Ř,2d6f6198301c6c96a9f5b92dbcd4e3e073f5843a,shootout,fastaredux_naive,428.169000,1
Ř,2d6f6198301c6c96a9f5b92dbcd4e3e073f5843a,shootout,fastaredux_naive,415.423000,1
Ř,2d6f6198301c6c96a9f5b92dbcd4e3e073f5843a,shootout,fastaredux_naive,421.422000,1
Ř,2d6f6198301c6c96a9f5b92dbcd4e3e073f5843a,shootout,fastaredux_naive,431.373000,1
Ř,2d6f6198301c6c96a9f5b92dbcd4e3e073f5843a,shootout,fastaredux_naive,432.708000,1
Ř,2d6f6198301c6c96a9f5b92dbcd4e3e073f5843a,shootout,fastaredux_naive,438.402000,1
Ř,2d6f6198301c6c96a9f5b92dbcd4e3e073f5843a,shootout,fastaredux_naive,410.494000,1
Ř,2d6f6198301c6c96a9f5b92dbcd4e3e073f5843a,shootout,fastaredux_naive,423.273000,1
Ř,2d6f6198301c6c96a9f5b92dbcd4e3e073f5843a,shootout,fastaredux_naive,430.336000,1
Ř,2d6f6198301c6c96a9f5b92dbcd4e3e073f5843a,shootout,fastaredux_naive,437.061000,1
Ř,2d6f6198301c6c96a9f5b92dbcd4e3e073f5843a,shootout,mandelbrot_noout_naive,255.992000,0
Ř,2d6f6198301c6c96a9f5b92dbcd4e3e073f5843a,shootout,mandelbrot_noout_naive,242.568000,0
Ř,2d6f6198301c6c96a9f5b92dbcd4e3e073f5843a,shootout,mandelbrot_noout_naive,1165.288000,0
Ř,2d6f6198301c6c96a9f5b92dbcd4e3e073f5843a,shootout,mandelbrot_noout_naive,220.932000,0
Ř,2d6f6198301c6c96a9f5b92dbcd4e3e073f5843a,shootout,mandelbrot_noout_naive,221.526000,0
Ř,2d6f6198301c6c96a9f5b92dbcd4e3e073f5843a,shootout,mandelbrot_noout_naive,221.553000,1
Ř,2d6f6198301c6c96a9f5b92dbcd4e3e073f5843a,shootout,mandelbrot_noout_naive,231.504000,1
Ř,2d6f6198301c6c96a9f5b92dbcd4e3e073f5843a,shootout,mandelbrot_noout_naive,222.709000,1
Ř,2d6f6198301c6c96a9f5b92dbcd4e3e073f5843a,shootout,mandelbrot_noout_naive,230.853000,1
Ř,2d6f6198301c6c96a9f5b92dbcd4e3e073f5843a,shootout,mandelbrot_noout_naive,229.538000,1
Ř,2d6f6198301c6c96a9f5b92dbcd4e3e073f5843a,shootout,mandelbrot_noout_naive,239.431000,1
Ř,2d6f6198301c6c96a9f5b92dbcd4e3e073f5843a,shootout,mandelbrot_noout_naive,225.964000,1
Ř,2d6f6198301c6c96a9f5b92dbcd4e3e073f5843a,shootout,mandelbrot_noout_naive,227.969000,1
Ř,2d6f6198301c6c96a9f5b92dbcd4e3e073f5843a,shootout,mandelbrot_noout_naive,229.993000,1
Ř,2d6f6198301c6c96a9f5b92dbcd4e3e073f5843a,shootout,mandelbrot_noout_naive,241.337000,1
Ř,2d6f6198301c6c96a9f5b92dbcd4e3e073f5843a,shootout,knucleotide_brute,4388.348000,0
Ř,2d6f6198301c6c96a9f5b92dbcd4e3e073f5843a,shootout,knucleotide_brute,5284.574000,0
Ř,2d6f6198301c6c96a9f5b92dbcd4e3e073f5843a,shootout,knucleotide_brute,14318.965000,0
Ř,2d6f6198301c6c96a9f5b92dbcd4e3e073f5843a,shootout,knucleotide_brute,3747.617000,0
Ř,2d6f6198301c6c96a9f5b92dbcd4e3e073f5843a,shootout,knucleotide_brute,3878.050000,0
Ř,2d6f6198301c6c96a9f5b92dbcd4e3e073f5843a,shootout,knucleotide_brute,3969.179000,1
Ř,2d6f6198301c6c96a9f5b92dbcd4e3e073f5843a,shootout,knucleotide_brute,3958.245000,1
Ř,2d6f6198301c6c96a9f5b92dbcd4e3e073f5843a,shootout,knucleotide_brute,4041.847000,1
Ř,2d6f6198301c6c96a9f5b92dbcd4e3e073f5843a,shootout,knucleotide_brute,4047.448000,1
Ř,2d6f6198301c6c96a9f5b92dbcd4e3e073f5843a,shootout,knucleotide_brute,4093.041000,1
Ř,2d6f6198301c6c96a9f5b92dbcd4e3e073f5843a,shootout,knucleotide_brute,3398.536000,1
Ř,2d6f6198301c6c96a9f5b92dbcd4e3e073f5843a,shootout,knucleotide_brute,3405.330000,1
Ř,2d6f6198301c6c96a9f5b92dbcd4e3e073f5843a,shootout,knucleotide_brute,3680.385000,1
Ř,2d6f6198301c6c96a9f5b92dbcd4e3e073f5843a,shootout,knucleotide_brute,3724.394000,1
Ř,2d6f6198301c6c96a9f5b92dbcd4e3e073f5843a,shootout,knucleotide_brute,3871.585000,1
Ř,2d6f6198301c6c96a9f5b92dbcd4e3e073f5843a,shootout,spectralnorm_alt_3,1067.755000,0
Ř,2d6f6198301c6c96a9f5b92dbcd4e3e073f5843a,shootout,spectralnorm_alt_3,857.872000,0
Ř,2d6f6198301c6c96a9f5b92dbcd4e3e073f5843a,shootout,spectralnorm_alt_3,1472.974000,0
Ř,2d6f6198301c6c96a9f5b92dbcd4e3e073f5843a,shootout,spectralnorm_alt_3,94.992000,0
Ř,2d6f6198301c6c96a9f5b92dbcd4e3e073f5843a,shootout,spectralnorm_alt_3,96.420000,0
Ř,2d6f6198301c6c96a9f5b92dbcd4e3e073f5843a,shootout,spectralnorm_alt_3,96.263000,1
Ř,2d6f6198301c6c96a9f5b92dbcd4e3e073f5843a,shootout,spectralnorm_alt_3,95.414000,1
Ř,2d6f6198301c6c96a9f5b92dbcd4e3e073f5843a,shootout,spectralnorm_alt_3,96.085000,1
Ř,2d6f6198301c6c96a9f5b92dbcd4e3e073f5843a,shootout,spectralnorm_alt_3,96.006000,1
Ř,2d6f6198301c6c96a9f5b92dbcd4e3e073f5843a,shootout,spectralnorm_alt_3,96.056000,1
Ř,2d6f6198301c6c96a9f5b92dbcd4e3e073f5843a,shootout,spectralnorm_alt_3,96.529000,1
Ř,2d6f6198301c6c96a9f5b92dbcd4e3e073f5843a,shootout,spectralnorm_alt_3,96.013000,1
Ř,2d6f6198301c6c96a9f5b92dbcd4e3e073f5843a,shootout,spectralnorm_alt_3,96.000000,1
Ř,2d6f6198301c6c96a9f5b92dbcd4e3e073f5843a,shootout,spectralnorm_alt_3,99.271000,1
Ř,2d6f6198301c6c96a9f5b92dbcd4e3e073f5843a,shootout,spectralnorm_alt_3,97.869000,1
Ř,2d6f6198301c6c96a9f5b92dbcd4e3e073f5843a,shootout,mandelbrot_noout,386.977000,0
Ř,2d6f6198301c6c96a9f5b92dbcd4e3e073f5843a,shootout,mandelbrot_noout,68.381000,0
Ř,2d6f6198301c6c96a9f5b92dbcd4e3e073f5843a,shootout,mandelbrot_noout,726.378000,0
Ř,2d6f6198301c6c96a9f5b92dbcd4e3e073f5843a,shootout,mandelbrot_noout,64.177000,0
Ř,2d6f6198301c6c96a9f5b92dbcd4e3e073f5843a,shootout,mandelbrot_noout,65.301000,0
Ř,2d6f6198301c6c96a9f5b92dbcd4e3e073f5843a,shootout,mandelbrot_noout,64.076000,1
Ř,2d6f6198301c6c96a9f5b92dbcd4e3e073f5843a,shootout,mandelbrot_noout,63.989000,1
Ř,2d6f6198301c6c96a9f5b92dbcd4e3e073f5843a,shootout,mandelbrot_noout,64.021000,1
Ř,2d6f6198301c6c96a9f5b92dbcd4e3e073f5843a,shootout,mandelbrot_noout,65.168000,1
Ř,2d6f6198301c6c96a9f5b92dbcd4e3e073f5843a,shootout,mandelbrot_noout,73.962000,1
Ř,2d6f6198301c6c96a9f5b92dbcd4e3e073f5843a,shootout,mandelbrot_noout,64.010000,1
Ř,2d6f6198301c6c96a9f5b92dbcd4e3e073f5843a,shootout,mandelbrot_noout,63.906000,1
Ř,2d6f6198301c6c96a9f5b92dbcd4e3e073f5843a,shootout,mandelbrot_noout,64.072000,1
Ř,2d6f6198301c6c96a9f5b92dbcd4e3e073f5843a,shootout,mandelbrot_noout,65.270000,1
Ř,2d6f6198301c6c96a9f5b92dbcd4e3e073f5843a,shootout,mandelbrot_noout,63.958000,1
Ř,2d6f6198301c6c96a9f5b92dbcd4e3e073f5843a,shootout,fasta_3,1189.554000,0
Ř,2d6f6198301c6c96a9f5b92dbcd4e3e073f5843a,shootout,fasta_3,3505.932000,0
Ř,2d6f6198301c6c96a9f5b92dbcd4e3e073f5843a,shootout,fasta_3,4225.325000,0
Ř,2d6f6198301c6c96a9f5b92dbcd4e3e073f5843a,shootout,fasta_3,907.460000,0
Ř,2d6f6198301c6c96a9f5b92dbcd4e3e073f5843a,shootout,fasta_3,899.194000,0
Ř,2d6f6198301c6c96a9f5b92dbcd4e3e073f5843a,shootout,fasta_3,886.584000,1
Ř,2d6f6198301c6c96a9f5b92dbcd4e3e073f5843a,shootout,fasta_3,901.180000,1
Ř,2d6f6198301c6c96a9f5b92dbcd4e3e073f5843a,shootout,fasta_3,897.449000,1
Ř,2d6f6198301c6c96a9f5b92dbcd4e3e073f5843a,shootout,fasta_3,878.659000,1
Ř,2d6f6198301c6c96a9f5b92dbcd4e3e073f5843a,shootout,fasta_3,887.978000,1
Ř,2d6f6198301c6c96a9f5b92dbcd4e3e073f5843a,shootout,fasta_3,891.323000,1
Ř,2d6f6198301c6c96a9f5b92dbcd4e3e073f5843a,shootout,fasta_3,885.207000,1
Ř,2d6f6198301c6c96a9f5b92dbcd4e3e073f5843a,shootout,fasta_3,892.042000,1
Ř,2d6f6198301c6c96a9f5b92dbcd4e3e073f5843a,shootout,fasta_3,891.612000,1
Ř,2d6f6198301c6c96a9f5b92dbcd4e3e073f5843a,shootout,fasta_3,891.029000,1
Ř,2d6f6198301c6c96a9f5b92dbcd4e3e073f5843a,shootout,binarytrees_naive,871.132000,0
Ř,2d6f6198301c6c96a9f5b92dbcd4e3e073f5843a,shootout,binarytrees_naive,126.641000,0
Ř,2d6f6198301c6c96a9f5b92dbcd4e3e073f5843a,shootout,binarytrees_naive,3926.913000,0
Ř,2d6f6198301c6c96a9f5b92dbcd4e3e073f5843a,shootout,binarytrees_naive,82.074000,0
Ř,2d6f6198301c6c96a9f5b92dbcd4e3e073f5843a,shootout,binarytrees_naive,92.710000,0
Ř,2d6f6198301c6c96a9f5b92dbcd4e3e073f5843a,shootout,binarytrees_naive,82.077000,1
Ř,2d6f6198301c6c96a9f5b92dbcd4e3e073f5843a,shootout,binarytrees_naive,82.183000,1
Ř,2d6f6198301c6c96a9f5b92dbcd4e3e073f5843a,shootout,binarytrees_naive,82.069000,1
Ř,2d6f6198301c6c96a9f5b92dbcd4e3e073f5843a,shootout,binarytrees_naive,85.043000,1
Ř,2d6f6198301c6c96a9f5b92dbcd4e3e073f5843a,shootout,binarytrees_naive,81.587000,1
Ř,2d6f6198301c6c96a9f5b92dbcd4e3e073f5843a,shootout,binarytrees_naive,81.626000,1
Ř,2d6f6198301c6c96a9f5b92dbcd4e3e073f5843a,shootout,binarytrees_naive,81.863000,1
Ř,2d6f6198301c6c96a9f5b92dbcd4e3e073f5843a,shootout,binarytrees_naive,207.490000,1
Ř,2d6f6198301c6c96a9f5b92dbcd4e3e073f5843a,shootout,binarytrees_naive,148.460000,1
Ř,2d6f6198301c6c96a9f5b92dbcd4e3e073f5843a,shootout,binarytrees_naive,87.234000,1
Ř,2d6f6198301c6c96a9f5b92dbcd4e3e073f5843a,shootout,spectralnorm_alt,391.852000,0
Ř,2d6f6198301c6c96a9f5b92dbcd4e3e073f5843a,shootout,spectralnorm_alt,266.989000,0
Ř,2d6f6198301c6c96a9f5b92dbcd4e3e073f5843a,shootout,spectralnorm_alt,1511.113000,0
Ř,2d6f6198301c6c96a9f5b92dbcd4e3e073f5843a,shootout,spectralnorm_alt,210.511000,0
Ř,2d6f6198301c6c96a9f5b92dbcd4e3e073f5843a,shootout,spectralnorm_alt,198.136000,0
Ř,2d6f6198301c6c96a9f5b92dbcd4e3e073f5843a,shootout,spectralnorm_alt,214.545000,1
Ř,2d6f6198301c6c96a9f5b92dbcd4e3e073f5843a,shootout,spectralnorm_alt,202.822000,1
Ř,2d6f6198301c6c96a9f5b92dbcd4e3e073f5843a,shootout,spectralnorm_alt,187.472000,1
Ř,2d6f6198301c6c96a9f5b92dbcd4e3e073f5843a,shootout,spectralnorm_alt,188.357000,1
Ř,2d6f6198301c6c96a9f5b92dbcd4e3e073f5843a,shootout,spectralnorm_alt,198.795000,1
Ř,2d6f6198301c6c96a9f5b92dbcd4e3e073f5843a,shootout,spectralnorm_alt,185.996000,1
Ř,2d6f6198301c6c96a9f5b92dbcd4e3e073f5843a,shootout,spectralnorm_alt,195.403000,1
Ř,2d6f6198301c6c96a9f5b92dbcd4e3e073f5843a,shootout,spectralnorm_alt,192.659000,1
Ř,2d6f6198301c6c96a9f5b92dbcd4e3e073f5843a,shootout,spectralnorm_alt,202.859000,1
Ř,2d6f6198301c6c96a9f5b92dbcd4e3e073f5843a,shootout,spectralnorm_alt,187.661000,1
Ř,2d6f6198301c6c96a9f5b92dbcd4e3e073f5843a,shootout,nbody_2,1540.078000,0
Ř,2d6f6198301c6c96a9f5b92dbcd4e3e073f5843a,shootout,nbody_2,1420.235000,0
Ř,2d6f6198301c6c96a9f5b92dbcd4e3e073f5843a,shootout,nbody_2,25207.290000,0
Ř,2d6f6198301c6c96a9f5b92dbcd4e3e073f5843a,shootout,nbody_2,24788.352000,0
Ř,2d6f6198301c6c96a9f5b92dbcd4e3e073f5843a,shootout,nbody_2,631.108000,0
Ř,2d6f6198301c6c96a9f5b92dbcd4e3e073f5843a,shootout,nbody_2,627.383000,1
Ř,2d6f6198301c6c96a9f5b92dbcd4e3e073f5843a,shootout,nbody_2,630.584000,1
Ř,2d6f6198301c6c96a9f5b92dbcd4e3e073f5843a,shootout,nbody_2,1768.999000,1
Ř,2d6f6198301c6c96a9f5b92dbcd4e3e073f5843a,shootout,nbody_2,1764.369000,1
Ř,2d6f6198301c6c96a9f5b92dbcd4e3e073f5843a,shootout,nbody_2,1211.122000,1
Ř,2d6f6198301c6c96a9f5b92dbcd4e3e073f5843a,shootout,nbody_2,1224.565000,1
Ř,2d6f6198301c6c96a9f5b92dbcd4e3e073f5843a,shootout,nbody_2,1192.707000,1
Ř,2d6f6198301c6c96a9f5b92dbcd4e3e073f5843a,shootout,nbody_2,633.633000,1
Ř,2d6f6198301c6c96a9f5b92dbcd4e3e073f5843a,shootout,nbody_2,632.540000,1
Ř,2d6f6198301c6c96a9f5b92dbcd4e3e073f5843a,shootout,nbody_2,643.598000,1
Ř,2d6f6198301c6c96a9f5b92dbcd4e3e073f5843a,real_thing,flexclust_no_s4,17067.100000,0
Ř,2d6f6198301c6c96a9f5b92dbcd4e3e073f5843a,real_thing,flexclust_no_s4,13893.826000,0
Ř,2d6f6198301c6c96a9f5b92dbcd4e3e073f5843a,real_thing,flexclust_no_s4,26774.017000,0
Ř,2d6f6198301c6c96a9f5b92dbcd4e3e073f5843a,real_thing,flexclust_no_s4,24374.599000,0
Ř,2d6f6198301c6c96a9f5b92dbcd4e3e073f5843a,real_thing,flexclust_no_s4,17802.456000,0
Ř,2d6f6198301c6c96a9f5b92dbcd4e3e073f5843a,real_thing,flexclust_no_s4,16786.029000,1
Ř,2d6f6198301c6c96a9f5b92dbcd4e3e073f5843a,real_thing,flexclust_no_s4,13291.671000,1
Ř,2d6f6198301c6c96a9f5b92dbcd4e3e073f5843a,real_thing,flexclust_no_s4,12953.137000,1
Ř,2d6f6198301c6c96a9f5b92dbcd4e3e073f5843a,real_thing,flexclust_no_s4,12826.756000,1
Ř,2d6f6198301c6c96a9f5b92dbcd4e3e073f5843a,real_thing,flexclust_no_s4,12764.256000,1
Ř,2d6f6198301c6c96a9f5b92dbcd4e3e073f5843a,real_thing,flexclust_no_s4,13110.233000,1
Ř,2d6f6198301c6c96a9f5b92dbcd4e3e073f5843a,real_thing,flexclust_no_s4,13074.439000,1
Ř,2d6f6198301c6c96a9f5b92dbcd4e3e073f5843a,real_thing,flexclust_no_s4,12746.256000,1
Ř,2d6f6198301c6c96a9f5b92dbcd4e3e073f5843a,real_thing,flexclust_no_s4,13295.231000,1
Ř,2d6f6198301c6c96a9f5b92dbcd4e3e073f5843a,real_thing,flexclust_no_s4,12840.370000,1
Ř,2d6f6198301c6c96a9f5b92dbcd4e3e073f5843a,real_thing,convolution,714.172000,0
Ř,2d6f6198301c6c96a9f5b92dbcd4e3e073f5843a,real_thing,convolution,9.776000,0
Ř,2d6f6198301c6c96a9f5b92dbcd4e3e073f5843a,real_thing,convolution,570.159000,0
Ř,2d6f6198301c6c96a9f5b92dbcd4e3e073f5843a,real_thing,convolution,11.837000,0
Ř,2d6f6198301c6c96a9f5b92dbcd4e3e073f5843a,real_thing,convolution,11.599000,0
Ř,2d6f6198301c6c96a9f5b92dbcd4e3e073f5843a,real_thing,convolution,11.578000,1
Ř,2d6f6198301c6c96a9f5b92dbcd4e3e073f5843a,real_thing,convolution,11.762000,1
Ř,2d6f6198301c6c96a9f5b92dbcd4e3e073f5843a,real_thing,convolution,11.587000,1
Ř,2d6f6198301c6c96a9f5b92dbcd4e3e073f5843a,real_thing,convolution,11.587000,1
Ř,2d6f6198301c6c96a9f5b92dbcd4e3e073f5843a,real_thing,convolution,11.816000,1
Ř,2d6f6198301c6c96a9f5b92dbcd4e3e073f5843a,real_thing,convolution,11.689000,1
Ř,2d6f6198301c6c96a9f5b92dbcd4e3e073f5843a,real_thing,convolution,11.638000,1
Ř,2d6f6198301c6c96a9f5b92dbcd4e3e073f5843a,real_thing,convolution,11.628000,1
Ř,2d6f6198301c6c96a9f5b92dbcd4e3e073f5843a,real_thing,convolution,11.672000,1
Ř,2d6f6198301c6c96a9f5b92dbcd4e3e073f5843a,real_thing,convolution,11.695000,1
Ř,2d6f6198301c6c96a9f5b92dbcd4e3e073f5843a,real_thing,flexclust,44656.368000,0
Ř,2d6f6198301c6c96a9f5b92dbcd4e3e073f5843a,real_thing,flexclust,27641.151000,0
Ř,2d6f6198301c6c96a9f5b92dbcd4e3e073f5843a,real_thing,flexclust,36969.118000,0
Ř,2d6f6198301c6c96a9f5b92dbcd4e3e073f5843a,real_thing,flexclust,43212.607000,0
Ř,2d6f6198301c6c96a9f5b92dbcd4e3e073f5843a,real_thing,flexclust,30764.694000,0
Ř,2d6f6198301c6c96a9f5b92dbcd4e3e073f5843a,real_thing,flexclust,21043.397000,1
Ř,2d6f6198301c6c96a9f5b92dbcd4e3e073f5843a,real_thing,flexclust,15579.054000,1
Ř,2d6f6198301c6c96a9f5b92dbcd4e3e073f5843a,real_thing,flexclust,15609.935000,1
Ř,2d6f6198301c6c96a9f5b92dbcd4e3e073f5843a,real_thing,flexclust,15671.047000,1
Ř,2d6f6198301c6c96a9f5b92dbcd4e3e073f5843a,real_thing,flexclust,15414.701000,1
Ř,2d6f6198301c6c96a9f5b92dbcd4e3e073f5843a,real_thing,flexclust,15819.166000,1
Ř,2d6f6198301c6c96a9f5b92dbcd4e3e073f5843a,real_thing,flexclust,15897.270000,1
Ř,2d6f6198301c6c96a9f5b92dbcd4e3e073f5843a,real_thing,flexclust,15686.497000,1
Ř,2d6f6198301c6c96a9f5b92dbcd4e3e073f5843a,real_thing,flexclust,15497.421000,1
Ř,2d6f6198301c6c96a9f5b92dbcd4e3e073f5843a,real_thing,flexclust,16442.460000,1
Ř,2d6f6198301c6c96a9f5b92dbcd4e3e073f5843a,real_thing,convolution_v,621.981000,0
Ř,2d6f6198301c6c96a9f5b92dbcd4e3e073f5843a,real_thing,convolution_v,93.964000,0
Ř,2d6f6198301c6c96a9f5b92dbcd4e3e073f5843a,real_thing,convolution_v,706.325000,0
Ř,2d6f6198301c6c96a9f5b92dbcd4e3e073f5843a,real_thing,convolution_v,92.980000,0
Ř,2d6f6198301c6c96a9f5b92dbcd4e3e073f5843a,real_thing,convolution_v,103.817000,0
Ř,2d6f6198301c6c96a9f5b92dbcd4e3e073f5843a,real_thing,convolution_v,94.229000,1
Ř,2d6f6198301c6c96a9f5b92dbcd4e3e073f5843a,real_thing,convolution_v,92.713000,1
Ř,2d6f6198301c6c96a9f5b92dbcd4e3e073f5843a,real_thing,convolution_v,93.221000,1
Ř,2d6f6198301c6c96a9f5b92dbcd4e3e073f5843a,real_thing,convolution_v,92.692000,1
Ř,2d6f6198301c6c96a9f5b92dbcd4e3e073f5843a,real_thing,convolution_v,94.635000,1
Ř,2d6f6198301c6c96a9f5b92dbcd4e3e073f5843a,real_thing,convolution_v,95.273000,1
Ř,2d6f6198301c6c96a9f5b92dbcd4e3e073f5843a,real_thing,convolution_v,92.002000,1
Ř,2d6f6198301c6c96a9f5b92dbcd4e3e073f5843a,real_thing,convolution_v,92.760000,1
Ř,2d6f6198301c6c96a9f5b92dbcd4e3e073f5843a,real_thing,convolution_v,92.015000,1
Ř,2d6f6198301c6c96a9f5b92dbcd4e3e073f5843a,real_thing,convolution_v,92.909000,1
Ř,2d6f6198301c6c96a9f5b92dbcd4e3e073f5843a,real_thing,convolution_slow,621.118000,0
Ř,2d6f6198301c6c96a9f5b92dbcd4e3e073f5843a,real_thing,convolution_slow,95.982000,0
Ř,2d6f6198301c6c96a9f5b92dbcd4e3e073f5843a,real_thing,convolution_slow,707.722000,0
Ř,2d6f6198301c6c96a9f5b92dbcd4e3e073f5843a,real_thing,convolution_slow,92.668000,0
Ř,2d6f6198301c6c96a9f5b92dbcd4e3e073f5843a,real_thing,convolution_slow,103.606000,0
Ř,2d6f6198301c6c96a9f5b92dbcd4e3e073f5843a,real_thing,convolution_slow,93.932000,1
Ř,2d6f6198301c6c96a9f5b92dbcd4e3e073f5843a,real_thing,convolution_slow,92.882000,1
Ř,2d6f6198301c6c96a9f5b92dbcd4e3e073f5843a,real_thing,convolution_slow,93.166000,1
Ř,2d6f6198301c6c96a9f5b92dbcd4e3e073f5843a,real_thing,convolution_slow,92.709000,1
Ř,2d6f6198301c6c96a9f5b92dbcd4e3e073f5843a,real_thing,convolution_slow,94.307000,1
Ř,2d6f6198301c6c96a9f5b92dbcd4e3e073f5843a,real_thing,convolution_slow,96.452000,1
Ř,2d6f6198301c6c96a9f5b92dbcd4e3e073f5843a,real_thing,convolution_slow,92.029000,1
Ř,2d6f6198301c6c96a9f5b92dbcd4e3e073f5843a,real_thing,convolution_slow,93.831000,1
Ř,2d6f6198301c6c96a9f5b92dbcd4e3e073f5843a,real_thing,convolution_slow,93.331000,1
Ř,2d6f6198301c6c96a9f5b92dbcd4e3e073f5843a,real_thing,convolution_slow,93.284000,1
Ř,2d6f6198301c6c96a9f5b92dbcd4e3e073f5843a,are-we-fast-r,Mandelbrot,3440.046000,0
Ř,2d6f6198301c6c96a9f5b92dbcd4e3e073f5843a,are-we-fast-r,Mandelbrot,3376.956000,0
Ř,2d6f6198301c6c96a9f5b92dbcd4e3e073f5843a,are-we-fast-r,Mandelbrot,765.409000,0
Ř,2d6f6198301c6c96a9f5b92dbcd4e3e073f5843a,are-we-fast-r,Mandelbrot,1275.254000,0
Ř,2d6f6198301c6c96a9f5b92dbcd4e3e073f5843a,are-we-fast-r,Mandelbrot,65.225000,0
Ř,2d6f6198301c6c96a9f5b92dbcd4e3e073f5843a,are-we-fast-r,Mandelbrot,65.082000,1
Ř,2d6f6198301c6c96a9f5b92dbcd4e3e073f5843a,are-we-fast-r,Mandelbrot,65.042000,1
Ř,2d6f6198301c6c96a9f5b92dbcd4e3e073f5843a,are-we-fast-r,Mandelbrot,66.084000,1
Ř,2d6f6198301c6c96a9f5b92dbcd4e3e073f5843a,are-we-fast-r,Mandelbrot,65.042000,1
Ř,2d6f6198301c6c96a9f5b92dbcd4e3e073f5843a,are-we-fast-r,Mandelbrot,65.026000,1
Ř,2d6f6198301c6c96a9f5b92dbcd4e3e073f5843a,are-we-fast-r,Mandelbrot,65.169000,1
Ř,2d6f6198301c6c96a9f5b92dbcd4e3e073f5843a,are-we-fast-r,Mandelbrot,65.193000,1
Ř,2d6f6198301c6c96a9f5b92dbcd4e3e073f5843a,are-we-fast-r,Mandelbrot,65.034000,1
Ř,2d6f6198301c6c96a9f5b92dbcd4e3e073f5843a,are-we-fast-r,Mandelbrot,65.201000,1
Ř,2d6f6198301c6c96a9f5b92dbcd4e3e073f5843a,are-we-fast-r,Mandelbrot,65.118000,1
Ř,2d6f6198301c6c96a9f5b92dbcd4e3e073f5843a,are-we-fast-r,Bounce_nonames_simple,1937.910000,0
Ř,2d6f6198301c6c96a9f5b92dbcd4e3e073f5843a,are-we-fast-r,Bounce_nonames_simple,136.357000,0
Ř,2d6f6198301c6c96a9f5b92dbcd4e3e073f5843a,are-we-fast-r,Bounce_nonames_simple,145.782000,0
Ř,2d6f6198301c6c96a9f5b92dbcd4e3e073f5843a,are-we-fast-r,Bounce_nonames_simple,136.782000,0
Ř,2d6f6198301c6c96a9f5b92dbcd4e3e073f5843a,are-we-fast-r,Bounce_nonames_simple,136.026000,0
Ř,2d6f6198301c6c96a9f5b92dbcd4e3e073f5843a,are-we-fast-r,Bounce_nonames_simple,138.787000,1
Ř,2d6f6198301c6c96a9f5b92dbcd4e3e073f5843a,are-we-fast-r,Bounce_nonames_simple,136.068000,1
Ř,2d6f6198301c6c96a9f5b92dbcd4e3e073f5843a,are-we-fast-r,Bounce_nonames_simple,134.966000,1
Ř,2d6f6198301c6c96a9f5b92dbcd4e3e073f5843a,are-we-fast-r,Bounce_nonames_simple,134.999000,1
Ř,2d6f6198301c6c96a9f5b92dbcd4e3e073f5843a,are-we-fast-r,Bounce_nonames_simple,134.477000,1
Ř,2d6f6198301c6c96a9f5b92dbcd4e3e073f5843a,are-we-fast-r,Bounce_nonames_simple,135.850000,1
Ř,2d6f6198301c6c96a9f5b92dbcd4e3e073f5843a,are-we-fast-r,Bounce_nonames_simple,137.724000,1
Ř,2d6f6198301c6c96a9f5b92dbcd4e3e073f5843a,are-we-fast-r,Bounce_nonames_simple,135.116000,1
Ř,2d6f6198301c6c96a9f5b92dbcd4e3e073f5843a,are-we-fast-r,Bounce_nonames_simple,135.351000,1
Ř,2d6f6198301c6c96a9f5b92dbcd4e3e073f5843a,are-we-fast-r,Bounce_nonames_simple,135.372000,1
Ř,2d6f6198301c6c96a9f5b92dbcd4e3e073f5843a,are-we-fast-r,Storage,1185.114000,0
Ř,2d6f6198301c6c96a9f5b92dbcd4e3e073f5843a,are-we-fast-r,Storage,567.693000,0
Ř,2d6f6198301c6c96a9f5b92dbcd4e3e073f5843a,are-we-fast-r,Storage,531.910000,0
Ř,2d6f6198301c6c96a9f5b92dbcd4e3e073f5843a,are-we-fast-r,Storage,518.266000,0
Ř,2d6f6198301c6c96a9f5b92dbcd4e3e073f5843a,are-we-fast-r,Storage,498.208000,0
Ř,2d6f6198301c6c96a9f5b92dbcd4e3e073f5843a,are-we-fast-r,Storage,774.884000,1
Ř,2d6f6198301c6c96a9f5b92dbcd4e3e073f5843a,are-we-fast-r,Storage,619.032000,1
Ř,2d6f6198301c6c96a9f5b92dbcd4e3e073f5843a,are-we-fast-r,Storage,562.094000,1
Ř,2d6f6198301c6c96a9f5b92dbcd4e3e073f5843a,are-we-fast-r,Storage,565.899000,1
Ř,2d6f6198301c6c96a9f5b92dbcd4e3e073f5843a,are-we-fast-r,Storage,685.668000,1
Ř,2d6f6198301c6c96a9f5b92dbcd4e3e073f5843a,are-we-fast-r,Storage,662.353000,1
Ř,2d6f6198301c6c96a9f5b92dbcd4e3e073f5843a,are-we-fast-r,Storage,608.452000,1
Ř,2d6f6198301c6c96a9f5b92dbcd4e3e073f5843a,are-we-fast-r,Storage,628.114000,1
Ř,2d6f6198301c6c96a9f5b92dbcd4e3e073f5843a,are-we-fast-r,Storage,585.404000,1
Ř,2d6f6198301c6c96a9f5b92dbcd4e3e073f5843a,are-we-fast-r,Storage,572.604000,1
Ř,2d6f6198301c6c96a9f5b92dbcd4e3e073f5843a,are-we-fast-r,Bounce_nonames,1451.715000,0
Ř,2d6f6198301c6c96a9f5b92dbcd4e3e073f5843a,are-we-fast-r,Bounce_nonames,140.541000,0
Ř,2d6f6198301c6c96a9f5b92dbcd4e3e073f5843a,are-we-fast-r,Bounce_nonames,149.505000,0
Ř,2d6f6198301c6c96a9f5b92dbcd4e3e073f5843a,are-we-fast-r,Bounce_nonames,141.975000,0
Ř,2d6f6198301c6c96a9f5b92dbcd4e3e073f5843a,are-we-fast-r,Bounce_nonames,138.686000,0
Ř,2d6f6198301c6c96a9f5b92dbcd4e3e073f5843a,are-we-fast-r,Bounce_nonames,140.676000,1
Ř,2d6f6198301c6c96a9f5b92dbcd4e3e073f5843a,are-we-fast-r,Bounce_nonames,140.178000,1
Ř,2d6f6198301c6c96a9f5b92dbcd4e3e073f5843a,are-we-fast-r,Bounce_nonames,138.466000,1
Ř,2d6f6198301c6c96a9f5b92dbcd4e3e073f5843a,are-we-fast-r,Bounce_nonames,139.529000,1
Ř,2d6f6198301c6c96a9f5b92dbcd4e3e073f5843a,are-we-fast-r,Bounce_nonames,138.300000,1
Ř,2d6f6198301c6c96a9f5b92dbcd4e3e073f5843a,are-we-fast-r,Bounce_nonames,139.691000,1
Ř,2d6f6198301c6c96a9f5b92dbcd4e3e073f5843a,are-we-fast-r,Bounce_nonames,142.162000,1
Ř,2d6f6198301c6c96a9f5b92dbcd4e3e073f5843a,are-we-fast-r,Bounce_nonames,138.953000,1
Ř,2d6f6198301c6c96a9f5b92dbcd4e3e073f5843a,are-we-fast-r,Bounce_nonames,139.746000,1
Ř,2d6f6198301c6c96a9f5b92dbcd4e3e073f5843a,are-we-fast-r,Bounce_nonames,139.451000,1
Ř,2d6f6198301c6c96a9f5b92dbcd4e3e073f5843a,are-we-fast-r,Bounce,2238.131000,0
Ř,2d6f6198301c6c96a9f5b92dbcd4e3e073f5843a,are-we-fast-r,Bounce,823.864000,0
Ř,2d6f6198301c6c96a9f5b92dbcd4e3e073f5843a,are-we-fast-r,Bounce,841.603000,0
Ř,2d6f6198301c6c96a9f5b92dbcd4e3e073f5843a,are-we-fast-r,Bounce,820.598000,0
Ř,2d6f6198301c6c96a9f5b92dbcd4e3e073f5843a,are-we-fast-r,Bounce,801.641000,0
Ř,2d6f6198301c6c96a9f5b92dbcd4e3e073f5843a,are-we-fast-r,Bounce,820.109000,1
Ř,2d6f6198301c6c96a9f5b92dbcd4e3e073f5843a,are-we-fast-r,Bounce,831.649000,1
Ř,2d6f6198301c6c96a9f5b92dbcd4e3e073f5843a,are-we-fast-r,Bounce,789.767000,1
Ř,2d6f6198301c6c96a9f5b92dbcd4e3e073f5843a,are-we-fast-r,Bounce,807.225000,1
Ř,2d6f6198301c6c96a9f5b92dbcd4e3e073f5843a,are-we-fast-r,Bounce,824.766000,1
Ř,2d6f6198301c6c96a9f5b92dbcd4e3e073f5843a,are-we-fast-r,Bounce,803.252000,1
Ř,2d6f6198301c6c96a9f5b92dbcd4e3e073f5843a,are-we-fast-r,Bounce,800.104000,1
Ř,2d6f6198301c6c96a9f5b92dbcd4e3e073f5843a,are-we-fast-r,Bounce,820.398000,1
Ř,2d6f6198301c6c96a9f5b92dbcd4e3e073f5843a,are-we-fast-r,Bounce,827.441000,1
Ř,2d6f6198301c6c96a9f5b92dbcd4e3e073f5843a,are-we-fast-r,Bounce,793.846000,1
