vm,commit,suite,benchmark,ms,warm
Ř,5e0fac936d452057fad088048e8f16c465898b19,simple,superWhile,2872.831000,0
Ř,5e0fac936d452057fad088048e8f16c465898b19,simple,superWhile,2864.354000,0
Ř,5e0fac936d452057fad088048e8f16c465898b19,simple,superWhile,54.494000,0
Ř,5e0fac936d452057fad088048e8f16c465898b19,simple,superWhile,20.219000,0
Ř,5e0fac936d452057fad088048e8f16c465898b19,simple,superWhile,20.255000,0
Ř,5e0fac936d452057fad088048e8f16c465898b19,simple,superWhile,20.197000,1
Ř,5e0fac936d452057fad088048e8f16c465898b19,simple,superWhile,20.196000,1
Ř,5e0fac936d452057fad088048e8f16c465898b19,simple,superWhile,20.196000,1
Ř,5e0fac936d452057fad088048e8f16c465898b19,simple,superWhile,20.202000,1
Ř,5e0fac936d452057fad088048e8f16c465898b19,simple,superWhile,20.198000,1
Ř,5e0fac936d452057fad088048e8f16c465898b19,simple,superWhile,20.241000,1
Ř,5e0fac936d452057fad088048e8f16c465898b19,simple,superWhile,20.200000,1
Ř,5e0fac936d452057fad088048e8f16c465898b19,simple,superWhile,20.197000,1
Ř,5e0fac936d452057fad088048e8f16c465898b19,simple,superWhile,20.196000,1
Ř,5e0fac936d452057fad088048e8f16c465898b19,simple,superWhile,20.196000,1
Ř,5e0fac936d452057fad088048e8f16c465898b19,simple,matrixFor,387.394000,0
Ř,5e0fac936d452057fad088048e8f16c465898b19,simple,matrixFor,392.143000,0
Ř,5e0fac936d452057fad088048e8f16c465898b19,simple,matrixFor,164.278000,0
Ř,5e0fac936d452057fad088048e8f16c465898b19,simple,matrixFor,55.417000,0
Ř,5e0fac936d452057fad088048e8f16c465898b19,simple,matrixFor,55.410000,0
Ř,5e0fac936d452057fad088048e8f16c465898b19,simple,matrixFor,55.496000,1
Ř,5e0fac936d452057fad088048e8f16c465898b19,simple,matrixFor,55.391000,1
Ř,5e0fac936d452057fad088048e8f16c465898b19,simple,matrixFor,55.385000,1
Ř,5e0fac936d452057fad088048e8f16c465898b19,simple,matrixFor,55.476000,1
Ř,5e0fac936d452057fad088048e8f16c465898b19,simple,matrixFor,55.465000,1
Ř,5e0fac936d452057fad088048e8f16c465898b19,simple,matrixFor,55.322000,1
Ř,5e0fac936d452057fad088048e8f16c465898b19,simple,matrixFor,55.356000,1
Ř,5e0fac936d452057fad088048e8f16c465898b19,simple,matrixFor,55.377000,1
Ř,5e0fac936d452057fad088048e8f16c465898b19,simple,matrixFor,55.392000,1
Ř,5e0fac936d452057fad088048e8f16c465898b19,simple,matrixFor,55.324000,1
Ř,5e0fac936d452057fad088048e8f16c465898b19,simple,vectorWhile,2171.188000,0
Ř,5e0fac936d452057fad088048e8f16c465898b19,simple,vectorWhile,2151.158000,0
Ř,5e0fac936d452057fad088048e8f16c465898b19,simple,vectorWhile,186.256000,0
Ř,5e0fac936d452057fad088048e8f16c465898b19,simple,vectorWhile,129.724000,0
Ř,5e0fac936d452057fad088048e8f16c465898b19,simple,vectorWhile,147.192000,0
Ř,5e0fac936d452057fad088048e8f16c465898b19,simple,vectorWhile,132.963000,1
Ř,5e0fac936d452057fad088048e8f16c465898b19,simple,vectorWhile,132.982000,1
Ř,5e0fac936d452057fad088048e8f16c465898b19,simple,vectorWhile,132.964000,1
Ř,5e0fac936d452057fad088048e8f16c465898b19,simple,vectorWhile,132.902000,1
Ř,5e0fac936d452057fad088048e8f16c465898b19,simple,vectorWhile,132.862000,1
Ř,5e0fac936d452057fad088048e8f16c465898b19,simple,vectorWhile,133.003000,1
Ř,5e0fac936d452057fad088048e8f16c465898b19,simple,vectorWhile,132.999000,1
Ř,5e0fac936d452057fad088048e8f16c465898b19,simple,vectorWhile,132.989000,1
Ř,5e0fac936d452057fad088048e8f16c465898b19,simple,vectorWhile,132.879000,1
Ř,5e0fac936d452057fad088048e8f16c465898b19,simple,vectorWhile,133.004000,1
Ř,5e0fac936d452057fad088048e8f16c465898b19,simple,emptyFor,3143.842000,0
Ř,5e0fac936d452057fad088048e8f16c465898b19,simple,emptyFor,3129.702000,0
Ř,5e0fac936d452057fad088048e8f16c465898b19,simple,emptyFor,15.823000,0
Ř,5e0fac936d452057fad088048e8f16c465898b19,simple,emptyFor,0.028000,0
Ř,5e0fac936d452057fad088048e8f16c465898b19,simple,emptyFor,0.011000,0
Ř,5e0fac936d452057fad088048e8f16c465898b19,simple,emptyFor,0.009000,1
Ř,5e0fac936d452057fad088048e8f16c465898b19,simple,emptyFor,0.008000,1
Ř,5e0fac936d452057fad088048e8f16c465898b19,simple,emptyFor,0.008000,1
Ř,5e0fac936d452057fad088048e8f16c465898b19,simple,emptyFor,0.007000,1
Ř,5e0fac936d452057fad088048e8f16c465898b19,simple,emptyFor,0.008000,1
Ř,5e0fac936d452057fad088048e8f16c465898b19,simple,emptyFor,0.008000,1
Ř,5e0fac936d452057fad088048e8f16c465898b19,simple,emptyFor,0.008000,1
Ř,5e0fac936d452057fad088048e8f16c465898b19,simple,emptyFor,0.007000,1
Ř,5e0fac936d452057fad088048e8f16c465898b19,simple,emptyFor,0.007000,1
Ř,5e0fac936d452057fad088048e8f16c465898b19,simple,emptyFor,0.007000,1
Ř,5e0fac936d452057fad088048e8f16c465898b19,simple,lapplyDots,768.575000,0
Ř,5e0fac936d452057fad088048e8f16c465898b19,simple,lapplyDots,935.616000,0
Ř,5e0fac936d452057fad088048e8f16c465898b19,simple,lapplyDots,855.204000,0
Ř,5e0fac936d452057fad088048e8f16c465898b19,simple,lapplyDots,1058.712000,0
Ř,5e0fac936d452057fad088048e8f16c465898b19,simple,lapplyDots,997.417000,0
Ř,5e0fac936d452057fad088048e8f16c465898b19,simple,lapplyDots,939.322000,1
Ř,5e0fac936d452057fad088048e8f16c465898b19,simple,lapplyDots,960.289000,1
Ř,5e0fac936d452057fad088048e8f16c465898b19,simple,lapplyDots,830.821000,1
Ř,5e0fac936d452057fad088048e8f16c465898b19,simple,lapplyDots,940.388000,1
Ř,5e0fac936d452057fad088048e8f16c465898b19,simple,lapplyDots,959.135000,1
Ř,5e0fac936d452057fad088048e8f16c465898b19,simple,lapplyDots,981.176000,1
Ř,5e0fac936d452057fad088048e8f16c465898b19,simple,lapplyDots,808.020000,1
Ř,5e0fac936d452057fad088048e8f16c465898b19,simple,lapplyDots,960.384000,1
Ř,5e0fac936d452057fad088048e8f16c465898b19,simple,lapplyDots,979.456000,1
Ř,5e0fac936d452057fad088048e8f16c465898b19,simple,lapplyDots,939.682000,1
Ř,5e0fac936d452057fad088048e8f16c465898b19,simple,scalarWhile,2155.712000,0
Ř,5e0fac936d452057fad088048e8f16c465898b19,simple,scalarWhile,2163.298000,0
Ř,5e0fac936d452057fad088048e8f16c465898b19,simple,scalarWhile,43.771000,0
Ř,5e0fac936d452057fad088048e8f16c465898b19,simple,scalarWhile,25.322000,0
Ř,5e0fac936d452057fad088048e8f16c465898b19,simple,scalarWhile,25.245000,0
Ř,5e0fac936d452057fad088048e8f16c465898b19,simple,scalarWhile,25.244000,1
Ř,5e0fac936d452057fad088048e8f16c465898b19,simple,scalarWhile,25.256000,1
Ř,5e0fac936d452057fad088048e8f16c465898b19,simple,scalarWhile,25.245000,1
Ř,5e0fac936d452057fad088048e8f16c465898b19,simple,scalarWhile,25.289000,1
Ř,5e0fac936d452057fad088048e8f16c465898b19,simple,scalarWhile,25.242000,1
Ř,5e0fac936d452057fad088048e8f16c465898b19,simple,scalarWhile,25.243000,1
Ř,5e0fac936d452057fad088048e8f16c465898b19,simple,scalarWhile,25.267000,1
Ř,5e0fac936d452057fad088048e8f16c465898b19,simple,scalarWhile,25.299000,1
Ř,5e0fac936d452057fad088048e8f16c465898b19,simple,scalarWhile,25.245000,1
Ř,5e0fac936d452057fad088048e8f16c465898b19,simple,scalarWhile,25.243000,1
Ř,5e0fac936d452057fad088048e8f16c465898b19,simple,listWhile,158.670000,0
Ř,5e0fac936d452057fad088048e8f16c465898b19,simple,listWhile,154.644000,0
Ř,5e0fac936d452057fad088048e8f16c465898b19,simple,listWhile,135.202000,0
Ř,5e0fac936d452057fad088048e8f16c465898b19,simple,listWhile,69.219000,0
Ř,5e0fac936d452057fad088048e8f16c465898b19,simple,listWhile,65.697000,0
Ř,5e0fac936d452057fad088048e8f16c465898b19,simple,listWhile,71.649000,1
Ř,5e0fac936d452057fad088048e8f16c465898b19,simple,listWhile,86.669000,1
Ř,5e0fac936d452057fad088048e8f16c465898b19,simple,listWhile,52.533000,1
Ř,5e0fac936d452057fad088048e8f16c465898b19,simple,listWhile,66.006000,1
Ř,5e0fac936d452057fad088048e8f16c465898b19,simple,listWhile,60.251000,1
Ř,5e0fac936d452057fad088048e8f16c465898b19,simple,listWhile,65.136000,1
Ř,5e0fac936d452057fad088048e8f16c465898b19,simple,listWhile,59.054000,1
Ř,5e0fac936d452057fad088048e8f16c465898b19,simple,listWhile,80.648000,1
Ř,5e0fac936d452057fad088048e8f16c465898b19,simple,listWhile,56.489000,1
Ř,5e0fac936d452057fad088048e8f16c465898b19,simple,listWhile,64.684000,1
Ř,5e0fac936d452057fad088048e8f16c465898b19,simple,scalarFor,4578.965000,0
Ř,5e0fac936d452057fad088048e8f16c465898b19,simple,scalarFor,4556.351000,0
Ř,5e0fac936d452057fad088048e8f16c465898b19,simple,scalarFor,17.172000,0
Ř,5e0fac936d452057fad088048e8f16c465898b19,simple,scalarFor,0.028000,0
Ř,5e0fac936d452057fad088048e8f16c465898b19,simple,scalarFor,0.010000,0
Ř,5e0fac936d452057fad088048e8f16c465898b19,simple,scalarFor,0.009000,1
Ř,5e0fac936d452057fad088048e8f16c465898b19,simple,scalarFor,0.008000,1
Ř,5e0fac936d452057fad088048e8f16c465898b19,simple,scalarFor,0.008000,1
Ř,5e0fac936d452057fad088048e8f16c465898b19,simple,scalarFor,0.008000,1
Ř,5e0fac936d452057fad088048e8f16c465898b19,simple,scalarFor,0.007000,1
Ř,5e0fac936d452057fad088048e8f16c465898b19,simple,scalarFor,0.008000,1
Ř,5e0fac936d452057fad088048e8f16c465898b19,simple,scalarFor,0.007000,1
Ř,5e0fac936d452057fad088048e8f16c465898b19,simple,scalarFor,0.008000,1
Ř,5e0fac936d452057fad088048e8f16c465898b19,simple,scalarFor,0.007000,1
Ř,5e0fac936d452057fad088048e8f16c465898b19,simple,scalarFor,0.007000,1
Ř,5e0fac936d452057fad088048e8f16c465898b19,simple,lapply,646.626000,0
Ř,5e0fac936d452057fad088048e8f16c465898b19,simple,lapply,720.985000,0
Ř,5e0fac936d452057fad088048e8f16c465898b19,simple,lapply,782.850000,0
Ř,5e0fac936d452057fad088048e8f16c465898b19,simple,lapply,745.973000,0
Ř,5e0fac936d452057fad088048e8f16c465898b19,simple,lapply,871.053000,0
Ř,5e0fac936d452057fad088048e8f16c465898b19,simple,lapply,752.651000,1
Ř,5e0fac936d452057fad088048e8f16c465898b19,simple,lapply,764.644000,1
Ř,5e0fac936d452057fad088048e8f16c465898b19,simple,lapply,761.337000,1
Ř,5e0fac936d452057fad088048e8f16c465898b19,simple,lapply,558.807000,1
Ř,5e0fac936d452057fad088048e8f16c465898b19,simple,lapply,665.687000,1
Ř,5e0fac936d452057fad088048e8f16c465898b19,simple,lapply,676.750000,1
Ř,5e0fac936d452057fad088048e8f16c465898b19,simple,lapply,700.571000,1
Ř,5e0fac936d452057fad088048e8f16c465898b19,simple,lapply,647.051000,1
Ř,5e0fac936d452057fad088048e8f16c465898b19,simple,lapply,567.014000,1
Ř,5e0fac936d452057fad088048e8f16c465898b19,simple,lapply,673.357000,1
Ř,5e0fac936d452057fad088048e8f16c465898b19,simple,vectorFor,1010.781000,0
Ř,5e0fac936d452057fad088048e8f16c465898b19,simple,vectorFor,1059.278000,0
Ř,5e0fac936d452057fad088048e8f16c465898b19,simple,vectorFor,76.451000,0
Ř,5e0fac936d452057fad088048e8f16c465898b19,simple,vectorFor,35.083000,0
Ř,5e0fac936d452057fad088048e8f16c465898b19,simple,vectorFor,35.052000,0
Ř,5e0fac936d452057fad088048e8f16c465898b19,simple,vectorFor,34.996000,1
Ř,5e0fac936d452057fad088048e8f16c465898b19,simple,vectorFor,35.043000,1
Ř,5e0fac936d452057fad088048e8f16c465898b19,simple,vectorFor,35.031000,1
Ř,5e0fac936d452057fad088048e8f16c465898b19,simple,vectorFor,35.028000,1
Ř,5e0fac936d452057fad088048e8f16c465898b19,simple,vectorFor,35.001000,1
Ř,5e0fac936d452057fad088048e8f16c465898b19,simple,vectorFor,35.047000,1
Ř,5e0fac936d452057fad088048e8f16c465898b19,simple,vectorFor,34.995000,1
Ř,5e0fac936d452057fad088048e8f16c465898b19,simple,vectorFor,35.049000,1
Ř,5e0fac936d452057fad088048e8f16c465898b19,simple,vectorFor,35.017000,1
Ř,5e0fac936d452057fad088048e8f16c465898b19,simple,vectorFor,34.976000,1
Ř,5e0fac936d452057fad088048e8f16c465898b19,simple,bytecodes,3926.763000,0
Ř,5e0fac936d452057fad088048e8f16c465898b19,simple,bytecodes,3927.209000,0
Ř,5e0fac936d452057fad088048e8f16c465898b19,simple,bytecodes,233.684000,0
Ř,5e0fac936d452057fad088048e8f16c465898b19,simple,bytecodes,9.187000,0
Ř,5e0fac936d452057fad088048e8f16c465898b19,simple,bytecodes,9.099000,0
Ř,5e0fac936d452057fad088048e8f16c465898b19,simple,bytecodes,9.115000,1
Ř,5e0fac936d452057fad088048e8f16c465898b19,simple,bytecodes,9.096000,1
Ř,5e0fac936d452057fad088048e8f16c465898b19,simple,bytecodes,9.097000,1
Ř,5e0fac936d452057fad088048e8f16c465898b19,simple,bytecodes,9.096000,1
Ř,5e0fac936d452057fad088048e8f16c465898b19,simple,bytecodes,9.095000,1
Ř,5e0fac936d452057fad088048e8f16c465898b19,simple,bytecodes,9.097000,1
Ř,5e0fac936d452057fad088048e8f16c465898b19,simple,bytecodes,9.095000,1
Ř,5e0fac936d452057fad088048e8f16c465898b19,simple,bytecodes,9.138000,1
Ř,5e0fac936d452057fad088048e8f16c465898b19,simple,bytecodes,9.099000,1
Ř,5e0fac936d452057fad088048e8f16c465898b19,simple,bytecodes,9.113000,1
Ř,5e0fac936d452057fad088048e8f16c465898b19,simple,emptyWhile,2114.089000,0
Ř,5e0fac936d452057fad088048e8f16c465898b19,simple,emptyWhile,2101.079000,0
Ř,5e0fac936d452057fad088048e8f16c465898b19,simple,emptyWhile,46.730000,0
Ř,5e0fac936d452057fad088048e8f16c465898b19,simple,emptyWhile,30.314000,0
Ř,5e0fac936d452057fad088048e8f16c465898b19,simple,emptyWhile,30.358000,0
Ř,5e0fac936d452057fad088048e8f16c465898b19,simple,emptyWhile,30.298000,1
Ř,5e0fac936d452057fad088048e8f16c465898b19,simple,emptyWhile,30.293000,1
Ř,5e0fac936d452057fad088048e8f16c465898b19,simple,emptyWhile,30.337000,1
Ř,5e0fac936d452057fad088048e8f16c465898b19,simple,emptyWhile,30.293000,1
Ř,5e0fac936d452057fad088048e8f16c465898b19,simple,emptyWhile,30.293000,1
Ř,5e0fac936d452057fad088048e8f16c465898b19,simple,emptyWhile,30.291000,1
Ř,5e0fac936d452057fad088048e8f16c465898b19,simple,emptyWhile,30.338000,1
Ř,5e0fac936d452057fad088048e8f16c465898b19,simple,emptyWhile,30.291000,1
Ř,5e0fac936d452057fad088048e8f16c465898b19,simple,emptyWhile,30.298000,1
Ř,5e0fac936d452057fad088048e8f16c465898b19,simple,emptyWhile,30.291000,1
Ř,5e0fac936d452057fad088048e8f16c465898b19,simple,listFor,200.746000,0
Ř,5e0fac936d452057fad088048e8f16c465898b19,simple,listFor,203.338000,0
Ř,5e0fac936d452057fad088048e8f16c465898b19,simple,listFor,87.869000,0
Ř,5e0fac936d452057fad088048e8f16c465898b19,simple,listFor,66.733000,0
Ř,5e0fac936d452057fad088048e8f16c465898b19,simple,listFor,76.437000,0
Ř,5e0fac936d452057fad088048e8f16c465898b19,simple,listFor,54.022000,1
Ř,5e0fac936d452057fad088048e8f16c465898b19,simple,listFor,66.667000,1
Ř,5e0fac936d452057fad088048e8f16c465898b19,simple,listFor,56.601000,1
Ř,5e0fac936d452057fad088048e8f16c465898b19,simple,listFor,67.442000,1
Ř,5e0fac936d452057fad088048e8f16c465898b19,simple,listFor,81.117000,1
Ř,5e0fac936d452057fad088048e8f16c465898b19,simple,listFor,59.068000,1
Ř,5e0fac936d452057fad088048e8f16c465898b19,simple,listFor,62.780000,1
Ř,5e0fac936d452057fad088048e8f16c465898b19,simple,listFor,71.141000,1
Ř,5e0fac936d452057fad088048e8f16c465898b19,simple,listFor,78.804000,1
Ř,5e0fac936d452057fad088048e8f16c465898b19,simple,listFor,51.797000,1
Ř,5e0fac936d452057fad088048e8f16c465898b19,shootout,spectralnorm_naive,938.907000,0
Ř,5e0fac936d452057fad088048e8f16c465898b19,shootout,spectralnorm_naive,1063.015000,0
Ř,5e0fac936d452057fad088048e8f16c465898b19,shootout,spectralnorm_naive,1157.925000,0
Ř,5e0fac936d452057fad088048e8f16c465898b19,shootout,spectralnorm_naive,38.153000,0
Ř,5e0fac936d452057fad088048e8f16c465898b19,shootout,spectralnorm_naive,38.125000,0
Ř,5e0fac936d452057fad088048e8f16c465898b19,shootout,spectralnorm_naive,38.119000,1
Ř,5e0fac936d452057fad088048e8f16c465898b19,shootout,spectralnorm_naive,38.184000,1
Ř,5e0fac936d452057fad088048e8f16c465898b19,shootout,spectralnorm_naive,38.098000,1
Ř,5e0fac936d452057fad088048e8f16c465898b19,shootout,spectralnorm_naive,38.392000,1
Ř,5e0fac936d452057fad088048e8f16c465898b19,shootout,spectralnorm_naive,38.345000,1
Ř,5e0fac936d452057fad088048e8f16c465898b19,shootout,spectralnorm_naive,38.291000,1
Ř,5e0fac936d452057fad088048e8f16c465898b19,shootout,spectralnorm_naive,38.295000,1
Ř,5e0fac936d452057fad088048e8f16c465898b19,shootout,spectralnorm_naive,38.373000,1
Ř,5e0fac936d452057fad088048e8f16c465898b19,shootout,spectralnorm_naive,38.298000,1
Ř,5e0fac936d452057fad088048e8f16c465898b19,shootout,spectralnorm_naive,39.732000,1
Ř,5e0fac936d452057fad088048e8f16c465898b19,shootout,fasta_2,1130.544000,0
Ř,5e0fac936d452057fad088048e8f16c465898b19,shootout,fasta_2,1567.458000,0
Ř,5e0fac936d452057fad088048e8f16c465898b19,shootout,fasta_2,2285.463000,0
Ř,5e0fac936d452057fad088048e8f16c465898b19,shootout,fasta_2,887.144000,0
Ř,5e0fac936d452057fad088048e8f16c465898b19,shootout,fasta_2,876.623000,0
Ř,5e0fac936d452057fad088048e8f16c465898b19,shootout,fasta_2,853.718000,1
Ř,5e0fac936d452057fad088048e8f16c465898b19,shootout,fasta_2,882.660000,1
Ř,5e0fac936d452057fad088048e8f16c465898b19,shootout,fasta_2,885.740000,1
Ř,5e0fac936d452057fad088048e8f16c465898b19,shootout,fasta_2,874.154000,1
Ř,5e0fac936d452057fad088048e8f16c465898b19,shootout,fasta_2,878.374000,1
Ř,5e0fac936d452057fad088048e8f16c465898b19,shootout,fasta_2,880.309000,1
Ř,5e0fac936d452057fad088048e8f16c465898b19,shootout,fasta_2,872.844000,1
Ř,5e0fac936d452057fad088048e8f16c465898b19,shootout,fasta_2,886.568000,1
Ř,5e0fac936d452057fad088048e8f16c465898b19,shootout,fasta_2,872.769000,1
Ř,5e0fac936d452057fad088048e8f16c465898b19,shootout,fasta_2,874.912000,1
Ř,5e0fac936d452057fad088048e8f16c465898b19,shootout,nbody_3,2022.986000,0
Ř,5e0fac936d452057fad088048e8f16c465898b19,shootout,nbody_3,2139.299000,0
Ř,5e0fac936d452057fad088048e8f16c465898b19,shootout,nbody_3,2216.116000,0
Ř,5e0fac936d452057fad088048e8f16c465898b19,shootout,nbody_3,1085.279000,0
Ř,5e0fac936d452057fad088048e8f16c465898b19,shootout,nbody_3,1097.658000,0
Ř,5e0fac936d452057fad088048e8f16c465898b19,shootout,nbody_3,1088.496000,1
Ř,5e0fac936d452057fad088048e8f16c465898b19,shootout,nbody_3,1097.833000,1
Ř,5e0fac936d452057fad088048e8f16c465898b19,shootout,nbody_3,1086.600000,1
Ř,5e0fac936d452057fad088048e8f16c465898b19,shootout,nbody_3,1100.846000,1
Ř,5e0fac936d452057fad088048e8f16c465898b19,shootout,nbody_3,1084.685000,1
Ř,5e0fac936d452057fad088048e8f16c465898b19,shootout,nbody_3,1087.433000,1
Ř,5e0fac936d452057fad088048e8f16c465898b19,shootout,nbody_3,1101.007000,1
Ř,5e0fac936d452057fad088048e8f16c465898b19,shootout,nbody_3,1090.610000,1
Ř,5e0fac936d452057fad088048e8f16c465898b19,shootout,nbody_3,1097.638000,1
Ř,5e0fac936d452057fad088048e8f16c465898b19,shootout,nbody_3,1089.103000,1
Ř,5e0fac936d452057fad088048e8f16c465898b19,shootout,reversecomplement,550.213000,0
Ř,5e0fac936d452057fad088048e8f16c465898b19,shootout,reversecomplement,599.540000,0
Ř,5e0fac936d452057fad088048e8f16c465898b19,shootout,reversecomplement,1299.188000,0
Ř,5e0fac936d452057fad088048e8f16c465898b19,shootout,reversecomplement,458.139000,0
Ř,5e0fac936d452057fad088048e8f16c465898b19,shootout,reversecomplement,462.553000,0
Ř,5e0fac936d452057fad088048e8f16c465898b19,shootout,reversecomplement,464.246000,1
Ř,5e0fac936d452057fad088048e8f16c465898b19,shootout,reversecomplement,470.768000,1
Ř,5e0fac936d452057fad088048e8f16c465898b19,shootout,reversecomplement,462.757000,1
Ř,5e0fac936d452057fad088048e8f16c465898b19,shootout,reversecomplement,465.948000,1
Ř,5e0fac936d452057fad088048e8f16c465898b19,shootout,reversecomplement,462.597000,1
Ř,5e0fac936d452057fad088048e8f16c465898b19,shootout,reversecomplement,465.432000,1
Ř,5e0fac936d452057fad088048e8f16c465898b19,shootout,reversecomplement,461.118000,1
Ř,5e0fac936d452057fad088048e8f16c465898b19,shootout,reversecomplement,464.728000,1
Ř,5e0fac936d452057fad088048e8f16c465898b19,shootout,reversecomplement,461.398000,1
Ř,5e0fac936d452057fad088048e8f16c465898b19,shootout,reversecomplement,468.039000,1
Ř,5e0fac936d452057fad088048e8f16c465898b19,shootout,mandelbrot_naive_ascii,620.162000,0
Ř,5e0fac936d452057fad088048e8f16c465898b19,shootout,mandelbrot_naive_ascii,628.848000,0
Ř,5e0fac936d452057fad088048e8f16c465898b19,shootout,mandelbrot_naive_ascii,1147.518000,0
Ř,5e0fac936d452057fad088048e8f16c465898b19,shootout,mandelbrot_naive_ascii,210.683000,0
Ř,5e0fac936d452057fad088048e8f16c465898b19,shootout,mandelbrot_naive_ascii,209.233000,0
Ř,5e0fac936d452057fad088048e8f16c465898b19,shootout,mandelbrot_naive_ascii,210.298000,1
Ř,5e0fac936d452057fad088048e8f16c465898b19,shootout,mandelbrot_naive_ascii,209.398000,1
Ř,5e0fac936d452057fad088048e8f16c465898b19,shootout,mandelbrot_naive_ascii,197.468000,1
Ř,5e0fac936d452057fad088048e8f16c465898b19,shootout,mandelbrot_naive_ascii,195.680000,1
Ř,5e0fac936d452057fad088048e8f16c465898b19,shootout,mandelbrot_naive_ascii,196.640000,1
Ř,5e0fac936d452057fad088048e8f16c465898b19,shootout,mandelbrot_naive_ascii,202.050000,1
Ř,5e0fac936d452057fad088048e8f16c465898b19,shootout,mandelbrot_naive_ascii,195.294000,1
Ř,5e0fac936d452057fad088048e8f16c465898b19,shootout,mandelbrot_naive_ascii,197.156000,1
Ř,5e0fac936d452057fad088048e8f16c465898b19,shootout,mandelbrot_naive_ascii,197.267000,1
Ř,5e0fac936d452057fad088048e8f16c465898b19,shootout,mandelbrot_naive_ascii,197.265000,1
Ř,5e0fac936d452057fad088048e8f16c465898b19,shootout,nbody,2369.993000,0
Ř,5e0fac936d452057fad088048e8f16c465898b19,shootout,nbody,2393.645000,0
Ř,5e0fac936d452057fad088048e8f16c465898b19,shootout,nbody,2271.577000,0
Ř,5e0fac936d452057fad088048e8f16c465898b19,shootout,nbody,760.051000,0
Ř,5e0fac936d452057fad088048e8f16c465898b19,shootout,nbody,762.669000,0
Ř,5e0fac936d452057fad088048e8f16c465898b19,shootout,nbody,750.099000,1
Ř,5e0fac936d452057fad088048e8f16c465898b19,shootout,nbody,747.801000,1
Ř,5e0fac936d452057fad088048e8f16c465898b19,shootout,nbody,746.742000,1
Ř,5e0fac936d452057fad088048e8f16c465898b19,shootout,nbody,760.030000,1
Ř,5e0fac936d452057fad088048e8f16c465898b19,shootout,nbody,749.290000,1
Ř,5e0fac936d452057fad088048e8f16c465898b19,shootout,nbody,747.581000,1
Ř,5e0fac936d452057fad088048e8f16c465898b19,shootout,nbody,747.583000,1
Ř,5e0fac936d452057fad088048e8f16c465898b19,shootout,nbody,759.311000,1
Ř,5e0fac936d452057fad088048e8f16c465898b19,shootout,nbody,744.922000,1
Ř,5e0fac936d452057fad088048e8f16c465898b19,shootout,nbody,747.144000,1
Ř,5e0fac936d452057fad088048e8f16c465898b19,shootout,fastaredux,645.361000,0
Ř,5e0fac936d452057fad088048e8f16c465898b19,shootout,fastaredux,1619.765000,0
Ř,5e0fac936d452057fad088048e8f16c465898b19,shootout,fastaredux,2341.196000,0
Ř,5e0fac936d452057fad088048e8f16c465898b19,shootout,fastaredux,378.206000,0
Ř,5e0fac936d452057fad088048e8f16c465898b19,shootout,fastaredux,389.522000,0
Ř,5e0fac936d452057fad088048e8f16c465898b19,shootout,fastaredux,373.304000,1
Ř,5e0fac936d452057fad088048e8f16c465898b19,shootout,fastaredux,375.773000,1
Ř,5e0fac936d452057fad088048e8f16c465898b19,shootout,fastaredux,379.736000,1
Ř,5e0fac936d452057fad088048e8f16c465898b19,shootout,fastaredux,380.842000,1
Ř,5e0fac936d452057fad088048e8f16c465898b19,shootout,fastaredux,380.022000,1
Ř,5e0fac936d452057fad088048e8f16c465898b19,shootout,fastaredux,385.742000,1
Ř,5e0fac936d452057fad088048e8f16c465898b19,shootout,fastaredux,377.482000,1
Ř,5e0fac936d452057fad088048e8f16c465898b19,shootout,fastaredux,376.362000,1
Ř,5e0fac936d452057fad088048e8f16c465898b19,shootout,fastaredux,381.566000,1
Ř,5e0fac936d452057fad088048e8f16c465898b19,shootout,fastaredux,383.147000,1
Ř,5e0fac936d452057fad088048e8f16c465898b19,shootout,knucleotide_brute_3,4334.155000,0
Ř,5e0fac936d452057fad088048e8f16c465898b19,shootout,knucleotide_brute_3,4399.803000,0
Ř,5e0fac936d452057fad088048e8f16c465898b19,shootout,knucleotide_brute_3,12192.123000,0
Ř,5e0fac936d452057fad088048e8f16c465898b19,shootout,knucleotide_brute_3,2760.741000,0
Ř,5e0fac936d452057fad088048e8f16c465898b19,shootout,knucleotide_brute_3,2768.259000,0
Ř,5e0fac936d452057fad088048e8f16c465898b19,shootout,knucleotide_brute_3,2757.106000,1
Ř,5e0fac936d452057fad088048e8f16c465898b19,shootout,knucleotide_brute_3,2761.760000,1
Ř,5e0fac936d452057fad088048e8f16c465898b19,shootout,knucleotide_brute_3,2745.148000,1
Ř,5e0fac936d452057fad088048e8f16c465898b19,shootout,knucleotide_brute_3,2767.512000,1
Ř,5e0fac936d452057fad088048e8f16c465898b19,shootout,knucleotide_brute_3,2746.094000,1
Ř,5e0fac936d452057fad088048e8f16c465898b19,shootout,knucleotide_brute_3,2758.637000,1
Ř,5e0fac936d452057fad088048e8f16c465898b19,shootout,knucleotide_brute_3,2756.250000,1
Ř,5e0fac936d452057fad088048e8f16c465898b19,shootout,knucleotide_brute_3,2755.742000,1
Ř,5e0fac936d452057fad088048e8f16c465898b19,shootout,knucleotide_brute_3,2753.807000,1
Ř,5e0fac936d452057fad088048e8f16c465898b19,shootout,knucleotide_brute_3,2750.949000,1
Ř,5e0fac936d452057fad088048e8f16c465898b19,shootout,fasta_naive_2,1032.974000,0
Ř,5e0fac936d452057fad088048e8f16c465898b19,shootout,fasta_naive_2,1221.464000,0
Ř,5e0fac936d452057fad088048e8f16c465898b19,shootout,fasta_naive_2,3290.027000,0
Ř,5e0fac936d452057fad088048e8f16c465898b19,shootout,fasta_naive_2,1375.951000,0
Ř,5e0fac936d452057fad088048e8f16c465898b19,shootout,fasta_naive_2,609.178000,0
Ř,5e0fac936d452057fad088048e8f16c465898b19,shootout,fasta_naive_2,622.614000,1
Ř,5e0fac936d452057fad088048e8f16c465898b19,shootout,fasta_naive_2,1233.500000,1
Ř,5e0fac936d452057fad088048e8f16c465898b19,shootout,fasta_naive_2,612.919000,1
Ř,5e0fac936d452057fad088048e8f16c465898b19,shootout,fasta_naive_2,627.900000,1
Ř,5e0fac936d452057fad088048e8f16c465898b19,shootout,fasta_naive_2,626.271000,1
Ř,5e0fac936d452057fad088048e8f16c465898b19,shootout,fasta_naive_2,616.746000,1
Ř,5e0fac936d452057fad088048e8f16c465898b19,shootout,fasta_naive_2,631.862000,1
Ř,5e0fac936d452057fad088048e8f16c465898b19,shootout,fasta_naive_2,623.345000,1
Ř,5e0fac936d452057fad088048e8f16c465898b19,shootout,fasta_naive_2,617.347000,1
Ř,5e0fac936d452057fad088048e8f16c465898b19,shootout,fasta_naive_2,1434.139000,1
Ř,5e0fac936d452057fad088048e8f16c465898b19,shootout,fannkuchredux,2512.764000,0
Ř,5e0fac936d452057fad088048e8f16c465898b19,shootout,fannkuchredux,2470.220000,0
Ř,5e0fac936d452057fad088048e8f16c465898b19,shootout,fannkuchredux,3651.720000,0
Ř,5e0fac936d452057fad088048e8f16c465898b19,shootout,fannkuchredux,778.870000,0
Ř,5e0fac936d452057fad088048e8f16c465898b19,shootout,fannkuchredux,775.883000,0
Ř,5e0fac936d452057fad088048e8f16c465898b19,shootout,fannkuchredux,790.405000,1
Ř,5e0fac936d452057fad088048e8f16c465898b19,shootout,fannkuchredux,777.873000,1
Ř,5e0fac936d452057fad088048e8f16c465898b19,shootout,fannkuchredux,775.149000,1
Ř,5e0fac936d452057fad088048e8f16c465898b19,shootout,fannkuchredux,790.531000,1
Ř,5e0fac936d452057fad088048e8f16c465898b19,shootout,fannkuchredux,778.669000,1
Ř,5e0fac936d452057fad088048e8f16c465898b19,shootout,fannkuchredux,791.283000,1
Ř,5e0fac936d452057fad088048e8f16c465898b19,shootout,fannkuchredux,777.637000,1
Ř,5e0fac936d452057fad088048e8f16c465898b19,shootout,fannkuchredux,777.700000,1
Ř,5e0fac936d452057fad088048e8f16c465898b19,shootout,fannkuchredux,785.835000,1
Ř,5e0fac936d452057fad088048e8f16c465898b19,shootout,fannkuchredux,777.877000,1
Ř,5e0fac936d452057fad088048e8f16c465898b19,shootout,spectralnorm,2438.108000,0
Ř,5e0fac936d452057fad088048e8f16c465898b19,shootout,spectralnorm,2640.896000,0
Ř,5e0fac936d452057fad088048e8f16c465898b19,shootout,spectralnorm,2396.343000,0
Ř,5e0fac936d452057fad088048e8f16c465898b19,shootout,spectralnorm,73.370000,0
Ř,5e0fac936d452057fad088048e8f16c465898b19,shootout,spectralnorm,57.962000,0
Ř,5e0fac936d452057fad088048e8f16c465898b19,shootout,spectralnorm,59.100000,1
Ř,5e0fac936d452057fad088048e8f16c465898b19,shootout,spectralnorm,59.139000,1
Ř,5e0fac936d452057fad088048e8f16c465898b19,shootout,spectralnorm,57.679000,1
Ř,5e0fac936d452057fad088048e8f16c465898b19,shootout,spectralnorm,59.068000,1
Ř,5e0fac936d452057fad088048e8f16c465898b19,shootout,spectralnorm,59.119000,1
Ř,5e0fac936d452057fad088048e8f16c465898b19,shootout,spectralnorm,59.050000,1
Ř,5e0fac936d452057fad088048e8f16c465898b19,shootout,spectralnorm,57.636000,1
Ř,5e0fac936d452057fad088048e8f16c465898b19,shootout,spectralnorm,59.172000,1
Ř,5e0fac936d452057fad088048e8f16c465898b19,shootout,spectralnorm,59.122000,1
Ř,5e0fac936d452057fad088048e8f16c465898b19,shootout,spectralnorm,59.288000,1
Ř,5e0fac936d452057fad088048e8f16c465898b19,shootout,pidigits,62994.790000,0
Ř,5e0fac936d452057fad088048e8f16c465898b19,shootout,pidigits,4401.585000,0
Ř,5e0fac936d452057fad088048e8f16c465898b19,shootout,pidigits,26723.861000,0
Ř,5e0fac936d452057fad088048e8f16c465898b19,shootout,pidigits,104.801000,0
Ř,5e0fac936d452057fad088048e8f16c465898b19,shootout,pidigits,115.841000,0
Ř,5e0fac936d452057fad088048e8f16c465898b19,shootout,pidigits,104.718000,1
Ř,5e0fac936d452057fad088048e8f16c465898b19,shootout,pidigits,103.806000,1
Ř,5e0fac936d452057fad088048e8f16c465898b19,shootout,pidigits,104.687000,1
Ř,5e0fac936d452057fad088048e8f16c465898b19,shootout,pidigits,103.924000,1
Ř,5e0fac936d452057fad088048e8f16c465898b19,shootout,pidigits,106.605000,1
Ř,5e0fac936d452057fad088048e8f16c465898b19,shootout,pidigits,105.037000,1
Ř,5e0fac936d452057fad088048e8f16c465898b19,shootout,pidigits,103.813000,1
Ř,5e0fac936d452057fad088048e8f16c465898b19,shootout,pidigits,104.765000,1
Ř,5e0fac936d452057fad088048e8f16c465898b19,shootout,pidigits,107.058000,1
Ř,5e0fac936d452057fad088048e8f16c465898b19,shootout,pidigits,104.194000,1
Ř,5e0fac936d452057fad088048e8f16c465898b19,shootout,nbody_naive,21001.474000,0
Ř,5e0fac936d452057fad088048e8f16c465898b19,shootout,nbody_naive,2134.568000,0
Ř,5e0fac936d452057fad088048e8f16c465898b19,shootout,nbody_naive,41901.871000,0
Ř,5e0fac936d452057fad088048e8f16c465898b19,shootout,nbody_naive,150.479000,0
Ř,5e0fac936d452057fad088048e8f16c465898b19,shootout,nbody_naive,155.683000,0
Ř,5e0fac936d452057fad088048e8f16c465898b19,shootout,nbody_naive,153.321000,1
Ř,5e0fac936d452057fad088048e8f16c465898b19,shootout,nbody_naive,151.221000,1
Ř,5e0fac936d452057fad088048e8f16c465898b19,shootout,nbody_naive,147.777000,1
Ř,5e0fac936d452057fad088048e8f16c465898b19,shootout,nbody_naive,148.439000,1
Ř,5e0fac936d452057fad088048e8f16c465898b19,shootout,nbody_naive,157.104000,1
Ř,5e0fac936d452057fad088048e8f16c465898b19,shootout,nbody_naive,152.668000,1
Ř,5e0fac936d452057fad088048e8f16c465898b19,shootout,nbody_naive,149.254000,1
Ř,5e0fac936d452057fad088048e8f16c465898b19,shootout,nbody_naive,148.024000,1
Ř,5e0fac936d452057fad088048e8f16c465898b19,shootout,nbody_naive,164.229000,1
Ř,5e0fac936d452057fad088048e8f16c465898b19,shootout,nbody_naive,151.909000,1
Ř,5e0fac936d452057fad088048e8f16c465898b19,shootout,binarytrees,999.774000,0
Ř,5e0fac936d452057fad088048e8f16c465898b19,shootout,binarytrees,192.059000,0
Ř,5e0fac936d452057fad088048e8f16c465898b19,shootout,binarytrees,1370.475000,0
Ř,5e0fac936d452057fad088048e8f16c465898b19,shootout,binarytrees,70.812000,0
Ř,5e0fac936d452057fad088048e8f16c465898b19,shootout,binarytrees,70.836000,0
Ř,5e0fac936d452057fad088048e8f16c465898b19,shootout,binarytrees,81.834000,1
Ř,5e0fac936d452057fad088048e8f16c465898b19,shootout,binarytrees,71.230000,1
Ř,5e0fac936d452057fad088048e8f16c465898b19,shootout,binarytrees,71.236000,1
Ř,5e0fac936d452057fad088048e8f16c465898b19,shootout,binarytrees,71.223000,1
Ř,5e0fac936d452057fad088048e8f16c465898b19,shootout,binarytrees,71.359000,1
Ř,5e0fac936d452057fad088048e8f16c465898b19,shootout,binarytrees,73.974000,1
Ř,5e0fac936d452057fad088048e8f16c465898b19,shootout,binarytrees,71.072000,1
Ř,5e0fac936d452057fad088048e8f16c465898b19,shootout,binarytrees,71.163000,1
Ř,5e0fac936d452057fad088048e8f16c465898b19,shootout,binarytrees,71.278000,1
Ř,5e0fac936d452057fad088048e8f16c465898b19,shootout,binarytrees,71.394000,1
Ř,5e0fac936d452057fad088048e8f16c465898b19,shootout,knucleotide_brute_2,3512.933000,0
Ř,5e0fac936d452057fad088048e8f16c465898b19,shootout,knucleotide_brute_2,4571.474000,0
Ř,5e0fac936d452057fad088048e8f16c465898b19,shootout,knucleotide_brute_2,13204.740000,0
Ř,5e0fac936d452057fad088048e8f16c465898b19,shootout,knucleotide_brute_2,2541.439000,0
Ř,5e0fac936d452057fad088048e8f16c465898b19,shootout,knucleotide_brute_2,2686.868000,0
Ř,5e0fac936d452057fad088048e8f16c465898b19,shootout,knucleotide_brute_2,3366.127000,1
Ř,5e0fac936d452057fad088048e8f16c465898b19,shootout,knucleotide_brute_2,3700.804000,1
Ř,5e0fac936d452057fad088048e8f16c465898b19,shootout,knucleotide_brute_2,3322.668000,1
Ř,5e0fac936d452057fad088048e8f16c465898b19,shootout,knucleotide_brute_2,3629.170000,1
Ř,5e0fac936d452057fad088048e8f16c465898b19,shootout,knucleotide_brute_2,3845.392000,1
Ř,5e0fac936d452057fad088048e8f16c465898b19,shootout,knucleotide_brute_2,2098.004000,1
Ř,5e0fac936d452057fad088048e8f16c465898b19,shootout,knucleotide_brute_2,2124.967000,1
Ř,5e0fac936d452057fad088048e8f16c465898b19,shootout,knucleotide_brute_2,2213.284000,1
Ř,5e0fac936d452057fad088048e8f16c465898b19,shootout,knucleotide_brute_2,3097.776000,1
Ř,5e0fac936d452057fad088048e8f16c465898b19,shootout,knucleotide_brute_2,2593.574000,1
Ř,5e0fac936d452057fad088048e8f16c465898b19,shootout,binarytrees_2,1142.009000,0
Ř,5e0fac936d452057fad088048e8f16c465898b19,shootout,binarytrees_2,130.033000,0
Ř,5e0fac936d452057fad088048e8f16c465898b19,shootout,binarytrees_2,1399.153000,0
Ř,5e0fac936d452057fad088048e8f16c465898b19,shootout,binarytrees_2,84.556000,0
Ř,5e0fac936d452057fad088048e8f16c465898b19,shootout,binarytrees_2,94.660000,0
Ř,5e0fac936d452057fad088048e8f16c465898b19,shootout,binarytrees_2,84.313000,1
Ř,5e0fac936d452057fad088048e8f16c465898b19,shootout,binarytrees_2,84.204000,1
Ř,5e0fac936d452057fad088048e8f16c465898b19,shootout,binarytrees_2,84.332000,1
Ř,5e0fac936d452057fad088048e8f16c465898b19,shootout,binarytrees_2,87.110000,1
Ř,5e0fac936d452057fad088048e8f16c465898b19,shootout,binarytrees_2,84.161000,1
Ř,5e0fac936d452057fad088048e8f16c465898b19,shootout,binarytrees_2,84.454000,1
Ř,5e0fac936d452057fad088048e8f16c465898b19,shootout,binarytrees_2,84.303000,1
Ř,5e0fac936d452057fad088048e8f16c465898b19,shootout,binarytrees_2,85.056000,1
Ř,5e0fac936d452057fad088048e8f16c465898b19,shootout,binarytrees_2,85.746000,1
Ř,5e0fac936d452057fad088048e8f16c465898b19,shootout,binarytrees_2,85.572000,1
Ř,5e0fac936d452057fad088048e8f16c465898b19,shootout,nbody_naive_2,3073.901000,0
Ř,5e0fac936d452057fad088048e8f16c465898b19,shootout,nbody_naive_2,1774.137000,0
Ř,5e0fac936d452057fad088048e8f16c465898b19,shootout,nbody_naive_2,4703.845000,0
Ř,5e0fac936d452057fad088048e8f16c465898b19,shootout,nbody_naive_2,974.003000,0
Ř,5e0fac936d452057fad088048e8f16c465898b19,shootout,nbody_naive_2,968.875000,0
Ř,5e0fac936d452057fad088048e8f16c465898b19,shootout,nbody_naive_2,955.297000,1
Ř,5e0fac936d452057fad088048e8f16c465898b19,shootout,nbody_naive_2,971.984000,1
Ř,5e0fac936d452057fad088048e8f16c465898b19,shootout,nbody_naive_2,960.610000,1
Ř,5e0fac936d452057fad088048e8f16c465898b19,shootout,nbody_naive_2,970.116000,1
Ř,5e0fac936d452057fad088048e8f16c465898b19,shootout,nbody_naive_2,969.376000,1
Ř,5e0fac936d452057fad088048e8f16c465898b19,shootout,nbody_naive_2,960.636000,1
Ř,5e0fac936d452057fad088048e8f16c465898b19,shootout,nbody_naive_2,967.774000,1
Ř,5e0fac936d452057fad088048e8f16c465898b19,shootout,nbody_naive_2,960.652000,1
Ř,5e0fac936d452057fad088048e8f16c465898b19,shootout,nbody_naive_2,968.549000,1
Ř,5e0fac936d452057fad088048e8f16c465898b19,shootout,nbody_naive_2,969.144000,1
Ř,5e0fac936d452057fad088048e8f16c465898b19,shootout,reversecomplement_naive,504.420000,0
Ř,5e0fac936d452057fad088048e8f16c465898b19,shootout,reversecomplement_naive,556.201000,0
Ř,5e0fac936d452057fad088048e8f16c465898b19,shootout,reversecomplement_naive,1168.164000,0
Ř,5e0fac936d452057fad088048e8f16c465898b19,shootout,reversecomplement_naive,324.992000,0
Ř,5e0fac936d452057fad088048e8f16c465898b19,shootout,reversecomplement_naive,328.294000,0
Ř,5e0fac936d452057fad088048e8f16c465898b19,shootout,reversecomplement_naive,327.061000,1
Ř,5e0fac936d452057fad088048e8f16c465898b19,shootout,reversecomplement_naive,325.010000,1
Ř,5e0fac936d452057fad088048e8f16c465898b19,shootout,reversecomplement_naive,336.394000,1
Ř,5e0fac936d452057fad088048e8f16c465898b19,shootout,reversecomplement_naive,328.949000,1
Ř,5e0fac936d452057fad088048e8f16c465898b19,shootout,reversecomplement_naive,324.925000,1
Ř,5e0fac936d452057fad088048e8f16c465898b19,shootout,reversecomplement_naive,322.968000,1
Ř,5e0fac936d452057fad088048e8f16c465898b19,shootout,reversecomplement_naive,321.756000,1
Ř,5e0fac936d452057fad088048e8f16c465898b19,shootout,reversecomplement_naive,325.789000,1
Ř,5e0fac936d452057fad088048e8f16c465898b19,shootout,reversecomplement_naive,321.762000,1
Ř,5e0fac936d452057fad088048e8f16c465898b19,shootout,reversecomplement_naive,334.779000,1
Ř,5e0fac936d452057fad088048e8f16c465898b19,shootout,spectralnorm_alt_2,1706.582000,0
Ř,5e0fac936d452057fad088048e8f16c465898b19,shootout,spectralnorm_alt_2,1405.592000,0
Ř,5e0fac936d452057fad088048e8f16c465898b19,shootout,spectralnorm_alt_2,2575.650000,0
Ř,5e0fac936d452057fad088048e8f16c465898b19,shootout,spectralnorm_alt_2,1159.696000,0
Ř,5e0fac936d452057fad088048e8f16c465898b19,shootout,spectralnorm_alt_2,1233.630000,0
Ř,5e0fac936d452057fad088048e8f16c465898b19,shootout,spectralnorm_alt_2,1201.009000,1
Ř,5e0fac936d452057fad088048e8f16c465898b19,shootout,spectralnorm_alt_2,1195.148000,1
Ř,5e0fac936d452057fad088048e8f16c465898b19,shootout,spectralnorm_alt_2,1188.033000,1
Ř,5e0fac936d452057fad088048e8f16c465898b19,shootout,spectralnorm_alt_2,1199.614000,1
Ř,5e0fac936d452057fad088048e8f16c465898b19,shootout,spectralnorm_alt_2,1221.452000,1
Ř,5e0fac936d452057fad088048e8f16c465898b19,shootout,spectralnorm_alt_2,1187.045000,1
Ř,5e0fac936d452057fad088048e8f16c465898b19,shootout,spectralnorm_alt_2,1196.890000,1
Ř,5e0fac936d452057fad088048e8f16c465898b19,shootout,spectralnorm_alt_2,1213.267000,1
Ř,5e0fac936d452057fad088048e8f16c465898b19,shootout,spectralnorm_alt_2,1191.002000,1
Ř,5e0fac936d452057fad088048e8f16c465898b19,shootout,spectralnorm_alt_2,1186.801000,1
Ř,5e0fac936d452057fad088048e8f16c465898b19,shootout,reversecomplement_2,594.044000,0
Ř,5e0fac936d452057fad088048e8f16c465898b19,shootout,reversecomplement_2,618.138000,0
Ř,5e0fac936d452057fad088048e8f16c465898b19,shootout,reversecomplement_2,1518.978000,0
Ř,5e0fac936d452057fad088048e8f16c465898b19,shootout,reversecomplement_2,420.251000,0
Ř,5e0fac936d452057fad088048e8f16c465898b19,shootout,reversecomplement_2,402.388000,0
Ř,5e0fac936d452057fad088048e8f16c465898b19,shootout,reversecomplement_2,402.722000,1
Ř,5e0fac936d452057fad088048e8f16c465898b19,shootout,reversecomplement_2,402.545000,1
Ř,5e0fac936d452057fad088048e8f16c465898b19,shootout,reversecomplement_2,408.058000,1
Ř,5e0fac936d452057fad088048e8f16c465898b19,shootout,reversecomplement_2,407.276000,1
Ř,5e0fac936d452057fad088048e8f16c465898b19,shootout,reversecomplement_2,404.248000,1
Ř,5e0fac936d452057fad088048e8f16c465898b19,shootout,reversecomplement_2,408.159000,1
Ř,5e0fac936d452057fad088048e8f16c465898b19,shootout,reversecomplement_2,404.383000,1
Ř,5e0fac936d452057fad088048e8f16c465898b19,shootout,reversecomplement_2,404.357000,1
Ř,5e0fac936d452057fad088048e8f16c465898b19,shootout,reversecomplement_2,409.571000,1
Ř,5e0fac936d452057fad088048e8f16c465898b19,shootout,reversecomplement_2,406.056000,1
Ř,5e0fac936d452057fad088048e8f16c465898b19,shootout,fasta,1481.829000,0
Ř,5e0fac936d452057fad088048e8f16c465898b19,shootout,fasta,1242.555000,0
Ř,5e0fac936d452057fad088048e8f16c465898b19,shootout,fasta,1985.265000,0
Ř,5e0fac936d452057fad088048e8f16c465898b19,shootout,fasta,910.944000,0
Ř,5e0fac936d452057fad088048e8f16c465898b19,shootout,fasta,896.546000,0
Ř,5e0fac936d452057fad088048e8f16c465898b19,shootout,fasta,910.696000,1
Ř,5e0fac936d452057fad088048e8f16c465898b19,shootout,fasta,914.055000,1
Ř,5e0fac936d452057fad088048e8f16c465898b19,shootout,fasta,901.445000,1
Ř,5e0fac936d452057fad088048e8f16c465898b19,shootout,fasta,887.037000,1
Ř,5e0fac936d452057fad088048e8f16c465898b19,shootout,fasta,901.946000,1
Ř,5e0fac936d452057fad088048e8f16c465898b19,shootout,fasta,907.108000,1
Ř,5e0fac936d452057fad088048e8f16c465898b19,shootout,fasta,915.983000,1
Ř,5e0fac936d452057fad088048e8f16c465898b19,shootout,fasta,917.724000,1
Ř,5e0fac936d452057fad088048e8f16c465898b19,shootout,fasta,905.151000,1
Ř,5e0fac936d452057fad088048e8f16c465898b19,shootout,fasta,916.951000,1
Ř,5e0fac936d452057fad088048e8f16c465898b19,shootout,fannkuchredux_naive,2540.387000,0
Ř,5e0fac936d452057fad088048e8f16c465898b19,shootout,fannkuchredux_naive,2512.975000,0
Ř,5e0fac936d452057fad088048e8f16c465898b19,shootout,fannkuchredux_naive,2892.491000,0
Ř,5e0fac936d452057fad088048e8f16c465898b19,shootout,fannkuchredux_naive,208.479000,0
Ř,5e0fac936d452057fad088048e8f16c465898b19,shootout,fannkuchredux_naive,204.053000,0
Ř,5e0fac936d452057fad088048e8f16c465898b19,shootout,fannkuchredux_naive,202.740000,1
Ř,5e0fac936d452057fad088048e8f16c465898b19,shootout,fannkuchredux_naive,208.538000,1
Ř,5e0fac936d452057fad088048e8f16c465898b19,shootout,fannkuchredux_naive,202.682000,1
Ř,5e0fac936d452057fad088048e8f16c465898b19,shootout,fannkuchredux_naive,217.148000,1
Ř,5e0fac936d452057fad088048e8f16c465898b19,shootout,fannkuchredux_naive,205.109000,1
Ř,5e0fac936d452057fad088048e8f16c465898b19,shootout,fannkuchredux_naive,202.727000,1
Ř,5e0fac936d452057fad088048e8f16c465898b19,shootout,fannkuchredux_naive,208.009000,1
Ř,5e0fac936d452057fad088048e8f16c465898b19,shootout,fannkuchredux_naive,203.647000,1
Ř,5e0fac936d452057fad088048e8f16c465898b19,shootout,fannkuchredux_naive,202.302000,1
Ř,5e0fac936d452057fad088048e8f16c465898b19,shootout,fannkuchredux_naive,209.057000,1
Ř,5e0fac936d452057fad088048e8f16c465898b19,shootout,mandelbrot_ascii,388.151000,0
Ř,5e0fac936d452057fad088048e8f16c465898b19,shootout,mandelbrot_ascii,79.754000,0
Ř,5e0fac936d452057fad088048e8f16c465898b19,shootout,mandelbrot_ascii,938.734000,0
Ř,5e0fac936d452057fad088048e8f16c465898b19,shootout,mandelbrot_ascii,64.892000,0
Ř,5e0fac936d452057fad088048e8f16c465898b19,shootout,mandelbrot_ascii,63.004000,0
Ř,5e0fac936d452057fad088048e8f16c465898b19,shootout,mandelbrot_ascii,62.925000,1
Ř,5e0fac936d452057fad088048e8f16c465898b19,shootout,mandelbrot_ascii,62.982000,1
Ř,5e0fac936d452057fad088048e8f16c465898b19,shootout,mandelbrot_ascii,64.504000,1
Ř,5e0fac936d452057fad088048e8f16c465898b19,shootout,mandelbrot_ascii,62.622000,1
Ř,5e0fac936d452057fad088048e8f16c465898b19,shootout,mandelbrot_ascii,62.518000,1
Ř,5e0fac936d452057fad088048e8f16c465898b19,shootout,mandelbrot_ascii,62.595000,1
Ř,5e0fac936d452057fad088048e8f16c465898b19,shootout,mandelbrot_ascii,64.227000,1
Ř,5e0fac936d452057fad088048e8f16c465898b19,shootout,mandelbrot_ascii,62.783000,1
Ř,5e0fac936d452057fad088048e8f16c465898b19,shootout,mandelbrot_ascii,62.784000,1
Ř,5e0fac936d452057fad088048e8f16c465898b19,shootout,mandelbrot_ascii,64.026000,1
Ř,5e0fac936d452057fad088048e8f16c465898b19,shootout,regexdna,1527.746000,0
Ř,5e0fac936d452057fad088048e8f16c465898b19,shootout,regexdna,1501.720000,0
Ř,5e0fac936d452057fad088048e8f16c465898b19,shootout,regexdna,3672.749000,0
Ř,5e0fac936d452057fad088048e8f16c465898b19,shootout,regexdna,1440.788000,0
Ř,5e0fac936d452057fad088048e8f16c465898b19,shootout,regexdna,1447.407000,0
Ř,5e0fac936d452057fad088048e8f16c465898b19,shootout,regexdna,1459.138000,1
Ř,5e0fac936d452057fad088048e8f16c465898b19,shootout,regexdna,1443.551000,1
Ř,5e0fac936d452057fad088048e8f16c465898b19,shootout,regexdna,1447.504000,1
Ř,5e0fac936d452057fad088048e8f16c465898b19,shootout,regexdna,1440.895000,1
Ř,5e0fac936d452057fad088048e8f16c465898b19,shootout,regexdna,1460.204000,1
Ř,5e0fac936d452057fad088048e8f16c465898b19,shootout,regexdna,1442.109000,1
Ř,5e0fac936d452057fad088048e8f16c465898b19,shootout,regexdna,1445.242000,1
Ř,5e0fac936d452057fad088048e8f16c465898b19,shootout,regexdna,1448.941000,1
Ř,5e0fac936d452057fad088048e8f16c465898b19,shootout,regexdna,1464.354000,1
Ř,5e0fac936d452057fad088048e8f16c465898b19,shootout,regexdna,1441.994000,1
Ř,5e0fac936d452057fad088048e8f16c465898b19,shootout,fasta_naive,833.897000,0
Ř,5e0fac936d452057fad088048e8f16c465898b19,shootout,fasta_naive,853.627000,0
Ř,5e0fac936d452057fad088048e8f16c465898b19,shootout,fasta_naive,1957.102000,0
Ř,5e0fac936d452057fad088048e8f16c465898b19,shootout,fasta_naive,429.932000,0
Ř,5e0fac936d452057fad088048e8f16c465898b19,shootout,fasta_naive,447.284000,0
Ř,5e0fac936d452057fad088048e8f16c465898b19,shootout,fasta_naive,403.953000,1
Ř,5e0fac936d452057fad088048e8f16c465898b19,shootout,fasta_naive,413.437000,1
Ř,5e0fac936d452057fad088048e8f16c465898b19,shootout,fasta_naive,419.036000,1
Ř,5e0fac936d452057fad088048e8f16c465898b19,shootout,fasta_naive,427.473000,1
Ř,5e0fac936d452057fad088048e8f16c465898b19,shootout,fasta_naive,431.671000,1
Ř,5e0fac936d452057fad088048e8f16c465898b19,shootout,fasta_naive,425.284000,1
Ř,5e0fac936d452057fad088048e8f16c465898b19,shootout,fasta_naive,408.535000,1
Ř,5e0fac936d452057fad088048e8f16c465898b19,shootout,fasta_naive,420.639000,1
Ř,5e0fac936d452057fad088048e8f16c465898b19,shootout,fasta_naive,426.117000,1
Ř,5e0fac936d452057fad088048e8f16c465898b19,shootout,fasta_naive,430.673000,1
Ř,5e0fac936d452057fad088048e8f16c465898b19,shootout,knucleotide,3077.273000,0
Ř,5e0fac936d452057fad088048e8f16c465898b19,shootout,knucleotide,2167.779000,0
Ř,5e0fac936d452057fad088048e8f16c465898b19,shootout,knucleotide,9065.716000,0
Ř,5e0fac936d452057fad088048e8f16c465898b19,shootout,knucleotide,508.890000,0
Ř,5e0fac936d452057fad088048e8f16c465898b19,shootout,knucleotide,528.903000,0
Ř,5e0fac936d452057fad088048e8f16c465898b19,shootout,knucleotide,554.693000,1
Ř,5e0fac936d452057fad088048e8f16c465898b19,shootout,knucleotide,498.227000,1
Ř,5e0fac936d452057fad088048e8f16c465898b19,shootout,knucleotide,441.562000,1
Ř,5e0fac936d452057fad088048e8f16c465898b19,shootout,knucleotide,475.149000,1
Ř,5e0fac936d452057fad088048e8f16c465898b19,shootout,knucleotide,501.194000,1
Ř,5e0fac936d452057fad088048e8f16c465898b19,shootout,knucleotide,522.910000,1
Ř,5e0fac936d452057fad088048e8f16c465898b19,shootout,knucleotide,541.739000,1
Ř,5e0fac936d452057fad088048e8f16c465898b19,shootout,knucleotide,502.141000,1
Ř,5e0fac936d452057fad088048e8f16c465898b19,shootout,knucleotide,445.052000,1
Ř,5e0fac936d452057fad088048e8f16c465898b19,shootout,knucleotide,476.126000,1
Ř,5e0fac936d452057fad088048e8f16c465898b19,shootout,spectralnorm_math,3546.038000,0
Ř,5e0fac936d452057fad088048e8f16c465898b19,shootout,spectralnorm_math,3360.112000,0
Ř,5e0fac936d452057fad088048e8f16c465898b19,shootout,spectralnorm_math,3823.259000,0
Ř,5e0fac936d452057fad088048e8f16c465898b19,shootout,spectralnorm_math,3203.840000,0
Ř,5e0fac936d452057fad088048e8f16c465898b19,shootout,spectralnorm_math,3207.568000,0
Ř,5e0fac936d452057fad088048e8f16c465898b19,shootout,spectralnorm_math,3191.382000,1
Ř,5e0fac936d452057fad088048e8f16c465898b19,shootout,spectralnorm_math,3221.331000,1
Ř,5e0fac936d452057fad088048e8f16c465898b19,shootout,spectralnorm_math,3200.649000,1
Ř,5e0fac936d452057fad088048e8f16c465898b19,shootout,spectralnorm_math,3204.571000,1
Ř,5e0fac936d452057fad088048e8f16c465898b19,shootout,spectralnorm_math,3213.510000,1
Ř,5e0fac936d452057fad088048e8f16c465898b19,shootout,spectralnorm_math,3209.853000,1
Ř,5e0fac936d452057fad088048e8f16c465898b19,shootout,spectralnorm_math,3207.160000,1
Ř,5e0fac936d452057fad088048e8f16c465898b19,shootout,spectralnorm_math,3204.818000,1
Ř,5e0fac936d452057fad088048e8f16c465898b19,shootout,spectralnorm_math,3214.994000,1
Ř,5e0fac936d452057fad088048e8f16c465898b19,shootout,spectralnorm_math,3211.483000,1
Ř,5e0fac936d452057fad088048e8f16c465898b19,shootout,fastaredux_naive,697.328000,0
Ř,5e0fac936d452057fad088048e8f16c465898b19,shootout,fastaredux_naive,1348.184000,0
Ř,5e0fac936d452057fad088048e8f16c465898b19,shootout,fastaredux_naive,2473.355000,0
Ř,5e0fac936d452057fad088048e8f16c465898b19,shootout,fastaredux_naive,439.101000,0
Ř,5e0fac936d452057fad088048e8f16c465898b19,shootout,fastaredux_naive,445.642000,0
Ř,5e0fac936d452057fad088048e8f16c465898b19,shootout,fastaredux_naive,459.596000,1
Ř,5e0fac936d452057fad088048e8f16c465898b19,shootout,fastaredux_naive,416.909000,1
Ř,5e0fac936d452057fad088048e8f16c465898b19,shootout,fastaredux_naive,422.676000,1
Ř,5e0fac936d452057fad088048e8f16c465898b19,shootout,fastaredux_naive,435.098000,1
Ř,5e0fac936d452057fad088048e8f16c465898b19,shootout,fastaredux_naive,437.035000,1
Ř,5e0fac936d452057fad088048e8f16c465898b19,shootout,fastaredux_naive,439.727000,1
Ř,5e0fac936d452057fad088048e8f16c465898b19,shootout,fastaredux_naive,412.261000,1
Ř,5e0fac936d452057fad088048e8f16c465898b19,shootout,fastaredux_naive,425.031000,1
Ř,5e0fac936d452057fad088048e8f16c465898b19,shootout,fastaredux_naive,427.161000,1
Ř,5e0fac936d452057fad088048e8f16c465898b19,shootout,fastaredux_naive,438.494000,1
Ř,5e0fac936d452057fad088048e8f16c465898b19,shootout,mandelbrot_noout_naive,259.648000,0
Ř,5e0fac936d452057fad088048e8f16c465898b19,shootout,mandelbrot_noout_naive,245.117000,0
Ř,5e0fac936d452057fad088048e8f16c465898b19,shootout,mandelbrot_noout_naive,1167.362000,0
Ř,5e0fac936d452057fad088048e8f16c465898b19,shootout,mandelbrot_noout_naive,218.742000,0
Ř,5e0fac936d452057fad088048e8f16c465898b19,shootout,mandelbrot_noout_naive,219.771000,0
Ř,5e0fac936d452057fad088048e8f16c465898b19,shootout,mandelbrot_noout_naive,219.505000,1
Ř,5e0fac936d452057fad088048e8f16c465898b19,shootout,mandelbrot_noout_naive,230.056000,1
Ř,5e0fac936d452057fad088048e8f16c465898b19,shootout,mandelbrot_noout_naive,221.073000,1
Ř,5e0fac936d452057fad088048e8f16c465898b19,shootout,mandelbrot_noout_naive,230.432000,1
Ř,5e0fac936d452057fad088048e8f16c465898b19,shootout,mandelbrot_noout_naive,229.020000,1
Ř,5e0fac936d452057fad088048e8f16c465898b19,shootout,mandelbrot_noout_naive,239.504000,1
Ř,5e0fac936d452057fad088048e8f16c465898b19,shootout,mandelbrot_noout_naive,224.699000,1
Ř,5e0fac936d452057fad088048e8f16c465898b19,shootout,mandelbrot_noout_naive,227.690000,1
Ř,5e0fac936d452057fad088048e8f16c465898b19,shootout,mandelbrot_noout_naive,229.355000,1
Ř,5e0fac936d452057fad088048e8f16c465898b19,shootout,mandelbrot_noout_naive,240.774000,1
Ř,5e0fac936d452057fad088048e8f16c465898b19,shootout,knucleotide_brute,4411.795000,0
Ř,5e0fac936d452057fad088048e8f16c465898b19,shootout,knucleotide_brute,5327.418000,0
Ř,5e0fac936d452057fad088048e8f16c465898b19,shootout,knucleotide_brute,14364.423000,0
Ř,5e0fac936d452057fad088048e8f16c465898b19,shootout,knucleotide_brute,3757.159000,0
Ř,5e0fac936d452057fad088048e8f16c465898b19,shootout,knucleotide_brute,3892.807000,0
Ř,5e0fac936d452057fad088048e8f16c465898b19,shootout,knucleotide_brute,3989.279000,1
Ř,5e0fac936d452057fad088048e8f16c465898b19,shootout,knucleotide_brute,3983.382000,1
Ř,5e0fac936d452057fad088048e8f16c465898b19,shootout,knucleotide_brute,4062.739000,1
Ř,5e0fac936d452057fad088048e8f16c465898b19,shootout,knucleotide_brute,4076.123000,1
Ř,5e0fac936d452057fad088048e8f16c465898b19,shootout,knucleotide_brute,4123.919000,1
Ř,5e0fac936d452057fad088048e8f16c465898b19,shootout,knucleotide_brute,3409.427000,1
Ř,5e0fac936d452057fad088048e8f16c465898b19,shootout,knucleotide_brute,3415.224000,1
Ř,5e0fac936d452057fad088048e8f16c465898b19,shootout,knucleotide_brute,3699.094000,1
Ř,5e0fac936d452057fad088048e8f16c465898b19,shootout,knucleotide_brute,3743.311000,1
Ř,5e0fac936d452057fad088048e8f16c465898b19,shootout,knucleotide_brute,3882.442000,1
Ř,5e0fac936d452057fad088048e8f16c465898b19,shootout,spectralnorm_alt_3,1090.515000,0
Ř,5e0fac936d452057fad088048e8f16c465898b19,shootout,spectralnorm_alt_3,887.645000,0
Ř,5e0fac936d452057fad088048e8f16c465898b19,shootout,spectralnorm_alt_3,1473.421000,0
Ř,5e0fac936d452057fad088048e8f16c465898b19,shootout,spectralnorm_alt_3,95.913000,0
Ř,5e0fac936d452057fad088048e8f16c465898b19,shootout,spectralnorm_alt_3,96.739000,0
Ř,5e0fac936d452057fad088048e8f16c465898b19,shootout,spectralnorm_alt_3,95.428000,1
Ř,5e0fac936d452057fad088048e8f16c465898b19,shootout,spectralnorm_alt_3,96.423000,1
Ř,5e0fac936d452057fad088048e8f16c465898b19,shootout,spectralnorm_alt_3,99.118000,1
Ř,5e0fac936d452057fad088048e8f16c465898b19,shootout,spectralnorm_alt_3,96.238000,1
Ř,5e0fac936d452057fad088048e8f16c465898b19,shootout,spectralnorm_alt_3,97.073000,1
Ř,5e0fac936d452057fad088048e8f16c465898b19,shootout,spectralnorm_alt_3,97.949000,1
Ř,5e0fac936d452057fad088048e8f16c465898b19,shootout,spectralnorm_alt_3,96.438000,1
Ř,5e0fac936d452057fad088048e8f16c465898b19,shootout,spectralnorm_alt_3,96.989000,1
Ř,5e0fac936d452057fad088048e8f16c465898b19,shootout,spectralnorm_alt_3,100.298000,1
Ř,5e0fac936d452057fad088048e8f16c465898b19,shootout,spectralnorm_alt_3,95.680000,1
Ř,5e0fac936d452057fad088048e8f16c465898b19,shootout,mandelbrot_noout,389.076000,0
Ř,5e0fac936d452057fad088048e8f16c465898b19,shootout,mandelbrot_noout,68.487000,0
Ř,5e0fac936d452057fad088048e8f16c465898b19,shootout,mandelbrot_noout,731.613000,0
Ř,5e0fac936d452057fad088048e8f16c465898b19,shootout,mandelbrot_noout,64.269000,0
Ř,5e0fac936d452057fad088048e8f16c465898b19,shootout,mandelbrot_noout,65.617000,0
Ř,5e0fac936d452057fad088048e8f16c465898b19,shootout,mandelbrot_noout,64.234000,1
Ř,5e0fac936d452057fad088048e8f16c465898b19,shootout,mandelbrot_noout,64.051000,1
Ř,5e0fac936d452057fad088048e8f16c465898b19,shootout,mandelbrot_noout,64.060000,1
Ř,5e0fac936d452057fad088048e8f16c465898b19,shootout,mandelbrot_noout,65.259000,1
Ř,5e0fac936d452057fad088048e8f16c465898b19,shootout,mandelbrot_noout,74.150000,1
Ř,5e0fac936d452057fad088048e8f16c465898b19,shootout,mandelbrot_noout,64.059000,1
Ř,5e0fac936d452057fad088048e8f16c465898b19,shootout,mandelbrot_noout,63.851000,1
Ř,5e0fac936d452057fad088048e8f16c465898b19,shootout,mandelbrot_noout,63.909000,1
Ř,5e0fac936d452057fad088048e8f16c465898b19,shootout,mandelbrot_noout,65.035000,1
Ř,5e0fac936d452057fad088048e8f16c465898b19,shootout,mandelbrot_noout,63.852000,1
Ř,5e0fac936d452057fad088048e8f16c465898b19,shootout,fasta_3,1211.071000,0
Ř,5e0fac936d452057fad088048e8f16c465898b19,shootout,fasta_3,3496.656000,0
Ř,5e0fac936d452057fad088048e8f16c465898b19,shootout,fasta_3,4228.461000,0
Ř,5e0fac936d452057fad088048e8f16c465898b19,shootout,fasta_3,913.499000,0
Ř,5e0fac936d452057fad088048e8f16c465898b19,shootout,fasta_3,900.912000,0
Ř,5e0fac936d452057fad088048e8f16c465898b19,shootout,fasta_3,892.128000,1
Ř,5e0fac936d452057fad088048e8f16c465898b19,shootout,fasta_3,891.372000,1
Ř,5e0fac936d452057fad088048e8f16c465898b19,shootout,fasta_3,900.413000,1
Ř,5e0fac936d452057fad088048e8f16c465898b19,shootout,fasta_3,895.049000,1
Ř,5e0fac936d452057fad088048e8f16c465898b19,shootout,fasta_3,902.537000,1
Ř,5e0fac936d452057fad088048e8f16c465898b19,shootout,fasta_3,906.863000,1
Ř,5e0fac936d452057fad088048e8f16c465898b19,shootout,fasta_3,900.322000,1
Ř,5e0fac936d452057fad088048e8f16c465898b19,shootout,fasta_3,892.260000,1
Ř,5e0fac936d452057fad088048e8f16c465898b19,shootout,fasta_3,905.863000,1
Ř,5e0fac936d452057fad088048e8f16c465898b19,shootout,fasta_3,906.653000,1
Ř,5e0fac936d452057fad088048e8f16c465898b19,shootout,binarytrees_naive,895.911000,0
Ř,5e0fac936d452057fad088048e8f16c465898b19,shootout,binarytrees_naive,128.570000,0
Ř,5e0fac936d452057fad088048e8f16c465898b19,shootout,binarytrees_naive,3949.450000,0
Ř,5e0fac936d452057fad088048e8f16c465898b19,shootout,binarytrees_naive,82.087000,0
Ř,5e0fac936d452057fad088048e8f16c465898b19,shootout,binarytrees_naive,92.627000,0
Ř,5e0fac936d452057fad088048e8f16c465898b19,shootout,binarytrees_naive,82.259000,1
Ř,5e0fac936d452057fad088048e8f16c465898b19,shootout,binarytrees_naive,81.947000,1
Ř,5e0fac936d452057fad088048e8f16c465898b19,shootout,binarytrees_naive,82.343000,1
Ř,5e0fac936d452057fad088048e8f16c465898b19,shootout,binarytrees_naive,84.972000,1
Ř,5e0fac936d452057fad088048e8f16c465898b19,shootout,binarytrees_naive,81.464000,1
Ř,5e0fac936d452057fad088048e8f16c465898b19,shootout,binarytrees_naive,81.473000,1
Ř,5e0fac936d452057fad088048e8f16c465898b19,shootout,binarytrees_naive,82.123000,1
Ř,5e0fac936d452057fad088048e8f16c465898b19,shootout,binarytrees_naive,82.693000,1
Ř,5e0fac936d452057fad088048e8f16c465898b19,shootout,binarytrees_naive,82.481000,1
Ř,5e0fac936d452057fad088048e8f16c465898b19,shootout,binarytrees_naive,82.109000,1
Ř,5e0fac936d452057fad088048e8f16c465898b19,shootout,spectralnorm_alt,399.144000,0
Ř,5e0fac936d452057fad088048e8f16c465898b19,shootout,spectralnorm_alt,269.943000,0
Ř,5e0fac936d452057fad088048e8f16c465898b19,shootout,spectralnorm_alt,1522.391000,0
Ř,5e0fac936d452057fad088048e8f16c465898b19,shootout,spectralnorm_alt,211.632000,0
Ř,5e0fac936d452057fad088048e8f16c465898b19,shootout,spectralnorm_alt,198.557000,0
Ř,5e0fac936d452057fad088048e8f16c465898b19,shootout,spectralnorm_alt,216.572000,1
Ř,5e0fac936d452057fad088048e8f16c465898b19,shootout,spectralnorm_alt,203.466000,1
Ř,5e0fac936d452057fad088048e8f16c465898b19,shootout,spectralnorm_alt,187.920000,1
Ř,5e0fac936d452057fad088048e8f16c465898b19,shootout,spectralnorm_alt,188.368000,1
Ř,5e0fac936d452057fad088048e8f16c465898b19,shootout,spectralnorm_alt,199.440000,1
Ř,5e0fac936d452057fad088048e8f16c465898b19,shootout,spectralnorm_alt,185.988000,1
Ř,5e0fac936d452057fad088048e8f16c465898b19,shootout,spectralnorm_alt,195.960000,1
Ř,5e0fac936d452057fad088048e8f16c465898b19,shootout,spectralnorm_alt,194.917000,1
Ř,5e0fac936d452057fad088048e8f16c465898b19,shootout,spectralnorm_alt,203.466000,1
Ř,5e0fac936d452057fad088048e8f16c465898b19,shootout,spectralnorm_alt,187.709000,1
Ř,5e0fac936d452057fad088048e8f16c465898b19,shootout,nbody_2,1547.566000,0
Ř,5e0fac936d452057fad088048e8f16c465898b19,shootout,nbody_2,1416.827000,0
Ř,5e0fac936d452057fad088048e8f16c465898b19,shootout,nbody_2,1749.755000,0
Ř,5e0fac936d452057fad088048e8f16c465898b19,shootout,nbody_2,653.956000,0
Ř,5e0fac936d452057fad088048e8f16c465898b19,shootout,nbody_2,631.786000,0
Ř,5e0fac936d452057fad088048e8f16c465898b19,shootout,nbody_2,628.192000,1
Ř,5e0fac936d452057fad088048e8f16c465898b19,shootout,nbody_2,633.348000,1
Ř,5e0fac936d452057fad088048e8f16c465898b19,shootout,nbody_2,644.599000,1
Ř,5e0fac936d452057fad088048e8f16c465898b19,shootout,nbody_2,633.177000,1
Ř,5e0fac936d452057fad088048e8f16c465898b19,shootout,nbody_2,630.748000,1
Ř,5e0fac936d452057fad088048e8f16c465898b19,shootout,nbody_2,632.452000,1
Ř,5e0fac936d452057fad088048e8f16c465898b19,shootout,nbody_2,640.778000,1
Ř,5e0fac936d452057fad088048e8f16c465898b19,shootout,nbody_2,631.575000,1
Ř,5e0fac936d452057fad088048e8f16c465898b19,shootout,nbody_2,630.746000,1
Ř,5e0fac936d452057fad088048e8f16c465898b19,shootout,nbody_2,640.921000,1
Ř,5e0fac936d452057fad088048e8f16c465898b19,real_thing,flexclust_no_s4,17306.622000,0
Ř,5e0fac936d452057fad088048e8f16c465898b19,real_thing,flexclust_no_s4,14215.476000,0
Ř,5e0fac936d452057fad088048e8f16c465898b19,real_thing,flexclust_no_s4,26943.914000,0
Ř,5e0fac936d452057fad088048e8f16c465898b19,real_thing,flexclust_no_s4,24611.597000,0
Ř,5e0fac936d452057fad088048e8f16c465898b19,real_thing,flexclust_no_s4,18364.968000,0
Ř,5e0fac936d452057fad088048e8f16c465898b19,real_thing,flexclust_no_s4,13809.193000,1
Ř,5e0fac936d452057fad088048e8f16c465898b19,real_thing,flexclust_no_s4,13734.344000,1
Ř,5e0fac936d452057fad088048e8f16c465898b19,real_thing,flexclust_no_s4,15684.237000,1
Ř,5e0fac936d452057fad088048e8f16c465898b19,real_thing,flexclust_no_s4,13648.298000,1
Ř,5e0fac936d452057fad088048e8f16c465898b19,real_thing,flexclust_no_s4,12894.848000,1
Ř,5e0fac936d452057fad088048e8f16c465898b19,real_thing,flexclust_no_s4,13112.456000,1
Ř,5e0fac936d452057fad088048e8f16c465898b19,real_thing,flexclust_no_s4,13427.682000,1
Ř,5e0fac936d452057fad088048e8f16c465898b19,real_thing,flexclust_no_s4,13066.863000,1
Ř,5e0fac936d452057fad088048e8f16c465898b19,real_thing,flexclust_no_s4,13159.344000,1
Ř,5e0fac936d452057fad088048e8f16c465898b19,real_thing,flexclust_no_s4,13025.963000,1
Ř,5e0fac936d452057fad088048e8f16c465898b19,real_thing,convolution,714.967000,0
Ř,5e0fac936d452057fad088048e8f16c465898b19,real_thing,convolution,11.187000,0
Ř,5e0fac936d452057fad088048e8f16c465898b19,real_thing,convolution,570.567000,0
Ř,5e0fac936d452057fad088048e8f16c465898b19,real_thing,convolution,11.693000,0
Ř,5e0fac936d452057fad088048e8f16c465898b19,real_thing,convolution,11.689000,0
Ř,5e0fac936d452057fad088048e8f16c465898b19,real_thing,convolution,11.665000,1
Ř,5e0fac936d452057fad088048e8f16c465898b19,real_thing,convolution,11.671000,1
Ř,5e0fac936d452057fad088048e8f16c465898b19,real_thing,convolution,11.688000,1
Ř,5e0fac936d452057fad088048e8f16c465898b19,real_thing,convolution,11.615000,1
Ř,5e0fac936d452057fad088048e8f16c465898b19,real_thing,convolution,11.676000,1
Ř,5e0fac936d452057fad088048e8f16c465898b19,real_thing,convolution,11.722000,1
Ř,5e0fac936d452057fad088048e8f16c465898b19,real_thing,convolution,11.651000,1
Ř,5e0fac936d452057fad088048e8f16c465898b19,real_thing,convolution,11.889000,1
Ř,5e0fac936d452057fad088048e8f16c465898b19,real_thing,convolution,11.648000,1
Ř,5e0fac936d452057fad088048e8f16c465898b19,real_thing,convolution,11.818000,1
Ř,5e0fac936d452057fad088048e8f16c465898b19,real_thing,flexclust,45295.286000,0
Ř,5e0fac936d452057fad088048e8f16c465898b19,real_thing,flexclust,28696.785000,0
Ř,5e0fac936d452057fad088048e8f16c465898b19,real_thing,flexclust,37180.447000,0
Ř,5e0fac936d452057fad088048e8f16c465898b19,real_thing,flexclust,43677.650000,0
Ř,5e0fac936d452057fad088048e8f16c465898b19,real_thing,flexclust,33377.687000,0
Ř,5e0fac936d452057fad088048e8f16c465898b19,real_thing,flexclust,25634.010000,1
Ř,5e0fac936d452057fad088048e8f16c465898b19,real_thing,flexclust,15410.645000,1
Ř,5e0fac936d452057fad088048e8f16c465898b19,real_thing,flexclust,15492.072000,1
Ř,5e0fac936d452057fad088048e8f16c465898b19,real_thing,flexclust,15918.253000,1
Ř,5e0fac936d452057fad088048e8f16c465898b19,real_thing,flexclust,15534.702000,1
Ř,5e0fac936d452057fad088048e8f16c465898b19,real_thing,flexclust,15595.105000,1
Ř,5e0fac936d452057fad088048e8f16c465898b19,real_thing,flexclust,15968.886000,1
Ř,5e0fac936d452057fad088048e8f16c465898b19,real_thing,flexclust,15628.623000,1
Ř,5e0fac936d452057fad088048e8f16c465898b19,real_thing,flexclust,15690.337000,1
Ř,5e0fac936d452057fad088048e8f16c465898b19,real_thing,flexclust,16378.223000,1
Ř,5e0fac936d452057fad088048e8f16c465898b19,real_thing,convolution_v,628.533000,0
Ř,5e0fac936d452057fad088048e8f16c465898b19,real_thing,convolution_v,95.747000,0
Ř,5e0fac936d452057fad088048e8f16c465898b19,real_thing,convolution_v,717.282000,0
Ř,5e0fac936d452057fad088048e8f16c465898b19,real_thing,convolution_v,92.108000,0
Ř,5e0fac936d452057fad088048e8f16c465898b19,real_thing,convolution_v,103.360000,0
Ř,5e0fac936d452057fad088048e8f16c465898b19,real_thing,convolution_v,94.992000,1
Ř,5e0fac936d452057fad088048e8f16c465898b19,real_thing,convolution_v,92.050000,1
Ř,5e0fac936d452057fad088048e8f16c465898b19,real_thing,convolution_v,92.185000,1
Ř,5e0fac936d452057fad088048e8f16c465898b19,real_thing,convolution_v,91.941000,1
Ř,5e0fac936d452057fad088048e8f16c465898b19,real_thing,convolution_v,93.790000,1
Ř,5e0fac936d452057fad088048e8f16c465898b19,real_thing,convolution_v,95.841000,1
Ř,5e0fac936d452057fad088048e8f16c465898b19,real_thing,convolution_v,91.559000,1
Ř,5e0fac936d452057fad088048e8f16c465898b19,real_thing,convolution_v,96.303000,1
Ř,5e0fac936d452057fad088048e8f16c465898b19,real_thing,convolution_v,91.614000,1
Ř,5e0fac936d452057fad088048e8f16c465898b19,real_thing,convolution_v,91.997000,1
Ř,5e0fac936d452057fad088048e8f16c465898b19,real_thing,convolution_slow,632.158000,0
Ř,5e0fac936d452057fad088048e8f16c465898b19,real_thing,convolution_slow,96.582000,0
Ř,5e0fac936d452057fad088048e8f16c465898b19,real_thing,convolution_slow,715.187000,0
Ř,5e0fac936d452057fad088048e8f16c465898b19,real_thing,convolution_slow,93.087000,0
Ř,5e0fac936d452057fad088048e8f16c465898b19,real_thing,convolution_slow,103.997000,0
Ř,5e0fac936d452057fad088048e8f16c465898b19,real_thing,convolution_slow,92.580000,1
Ř,5e0fac936d452057fad088048e8f16c465898b19,real_thing,convolution_slow,90.569000,1
Ř,5e0fac936d452057fad088048e8f16c465898b19,real_thing,convolution_slow,91.039000,1
Ř,5e0fac936d452057fad088048e8f16c465898b19,real_thing,convolution_slow,91.107000,1
Ř,5e0fac936d452057fad088048e8f16c465898b19,real_thing,convolution_slow,94.352000,1
Ř,5e0fac936d452057fad088048e8f16c465898b19,real_thing,convolution_slow,93.117000,1
Ř,5e0fac936d452057fad088048e8f16c465898b19,real_thing,convolution_slow,92.218000,1
Ř,5e0fac936d452057fad088048e8f16c465898b19,real_thing,convolution_slow,95.942000,1
Ř,5e0fac936d452057fad088048e8f16c465898b19,real_thing,convolution_slow,92.114000,1
Ř,5e0fac936d452057fad088048e8f16c465898b19,real_thing,convolution_slow,93.565000,1
Ř,5e0fac936d452057fad088048e8f16c465898b19,are-we-fast-r,Mandelbrot,3458.770000,0
Ř,5e0fac936d452057fad088048e8f16c465898b19,are-we-fast-r,Mandelbrot,3394.061000,0
Ř,5e0fac936d452057fad088048e8f16c465898b19,are-we-fast-r,Mandelbrot,771.269000,0
Ř,5e0fac936d452057fad088048e8f16c465898b19,are-we-fast-r,Mandelbrot,1267.425000,0
Ř,5e0fac936d452057fad088048e8f16c465898b19,are-we-fast-r,Mandelbrot,65.057000,0
Ř,5e0fac936d452057fad088048e8f16c465898b19,are-we-fast-r,Mandelbrot,65.183000,1
Ř,5e0fac936d452057fad088048e8f16c465898b19,are-we-fast-r,Mandelbrot,65.211000,1
Ř,5e0fac936d452057fad088048e8f16c465898b19,are-we-fast-r,Mandelbrot,66.483000,1
Ř,5e0fac936d452057fad088048e8f16c465898b19,are-we-fast-r,Mandelbrot,65.235000,1
Ř,5e0fac936d452057fad088048e8f16c465898b19,are-we-fast-r,Mandelbrot,65.173000,1
Ř,5e0fac936d452057fad088048e8f16c465898b19,are-we-fast-r,Mandelbrot,65.064000,1
Ř,5e0fac936d452057fad088048e8f16c465898b19,are-we-fast-r,Mandelbrot,65.144000,1
Ř,5e0fac936d452057fad088048e8f16c465898b19,are-we-fast-r,Mandelbrot,65.051000,1
Ř,5e0fac936d452057fad088048e8f16c465898b19,are-we-fast-r,Mandelbrot,65.208000,1
Ř,5e0fac936d452057fad088048e8f16c465898b19,are-we-fast-r,Mandelbrot,65.192000,1
Ř,5e0fac936d452057fad088048e8f16c465898b19,are-we-fast-r,Bounce_nonames_simple,1935.969000,0
Ř,5e0fac936d452057fad088048e8f16c465898b19,are-we-fast-r,Bounce_nonames_simple,133.185000,0
Ř,5e0fac936d452057fad088048e8f16c465898b19,are-we-fast-r,Bounce_nonames_simple,142.393000,0
Ř,5e0fac936d452057fad088048e8f16c465898b19,are-we-fast-r,Bounce_nonames_simple,133.065000,0
Ř,5e0fac936d452057fad088048e8f16c465898b19,are-we-fast-r,Bounce_nonames_simple,131.787000,0
Ř,5e0fac936d452057fad088048e8f16c465898b19,are-we-fast-r,Bounce_nonames_simple,135.941000,1
Ř,5e0fac936d452057fad088048e8f16c465898b19,are-we-fast-r,Bounce_nonames_simple,131.783000,1
Ř,5e0fac936d452057fad088048e8f16c465898b19,are-we-fast-r,Bounce_nonames_simple,132.148000,1
Ř,5e0fac936d452057fad088048e8f16c465898b19,are-we-fast-r,Bounce_nonames_simple,132.044000,1
Ř,5e0fac936d452057fad088048e8f16c465898b19,are-we-fast-r,Bounce_nonames_simple,131.582000,1
Ř,5e0fac936d452057fad088048e8f16c465898b19,are-we-fast-r,Bounce_nonames_simple,131.289000,1
Ř,5e0fac936d452057fad088048e8f16c465898b19,are-we-fast-r,Bounce_nonames_simple,134.492000,1
Ř,5e0fac936d452057fad088048e8f16c465898b19,are-we-fast-r,Bounce_nonames_simple,131.938000,1
Ř,5e0fac936d452057fad088048e8f16c465898b19,are-we-fast-r,Bounce_nonames_simple,132.940000,1
Ř,5e0fac936d452057fad088048e8f16c465898b19,are-we-fast-r,Bounce_nonames_simple,131.862000,1
Ř,5e0fac936d452057fad088048e8f16c465898b19,are-we-fast-r,Storage,1170.752000,0
Ř,5e0fac936d452057fad088048e8f16c465898b19,are-we-fast-r,Storage,546.135000,0
Ř,5e0fac936d452057fad088048e8f16c465898b19,are-we-fast-r,Storage,509.392000,0
Ř,5e0fac936d452057fad088048e8f16c465898b19,are-we-fast-r,Storage,499.035000,0
Ř,5e0fac936d452057fad088048e8f16c465898b19,are-we-fast-r,Storage,476.807000,0
Ř,5e0fac936d452057fad088048e8f16c465898b19,are-we-fast-r,Storage,490.187000,1
Ř,5e0fac936d452057fad088048e8f16c465898b19,are-we-fast-r,Storage,549.968000,1
Ř,5e0fac936d452057fad088048e8f16c465898b19,are-we-fast-r,Storage,497.234000,1
Ř,5e0fac936d452057fad088048e8f16c465898b19,are-we-fast-r,Storage,501.422000,1
Ř,5e0fac936d452057fad088048e8f16c465898b19,are-we-fast-r,Storage,554.824000,1
Ř,5e0fac936d452057fad088048e8f16c465898b19,are-we-fast-r,Storage,561.594000,1
Ř,5e0fac936d452057fad088048e8f16c465898b19,are-we-fast-r,Storage,490.777000,1
Ř,5e0fac936d452057fad088048e8f16c465898b19,are-we-fast-r,Storage,618.285000,1
Ř,5e0fac936d452057fad088048e8f16c465898b19,are-we-fast-r,Storage,593.714000,1
Ř,5e0fac936d452057fad088048e8f16c465898b19,are-we-fast-r,Storage,524.214000,1
Ř,5e0fac936d452057fad088048e8f16c465898b19,are-we-fast-r,Bounce_nonames,1463.972000,0
Ř,5e0fac936d452057fad088048e8f16c465898b19,are-we-fast-r,Bounce_nonames,138.385000,0
Ř,5e0fac936d452057fad088048e8f16c465898b19,are-we-fast-r,Bounce_nonames,146.988000,0
Ř,5e0fac936d452057fad088048e8f16c465898b19,are-we-fast-r,Bounce_nonames,138.002000,0
Ř,5e0fac936d452057fad088048e8f16c465898b19,are-we-fast-r,Bounce_nonames,136.126000,0
Ř,5e0fac936d452057fad088048e8f16c465898b19,are-we-fast-r,Bounce_nonames,139.811000,1
Ř,5e0fac936d452057fad088048e8f16c465898b19,are-we-fast-r,Bounce_nonames,136.748000,1
Ř,5e0fac936d452057fad088048e8f16c465898b19,are-we-fast-r,Bounce_nonames,136.253000,1
Ř,5e0fac936d452057fad088048e8f16c465898b19,are-we-fast-r,Bounce_nonames,136.913000,1
Ř,5e0fac936d452057fad088048e8f16c465898b19,are-we-fast-r,Bounce_nonames,136.417000,1
Ř,5e0fac936d452057fad088048e8f16c465898b19,are-we-fast-r,Bounce_nonames,136.734000,1
Ř,5e0fac936d452057fad088048e8f16c465898b19,are-we-fast-r,Bounce_nonames,139.496000,1
Ř,5e0fac936d452057fad088048e8f16c465898b19,are-we-fast-r,Bounce_nonames,136.730000,1
Ř,5e0fac936d452057fad088048e8f16c465898b19,are-we-fast-r,Bounce_nonames,136.730000,1
Ř,5e0fac936d452057fad088048e8f16c465898b19,are-we-fast-r,Bounce_nonames,136.598000,1
Ř,5e0fac936d452057fad088048e8f16c465898b19,are-we-fast-r,Bounce,2243.980000,0
Ř,5e0fac936d452057fad088048e8f16c465898b19,are-we-fast-r,Bounce,822.574000,0
Ř,5e0fac936d452057fad088048e8f16c465898b19,are-we-fast-r,Bounce,842.384000,0
Ř,5e0fac936d452057fad088048e8f16c465898b19,are-we-fast-r,Bounce,820.986000,0
Ř,5e0fac936d452057fad088048e8f16c465898b19,are-we-fast-r,Bounce,800.647000,0
Ř,5e0fac936d452057fad088048e8f16c465898b19,are-we-fast-r,Bounce,819.914000,1
Ř,5e0fac936d452057fad088048e8f16c465898b19,are-we-fast-r,Bounce,832.791000,1
Ř,5e0fac936d452057fad088048e8f16c465898b19,are-we-fast-r,Bounce,789.829000,1
Ř,5e0fac936d452057fad088048e8f16c465898b19,are-we-fast-r,Bounce,806.508000,1
Ř,5e0fac936d452057fad088048e8f16c465898b19,are-we-fast-r,Bounce,825.546000,1
Ř,5e0fac936d452057fad088048e8f16c465898b19,are-we-fast-r,Bounce,802.663000,1
Ř,5e0fac936d452057fad088048e8f16c465898b19,are-we-fast-r,Bounce,798.991000,1
Ř,5e0fac936d452057fad088048e8f16c465898b19,are-we-fast-r,Bounce,820.174000,1
Ř,5e0fac936d452057fad088048e8f16c465898b19,are-we-fast-r,Bounce,827.446000,1
Ř,5e0fac936d452057fad088048e8f16c465898b19,are-we-fast-r,Bounce,793.386000,1
