vm,commit,suite,benchmark,ms,warm
Ř,4f8762cddb0b7e2fb546d5961036fe178cdc971c,simple,superWhile,2965.645000,0
Ř,4f8762cddb0b7e2fb546d5961036fe178cdc971c,simple,superWhile,2945.084000,0
Ř,4f8762cddb0b7e2fb546d5961036fe178cdc971c,simple,superWhile,55.146000,0
Ř,4f8762cddb0b7e2fb546d5961036fe178cdc971c,simple,superWhile,20.406000,0
Ř,4f8762cddb0b7e2fb546d5961036fe178cdc971c,simple,superWhile,20.385000,0
Ř,4f8762cddb0b7e2fb546d5961036fe178cdc971c,simple,superWhile,20.377000,1
Ř,4f8762cddb0b7e2fb546d5961036fe178cdc971c,simple,superWhile,20.376000,1
Ř,4f8762cddb0b7e2fb546d5961036fe178cdc971c,simple,superWhile,20.385000,1
Ř,4f8762cddb0b7e2fb546d5961036fe178cdc971c,simple,superWhile,20.376000,1
Ř,4f8762cddb0b7e2fb546d5961036fe178cdc971c,simple,superWhile,20.335000,1
Ř,4f8762cddb0b7e2fb546d5961036fe178cdc971c,simple,superWhile,20.375000,1
Ř,4f8762cddb0b7e2fb546d5961036fe178cdc971c,simple,superWhile,20.374000,1
Ř,4f8762cddb0b7e2fb546d5961036fe178cdc971c,simple,superWhile,20.378000,1
Ř,4f8762cddb0b7e2fb546d5961036fe178cdc971c,simple,superWhile,20.410000,1
Ř,4f8762cddb0b7e2fb546d5961036fe178cdc971c,simple,superWhile,20.337000,1
Ř,4f8762cddb0b7e2fb546d5961036fe178cdc971c,simple,matrixFor,400.687000,0
Ř,4f8762cddb0b7e2fb546d5961036fe178cdc971c,simple,matrixFor,409.044000,0
Ř,4f8762cddb0b7e2fb546d5961036fe178cdc971c,simple,matrixFor,164.656000,0
Ř,4f8762cddb0b7e2fb546d5961036fe178cdc971c,simple,matrixFor,55.525000,0
Ř,4f8762cddb0b7e2fb546d5961036fe178cdc971c,simple,matrixFor,457.954000,0
Ř,4f8762cddb0b7e2fb546d5961036fe178cdc971c,simple,matrixFor,404.358000,1
Ř,4f8762cddb0b7e2fb546d5961036fe178cdc971c,simple,matrixFor,169.034000,1
Ř,4f8762cddb0b7e2fb546d5961036fe178cdc971c,simple,matrixFor,59.833000,1
Ř,4f8762cddb0b7e2fb546d5961036fe178cdc971c,simple,matrixFor,480.289000,1
Ř,4f8762cddb0b7e2fb546d5961036fe178cdc971c,simple,matrixFor,414.477000,1
Ř,4f8762cddb0b7e2fb546d5961036fe178cdc971c,simple,matrixFor,169.575000,1
Ř,4f8762cddb0b7e2fb546d5961036fe178cdc971c,simple,matrixFor,55.838000,1
Ř,4f8762cddb0b7e2fb546d5961036fe178cdc971c,simple,matrixFor,476.557000,1
Ř,4f8762cddb0b7e2fb546d5961036fe178cdc971c,simple,matrixFor,399.919000,1
Ř,4f8762cddb0b7e2fb546d5961036fe178cdc971c,simple,matrixFor,164.613000,1
Ř,4f8762cddb0b7e2fb546d5961036fe178cdc971c,simple,vectorWhile,2251.710000,0
Ř,4f8762cddb0b7e2fb546d5961036fe178cdc971c,simple,vectorWhile,2220.857000,0
Ř,4f8762cddb0b7e2fb546d5961036fe178cdc971c,simple,vectorWhile,186.165000,0
Ř,4f8762cddb0b7e2fb546d5961036fe178cdc971c,simple,vectorWhile,129.002000,0
Ř,4f8762cddb0b7e2fb546d5961036fe178cdc971c,simple,vectorWhile,146.089000,0
Ř,4f8762cddb0b7e2fb546d5961036fe178cdc971c,simple,vectorWhile,132.309000,1
Ř,4f8762cddb0b7e2fb546d5961036fe178cdc971c,simple,vectorWhile,132.262000,1
Ř,4f8762cddb0b7e2fb546d5961036fe178cdc971c,simple,vectorWhile,132.308000,1
Ř,4f8762cddb0b7e2fb546d5961036fe178cdc971c,simple,vectorWhile,132.318000,1
Ř,4f8762cddb0b7e2fb546d5961036fe178cdc971c,simple,vectorWhile,132.230000,1
Ř,4f8762cddb0b7e2fb546d5961036fe178cdc971c,simple,vectorWhile,132.284000,1
Ř,4f8762cddb0b7e2fb546d5961036fe178cdc971c,simple,vectorWhile,132.260000,1
Ř,4f8762cddb0b7e2fb546d5961036fe178cdc971c,simple,vectorWhile,132.271000,1
Ř,4f8762cddb0b7e2fb546d5961036fe178cdc971c,simple,vectorWhile,132.349000,1
Ř,4f8762cddb0b7e2fb546d5961036fe178cdc971c,simple,vectorWhile,132.432000,1
Ř,4f8762cddb0b7e2fb546d5961036fe178cdc971c,simple,emptyFor,3258.265000,0
Ř,4f8762cddb0b7e2fb546d5961036fe178cdc971c,simple,emptyFor,3316.564000,0
Ř,4f8762cddb0b7e2fb546d5961036fe178cdc971c,simple,emptyFor,15.736000,0
Ř,4f8762cddb0b7e2fb546d5961036fe178cdc971c,simple,emptyFor,0.029000,0
Ř,4f8762cddb0b7e2fb546d5961036fe178cdc971c,simple,emptyFor,0.010000,0
Ř,4f8762cddb0b7e2fb546d5961036fe178cdc971c,simple,emptyFor,0.008000,1
Ř,4f8762cddb0b7e2fb546d5961036fe178cdc971c,simple,emptyFor,0.008000,1
Ř,4f8762cddb0b7e2fb546d5961036fe178cdc971c,simple,emptyFor,0.008000,1
Ř,4f8762cddb0b7e2fb546d5961036fe178cdc971c,simple,emptyFor,0.007000,1
Ř,4f8762cddb0b7e2fb546d5961036fe178cdc971c,simple,emptyFor,0.008000,1
Ř,4f8762cddb0b7e2fb546d5961036fe178cdc971c,simple,emptyFor,0.008000,1
Ř,4f8762cddb0b7e2fb546d5961036fe178cdc971c,simple,emptyFor,0.008000,1
Ř,4f8762cddb0b7e2fb546d5961036fe178cdc971c,simple,emptyFor,0.008000,1
Ř,4f8762cddb0b7e2fb546d5961036fe178cdc971c,simple,emptyFor,0.007000,1
Ř,4f8762cddb0b7e2fb546d5961036fe178cdc971c,simple,emptyFor,0.007000,1
Ř,4f8762cddb0b7e2fb546d5961036fe178cdc971c,simple,lapplyDots,785.049000,0
Ř,4f8762cddb0b7e2fb546d5961036fe178cdc971c,simple,lapplyDots,942.440000,0
Ř,4f8762cddb0b7e2fb546d5961036fe178cdc971c,simple,lapplyDots,864.752000,0
Ř,4f8762cddb0b7e2fb546d5961036fe178cdc971c,simple,lapplyDots,1085.145000,0
Ř,4f8762cddb0b7e2fb546d5961036fe178cdc971c,simple,lapplyDots,1016.105000,0
Ř,4f8762cddb0b7e2fb546d5961036fe178cdc971c,simple,lapplyDots,956.720000,1
Ř,4f8762cddb0b7e2fb546d5961036fe178cdc971c,simple,lapplyDots,979.704000,1
Ř,4f8762cddb0b7e2fb546d5961036fe178cdc971c,simple,lapplyDots,849.088000,1
Ř,4f8762cddb0b7e2fb546d5961036fe178cdc971c,simple,lapplyDots,956.858000,1
Ř,4f8762cddb0b7e2fb546d5961036fe178cdc971c,simple,lapplyDots,975.120000,1
Ř,4f8762cddb0b7e2fb546d5961036fe178cdc971c,simple,lapplyDots,1003.881000,1
Ř,4f8762cddb0b7e2fb546d5961036fe178cdc971c,simple,lapplyDots,824.745000,1
Ř,4f8762cddb0b7e2fb546d5961036fe178cdc971c,simple,lapplyDots,973.673000,1
Ř,4f8762cddb0b7e2fb546d5961036fe178cdc971c,simple,lapplyDots,1002.177000,1
Ř,4f8762cddb0b7e2fb546d5961036fe178cdc971c,simple,lapplyDots,954.124000,1
Ř,4f8762cddb0b7e2fb546d5961036fe178cdc971c,simple,scalarWhile,2190.369000,0
Ř,4f8762cddb0b7e2fb546d5961036fe178cdc971c,simple,scalarWhile,2187.023000,0
Ř,4f8762cddb0b7e2fb546d5961036fe178cdc971c,simple,scalarWhile,44.050000,0
Ř,4f8762cddb0b7e2fb546d5961036fe178cdc971c,simple,scalarWhile,25.518000,0
Ř,4f8762cddb0b7e2fb546d5961036fe178cdc971c,simple,scalarWhile,25.449000,0
Ř,4f8762cddb0b7e2fb546d5961036fe178cdc971c,simple,scalarWhile,25.462000,1
Ř,4f8762cddb0b7e2fb546d5961036fe178cdc971c,simple,scalarWhile,25.484000,1
Ř,4f8762cddb0b7e2fb546d5961036fe178cdc971c,simple,scalarWhile,25.499000,1
Ř,4f8762cddb0b7e2fb546d5961036fe178cdc971c,simple,scalarWhile,25.445000,1
Ř,4f8762cddb0b7e2fb546d5961036fe178cdc971c,simple,scalarWhile,25.448000,1
Ř,4f8762cddb0b7e2fb546d5961036fe178cdc971c,simple,scalarWhile,25.450000,1
Ř,4f8762cddb0b7e2fb546d5961036fe178cdc971c,simple,scalarWhile,25.490000,1
Ř,4f8762cddb0b7e2fb546d5961036fe178cdc971c,simple,scalarWhile,25.446000,1
Ř,4f8762cddb0b7e2fb546d5961036fe178cdc971c,simple,scalarWhile,25.447000,1
Ř,4f8762cddb0b7e2fb546d5961036fe178cdc971c,simple,scalarWhile,25.487000,1
Ř,4f8762cddb0b7e2fb546d5961036fe178cdc971c,simple,listWhile,159.046000,0
Ř,4f8762cddb0b7e2fb546d5961036fe178cdc971c,simple,listWhile,151.554000,0
Ř,4f8762cddb0b7e2fb546d5961036fe178cdc971c,simple,listWhile,132.381000,0
Ř,4f8762cddb0b7e2fb546d5961036fe178cdc971c,simple,listWhile,69.554000,0
Ř,4f8762cddb0b7e2fb546d5961036fe178cdc971c,simple,listWhile,65.092000,0
Ř,4f8762cddb0b7e2fb546d5961036fe178cdc971c,simple,listWhile,72.968000,1
Ř,4f8762cddb0b7e2fb546d5961036fe178cdc971c,simple,listWhile,85.773000,1
Ř,4f8762cddb0b7e2fb546d5961036fe178cdc971c,simple,listWhile,52.485000,1
Ř,4f8762cddb0b7e2fb546d5961036fe178cdc971c,simple,listWhile,66.856000,1
Ř,4f8762cddb0b7e2fb546d5961036fe178cdc971c,simple,listWhile,61.596000,1
Ř,4f8762cddb0b7e2fb546d5961036fe178cdc971c,simple,listWhile,66.685000,1
Ř,4f8762cddb0b7e2fb546d5961036fe178cdc971c,simple,listWhile,59.971000,1
Ř,4f8762cddb0b7e2fb546d5961036fe178cdc971c,simple,listWhile,81.552000,1
Ř,4f8762cddb0b7e2fb546d5961036fe178cdc971c,simple,listWhile,57.298000,1
Ř,4f8762cddb0b7e2fb546d5961036fe178cdc971c,simple,listWhile,64.311000,1
Ř,4f8762cddb0b7e2fb546d5961036fe178cdc971c,simple,scalarFor,4703.591000,0
Ř,4f8762cddb0b7e2fb546d5961036fe178cdc971c,simple,scalarFor,4674.886000,0
Ř,4f8762cddb0b7e2fb546d5961036fe178cdc971c,simple,scalarFor,17.267000,0
Ř,4f8762cddb0b7e2fb546d5961036fe178cdc971c,simple,scalarFor,0.027000,0
Ř,4f8762cddb0b7e2fb546d5961036fe178cdc971c,simple,scalarFor,0.010000,0
Ř,4f8762cddb0b7e2fb546d5961036fe178cdc971c,simple,scalarFor,0.008000,1
Ř,4f8762cddb0b7e2fb546d5961036fe178cdc971c,simple,scalarFor,0.008000,1
Ř,4f8762cddb0b7e2fb546d5961036fe178cdc971c,simple,scalarFor,0.007000,1
Ř,4f8762cddb0b7e2fb546d5961036fe178cdc971c,simple,scalarFor,0.008000,1
Ř,4f8762cddb0b7e2fb546d5961036fe178cdc971c,simple,scalarFor,0.008000,1
Ř,4f8762cddb0b7e2fb546d5961036fe178cdc971c,simple,scalarFor,0.008000,1
Ř,4f8762cddb0b7e2fb546d5961036fe178cdc971c,simple,scalarFor,0.008000,1
Ř,4f8762cddb0b7e2fb546d5961036fe178cdc971c,simple,scalarFor,0.008000,1
Ř,4f8762cddb0b7e2fb546d5961036fe178cdc971c,simple,scalarFor,0.008000,1
Ř,4f8762cddb0b7e2fb546d5961036fe178cdc971c,simple,scalarFor,0.008000,1
Ř,4f8762cddb0b7e2fb546d5961036fe178cdc971c,simple,lapply,657.373000,0
Ř,4f8762cddb0b7e2fb546d5961036fe178cdc971c,simple,lapply,768.741000,0
Ř,4f8762cddb0b7e2fb546d5961036fe178cdc971c,simple,lapply,838.174000,0
Ř,4f8762cddb0b7e2fb546d5961036fe178cdc971c,simple,lapply,769.410000,0
Ř,4f8762cddb0b7e2fb546d5961036fe178cdc971c,simple,lapply,913.632000,0
Ř,4f8762cddb0b7e2fb546d5961036fe178cdc971c,simple,lapply,791.010000,1
Ř,4f8762cddb0b7e2fb546d5961036fe178cdc971c,simple,lapply,803.281000,1
Ř,4f8762cddb0b7e2fb546d5961036fe178cdc971c,simple,lapply,799.464000,1
Ř,4f8762cddb0b7e2fb546d5961036fe178cdc971c,simple,lapply,600.947000,1
Ř,4f8762cddb0b7e2fb546d5961036fe178cdc971c,simple,lapply,707.596000,1
Ř,4f8762cddb0b7e2fb546d5961036fe178cdc971c,simple,lapply,719.571000,1
Ř,4f8762cddb0b7e2fb546d5961036fe178cdc971c,simple,lapply,737.567000,1
Ř,4f8762cddb0b7e2fb546d5961036fe178cdc971c,simple,lapply,686.108000,1
Ř,4f8762cddb0b7e2fb546d5961036fe178cdc971c,simple,lapply,609.870000,1
Ř,4f8762cddb0b7e2fb546d5961036fe178cdc971c,simple,lapply,722.877000,1
Ř,4f8762cddb0b7e2fb546d5961036fe178cdc971c,simple,vectorFor,1061.431000,0
Ř,4f8762cddb0b7e2fb546d5961036fe178cdc971c,simple,vectorFor,1034.419000,0
Ř,4f8762cddb0b7e2fb546d5961036fe178cdc971c,simple,vectorFor,76.249000,0
Ř,4f8762cddb0b7e2fb546d5961036fe178cdc971c,simple,vectorFor,34.654000,0
Ř,4f8762cddb0b7e2fb546d5961036fe178cdc971c,simple,vectorFor,34.626000,0
Ř,4f8762cddb0b7e2fb546d5961036fe178cdc971c,simple,vectorFor,34.554000,1
Ř,4f8762cddb0b7e2fb546d5961036fe178cdc971c,simple,vectorFor,34.582000,1
Ř,4f8762cddb0b7e2fb546d5961036fe178cdc971c,simple,vectorFor,34.623000,1
Ř,4f8762cddb0b7e2fb546d5961036fe178cdc971c,simple,vectorFor,34.578000,1
Ř,4f8762cddb0b7e2fb546d5961036fe178cdc971c,simple,vectorFor,34.529000,1
Ř,4f8762cddb0b7e2fb546d5961036fe178cdc971c,simple,vectorFor,34.577000,1
Ř,4f8762cddb0b7e2fb546d5961036fe178cdc971c,simple,vectorFor,34.627000,1
Ř,4f8762cddb0b7e2fb546d5961036fe178cdc971c,simple,vectorFor,34.536000,1
Ř,4f8762cddb0b7e2fb546d5961036fe178cdc971c,simple,vectorFor,34.644000,1
Ř,4f8762cddb0b7e2fb546d5961036fe178cdc971c,simple,vectorFor,34.590000,1
Ř,4f8762cddb0b7e2fb546d5961036fe178cdc971c,simple,bytecodes,4079.022000,0
Ř,4f8762cddb0b7e2fb546d5961036fe178cdc971c,simple,bytecodes,4071.397000,0
Ř,4f8762cddb0b7e2fb546d5961036fe178cdc971c,simple,bytecodes,238.643000,0
Ř,4f8762cddb0b7e2fb546d5961036fe178cdc971c,simple,bytecodes,9.207000,0
Ř,4f8762cddb0b7e2fb546d5961036fe178cdc971c,simple,bytecodes,9.182000,0
Ř,4f8762cddb0b7e2fb546d5961036fe178cdc971c,simple,bytecodes,9.193000,1
Ř,4f8762cddb0b7e2fb546d5961036fe178cdc971c,simple,bytecodes,9.179000,1
Ř,4f8762cddb0b7e2fb546d5961036fe178cdc971c,simple,bytecodes,9.136000,1
Ř,4f8762cddb0b7e2fb546d5961036fe178cdc971c,simple,bytecodes,9.179000,1
Ř,4f8762cddb0b7e2fb546d5961036fe178cdc971c,simple,bytecodes,9.180000,1
Ř,4f8762cddb0b7e2fb546d5961036fe178cdc971c,simple,bytecodes,9.179000,1
Ř,4f8762cddb0b7e2fb546d5961036fe178cdc971c,simple,bytecodes,9.178000,1
Ř,4f8762cddb0b7e2fb546d5961036fe178cdc971c,simple,bytecodes,9.180000,1
Ř,4f8762cddb0b7e2fb546d5961036fe178cdc971c,simple,bytecodes,9.134000,1
Ř,4f8762cddb0b7e2fb546d5961036fe178cdc971c,simple,bytecodes,9.178000,1
Ř,4f8762cddb0b7e2fb546d5961036fe178cdc971c,simple,emptyWhile,2171.349000,0
Ř,4f8762cddb0b7e2fb546d5961036fe178cdc971c,simple,emptyWhile,2165.845000,0
Ř,4f8762cddb0b7e2fb546d5961036fe178cdc971c,simple,emptyWhile,46.950000,0
Ř,4f8762cddb0b7e2fb546d5961036fe178cdc971c,simple,emptyWhile,30.591000,0
Ř,4f8762cddb0b7e2fb546d5961036fe178cdc971c,simple,emptyWhile,30.561000,0
Ř,4f8762cddb0b7e2fb546d5961036fe178cdc971c,simple,emptyWhile,30.560000,1
Ř,4f8762cddb0b7e2fb546d5961036fe178cdc971c,simple,emptyWhile,30.568000,1
Ř,4f8762cddb0b7e2fb546d5961036fe178cdc971c,simple,emptyWhile,30.516000,1
Ř,4f8762cddb0b7e2fb546d5961036fe178cdc971c,simple,emptyWhile,30.557000,1
Ř,4f8762cddb0b7e2fb546d5961036fe178cdc971c,simple,emptyWhile,30.557000,1
Ř,4f8762cddb0b7e2fb546d5961036fe178cdc971c,simple,emptyWhile,30.567000,1
Ř,4f8762cddb0b7e2fb546d5961036fe178cdc971c,simple,emptyWhile,30.561000,1
Ř,4f8762cddb0b7e2fb546d5961036fe178cdc971c,simple,emptyWhile,30.516000,1
Ř,4f8762cddb0b7e2fb546d5961036fe178cdc971c,simple,emptyWhile,30.565000,1
Ř,4f8762cddb0b7e2fb546d5961036fe178cdc971c,simple,emptyWhile,30.563000,1
Ř,4f8762cddb0b7e2fb546d5961036fe178cdc971c,simple,listFor,205.238000,0
Ř,4f8762cddb0b7e2fb546d5961036fe178cdc971c,simple,listFor,208.357000,0
Ř,4f8762cddb0b7e2fb546d5961036fe178cdc971c,simple,listFor,89.615000,0
Ř,4f8762cddb0b7e2fb546d5961036fe178cdc971c,simple,listFor,68.697000,0
Ř,4f8762cddb0b7e2fb546d5961036fe178cdc971c,simple,listFor,78.815000,0
Ř,4f8762cddb0b7e2fb546d5961036fe178cdc971c,simple,listFor,54.131000,1
Ř,4f8762cddb0b7e2fb546d5961036fe178cdc971c,simple,listFor,66.046000,1
Ř,4f8762cddb0b7e2fb546d5961036fe178cdc971c,simple,listFor,56.223000,1
Ř,4f8762cddb0b7e2fb546d5961036fe178cdc971c,simple,listFor,68.255000,1
Ř,4f8762cddb0b7e2fb546d5961036fe178cdc971c,simple,listFor,78.234000,1
Ř,4f8762cddb0b7e2fb546d5961036fe178cdc971c,simple,listFor,62.086000,1
Ř,4f8762cddb0b7e2fb546d5961036fe178cdc971c,simple,listFor,63.802000,1
Ř,4f8762cddb0b7e2fb546d5961036fe178cdc971c,simple,listFor,72.698000,1
Ř,4f8762cddb0b7e2fb546d5961036fe178cdc971c,simple,listFor,80.777000,1
Ř,4f8762cddb0b7e2fb546d5961036fe178cdc971c,simple,listFor,51.000000,1
Ř,4f8762cddb0b7e2fb546d5961036fe178cdc971c,shootout,spectralnorm_naive,951.447000,0
Ř,4f8762cddb0b7e2fb546d5961036fe178cdc971c,shootout,spectralnorm_naive,1083.083000,0
Ř,4f8762cddb0b7e2fb546d5961036fe178cdc971c,shootout,spectralnorm_naive,1179.992000,0
Ř,4f8762cddb0b7e2fb546d5961036fe178cdc971c,shootout,spectralnorm_naive,39.436000,0
Ř,4f8762cddb0b7e2fb546d5961036fe178cdc971c,shootout,spectralnorm_naive,39.417000,0
Ř,4f8762cddb0b7e2fb546d5961036fe178cdc971c,shootout,spectralnorm_naive,39.402000,1
Ř,4f8762cddb0b7e2fb546d5961036fe178cdc971c,shootout,spectralnorm_naive,39.476000,1
Ř,4f8762cddb0b7e2fb546d5961036fe178cdc971c,shootout,spectralnorm_naive,39.417000,1
Ř,4f8762cddb0b7e2fb546d5961036fe178cdc971c,shootout,spectralnorm_naive,39.453000,1
Ř,4f8762cddb0b7e2fb546d5961036fe178cdc971c,shootout,spectralnorm_naive,39.481000,1
Ř,4f8762cddb0b7e2fb546d5961036fe178cdc971c,shootout,spectralnorm_naive,39.483000,1
Ř,4f8762cddb0b7e2fb546d5961036fe178cdc971c,shootout,spectralnorm_naive,39.425000,1
Ř,4f8762cddb0b7e2fb546d5961036fe178cdc971c,shootout,spectralnorm_naive,39.552000,1
Ř,4f8762cddb0b7e2fb546d5961036fe178cdc971c,shootout,spectralnorm_naive,39.490000,1
Ř,4f8762cddb0b7e2fb546d5961036fe178cdc971c,shootout,spectralnorm_naive,40.936000,1
Ř,4f8762cddb0b7e2fb546d5961036fe178cdc971c,shootout,fasta_2,1125.758000,0
Ř,4f8762cddb0b7e2fb546d5961036fe178cdc971c,shootout,fasta_2,1573.560000,0
Ř,4f8762cddb0b7e2fb546d5961036fe178cdc971c,shootout,fasta_2,2303.951000,0
Ř,4f8762cddb0b7e2fb546d5961036fe178cdc971c,shootout,fasta_2,873.402000,0
Ř,4f8762cddb0b7e2fb546d5961036fe178cdc971c,shootout,fasta_2,863.228000,0
Ř,4f8762cddb0b7e2fb546d5961036fe178cdc971c,shootout,fasta_2,863.406000,1
Ř,4f8762cddb0b7e2fb546d5961036fe178cdc971c,shootout,fasta_2,868.388000,1
Ř,4f8762cddb0b7e2fb546d5961036fe178cdc971c,shootout,fasta_2,868.220000,1
Ř,4f8762cddb0b7e2fb546d5961036fe178cdc971c,shootout,fasta_2,868.267000,1
Ř,4f8762cddb0b7e2fb546d5961036fe178cdc971c,shootout,fasta_2,870.092000,1
Ř,4f8762cddb0b7e2fb546d5961036fe178cdc971c,shootout,fasta_2,867.334000,1
Ř,4f8762cddb0b7e2fb546d5961036fe178cdc971c,shootout,fasta_2,869.101000,1
Ř,4f8762cddb0b7e2fb546d5961036fe178cdc971c,shootout,fasta_2,873.442000,1
Ř,4f8762cddb0b7e2fb546d5961036fe178cdc971c,shootout,fasta_2,876.414000,1
Ř,4f8762cddb0b7e2fb546d5961036fe178cdc971c,shootout,fasta_2,870.946000,1
Ř,4f8762cddb0b7e2fb546d5961036fe178cdc971c,shootout,nbody_3,2029.085000,0
Ř,4f8762cddb0b7e2fb546d5961036fe178cdc971c,shootout,nbody_3,2145.593000,0
Ř,4f8762cddb0b7e2fb546d5961036fe178cdc971c,shootout,nbody_3,2787.942000,0
Ř,4f8762cddb0b7e2fb546d5961036fe178cdc971c,shootout,nbody_3,1659.422000,0
Ř,4f8762cddb0b7e2fb546d5961036fe178cdc971c,shootout,nbody_3,1083.012000,0
Ř,4f8762cddb0b7e2fb546d5961036fe178cdc971c,shootout,nbody_3,1073.396000,1
Ř,4f8762cddb0b7e2fb546d5961036fe178cdc971c,shootout,nbody_3,83595.109000,1
Ř,4f8762cddb0b7e2fb546d5961036fe178cdc971c,shootout,nbody_3,5095.723000,1
Ř,4f8762cddb0b7e2fb546d5961036fe178cdc971c,shootout,nbody_3,6857.751000,1
Ř,4f8762cddb0b7e2fb546d5961036fe178cdc971c,shootout,nbody_3,6264.163000,1
Ř,4f8762cddb0b7e2fb546d5961036fe178cdc971c,shootout,nbody_3,3970.995000,1
Ř,4f8762cddb0b7e2fb546d5961036fe178cdc971c,shootout,nbody_3,3972.165000,1
Ř,4f8762cddb0b7e2fb546d5961036fe178cdc971c,shootout,nbody_3,3396.691000,1
Ř,4f8762cddb0b7e2fb546d5961036fe178cdc971c,shootout,nbody_3,4518.370000,1
Ř,4f8762cddb0b7e2fb546d5961036fe178cdc971c,shootout,nbody_3,5118.520000,1
Ř,4f8762cddb0b7e2fb546d5961036fe178cdc971c,shootout,reversecomplement,601.801000,0
Ř,4f8762cddb0b7e2fb546d5961036fe178cdc971c,shootout,reversecomplement,661.059000,0
Ř,4f8762cddb0b7e2fb546d5961036fe178cdc971c,shootout,reversecomplement,1306.603000,0
Ř,4f8762cddb0b7e2fb546d5961036fe178cdc971c,shootout,reversecomplement,457.409000,0
Ř,4f8762cddb0b7e2fb546d5961036fe178cdc971c,shootout,reversecomplement,461.965000,0
Ř,4f8762cddb0b7e2fb546d5961036fe178cdc971c,shootout,reversecomplement,493.806000,1
Ř,4f8762cddb0b7e2fb546d5961036fe178cdc971c,shootout,reversecomplement,469.932000,1
Ř,4f8762cddb0b7e2fb546d5961036fe178cdc971c,shootout,reversecomplement,463.635000,1
Ř,4f8762cddb0b7e2fb546d5961036fe178cdc971c,shootout,reversecomplement,464.002000,1
Ř,4f8762cddb0b7e2fb546d5961036fe178cdc971c,shootout,reversecomplement,463.190000,1
Ř,4f8762cddb0b7e2fb546d5961036fe178cdc971c,shootout,reversecomplement,466.357000,1
Ř,4f8762cddb0b7e2fb546d5961036fe178cdc971c,shootout,reversecomplement,462.515000,1
Ř,4f8762cddb0b7e2fb546d5961036fe178cdc971c,shootout,reversecomplement,465.248000,1
Ř,4f8762cddb0b7e2fb546d5961036fe178cdc971c,shootout,reversecomplement,461.726000,1
Ř,4f8762cddb0b7e2fb546d5961036fe178cdc971c,shootout,reversecomplement,467.333000,1
Ř,4f8762cddb0b7e2fb546d5961036fe178cdc971c,shootout,mandelbrot_naive_ascii,620.956000,0
Ř,4f8762cddb0b7e2fb546d5961036fe178cdc971c,shootout,mandelbrot_naive_ascii,622.454000,0
Ř,4f8762cddb0b7e2fb546d5961036fe178cdc971c,shootout,mandelbrot_naive_ascii,1167.779000,0
Ř,4f8762cddb0b7e2fb546d5961036fe178cdc971c,shootout,mandelbrot_naive_ascii,206.346000,0
Ř,4f8762cddb0b7e2fb546d5961036fe178cdc971c,shootout,mandelbrot_naive_ascii,199.098000,0
Ř,4f8762cddb0b7e2fb546d5961036fe178cdc971c,shootout,mandelbrot_naive_ascii,202.665000,1
Ř,4f8762cddb0b7e2fb546d5961036fe178cdc971c,shootout,mandelbrot_naive_ascii,214.334000,1
Ř,4f8762cddb0b7e2fb546d5961036fe178cdc971c,shootout,mandelbrot_naive_ascii,214.383000,1
Ř,4f8762cddb0b7e2fb546d5961036fe178cdc971c,shootout,mandelbrot_naive_ascii,212.942000,1
Ř,4f8762cddb0b7e2fb546d5961036fe178cdc971c,shootout,mandelbrot_naive_ascii,199.082000,1
Ř,4f8762cddb0b7e2fb546d5961036fe178cdc971c,shootout,mandelbrot_naive_ascii,204.829000,1
Ř,4f8762cddb0b7e2fb546d5961036fe178cdc971c,shootout,mandelbrot_naive_ascii,199.325000,1
Ř,4f8762cddb0b7e2fb546d5961036fe178cdc971c,shootout,mandelbrot_naive_ascii,199.114000,1
Ř,4f8762cddb0b7e2fb546d5961036fe178cdc971c,shootout,mandelbrot_naive_ascii,200.884000,1
Ř,4f8762cddb0b7e2fb546d5961036fe178cdc971c,shootout,mandelbrot_naive_ascii,199.153000,1
Ř,4f8762cddb0b7e2fb546d5961036fe178cdc971c,shootout,nbody,2399.001000,0
Ř,4f8762cddb0b7e2fb546d5961036fe178cdc971c,shootout,nbody,2416.326000,0
Ř,4f8762cddb0b7e2fb546d5961036fe178cdc971c,shootout,nbody,2292.492000,0
Ř,4f8762cddb0b7e2fb546d5961036fe178cdc971c,shootout,nbody,776.017000,0
Ř,4f8762cddb0b7e2fb546d5961036fe178cdc971c,shootout,nbody,773.610000,0
Ř,4f8762cddb0b7e2fb546d5961036fe178cdc971c,shootout,nbody,763.283000,1
Ř,4f8762cddb0b7e2fb546d5961036fe178cdc971c,shootout,nbody,763.196000,1
Ř,4f8762cddb0b7e2fb546d5961036fe178cdc971c,shootout,nbody,759.408000,1
Ř,4f8762cddb0b7e2fb546d5961036fe178cdc971c,shootout,nbody,773.787000,1
Ř,4f8762cddb0b7e2fb546d5961036fe178cdc971c,shootout,nbody,761.929000,1
Ř,4f8762cddb0b7e2fb546d5961036fe178cdc971c,shootout,nbody,763.407000,1
Ř,4f8762cddb0b7e2fb546d5961036fe178cdc971c,shootout,nbody,758.661000,1
Ř,4f8762cddb0b7e2fb546d5961036fe178cdc971c,shootout,nbody,772.439000,1
Ř,4f8762cddb0b7e2fb546d5961036fe178cdc971c,shootout,nbody,761.888000,1
Ř,4f8762cddb0b7e2fb546d5961036fe178cdc971c,shootout,nbody,760.249000,1
Ř,4f8762cddb0b7e2fb546d5961036fe178cdc971c,shootout,fastaredux,667.860000,0
Ř,4f8762cddb0b7e2fb546d5961036fe178cdc971c,shootout,fastaredux,1654.653000,0
Ř,4f8762cddb0b7e2fb546d5961036fe178cdc971c,shootout,fastaredux,3808.459000,0
Ř,4f8762cddb0b7e2fb546d5961036fe178cdc971c,shootout,fastaredux,1713.604000,0
Ř,4f8762cddb0b7e2fb546d5961036fe178cdc971c,shootout,fastaredux,390.487000,0
Ř,4f8762cddb0b7e2fb546d5961036fe178cdc971c,shootout,fastaredux,387.288000,1
Ř,4f8762cddb0b7e2fb546d5961036fe178cdc971c,shootout,fastaredux,1689.775000,1
Ř,4f8762cddb0b7e2fb546d5961036fe178cdc971c,shootout,fastaredux,394.520000,1
Ř,4f8762cddb0b7e2fb546d5961036fe178cdc971c,shootout,fastaredux,400.430000,1
Ř,4f8762cddb0b7e2fb546d5961036fe178cdc971c,shootout,fastaredux,389.495000,1
Ř,4f8762cddb0b7e2fb546d5961036fe178cdc971c,shootout,fastaredux,1755.908000,1
Ř,4f8762cddb0b7e2fb546d5961036fe178cdc971c,shootout,fastaredux,394.705000,1
Ř,4f8762cddb0b7e2fb546d5961036fe178cdc971c,shootout,fastaredux,393.308000,1
Ř,4f8762cddb0b7e2fb546d5961036fe178cdc971c,shootout,fastaredux,395.828000,1
Ř,4f8762cddb0b7e2fb546d5961036fe178cdc971c,shootout,fastaredux,394.350000,1
Ř,4f8762cddb0b7e2fb546d5961036fe178cdc971c,shootout,knucleotide_brute_3,4438.511000,0
Ř,4f8762cddb0b7e2fb546d5961036fe178cdc971c,shootout,knucleotide_brute_3,4506.366000,0
Ř,4f8762cddb0b7e2fb546d5961036fe178cdc971c,shootout,knucleotide_brute_3,12382.475000,0
Ř,4f8762cddb0b7e2fb546d5961036fe178cdc971c,shootout,knucleotide_brute_3,2831.926000,0
Ř,4f8762cddb0b7e2fb546d5961036fe178cdc971c,shootout,knucleotide_brute_3,2840.557000,0
Ř,4f8762cddb0b7e2fb546d5961036fe178cdc971c,shootout,knucleotide_brute_3,2833.536000,1
Ř,4f8762cddb0b7e2fb546d5961036fe178cdc971c,shootout,knucleotide_brute_3,2837.883000,1
Ř,4f8762cddb0b7e2fb546d5961036fe178cdc971c,shootout,knucleotide_brute_3,3246.377000,1
Ř,4f8762cddb0b7e2fb546d5961036fe178cdc971c,shootout,knucleotide_brute_3,2845.858000,1
Ř,4f8762cddb0b7e2fb546d5961036fe178cdc971c,shootout,knucleotide_brute_3,2824.058000,1
Ř,4f8762cddb0b7e2fb546d5961036fe178cdc971c,shootout,knucleotide_brute_3,2833.823000,1
Ř,4f8762cddb0b7e2fb546d5961036fe178cdc971c,shootout,knucleotide_brute_3,2829.777000,1
Ř,4f8762cddb0b7e2fb546d5961036fe178cdc971c,shootout,knucleotide_brute_3,2830.475000,1
Ř,4f8762cddb0b7e2fb546d5961036fe178cdc971c,shootout,knucleotide_brute_3,2830.016000,1
Ř,4f8762cddb0b7e2fb546d5961036fe178cdc971c,shootout,knucleotide_brute_3,2829.358000,1
Ř,4f8762cddb0b7e2fb546d5961036fe178cdc971c,shootout,fasta_naive_2,1072.272000,0
Ř,4f8762cddb0b7e2fb546d5961036fe178cdc971c,shootout,fasta_naive_2,1267.518000,0
Ř,4f8762cddb0b7e2fb546d5961036fe178cdc971c,shootout,fasta_naive_2,2999.672000,0
Ř,4f8762cddb0b7e2fb546d5961036fe178cdc971c,shootout,fasta_naive_2,1463.609000,0
Ř,4f8762cddb0b7e2fb546d5961036fe178cdc971c,shootout,fasta_naive_2,1271.781000,0
Ř,4f8762cddb0b7e2fb546d5961036fe178cdc971c,shootout,fasta_naive_2,1267.307000,1
Ř,4f8762cddb0b7e2fb546d5961036fe178cdc971c,shootout,fasta_naive_2,1254.419000,1
Ř,4f8762cddb0b7e2fb546d5961036fe178cdc971c,shootout,fasta_naive_2,1265.235000,1
Ř,4f8762cddb0b7e2fb546d5961036fe178cdc971c,shootout,fasta_naive_2,1302.705000,1
Ř,4f8762cddb0b7e2fb546d5961036fe178cdc971c,shootout,fasta_naive_2,1246.296000,1
Ř,4f8762cddb0b7e2fb546d5961036fe178cdc971c,shootout,fasta_naive_2,1259.941000,1
Ř,4f8762cddb0b7e2fb546d5961036fe178cdc971c,shootout,fasta_naive_2,1275.926000,1
Ř,4f8762cddb0b7e2fb546d5961036fe178cdc971c,shootout,fasta_naive_2,1266.145000,1
Ř,4f8762cddb0b7e2fb546d5961036fe178cdc971c,shootout,fasta_naive_2,1260.531000,1
Ř,4f8762cddb0b7e2fb546d5961036fe178cdc971c,shootout,fasta_naive_2,1282.614000,1
Ř,4f8762cddb0b7e2fb546d5961036fe178cdc971c,shootout,fannkuchredux,2289.918000,0
Ř,4f8762cddb0b7e2fb546d5961036fe178cdc971c,shootout,fannkuchredux,2215.772000,0
Ř,4f8762cddb0b7e2fb546d5961036fe178cdc971c,shootout,fannkuchredux,3635.050000,0
Ř,4f8762cddb0b7e2fb546d5961036fe178cdc971c,shootout,fannkuchredux,800.743000,0
Ř,4f8762cddb0b7e2fb546d5961036fe178cdc971c,shootout,fannkuchredux,798.637000,0
Ř,4f8762cddb0b7e2fb546d5961036fe178cdc971c,shootout,fannkuchredux,809.496000,1
Ř,4f8762cddb0b7e2fb546d5961036fe178cdc971c,shootout,fannkuchredux,799.367000,1
Ř,4f8762cddb0b7e2fb546d5961036fe178cdc971c,shootout,fannkuchredux,802.520000,1
Ř,4f8762cddb0b7e2fb546d5961036fe178cdc971c,shootout,fannkuchredux,808.615000,1
Ř,4f8762cddb0b7e2fb546d5961036fe178cdc971c,shootout,fannkuchredux,801.631000,1
Ř,4f8762cddb0b7e2fb546d5961036fe178cdc971c,shootout,fannkuchredux,810.179000,1
Ř,4f8762cddb0b7e2fb546d5961036fe178cdc971c,shootout,fannkuchredux,801.256000,1
Ř,4f8762cddb0b7e2fb546d5961036fe178cdc971c,shootout,fannkuchredux,798.460000,1
Ř,4f8762cddb0b7e2fb546d5961036fe178cdc971c,shootout,fannkuchredux,809.572000,1
Ř,4f8762cddb0b7e2fb546d5961036fe178cdc971c,shootout,fannkuchredux,797.831000,1
Ř,4f8762cddb0b7e2fb546d5961036fe178cdc971c,shootout,spectralnorm,2506.149000,0
Ř,4f8762cddb0b7e2fb546d5961036fe178cdc971c,shootout,spectralnorm,2712.203000,0
Ř,4f8762cddb0b7e2fb546d5961036fe178cdc971c,shootout,spectralnorm,2450.351000,0
Ř,4f8762cddb0b7e2fb546d5961036fe178cdc971c,shootout,spectralnorm,72.614000,0
Ř,4f8762cddb0b7e2fb546d5961036fe178cdc971c,shootout,spectralnorm,57.967000,0
Ř,4f8762cddb0b7e2fb546d5961036fe178cdc971c,shootout,spectralnorm,59.267000,1
Ř,4f8762cddb0b7e2fb546d5961036fe178cdc971c,shootout,spectralnorm,59.558000,1
Ř,4f8762cddb0b7e2fb546d5961036fe178cdc971c,shootout,spectralnorm,58.126000,1
Ř,4f8762cddb0b7e2fb546d5961036fe178cdc971c,shootout,spectralnorm,59.171000,1
Ř,4f8762cddb0b7e2fb546d5961036fe178cdc971c,shootout,spectralnorm,59.032000,1
Ř,4f8762cddb0b7e2fb546d5961036fe178cdc971c,shootout,spectralnorm,59.342000,1
Ř,4f8762cddb0b7e2fb546d5961036fe178cdc971c,shootout,spectralnorm,57.948000,1
Ř,4f8762cddb0b7e2fb546d5961036fe178cdc971c,shootout,spectralnorm,59.374000,1
Ř,4f8762cddb0b7e2fb546d5961036fe178cdc971c,shootout,spectralnorm,59.142000,1
Ř,4f8762cddb0b7e2fb546d5961036fe178cdc971c,shootout,spectralnorm,60.016000,1
Ř,4f8762cddb0b7e2fb546d5961036fe178cdc971c,shootout,pidigits,61028.616000,0
Ř,4f8762cddb0b7e2fb546d5961036fe178cdc971c,shootout,pidigits,3537.879000,0
Ř,4f8762cddb0b7e2fb546d5961036fe178cdc971c,shootout,pidigits,31407.957000,0
Ř,4f8762cddb0b7e2fb546d5961036fe178cdc971c,shootout,pidigits,18103.321000,0
Ř,4f8762cddb0b7e2fb546d5961036fe178cdc971c,shootout,pidigits,2948.614000,0
Ř,4f8762cddb0b7e2fb546d5961036fe178cdc971c,shootout,pidigits,103.969000,1
Ř,4f8762cddb0b7e2fb546d5961036fe178cdc971c,shootout,pidigits,6926.344000,1
Ř,4f8762cddb0b7e2fb546d5961036fe178cdc971c,shootout,pidigits,2930.463000,1
Ř,4f8762cddb0b7e2fb546d5961036fe178cdc971c,shootout,pidigits,103.072000,1
Ř,4f8762cddb0b7e2fb546d5961036fe178cdc971c,shootout,pidigits,106.648000,1
Ř,4f8762cddb0b7e2fb546d5961036fe178cdc971c,shootout,pidigits,102.941000,1
Ř,4f8762cddb0b7e2fb546d5961036fe178cdc971c,shootout,pidigits,2924.707000,1
Ř,4f8762cddb0b7e2fb546d5961036fe178cdc971c,shootout,pidigits,103.063000,1
Ř,4f8762cddb0b7e2fb546d5961036fe178cdc971c,shootout,pidigits,103.019000,1
Ř,4f8762cddb0b7e2fb546d5961036fe178cdc971c,shootout,pidigits,104.105000,1
Ř,4f8762cddb0b7e2fb546d5961036fe178cdc971c,shootout,nbody_naive,21572.845000,0
Ř,4f8762cddb0b7e2fb546d5961036fe178cdc971c,shootout,nbody_naive,2129.411000,0
Ř,4f8762cddb0b7e2fb546d5961036fe178cdc971c,shootout,nbody_naive,42660.945000,0
Ř,4f8762cddb0b7e2fb546d5961036fe178cdc971c,shootout,nbody_naive,155.402000,0
Ř,4f8762cddb0b7e2fb546d5961036fe178cdc971c,shootout,nbody_naive,159.153000,0
Ř,4f8762cddb0b7e2fb546d5961036fe178cdc971c,shootout,nbody_naive,155.425000,1
Ř,4f8762cddb0b7e2fb546d5961036fe178cdc971c,shootout,nbody_naive,154.669000,1
Ř,4f8762cddb0b7e2fb546d5961036fe178cdc971c,shootout,nbody_naive,151.812000,1
Ř,4f8762cddb0b7e2fb546d5961036fe178cdc971c,shootout,nbody_naive,150.714000,1
Ř,4f8762cddb0b7e2fb546d5961036fe178cdc971c,shootout,nbody_naive,158.855000,1
Ř,4f8762cddb0b7e2fb546d5961036fe178cdc971c,shootout,nbody_naive,155.293000,1
Ř,4f8762cddb0b7e2fb546d5961036fe178cdc971c,shootout,nbody_naive,153.097000,1
Ř,4f8762cddb0b7e2fb546d5961036fe178cdc971c,shootout,nbody_naive,150.825000,1
Ř,4f8762cddb0b7e2fb546d5961036fe178cdc971c,shootout,nbody_naive,167.318000,1
Ř,4f8762cddb0b7e2fb546d5961036fe178cdc971c,shootout,nbody_naive,154.677000,1
Ř,4f8762cddb0b7e2fb546d5961036fe178cdc971c,shootout,binarytrees,999.110000,0
Ř,4f8762cddb0b7e2fb546d5961036fe178cdc971c,shootout,binarytrees,193.938000,0
Ř,4f8762cddb0b7e2fb546d5961036fe178cdc971c,shootout,binarytrees,1378.431000,0
Ř,4f8762cddb0b7e2fb546d5961036fe178cdc971c,shootout,binarytrees,72.066000,0
Ř,4f8762cddb0b7e2fb546d5961036fe178cdc971c,shootout,binarytrees,71.912000,0
Ř,4f8762cddb0b7e2fb546d5961036fe178cdc971c,shootout,binarytrees,83.016000,1
Ř,4f8762cddb0b7e2fb546d5961036fe178cdc971c,shootout,binarytrees,72.426000,1
Ř,4f8762cddb0b7e2fb546d5961036fe178cdc971c,shootout,binarytrees,72.335000,1
Ř,4f8762cddb0b7e2fb546d5961036fe178cdc971c,shootout,binarytrees,72.308000,1
Ř,4f8762cddb0b7e2fb546d5961036fe178cdc971c,shootout,binarytrees,72.577000,1
Ř,4f8762cddb0b7e2fb546d5961036fe178cdc971c,shootout,binarytrees,75.196000,1
Ř,4f8762cddb0b7e2fb546d5961036fe178cdc971c,shootout,binarytrees,72.465000,1
Ř,4f8762cddb0b7e2fb546d5961036fe178cdc971c,shootout,binarytrees,72.791000,1
Ř,4f8762cddb0b7e2fb546d5961036fe178cdc971c,shootout,binarytrees,73.029000,1
Ř,4f8762cddb0b7e2fb546d5961036fe178cdc971c,shootout,binarytrees,72.569000,1
Ř,4f8762cddb0b7e2fb546d5961036fe178cdc971c,shootout,knucleotide_brute_2,3550.130000,0
Ř,4f8762cddb0b7e2fb546d5961036fe178cdc971c,shootout,knucleotide_brute_2,4612.123000,0
Ř,4f8762cddb0b7e2fb546d5961036fe178cdc971c,shootout,knucleotide_brute_2,14013.953000,0
Ř,4f8762cddb0b7e2fb546d5961036fe178cdc971c,shootout,knucleotide_brute_2,3361.600000,0
Ř,4f8762cddb0b7e2fb546d5961036fe178cdc971c,shootout,knucleotide_brute_2,2607.189000,0
Ř,4f8762cddb0b7e2fb546d5961036fe178cdc971c,shootout,knucleotide_brute_2,3373.141000,1
Ř,4f8762cddb0b7e2fb546d5961036fe178cdc971c,shootout,knucleotide_brute_2,4418.439000,1
Ř,4f8762cddb0b7e2fb546d5961036fe178cdc971c,shootout,knucleotide_brute_2,3600.484000,1
Ř,4f8762cddb0b7e2fb546d5961036fe178cdc971c,shootout,knucleotide_brute_2,3392.919000,1
Ř,4f8762cddb0b7e2fb546d5961036fe178cdc971c,shootout,knucleotide_brute_2,3929.453000,1
Ř,4f8762cddb0b7e2fb546d5961036fe178cdc971c,shootout,knucleotide_brute_2,2119.914000,1
Ř,4f8762cddb0b7e2fb546d5961036fe178cdc971c,shootout,knucleotide_brute_2,2681.885000,1
Ř,4f8762cddb0b7e2fb546d5961036fe178cdc971c,shootout,knucleotide_brute_2,2322.003000,1
Ř,4f8762cddb0b7e2fb546d5961036fe178cdc971c,shootout,knucleotide_brute_2,3524.539000,1
Ř,4f8762cddb0b7e2fb546d5961036fe178cdc971c,shootout,knucleotide_brute_2,3480.165000,1
Ř,4f8762cddb0b7e2fb546d5961036fe178cdc971c,shootout,binarytrees_2,1196.397000,0
Ř,4f8762cddb0b7e2fb546d5961036fe178cdc971c,shootout,binarytrees_2,450.127000,0
Ř,4f8762cddb0b7e2fb546d5961036fe178cdc971c,shootout,binarytrees_2,1271.051000,0
Ř,4f8762cddb0b7e2fb546d5961036fe178cdc971c,shootout,binarytrees_2,210.401000,0
Ř,4f8762cddb0b7e2fb546d5961036fe178cdc971c,shootout,binarytrees_2,220.860000,0
Ř,4f8762cddb0b7e2fb546d5961036fe178cdc971c,shootout,binarytrees_2,211.449000,1
Ř,4f8762cddb0b7e2fb546d5961036fe178cdc971c,shootout,binarytrees_2,389.624000,1
Ř,4f8762cddb0b7e2fb546d5961036fe178cdc971c,shootout,binarytrees_2,151.209000,1
Ř,4f8762cddb0b7e2fb546d5961036fe178cdc971c,shootout,binarytrees_2,278.776000,1
Ř,4f8762cddb0b7e2fb546d5961036fe178cdc971c,shootout,binarytrees_2,90.772000,1
Ř,4f8762cddb0b7e2fb546d5961036fe178cdc971c,shootout,binarytrees_2,152.604000,1
Ř,4f8762cddb0b7e2fb546d5961036fe178cdc971c,shootout,binarytrees_2,145.540000,1
Ř,4f8762cddb0b7e2fb546d5961036fe178cdc971c,shootout,binarytrees_2,149.635000,1
Ř,4f8762cddb0b7e2fb546d5961036fe178cdc971c,shootout,binarytrees_2,149.016000,1
Ř,4f8762cddb0b7e2fb546d5961036fe178cdc971c,shootout,binarytrees_2,86.714000,1
Ř,4f8762cddb0b7e2fb546d5961036fe178cdc971c,shootout,nbody_naive_2,17676.167000,0
Ř,4f8762cddb0b7e2fb546d5961036fe178cdc971c,shootout,nbody_naive_2,1821.820000,0
Ř,4f8762cddb0b7e2fb546d5961036fe178cdc971c,shootout,nbody_naive_2,132897.333000,0
Ř,4f8762cddb0b7e2fb546d5961036fe178cdc971c,shootout,nbody_naive_2,22957.837000,0
Ř,4f8762cddb0b7e2fb546d5961036fe178cdc971c,shootout,nbody_naive_2,35914.780000,0
Ř,4f8762cddb0b7e2fb546d5961036fe178cdc971c,shootout,nbody_naive_2,37688.138000,1
Ř,4f8762cddb0b7e2fb546d5961036fe178cdc971c,shootout,nbody_naive_2,21223.844000,1
Ř,4f8762cddb0b7e2fb546d5961036fe178cdc971c,shootout,nbody_naive_2,39609.321000,1
Ř,4f8762cddb0b7e2fb546d5961036fe178cdc971c,shootout,nbody_naive_2,26775.412000,1
Ř,4f8762cddb0b7e2fb546d5961036fe178cdc971c,shootout,nbody_naive_2,34237.581000,1
Ř,4f8762cddb0b7e2fb546d5961036fe178cdc971c,shootout,nbody_naive_2,34256.725000,1
Ř,4f8762cddb0b7e2fb546d5961036fe178cdc971c,shootout,nbody_naive_2,12060.663000,1
Ř,4f8762cddb0b7e2fb546d5961036fe178cdc971c,shootout,nbody_naive_2,30475.205000,1
Ř,4f8762cddb0b7e2fb546d5961036fe178cdc971c,shootout,nbody_naive_2,28608.690000,1
Ř,4f8762cddb0b7e2fb546d5961036fe178cdc971c,shootout,nbody_naive_2,28674.192000,1
Ř,4f8762cddb0b7e2fb546d5961036fe178cdc971c,shootout,reversecomplement_naive,520.867000,0
Ř,4f8762cddb0b7e2fb546d5961036fe178cdc971c,shootout,reversecomplement_naive,570.783000,0
Ř,4f8762cddb0b7e2fb546d5961036fe178cdc971c,shootout,reversecomplement_naive,1200.517000,0
Ř,4f8762cddb0b7e2fb546d5961036fe178cdc971c,shootout,reversecomplement_naive,344.358000,0
Ř,4f8762cddb0b7e2fb546d5961036fe178cdc971c,shootout,reversecomplement_naive,346.396000,0
Ř,4f8762cddb0b7e2fb546d5961036fe178cdc971c,shootout,reversecomplement_naive,346.043000,1
Ř,4f8762cddb0b7e2fb546d5961036fe178cdc971c,shootout,reversecomplement_naive,343.352000,1
Ř,4f8762cddb0b7e2fb546d5961036fe178cdc971c,shootout,reversecomplement_naive,354.452000,1
Ř,4f8762cddb0b7e2fb546d5961036fe178cdc971c,shootout,reversecomplement_naive,339.302000,1
Ř,4f8762cddb0b7e2fb546d5961036fe178cdc971c,shootout,reversecomplement_naive,343.912000,1
Ř,4f8762cddb0b7e2fb546d5961036fe178cdc971c,shootout,reversecomplement_naive,339.378000,1
Ř,4f8762cddb0b7e2fb546d5961036fe178cdc971c,shootout,reversecomplement_naive,338.669000,1
Ř,4f8762cddb0b7e2fb546d5961036fe178cdc971c,shootout,reversecomplement_naive,344.278000,1
Ř,4f8762cddb0b7e2fb546d5961036fe178cdc971c,shootout,reversecomplement_naive,340.016000,1
Ř,4f8762cddb0b7e2fb546d5961036fe178cdc971c,shootout,reversecomplement_naive,364.171000,1
Ř,4f8762cddb0b7e2fb546d5961036fe178cdc971c,shootout,spectralnorm_alt_2,1732.941000,0
Ř,4f8762cddb0b7e2fb546d5961036fe178cdc971c,shootout,spectralnorm_alt_2,1430.421000,0
Ř,4f8762cddb0b7e2fb546d5961036fe178cdc971c,shootout,spectralnorm_alt_2,2609.589000,0
Ř,4f8762cddb0b7e2fb546d5961036fe178cdc971c,shootout,spectralnorm_alt_2,1187.377000,0
Ř,4f8762cddb0b7e2fb546d5961036fe178cdc971c,shootout,spectralnorm_alt_2,1262.834000,0
Ř,4f8762cddb0b7e2fb546d5961036fe178cdc971c,shootout,spectralnorm_alt_2,1224.597000,1
Ř,4f8762cddb0b7e2fb546d5961036fe178cdc971c,shootout,spectralnorm_alt_2,1214.142000,1
Ř,4f8762cddb0b7e2fb546d5961036fe178cdc971c,shootout,spectralnorm_alt_2,1193.122000,1
Ř,4f8762cddb0b7e2fb546d5961036fe178cdc971c,shootout,spectralnorm_alt_2,1228.265000,1
Ř,4f8762cddb0b7e2fb546d5961036fe178cdc971c,shootout,spectralnorm_alt_2,1233.173000,1
Ř,4f8762cddb0b7e2fb546d5961036fe178cdc971c,shootout,spectralnorm_alt_2,1227.140000,1
Ř,4f8762cddb0b7e2fb546d5961036fe178cdc971c,shootout,spectralnorm_alt_2,1243.654000,1
Ř,4f8762cddb0b7e2fb546d5961036fe178cdc971c,shootout,spectralnorm_alt_2,1212.409000,1
Ř,4f8762cddb0b7e2fb546d5961036fe178cdc971c,shootout,spectralnorm_alt_2,1263.304000,1
Ř,4f8762cddb0b7e2fb546d5961036fe178cdc971c,shootout,spectralnorm_alt_2,1227.764000,1
Ř,4f8762cddb0b7e2fb546d5961036fe178cdc971c,shootout,reversecomplement_2,517.941000,0
Ř,4f8762cddb0b7e2fb546d5961036fe178cdc971c,shootout,reversecomplement_2,543.691000,0
Ř,4f8762cddb0b7e2fb546d5961036fe178cdc971c,shootout,reversecomplement_2,1544.432000,0
Ř,4f8762cddb0b7e2fb546d5961036fe178cdc971c,shootout,reversecomplement_2,440.536000,0
Ř,4f8762cddb0b7e2fb546d5961036fe178cdc971c,shootout,reversecomplement_2,419.668000,0
Ř,4f8762cddb0b7e2fb546d5961036fe178cdc971c,shootout,reversecomplement_2,424.452000,1
Ř,4f8762cddb0b7e2fb546d5961036fe178cdc971c,shootout,reversecomplement_2,423.116000,1
Ř,4f8762cddb0b7e2fb546d5961036fe178cdc971c,shootout,reversecomplement_2,425.998000,1
Ř,4f8762cddb0b7e2fb546d5961036fe178cdc971c,shootout,reversecomplement_2,424.463000,1
Ř,4f8762cddb0b7e2fb546d5961036fe178cdc971c,shootout,reversecomplement_2,423.590000,1
Ř,4f8762cddb0b7e2fb546d5961036fe178cdc971c,shootout,reversecomplement_2,426.345000,1
Ř,4f8762cddb0b7e2fb546d5961036fe178cdc971c,shootout,reversecomplement_2,423.132000,1
Ř,4f8762cddb0b7e2fb546d5961036fe178cdc971c,shootout,reversecomplement_2,422.654000,1
Ř,4f8762cddb0b7e2fb546d5961036fe178cdc971c,shootout,reversecomplement_2,426.166000,1
Ř,4f8762cddb0b7e2fb546d5961036fe178cdc971c,shootout,reversecomplement_2,423.271000,1
Ř,4f8762cddb0b7e2fb546d5961036fe178cdc971c,shootout,fasta,1500.135000,0
Ř,4f8762cddb0b7e2fb546d5961036fe178cdc971c,shootout,fasta,1269.781000,0
Ř,4f8762cddb0b7e2fb546d5961036fe178cdc971c,shootout,fasta,2012.972000,0
Ř,4f8762cddb0b7e2fb546d5961036fe178cdc971c,shootout,fasta,919.118000,0
Ř,4f8762cddb0b7e2fb546d5961036fe178cdc971c,shootout,fasta,927.983000,0
Ř,4f8762cddb0b7e2fb546d5961036fe178cdc971c,shootout,fasta,925.966000,1
Ř,4f8762cddb0b7e2fb546d5961036fe178cdc971c,shootout,fasta,927.961000,1
Ř,4f8762cddb0b7e2fb546d5961036fe178cdc971c,shootout,fasta,919.445000,1
Ř,4f8762cddb0b7e2fb546d5961036fe178cdc971c,shootout,fasta,925.578000,1
Ř,4f8762cddb0b7e2fb546d5961036fe178cdc971c,shootout,fasta,908.609000,1
Ř,4f8762cddb0b7e2fb546d5961036fe178cdc971c,shootout,fasta,923.921000,1
Ř,4f8762cddb0b7e2fb546d5961036fe178cdc971c,shootout,fasta,911.139000,1
Ř,4f8762cddb0b7e2fb546d5961036fe178cdc971c,shootout,fasta,907.863000,1
Ř,4f8762cddb0b7e2fb546d5961036fe178cdc971c,shootout,fasta,911.457000,1
Ř,4f8762cddb0b7e2fb546d5961036fe178cdc971c,shootout,fasta,918.728000,1
Ř,4f8762cddb0b7e2fb546d5961036fe178cdc971c,shootout,fannkuchredux_naive,2602.951000,0
Ř,4f8762cddb0b7e2fb546d5961036fe178cdc971c,shootout,fannkuchredux_naive,2572.785000,0
Ř,4f8762cddb0b7e2fb546d5961036fe178cdc971c,shootout,fannkuchredux_naive,2926.437000,0
Ř,4f8762cddb0b7e2fb546d5961036fe178cdc971c,shootout,fannkuchredux_naive,212.177000,0
Ř,4f8762cddb0b7e2fb546d5961036fe178cdc971c,shootout,fannkuchredux_naive,206.325000,0
Ř,4f8762cddb0b7e2fb546d5961036fe178cdc971c,shootout,fannkuchredux_naive,206.297000,1
Ř,4f8762cddb0b7e2fb546d5961036fe178cdc971c,shootout,fannkuchredux_naive,212.625000,1
Ř,4f8762cddb0b7e2fb546d5961036fe178cdc971c,shootout,fannkuchredux_naive,206.142000,1
Ř,4f8762cddb0b7e2fb546d5961036fe178cdc971c,shootout,fannkuchredux_naive,220.272000,1
Ř,4f8762cddb0b7e2fb546d5961036fe178cdc971c,shootout,fannkuchredux_naive,207.868000,1
Ř,4f8762cddb0b7e2fb546d5961036fe178cdc971c,shootout,fannkuchredux_naive,206.061000,1
Ř,4f8762cddb0b7e2fb546d5961036fe178cdc971c,shootout,fannkuchredux_naive,213.039000,1
Ř,4f8762cddb0b7e2fb546d5961036fe178cdc971c,shootout,fannkuchredux_naive,207.391000,1
Ř,4f8762cddb0b7e2fb546d5961036fe178cdc971c,shootout,fannkuchredux_naive,205.910000,1
Ř,4f8762cddb0b7e2fb546d5961036fe178cdc971c,shootout,fannkuchredux_naive,211.052000,1
Ř,4f8762cddb0b7e2fb546d5961036fe178cdc971c,shootout,mandelbrot_ascii,390.693000,0
Ř,4f8762cddb0b7e2fb546d5961036fe178cdc971c,shootout,mandelbrot_ascii,82.047000,0
Ř,4f8762cddb0b7e2fb546d5961036fe178cdc971c,shootout,mandelbrot_ascii,955.885000,0
Ř,4f8762cddb0b7e2fb546d5961036fe178cdc971c,shootout,mandelbrot_ascii,65.287000,0
Ř,4f8762cddb0b7e2fb546d5961036fe178cdc971c,shootout,mandelbrot_ascii,63.377000,0
Ř,4f8762cddb0b7e2fb546d5961036fe178cdc971c,shootout,mandelbrot_ascii,64.329000,1
Ř,4f8762cddb0b7e2fb546d5961036fe178cdc971c,shootout,mandelbrot_ascii,64.400000,1
Ř,4f8762cddb0b7e2fb546d5961036fe178cdc971c,shootout,mandelbrot_ascii,66.594000,1
Ř,4f8762cddb0b7e2fb546d5961036fe178cdc971c,shootout,mandelbrot_ascii,64.404000,1
Ř,4f8762cddb0b7e2fb546d5961036fe178cdc971c,shootout,mandelbrot_ascii,64.198000,1
Ř,4f8762cddb0b7e2fb546d5961036fe178cdc971c,shootout,mandelbrot_ascii,64.267000,1
Ř,4f8762cddb0b7e2fb546d5961036fe178cdc971c,shootout,mandelbrot_ascii,66.001000,1
Ř,4f8762cddb0b7e2fb546d5961036fe178cdc971c,shootout,mandelbrot_ascii,63.573000,1
Ř,4f8762cddb0b7e2fb546d5961036fe178cdc971c,shootout,mandelbrot_ascii,63.550000,1
Ř,4f8762cddb0b7e2fb546d5961036fe178cdc971c,shootout,mandelbrot_ascii,65.075000,1
Ř,4f8762cddb0b7e2fb546d5961036fe178cdc971c,shootout,regexdna,1577.332000,0
Ř,4f8762cddb0b7e2fb546d5961036fe178cdc971c,shootout,regexdna,1555.866000,0
Ř,4f8762cddb0b7e2fb546d5961036fe178cdc971c,shootout,regexdna,3744.446000,0
Ř,4f8762cddb0b7e2fb546d5961036fe178cdc971c,shootout,regexdna,1485.979000,0
Ř,4f8762cddb0b7e2fb546d5961036fe178cdc971c,shootout,regexdna,1491.861000,0
Ř,4f8762cddb0b7e2fb546d5961036fe178cdc971c,shootout,regexdna,1506.365000,1
Ř,4f8762cddb0b7e2fb546d5961036fe178cdc971c,shootout,regexdna,1491.012000,1
Ř,4f8762cddb0b7e2fb546d5961036fe178cdc971c,shootout,regexdna,1492.337000,1
Ř,4f8762cddb0b7e2fb546d5961036fe178cdc971c,shootout,regexdna,1488.544000,1
Ř,4f8762cddb0b7e2fb546d5961036fe178cdc971c,shootout,regexdna,1510.989000,1
Ř,4f8762cddb0b7e2fb546d5961036fe178cdc971c,shootout,regexdna,1487.857000,1
Ř,4f8762cddb0b7e2fb546d5961036fe178cdc971c,shootout,regexdna,1492.516000,1
Ř,4f8762cddb0b7e2fb546d5961036fe178cdc971c,shootout,regexdna,1485.873000,1
Ř,4f8762cddb0b7e2fb546d5961036fe178cdc971c,shootout,regexdna,1500.875000,1
Ř,4f8762cddb0b7e2fb546d5961036fe178cdc971c,shootout,regexdna,1488.769000,1
Ř,4f8762cddb0b7e2fb546d5961036fe178cdc971c,shootout,fasta_naive,857.060000,0
Ř,4f8762cddb0b7e2fb546d5961036fe178cdc971c,shootout,fasta_naive,898.351000,0
Ř,4f8762cddb0b7e2fb546d5961036fe178cdc971c,shootout,fasta_naive,2031.060000,0
Ř,4f8762cddb0b7e2fb546d5961036fe178cdc971c,shootout,fasta_naive,472.682000,0
Ř,4f8762cddb0b7e2fb546d5961036fe178cdc971c,shootout,fasta_naive,489.736000,0
Ř,4f8762cddb0b7e2fb546d5961036fe178cdc971c,shootout,fasta_naive,444.602000,1
Ř,4f8762cddb0b7e2fb546d5961036fe178cdc971c,shootout,fasta_naive,456.227000,1
Ř,4f8762cddb0b7e2fb546d5961036fe178cdc971c,shootout,fasta_naive,461.037000,1
Ř,4f8762cddb0b7e2fb546d5961036fe178cdc971c,shootout,fasta_naive,469.657000,1
Ř,4f8762cddb0b7e2fb546d5961036fe178cdc971c,shootout,fasta_naive,472.585000,1
Ř,4f8762cddb0b7e2fb546d5961036fe178cdc971c,shootout,fasta_naive,468.812000,1
Ř,4f8762cddb0b7e2fb546d5961036fe178cdc971c,shootout,fasta_naive,450.650000,1
Ř,4f8762cddb0b7e2fb546d5961036fe178cdc971c,shootout,fasta_naive,463.541000,1
Ř,4f8762cddb0b7e2fb546d5961036fe178cdc971c,shootout,fasta_naive,469.442000,1
Ř,4f8762cddb0b7e2fb546d5961036fe178cdc971c,shootout,fasta_naive,472.918000,1
Ř,4f8762cddb0b7e2fb546d5961036fe178cdc971c,shootout,knucleotide,3076.134000,0
Ř,4f8762cddb0b7e2fb546d5961036fe178cdc971c,shootout,knucleotide,2176.471000,0
Ř,4f8762cddb0b7e2fb546d5961036fe178cdc971c,shootout,knucleotide,9126.924000,0
Ř,4f8762cddb0b7e2fb546d5961036fe178cdc971c,shootout,knucleotide,512.167000,0
Ř,4f8762cddb0b7e2fb546d5961036fe178cdc971c,shootout,knucleotide,532.940000,0
Ř,4f8762cddb0b7e2fb546d5961036fe178cdc971c,shootout,knucleotide,556.822000,1
Ř,4f8762cddb0b7e2fb546d5961036fe178cdc971c,shootout,knucleotide,502.854000,1
Ř,4f8762cddb0b7e2fb546d5961036fe178cdc971c,shootout,knucleotide,447.803000,1
Ř,4f8762cddb0b7e2fb546d5961036fe178cdc971c,shootout,knucleotide,481.623000,1
Ř,4f8762cddb0b7e2fb546d5961036fe178cdc971c,shootout,knucleotide,506.556000,1
Ř,4f8762cddb0b7e2fb546d5961036fe178cdc971c,shootout,knucleotide,526.438000,1
Ř,4f8762cddb0b7e2fb546d5961036fe178cdc971c,shootout,knucleotide,548.188000,1
Ř,4f8762cddb0b7e2fb546d5961036fe178cdc971c,shootout,knucleotide,504.187000,1
Ř,4f8762cddb0b7e2fb546d5961036fe178cdc971c,shootout,knucleotide,448.353000,1
Ř,4f8762cddb0b7e2fb546d5961036fe178cdc971c,shootout,knucleotide,481.918000,1
Ř,4f8762cddb0b7e2fb546d5961036fe178cdc971c,shootout,spectralnorm_math,3600.137000,0
Ř,4f8762cddb0b7e2fb546d5961036fe178cdc971c,shootout,spectralnorm_math,3381.454000,0
Ř,4f8762cddb0b7e2fb546d5961036fe178cdc971c,shootout,spectralnorm_math,3811.738000,0
Ř,4f8762cddb0b7e2fb546d5961036fe178cdc971c,shootout,spectralnorm_math,3205.331000,0
Ř,4f8762cddb0b7e2fb546d5961036fe178cdc971c,shootout,spectralnorm_math,3196.186000,0
Ř,4f8762cddb0b7e2fb546d5961036fe178cdc971c,shootout,spectralnorm_math,3176.106000,1
Ř,4f8762cddb0b7e2fb546d5961036fe178cdc971c,shootout,spectralnorm_math,3203.206000,1
Ř,4f8762cddb0b7e2fb546d5961036fe178cdc971c,shootout,spectralnorm_math,3222.194000,1
Ř,4f8762cddb0b7e2fb546d5961036fe178cdc971c,shootout,spectralnorm_math,3192.289000,1
Ř,4f8762cddb0b7e2fb546d5961036fe178cdc971c,shootout,spectralnorm_math,3228.737000,1
Ř,4f8762cddb0b7e2fb546d5961036fe178cdc971c,shootout,spectralnorm_math,3198.790000,1
Ř,4f8762cddb0b7e2fb546d5961036fe178cdc971c,shootout,spectralnorm_math,3188.198000,1
Ř,4f8762cddb0b7e2fb546d5961036fe178cdc971c,shootout,spectralnorm_math,3185.137000,1
Ř,4f8762cddb0b7e2fb546d5961036fe178cdc971c,shootout,spectralnorm_math,3230.623000,1
Ř,4f8762cddb0b7e2fb546d5961036fe178cdc971c,shootout,spectralnorm_math,3195.984000,1
Ř,4f8762cddb0b7e2fb546d5961036fe178cdc971c,shootout,fastaredux_naive,715.757000,0
Ř,4f8762cddb0b7e2fb546d5961036fe178cdc971c,shootout,fastaredux_naive,1375.875000,0
Ř,4f8762cddb0b7e2fb546d5961036fe178cdc971c,shootout,fastaredux_naive,2508.221000,0
Ř,4f8762cddb0b7e2fb546d5961036fe178cdc971c,shootout,fastaredux_naive,461.229000,0
Ř,4f8762cddb0b7e2fb546d5961036fe178cdc971c,shootout,fastaredux_naive,466.918000,0
Ř,4f8762cddb0b7e2fb546d5961036fe178cdc971c,shootout,fastaredux_naive,452.334000,1
Ř,4f8762cddb0b7e2fb546d5961036fe178cdc971c,shootout,fastaredux_naive,439.726000,1
Ř,4f8762cddb0b7e2fb546d5961036fe178cdc971c,shootout,fastaredux_naive,470.897000,1
Ř,4f8762cddb0b7e2fb546d5961036fe178cdc971c,shootout,fastaredux_naive,457.290000,1
Ř,4f8762cddb0b7e2fb546d5961036fe178cdc971c,shootout,fastaredux_naive,458.795000,1
Ř,4f8762cddb0b7e2fb546d5961036fe178cdc971c,shootout,fastaredux_naive,461.008000,1
Ř,4f8762cddb0b7e2fb546d5961036fe178cdc971c,shootout,fastaredux_naive,435.143000,1
Ř,4f8762cddb0b7e2fb546d5961036fe178cdc971c,shootout,fastaredux_naive,443.587000,1
Ř,4f8762cddb0b7e2fb546d5961036fe178cdc971c,shootout,fastaredux_naive,450.583000,1
Ř,4f8762cddb0b7e2fb546d5961036fe178cdc971c,shootout,fastaredux_naive,458.323000,1
Ř,4f8762cddb0b7e2fb546d5961036fe178cdc971c,shootout,mandelbrot_noout_naive,265.349000,0
Ř,4f8762cddb0b7e2fb546d5961036fe178cdc971c,shootout,mandelbrot_noout_naive,250.695000,0
Ř,4f8762cddb0b7e2fb546d5961036fe178cdc971c,shootout,mandelbrot_noout_naive,1190.878000,0
Ř,4f8762cddb0b7e2fb546d5961036fe178cdc971c,shootout,mandelbrot_noout_naive,224.702000,0
Ř,4f8762cddb0b7e2fb546d5961036fe178cdc971c,shootout,mandelbrot_noout_naive,225.650000,0
Ř,4f8762cddb0b7e2fb546d5961036fe178cdc971c,shootout,mandelbrot_noout_naive,225.451000,1
Ř,4f8762cddb0b7e2fb546d5961036fe178cdc971c,shootout,mandelbrot_noout_naive,235.800000,1
Ř,4f8762cddb0b7e2fb546d5961036fe178cdc971c,shootout,mandelbrot_noout_naive,226.887000,1
Ř,4f8762cddb0b7e2fb546d5961036fe178cdc971c,shootout,mandelbrot_noout_naive,235.778000,1
Ř,4f8762cddb0b7e2fb546d5961036fe178cdc971c,shootout,mandelbrot_noout_naive,234.525000,1
Ř,4f8762cddb0b7e2fb546d5961036fe178cdc971c,shootout,mandelbrot_noout_naive,244.881000,1
Ř,4f8762cddb0b7e2fb546d5961036fe178cdc971c,shootout,mandelbrot_noout_naive,230.279000,1
Ř,4f8762cddb0b7e2fb546d5961036fe178cdc971c,shootout,mandelbrot_noout_naive,232.942000,1
Ř,4f8762cddb0b7e2fb546d5961036fe178cdc971c,shootout,mandelbrot_noout_naive,234.658000,1
Ř,4f8762cddb0b7e2fb546d5961036fe178cdc971c,shootout,mandelbrot_noout_naive,246.077000,1
Ř,4f8762cddb0b7e2fb546d5961036fe178cdc971c,shootout,knucleotide_brute,4434.425000,0
Ř,4f8762cddb0b7e2fb546d5961036fe178cdc971c,shootout,knucleotide_brute,5343.605000,0
Ř,4f8762cddb0b7e2fb546d5961036fe178cdc971c,shootout,knucleotide_brute,15000.472000,0
Ř,4f8762cddb0b7e2fb546d5961036fe178cdc971c,shootout,knucleotide_brute,4204.577000,0
Ř,4f8762cddb0b7e2fb546d5961036fe178cdc971c,shootout,knucleotide_brute,3903.184000,0
Ř,4f8762cddb0b7e2fb546d5961036fe178cdc971c,shootout,knucleotide_brute,4000.896000,1
Ř,4f8762cddb0b7e2fb546d5961036fe178cdc971c,shootout,knucleotide_brute,3994.009000,1
Ř,4f8762cddb0b7e2fb546d5961036fe178cdc971c,shootout,knucleotide_brute,4065.363000,1
Ř,4f8762cddb0b7e2fb546d5961036fe178cdc971c,shootout,knucleotide_brute,4085.413000,1
Ř,4f8762cddb0b7e2fb546d5961036fe178cdc971c,shootout,knucleotide_brute,4109.454000,1
Ř,4f8762cddb0b7e2fb546d5961036fe178cdc971c,shootout,knucleotide_brute,3790.529000,1
Ř,4f8762cddb0b7e2fb546d5961036fe178cdc971c,shootout,knucleotide_brute,3453.872000,1
Ř,4f8762cddb0b7e2fb546d5961036fe178cdc971c,shootout,knucleotide_brute,3689.895000,1
Ř,4f8762cddb0b7e2fb546d5961036fe178cdc971c,shootout,knucleotide_brute,4099.635000,1
Ř,4f8762cddb0b7e2fb546d5961036fe178cdc971c,shootout,knucleotide_brute,3879.472000,1
Ř,4f8762cddb0b7e2fb546d5961036fe178cdc971c,shootout,spectralnorm_alt_3,1120.413000,0
Ř,4f8762cddb0b7e2fb546d5961036fe178cdc971c,shootout,spectralnorm_alt_3,898.089000,0
Ř,4f8762cddb0b7e2fb546d5961036fe178cdc971c,shootout,spectralnorm_alt_3,1489.656000,0
Ř,4f8762cddb0b7e2fb546d5961036fe178cdc971c,shootout,spectralnorm_alt_3,100.099000,0
Ř,4f8762cddb0b7e2fb546d5961036fe178cdc971c,shootout,spectralnorm_alt_3,101.711000,0
Ř,4f8762cddb0b7e2fb546d5961036fe178cdc971c,shootout,spectralnorm_alt_3,99.840000,1
Ř,4f8762cddb0b7e2fb546d5961036fe178cdc971c,shootout,spectralnorm_alt_3,100.894000,1
Ř,4f8762cddb0b7e2fb546d5961036fe178cdc971c,shootout,spectralnorm_alt_3,100.635000,1
Ř,4f8762cddb0b7e2fb546d5961036fe178cdc971c,shootout,spectralnorm_alt_3,100.295000,1
Ř,4f8762cddb0b7e2fb546d5961036fe178cdc971c,shootout,spectralnorm_alt_3,100.976000,1
Ř,4f8762cddb0b7e2fb546d5961036fe178cdc971c,shootout,spectralnorm_alt_3,100.977000,1
Ř,4f8762cddb0b7e2fb546d5961036fe178cdc971c,shootout,spectralnorm_alt_3,101.483000,1
Ř,4f8762cddb0b7e2fb546d5961036fe178cdc971c,shootout,spectralnorm_alt_3,100.473000,1
Ř,4f8762cddb0b7e2fb546d5961036fe178cdc971c,shootout,spectralnorm_alt_3,103.750000,1
Ř,4f8762cddb0b7e2fb546d5961036fe178cdc971c,shootout,spectralnorm_alt_3,105.044000,1
Ř,4f8762cddb0b7e2fb546d5961036fe178cdc971c,shootout,mandelbrot_noout,393.740000,0
Ř,4f8762cddb0b7e2fb546d5961036fe178cdc971c,shootout,mandelbrot_noout,71.313000,0
Ř,4f8762cddb0b7e2fb546d5961036fe178cdc971c,shootout,mandelbrot_noout,738.691000,0
Ř,4f8762cddb0b7e2fb546d5961036fe178cdc971c,shootout,mandelbrot_noout,67.234000,0
Ř,4f8762cddb0b7e2fb546d5961036fe178cdc971c,shootout,mandelbrot_noout,68.428000,0
Ř,4f8762cddb0b7e2fb546d5961036fe178cdc971c,shootout,mandelbrot_noout,67.002000,1
Ř,4f8762cddb0b7e2fb546d5961036fe178cdc971c,shootout,mandelbrot_noout,67.008000,1
Ř,4f8762cddb0b7e2fb546d5961036fe178cdc971c,shootout,mandelbrot_noout,67.095000,1
Ř,4f8762cddb0b7e2fb546d5961036fe178cdc971c,shootout,mandelbrot_noout,68.272000,1
Ř,4f8762cddb0b7e2fb546d5961036fe178cdc971c,shootout,mandelbrot_noout,77.185000,1
Ř,4f8762cddb0b7e2fb546d5961036fe178cdc971c,shootout,mandelbrot_noout,67.093000,1
Ř,4f8762cddb0b7e2fb546d5961036fe178cdc971c,shootout,mandelbrot_noout,66.868000,1
Ř,4f8762cddb0b7e2fb546d5961036fe178cdc971c,shootout,mandelbrot_noout,66.948000,1
Ř,4f8762cddb0b7e2fb546d5961036fe178cdc971c,shootout,mandelbrot_noout,68.308000,1
Ř,4f8762cddb0b7e2fb546d5961036fe178cdc971c,shootout,mandelbrot_noout,66.934000,1
Ř,4f8762cddb0b7e2fb546d5961036fe178cdc971c,shootout,fasta_3,1240.806000,0
Ř,4f8762cddb0b7e2fb546d5961036fe178cdc971c,shootout,fasta_3,3546.980000,0
Ř,4f8762cddb0b7e2fb546d5961036fe178cdc971c,shootout,fasta_3,4282.477000,0
Ř,4f8762cddb0b7e2fb546d5961036fe178cdc971c,shootout,fasta_3,922.328000,0
Ř,4f8762cddb0b7e2fb546d5961036fe178cdc971c,shootout,fasta_3,912.489000,0
Ř,4f8762cddb0b7e2fb546d5961036fe178cdc971c,shootout,fasta_3,903.461000,1
Ř,4f8762cddb0b7e2fb546d5961036fe178cdc971c,shootout,fasta_3,924.124000,1
Ř,4f8762cddb0b7e2fb546d5961036fe178cdc971c,shootout,fasta_3,923.626000,1
Ř,4f8762cddb0b7e2fb546d5961036fe178cdc971c,shootout,fasta_3,918.500000,1
Ř,4f8762cddb0b7e2fb546d5961036fe178cdc971c,shootout,fasta_3,920.696000,1
Ř,4f8762cddb0b7e2fb546d5961036fe178cdc971c,shootout,fasta_3,918.603000,1
Ř,4f8762cddb0b7e2fb546d5961036fe178cdc971c,shootout,fasta_3,916.053000,1
Ř,4f8762cddb0b7e2fb546d5961036fe178cdc971c,shootout,fasta_3,908.631000,1
Ř,4f8762cddb0b7e2fb546d5961036fe178cdc971c,shootout,fasta_3,919.605000,1
Ř,4f8762cddb0b7e2fb546d5961036fe178cdc971c,shootout,fasta_3,924.314000,1
Ř,4f8762cddb0b7e2fb546d5961036fe178cdc971c,shootout,binarytrees_naive,948.465000,0
Ř,4f8762cddb0b7e2fb546d5961036fe178cdc971c,shootout,binarytrees_naive,255.593000,0
Ř,4f8762cddb0b7e2fb546d5961036fe178cdc971c,shootout,binarytrees_naive,4023.240000,0
Ř,4f8762cddb0b7e2fb546d5961036fe178cdc971c,shootout,binarytrees_naive,272.363000,0
Ř,4f8762cddb0b7e2fb546d5961036fe178cdc971c,shootout,binarytrees_naive,163.359000,0
Ř,4f8762cddb0b7e2fb546d5961036fe178cdc971c,shootout,binarytrees_naive,272.876000,1
Ř,4f8762cddb0b7e2fb546d5961036fe178cdc971c,shootout,binarytrees_naive,207.936000,1
Ř,4f8762cddb0b7e2fb546d5961036fe178cdc971c,shootout,binarytrees_naive,216.353000,1
Ř,4f8762cddb0b7e2fb546d5961036fe178cdc971c,shootout,binarytrees_naive,335.121000,1
Ř,4f8762cddb0b7e2fb546d5961036fe178cdc971c,shootout,binarytrees_naive,338.420000,1
Ř,4f8762cddb0b7e2fb546d5961036fe178cdc971c,shootout,binarytrees_naive,1138.784000,1
Ř,4f8762cddb0b7e2fb546d5961036fe178cdc971c,shootout,binarytrees_naive,210.780000,1
Ř,4f8762cddb0b7e2fb546d5961036fe178cdc971c,shootout,binarytrees_naive,278.850000,1
Ř,4f8762cddb0b7e2fb546d5961036fe178cdc971c,shootout,binarytrees_naive,157.093000,1
Ř,4f8762cddb0b7e2fb546d5961036fe178cdc971c,shootout,binarytrees_naive,93.662000,1
Ř,4f8762cddb0b7e2fb546d5961036fe178cdc971c,shootout,spectralnorm_alt,401.855000,0
Ř,4f8762cddb0b7e2fb546d5961036fe178cdc971c,shootout,spectralnorm_alt,273.600000,0
Ř,4f8762cddb0b7e2fb546d5961036fe178cdc971c,shootout,spectralnorm_alt,1543.751000,0
Ř,4f8762cddb0b7e2fb546d5961036fe178cdc971c,shootout,spectralnorm_alt,215.154000,0
Ř,4f8762cddb0b7e2fb546d5961036fe178cdc971c,shootout,spectralnorm_alt,202.820000,0
Ř,4f8762cddb0b7e2fb546d5961036fe178cdc971c,shootout,spectralnorm_alt,219.928000,1
Ř,4f8762cddb0b7e2fb546d5961036fe178cdc971c,shootout,spectralnorm_alt,207.083000,1
Ř,4f8762cddb0b7e2fb546d5961036fe178cdc971c,shootout,spectralnorm_alt,191.640000,1
Ř,4f8762cddb0b7e2fb546d5961036fe178cdc971c,shootout,spectralnorm_alt,192.202000,1
Ř,4f8762cddb0b7e2fb546d5961036fe178cdc971c,shootout,spectralnorm_alt,203.240000,1
Ř,4f8762cddb0b7e2fb546d5961036fe178cdc971c,shootout,spectralnorm_alt,190.109000,1
Ř,4f8762cddb0b7e2fb546d5961036fe178cdc971c,shootout,spectralnorm_alt,200.010000,1
Ř,4f8762cddb0b7e2fb546d5961036fe178cdc971c,shootout,spectralnorm_alt,198.063000,1
Ř,4f8762cddb0b7e2fb546d5961036fe178cdc971c,shootout,spectralnorm_alt,207.239000,1
Ř,4f8762cddb0b7e2fb546d5961036fe178cdc971c,shootout,spectralnorm_alt,191.672000,1
Ř,4f8762cddb0b7e2fb546d5961036fe178cdc971c,shootout,nbody_2,2693.192000,0
Ř,4f8762cddb0b7e2fb546d5961036fe178cdc971c,shootout,nbody_2,1438.385000,0
Ř,4f8762cddb0b7e2fb546d5961036fe178cdc971c,shootout,nbody_2,1775.451000,0
Ř,4f8762cddb0b7e2fb546d5961036fe178cdc971c,shootout,nbody_2,670.218000,0
Ř,4f8762cddb0b7e2fb546d5961036fe178cdc971c,shootout,nbody_2,646.995000,0
Ř,4f8762cddb0b7e2fb546d5961036fe178cdc971c,shootout,nbody_2,147412.554000,1
Ř,4f8762cddb0b7e2fb546d5961036fe178cdc971c,shootout,nbody_2,88030.977000,1
Ř,4f8762cddb0b7e2fb546d5961036fe178cdc971c,shootout,nbody_2,3560.186000,1
Ř,4f8762cddb0b7e2fb546d5961036fe178cdc971c,shootout,nbody_2,2390.380000,1
Ř,4f8762cddb0b7e2fb546d5961036fe178cdc971c,shootout,nbody_2,2997.617000,1
Ř,4f8762cddb0b7e2fb546d5961036fe178cdc971c,shootout,nbody_2,3548.225000,1
Ř,4f8762cddb0b7e2fb546d5961036fe178cdc971c,shootout,nbody_2,4708.740000,1
Ř,4f8762cddb0b7e2fb546d5961036fe178cdc971c,shootout,nbody_2,651.130000,1
Ř,4f8762cddb0b7e2fb546d5961036fe178cdc971c,shootout,nbody_2,666.724000,1
Ř,4f8762cddb0b7e2fb546d5961036fe178cdc971c,shootout,nbody_2,3537.736000,1
Ř,4f8762cddb0b7e2fb546d5961036fe178cdc971c,real_thing,flexclust_no_s4,17915.798000,0
Ř,4f8762cddb0b7e2fb546d5961036fe178cdc971c,real_thing,flexclust_no_s4,15636.272000,0
Ř,4f8762cddb0b7e2fb546d5961036fe178cdc971c,real_thing,flexclust_no_s4,28346.164000,0
Ř,4f8762cddb0b7e2fb546d5961036fe178cdc971c,real_thing,flexclust_no_s4,25218.238000,0
Ř,4f8762cddb0b7e2fb546d5961036fe178cdc971c,real_thing,flexclust_no_s4,18749.639000,0
Ř,4f8762cddb0b7e2fb546d5961036fe178cdc971c,real_thing,flexclust_no_s4,14840.936000,1
Ř,4f8762cddb0b7e2fb546d5961036fe178cdc971c,real_thing,flexclust_no_s4,18365.251000,1
Ř,4f8762cddb0b7e2fb546d5961036fe178cdc971c,real_thing,flexclust_no_s4,13740.885000,1
Ř,4f8762cddb0b7e2fb546d5961036fe178cdc971c,real_thing,flexclust_no_s4,13402.847000,1
Ř,4f8762cddb0b7e2fb546d5961036fe178cdc971c,real_thing,flexclust_no_s4,13414.977000,1
Ř,4f8762cddb0b7e2fb546d5961036fe178cdc971c,real_thing,flexclust_no_s4,13298.163000,1
Ř,4f8762cddb0b7e2fb546d5961036fe178cdc971c,real_thing,flexclust_no_s4,23208.914000,1
Ř,4f8762cddb0b7e2fb546d5961036fe178cdc971c,real_thing,flexclust_no_s4,13701.807000,1
Ř,4f8762cddb0b7e2fb546d5961036fe178cdc971c,real_thing,flexclust_no_s4,13457.597000,1
Ř,4f8762cddb0b7e2fb546d5961036fe178cdc971c,real_thing,flexclust_no_s4,14531.274000,1
Ř,4f8762cddb0b7e2fb546d5961036fe178cdc971c,real_thing,convolution,743.020000,0
Ř,4f8762cddb0b7e2fb546d5961036fe178cdc971c,real_thing,convolution,13.186000,0
Ř,4f8762cddb0b7e2fb546d5961036fe178cdc971c,real_thing,convolution,579.963000,0
Ř,4f8762cddb0b7e2fb546d5961036fe178cdc971c,real_thing,convolution,12.165000,0
Ř,4f8762cddb0b7e2fb546d5961036fe178cdc971c,real_thing,convolution,12.391000,0
Ř,4f8762cddb0b7e2fb546d5961036fe178cdc971c,real_thing,convolution,12.099000,1
Ř,4f8762cddb0b7e2fb546d5961036fe178cdc971c,real_thing,convolution,12.208000,1
Ř,4f8762cddb0b7e2fb546d5961036fe178cdc971c,real_thing,convolution,12.120000,1
Ř,4f8762cddb0b7e2fb546d5961036fe178cdc971c,real_thing,convolution,12.188000,1
Ř,4f8762cddb0b7e2fb546d5961036fe178cdc971c,real_thing,convolution,12.115000,1
Ř,4f8762cddb0b7e2fb546d5961036fe178cdc971c,real_thing,convolution,12.270000,1
Ř,4f8762cddb0b7e2fb546d5961036fe178cdc971c,real_thing,convolution,12.108000,1
Ř,4f8762cddb0b7e2fb546d5961036fe178cdc971c,real_thing,convolution,12.357000,1
Ř,4f8762cddb0b7e2fb546d5961036fe178cdc971c,real_thing,convolution,12.239000,1
Ř,4f8762cddb0b7e2fb546d5961036fe178cdc971c,real_thing,convolution,12.287000,1
Ř,4f8762cddb0b7e2fb546d5961036fe178cdc971c,real_thing,flexclust,45757.785000,0
Ř,4f8762cddb0b7e2fb546d5961036fe178cdc971c,real_thing,flexclust,29637.548000,0
Ř,4f8762cddb0b7e2fb546d5961036fe178cdc971c,real_thing,flexclust,43967.776000,0
Ř,4f8762cddb0b7e2fb546d5961036fe178cdc971c,real_thing,flexclust,55474.675000,0
Ř,4f8762cddb0b7e2fb546d5961036fe178cdc971c,real_thing,flexclust,28068.977000,0
Ř,4f8762cddb0b7e2fb546d5961036fe178cdc971c,real_thing,flexclust,27578.266000,1
Ř,4f8762cddb0b7e2fb546d5961036fe178cdc971c,real_thing,flexclust,16943.112000,1
Ř,4f8762cddb0b7e2fb546d5961036fe178cdc971c,real_thing,flexclust,16656.931000,1
Ř,4f8762cddb0b7e2fb546d5961036fe178cdc971c,real_thing,flexclust,16810.120000,1
Ř,4f8762cddb0b7e2fb546d5961036fe178cdc971c,real_thing,flexclust,16434.359000,1
Ř,4f8762cddb0b7e2fb546d5961036fe178cdc971c,real_thing,flexclust,16593.580000,1
Ř,4f8762cddb0b7e2fb546d5961036fe178cdc971c,real_thing,flexclust,17743.155000,1
Ř,4f8762cddb0b7e2fb546d5961036fe178cdc971c,real_thing,flexclust,16569.698000,1
Ř,4f8762cddb0b7e2fb546d5961036fe178cdc971c,real_thing,flexclust,16351.674000,1
Ř,4f8762cddb0b7e2fb546d5961036fe178cdc971c,real_thing,flexclust,16689.039000,1
Ř,4f8762cddb0b7e2fb546d5961036fe178cdc971c,real_thing,convolution_v,634.497000,0
Ř,4f8762cddb0b7e2fb546d5961036fe178cdc971c,real_thing,convolution_v,98.550000,0
Ř,4f8762cddb0b7e2fb546d5961036fe178cdc971c,real_thing,convolution_v,718.753000,0
Ř,4f8762cddb0b7e2fb546d5961036fe178cdc971c,real_thing,convolution_v,94.563000,0
Ř,4f8762cddb0b7e2fb546d5961036fe178cdc971c,real_thing,convolution_v,105.459000,0
Ř,4f8762cddb0b7e2fb546d5961036fe178cdc971c,real_thing,convolution_v,96.769000,1
Ř,4f8762cddb0b7e2fb546d5961036fe178cdc971c,real_thing,convolution_v,94.658000,1
Ř,4f8762cddb0b7e2fb546d5961036fe178cdc971c,real_thing,convolution_v,95.088000,1
Ř,4f8762cddb0b7e2fb546d5961036fe178cdc971c,real_thing,convolution_v,94.566000,1
Ř,4f8762cddb0b7e2fb546d5961036fe178cdc971c,real_thing,convolution_v,96.281000,1
Ř,4f8762cddb0b7e2fb546d5961036fe178cdc971c,real_thing,convolution_v,96.065000,1
Ř,4f8762cddb0b7e2fb546d5961036fe178cdc971c,real_thing,convolution_v,94.556000,1
Ř,4f8762cddb0b7e2fb546d5961036fe178cdc971c,real_thing,convolution_v,96.848000,1
Ř,4f8762cddb0b7e2fb546d5961036fe178cdc971c,real_thing,convolution_v,93.855000,1
Ř,4f8762cddb0b7e2fb546d5961036fe178cdc971c,real_thing,convolution_v,345.157000,1
Ř,4f8762cddb0b7e2fb546d5961036fe178cdc971c,real_thing,convolution_slow,636.967000,0
Ř,4f8762cddb0b7e2fb546d5961036fe178cdc971c,real_thing,convolution_slow,99.292000,0
Ř,4f8762cddb0b7e2fb546d5961036fe178cdc971c,real_thing,convolution_slow,720.549000,0
Ř,4f8762cddb0b7e2fb546d5961036fe178cdc971c,real_thing,convolution_slow,96.034000,0
Ř,4f8762cddb0b7e2fb546d5961036fe178cdc971c,real_thing,convolution_slow,107.036000,0
Ř,4f8762cddb0b7e2fb546d5961036fe178cdc971c,real_thing,convolution_slow,96.303000,1
Ř,4f8762cddb0b7e2fb546d5961036fe178cdc971c,real_thing,convolution_slow,95.898000,1
Ř,4f8762cddb0b7e2fb546d5961036fe178cdc971c,real_thing,convolution_slow,96.041000,1
Ř,4f8762cddb0b7e2fb546d5961036fe178cdc971c,real_thing,convolution_slow,95.844000,1
Ř,4f8762cddb0b7e2fb546d5961036fe178cdc971c,real_thing,convolution_slow,97.349000,1
Ř,4f8762cddb0b7e2fb546d5961036fe178cdc971c,real_thing,convolution_slow,98.828000,1
Ř,4f8762cddb0b7e2fb546d5961036fe178cdc971c,real_thing,convolution_slow,345.337000,1
Ř,4f8762cddb0b7e2fb546d5961036fe178cdc971c,real_thing,convolution_slow,97.113000,1
Ř,4f8762cddb0b7e2fb546d5961036fe178cdc971c,real_thing,convolution_slow,95.015000,1
Ř,4f8762cddb0b7e2fb546d5961036fe178cdc971c,real_thing,convolution_slow,96.388000,1
Ř,4f8762cddb0b7e2fb546d5961036fe178cdc971c,are-we-fast-r,Mandelbrot,3630.342000,0
Ř,4f8762cddb0b7e2fb546d5961036fe178cdc971c,are-we-fast-r,Mandelbrot,3613.161000,0
Ř,4f8762cddb0b7e2fb546d5961036fe178cdc971c,are-we-fast-r,Mandelbrot,766.589000,0
Ř,4f8762cddb0b7e2fb546d5961036fe178cdc971c,are-we-fast-r,Mandelbrot,1290.866000,0
Ř,4f8762cddb0b7e2fb546d5961036fe178cdc971c,are-we-fast-r,Mandelbrot,66.904000,0
Ř,4f8762cddb0b7e2fb546d5961036fe178cdc971c,are-we-fast-r,Mandelbrot,66.751000,1
Ř,4f8762cddb0b7e2fb546d5961036fe178cdc971c,are-we-fast-r,Mandelbrot,66.853000,1
Ř,4f8762cddb0b7e2fb546d5961036fe178cdc971c,are-we-fast-r,Mandelbrot,68.762000,1
Ř,4f8762cddb0b7e2fb546d5961036fe178cdc971c,are-we-fast-r,Mandelbrot,67.092000,1
Ř,4f8762cddb0b7e2fb546d5961036fe178cdc971c,are-we-fast-r,Mandelbrot,66.775000,1
Ř,4f8762cddb0b7e2fb546d5961036fe178cdc971c,are-we-fast-r,Mandelbrot,66.816000,1
Ř,4f8762cddb0b7e2fb546d5961036fe178cdc971c,are-we-fast-r,Mandelbrot,66.954000,1
Ř,4f8762cddb0b7e2fb546d5961036fe178cdc971c,are-we-fast-r,Mandelbrot,66.893000,1
Ř,4f8762cddb0b7e2fb546d5961036fe178cdc971c,are-we-fast-r,Mandelbrot,66.851000,1
Ř,4f8762cddb0b7e2fb546d5961036fe178cdc971c,are-we-fast-r,Mandelbrot,67.025000,1
Ř,4f8762cddb0b7e2fb546d5961036fe178cdc971c,are-we-fast-r,Bounce_nonames_simple,1964.735000,0
Ř,4f8762cddb0b7e2fb546d5961036fe178cdc971c,are-we-fast-r,Bounce_nonames_simple,135.241000,0
Ř,4f8762cddb0b7e2fb546d5961036fe178cdc971c,are-we-fast-r,Bounce_nonames_simple,145.128000,0
Ř,4f8762cddb0b7e2fb546d5961036fe178cdc971c,are-we-fast-r,Bounce_nonames_simple,138.064000,0
Ř,4f8762cddb0b7e2fb546d5961036fe178cdc971c,are-we-fast-r,Bounce_nonames_simple,137.236000,0
Ř,4f8762cddb0b7e2fb546d5961036fe178cdc971c,are-we-fast-r,Bounce_nonames_simple,136.604000,1
Ř,4f8762cddb0b7e2fb546d5961036fe178cdc971c,are-we-fast-r,Bounce_nonames_simple,132.188000,1
Ř,4f8762cddb0b7e2fb546d5961036fe178cdc971c,are-we-fast-r,Bounce_nonames_simple,131.398000,1
Ř,4f8762cddb0b7e2fb546d5961036fe178cdc971c,are-we-fast-r,Bounce_nonames_simple,137.019000,1
Ř,4f8762cddb0b7e2fb546d5961036fe178cdc971c,are-we-fast-r,Bounce_nonames_simple,130.877000,1
Ř,4f8762cddb0b7e2fb546d5961036fe178cdc971c,are-we-fast-r,Bounce_nonames_simple,133.263000,1
Ř,4f8762cddb0b7e2fb546d5961036fe178cdc971c,are-we-fast-r,Bounce_nonames_simple,134.766000,1
Ř,4f8762cddb0b7e2fb546d5961036fe178cdc971c,are-we-fast-r,Bounce_nonames_simple,135.692000,1
Ř,4f8762cddb0b7e2fb546d5961036fe178cdc971c,are-we-fast-r,Bounce_nonames_simple,138.063000,1
Ř,4f8762cddb0b7e2fb546d5961036fe178cdc971c,are-we-fast-r,Bounce_nonames_simple,135.551000,1
Ř,4f8762cddb0b7e2fb546d5961036fe178cdc971c,are-we-fast-r,Storage,1240.819000,0
Ř,4f8762cddb0b7e2fb546d5961036fe178cdc971c,are-we-fast-r,Storage,562.794000,0
Ř,4f8762cddb0b7e2fb546d5961036fe178cdc971c,are-we-fast-r,Storage,639.198000,0
Ř,4f8762cddb0b7e2fb546d5961036fe178cdc971c,are-we-fast-r,Storage,559.167000,0
Ř,4f8762cddb0b7e2fb546d5961036fe178cdc971c,are-we-fast-r,Storage,636.780000,0
Ř,4f8762cddb0b7e2fb546d5961036fe178cdc971c,are-we-fast-r,Storage,568.751000,1
Ř,4f8762cddb0b7e2fb546d5961036fe178cdc971c,are-we-fast-r,Storage,544.286000,1
Ř,4f8762cddb0b7e2fb546d5961036fe178cdc971c,are-we-fast-r,Storage,559.592000,1
Ř,4f8762cddb0b7e2fb546d5961036fe178cdc971c,are-we-fast-r,Storage,1748.627000,1
Ř,4f8762cddb0b7e2fb546d5961036fe178cdc971c,are-we-fast-r,Storage,1635.475000,1
Ř,4f8762cddb0b7e2fb546d5961036fe178cdc971c,are-we-fast-r,Storage,672.407000,1
Ř,4f8762cddb0b7e2fb546d5961036fe178cdc971c,are-we-fast-r,Storage,596.109000,1
Ř,4f8762cddb0b7e2fb546d5961036fe178cdc971c,are-we-fast-r,Storage,584.118000,1
Ř,4f8762cddb0b7e2fb546d5961036fe178cdc971c,are-we-fast-r,Storage,977.301000,1
Ř,4f8762cddb0b7e2fb546d5961036fe178cdc971c,are-we-fast-r,Storage,689.333000,1
Ř,4f8762cddb0b7e2fb546d5961036fe178cdc971c,are-we-fast-r,Bounce_nonames,1478.120000,0
Ř,4f8762cddb0b7e2fb546d5961036fe178cdc971c,are-we-fast-r,Bounce_nonames,142.825000,0
Ř,4f8762cddb0b7e2fb546d5961036fe178cdc971c,are-we-fast-r,Bounce_nonames,152.141000,0
Ř,4f8762cddb0b7e2fb546d5961036fe178cdc971c,are-we-fast-r,Bounce_nonames,143.687000,0
Ř,4f8762cddb0b7e2fb546d5961036fe178cdc971c,are-we-fast-r,Bounce_nonames,142.834000,0
Ř,4f8762cddb0b7e2fb546d5961036fe178cdc971c,are-we-fast-r,Bounce_nonames,146.625000,1
Ř,4f8762cddb0b7e2fb546d5961036fe178cdc971c,are-we-fast-r,Bounce_nonames,143.575000,1
Ř,4f8762cddb0b7e2fb546d5961036fe178cdc971c,are-we-fast-r,Bounce_nonames,142.239000,1
Ř,4f8762cddb0b7e2fb546d5961036fe178cdc971c,are-we-fast-r,Bounce_nonames,142.842000,1
Ř,4f8762cddb0b7e2fb546d5961036fe178cdc971c,are-we-fast-r,Bounce_nonames,141.762000,1
Ř,4f8762cddb0b7e2fb546d5961036fe178cdc971c,are-we-fast-r,Bounce_nonames,143.580000,1
Ř,4f8762cddb0b7e2fb546d5961036fe178cdc971c,are-we-fast-r,Bounce_nonames,145.165000,1
Ř,4f8762cddb0b7e2fb546d5961036fe178cdc971c,are-we-fast-r,Bounce_nonames,143.029000,1
Ř,4f8762cddb0b7e2fb546d5961036fe178cdc971c,are-we-fast-r,Bounce_nonames,143.488000,1
Ř,4f8762cddb0b7e2fb546d5961036fe178cdc971c,are-we-fast-r,Bounce_nonames,143.006000,1
Ř,4f8762cddb0b7e2fb546d5961036fe178cdc971c,are-we-fast-r,Bounce,2289.113000,0
Ř,4f8762cddb0b7e2fb546d5961036fe178cdc971c,are-we-fast-r,Bounce,854.268000,0
Ř,4f8762cddb0b7e2fb546d5961036fe178cdc971c,are-we-fast-r,Bounce,870.104000,0
Ř,4f8762cddb0b7e2fb546d5961036fe178cdc971c,are-we-fast-r,Bounce,851.627000,0
Ř,4f8762cddb0b7e2fb546d5961036fe178cdc971c,are-we-fast-r,Bounce,831.884000,0
Ř,4f8762cddb0b7e2fb546d5961036fe178cdc971c,are-we-fast-r,Bounce,850.387000,1
Ř,4f8762cddb0b7e2fb546d5961036fe178cdc971c,are-we-fast-r,Bounce,861.319000,1
Ř,4f8762cddb0b7e2fb546d5961036fe178cdc971c,are-we-fast-r,Bounce,823.453000,1
Ř,4f8762cddb0b7e2fb546d5961036fe178cdc971c,are-we-fast-r,Bounce,840.307000,1
Ř,4f8762cddb0b7e2fb546d5961036fe178cdc971c,are-we-fast-r,Bounce,855.789000,1
Ř,4f8762cddb0b7e2fb546d5961036fe178cdc971c,are-we-fast-r,Bounce,835.393000,1
Ř,4f8762cddb0b7e2fb546d5961036fe178cdc971c,are-we-fast-r,Bounce,828.926000,1
Ř,4f8762cddb0b7e2fb546d5961036fe178cdc971c,are-we-fast-r,Bounce,850.072000,1
Ř,4f8762cddb0b7e2fb546d5961036fe178cdc971c,are-we-fast-r,Bounce,856.477000,1
Ř,4f8762cddb0b7e2fb546d5961036fe178cdc971c,are-we-fast-r,Bounce,822.535000,1
