vm,commit,suite,benchmark,ms,warm
Ř,c75dea2f6f5184e720371220aa8938fd6719f4e9,simple,superWhile,2942.101000,0
Ř,c75dea2f6f5184e720371220aa8938fd6719f4e9,simple,superWhile,2964.553000,0
Ř,c75dea2f6f5184e720371220aa8938fd6719f4e9,simple,superWhile,54.983000,0
Ř,c75dea2f6f5184e720371220aa8938fd6719f4e9,simple,superWhile,20.401000,0
Ř,c75dea2f6f5184e720371220aa8938fd6719f4e9,simple,superWhile,20.377000,0
Ř,c75dea2f6f5184e720371220aa8938fd6719f4e9,simple,superWhile,20.374000,1
Ř,c75dea2f6f5184e720371220aa8938fd6719f4e9,simple,superWhile,20.341000,1
Ř,c75dea2f6f5184e720371220aa8938fd6719f4e9,simple,superWhile,20.374000,1
Ř,c75dea2f6f5184e720371220aa8938fd6719f4e9,simple,superWhile,20.374000,1
Ř,c75dea2f6f5184e720371220aa8938fd6719f4e9,simple,superWhile,20.373000,1
Ř,c75dea2f6f5184e720371220aa8938fd6719f4e9,simple,superWhile,20.373000,1
Ř,c75dea2f6f5184e720371220aa8938fd6719f4e9,simple,superWhile,20.377000,1
Ř,c75dea2f6f5184e720371220aa8938fd6719f4e9,simple,superWhile,20.375000,1
Ř,c75dea2f6f5184e720371220aa8938fd6719f4e9,simple,superWhile,20.334000,1
Ř,c75dea2f6f5184e720371220aa8938fd6719f4e9,simple,superWhile,20.374000,1
Ř,c75dea2f6f5184e720371220aa8938fd6719f4e9,simple,matrixFor,406.318000,0
Ř,c75dea2f6f5184e720371220aa8938fd6719f4e9,simple,matrixFor,433.002000,0
Ř,c75dea2f6f5184e720371220aa8938fd6719f4e9,simple,matrixFor,164.544000,0
Ř,c75dea2f6f5184e720371220aa8938fd6719f4e9,simple,matrixFor,55.269000,0
Ř,c75dea2f6f5184e720371220aa8938fd6719f4e9,simple,matrixFor,55.105000,0
Ř,c75dea2f6f5184e720371220aa8938fd6719f4e9,simple,matrixFor,55.196000,1
Ř,c75dea2f6f5184e720371220aa8938fd6719f4e9,simple,matrixFor,55.116000,1
Ř,c75dea2f6f5184e720371220aa8938fd6719f4e9,simple,matrixFor,55.168000,1
Ř,c75dea2f6f5184e720371220aa8938fd6719f4e9,simple,matrixFor,55.110000,1
Ř,c75dea2f6f5184e720371220aa8938fd6719f4e9,simple,matrixFor,55.113000,1
Ř,c75dea2f6f5184e720371220aa8938fd6719f4e9,simple,matrixFor,55.175000,1
Ř,c75dea2f6f5184e720371220aa8938fd6719f4e9,simple,matrixFor,55.114000,1
Ř,c75dea2f6f5184e720371220aa8938fd6719f4e9,simple,matrixFor,55.154000,1
Ř,c75dea2f6f5184e720371220aa8938fd6719f4e9,simple,matrixFor,55.183000,1
Ř,c75dea2f6f5184e720371220aa8938fd6719f4e9,simple,matrixFor,55.122000,1
Ř,c75dea2f6f5184e720371220aa8938fd6719f4e9,simple,vectorWhile,2234.145000,0
Ř,c75dea2f6f5184e720371220aa8938fd6719f4e9,simple,vectorWhile,2215.845000,0
Ř,c75dea2f6f5184e720371220aa8938fd6719f4e9,simple,vectorWhile,184.344000,0
Ř,c75dea2f6f5184e720371220aa8938fd6719f4e9,simple,vectorWhile,127.931000,0
Ř,c75dea2f6f5184e720371220aa8938fd6719f4e9,simple,vectorWhile,143.358000,0
Ř,c75dea2f6f5184e720371220aa8938fd6719f4e9,simple,vectorWhile,129.674000,1
Ř,c75dea2f6f5184e720371220aa8938fd6719f4e9,simple,vectorWhile,129.782000,1
Ř,c75dea2f6f5184e720371220aa8938fd6719f4e9,simple,vectorWhile,129.752000,1
Ř,c75dea2f6f5184e720371220aa8938fd6719f4e9,simple,vectorWhile,129.675000,1
Ř,c75dea2f6f5184e720371220aa8938fd6719f4e9,simple,vectorWhile,129.769000,1
Ř,c75dea2f6f5184e720371220aa8938fd6719f4e9,simple,vectorWhile,129.673000,1
Ř,c75dea2f6f5184e720371220aa8938fd6719f4e9,simple,vectorWhile,129.751000,1
Ř,c75dea2f6f5184e720371220aa8938fd6719f4e9,simple,vectorWhile,129.670000,1
Ř,c75dea2f6f5184e720371220aa8938fd6719f4e9,simple,vectorWhile,129.740000,1
Ř,c75dea2f6f5184e720371220aa8938fd6719f4e9,simple,vectorWhile,129.725000,1
Ř,c75dea2f6f5184e720371220aa8938fd6719f4e9,simple,emptyFor,3269.500000,0
Ř,c75dea2f6f5184e720371220aa8938fd6719f4e9,simple,emptyFor,3255.090000,0
Ř,c75dea2f6f5184e720371220aa8938fd6719f4e9,simple,emptyFor,15.803000,0
Ř,c75dea2f6f5184e720371220aa8938fd6719f4e9,simple,emptyFor,0.027000,0
Ř,c75dea2f6f5184e720371220aa8938fd6719f4e9,simple,emptyFor,0.010000,0
Ř,c75dea2f6f5184e720371220aa8938fd6719f4e9,simple,emptyFor,0.008000,1
Ř,c75dea2f6f5184e720371220aa8938fd6719f4e9,simple,emptyFor,0.008000,1
Ř,c75dea2f6f5184e720371220aa8938fd6719f4e9,simple,emptyFor,0.008000,1
Ř,c75dea2f6f5184e720371220aa8938fd6719f4e9,simple,emptyFor,0.008000,1
Ř,c75dea2f6f5184e720371220aa8938fd6719f4e9,simple,emptyFor,0.008000,1
Ř,c75dea2f6f5184e720371220aa8938fd6719f4e9,simple,emptyFor,0.008000,1
Ř,c75dea2f6f5184e720371220aa8938fd6719f4e9,simple,emptyFor,0.008000,1
Ř,c75dea2f6f5184e720371220aa8938fd6719f4e9,simple,emptyFor,0.008000,1
Ř,c75dea2f6f5184e720371220aa8938fd6719f4e9,simple,emptyFor,0.008000,1
Ř,c75dea2f6f5184e720371220aa8938fd6719f4e9,simple,emptyFor,0.009000,1
Ř,c75dea2f6f5184e720371220aa8938fd6719f4e9,simple,lapplyDots,772.677000,0
Ř,c75dea2f6f5184e720371220aa8938fd6719f4e9,simple,lapplyDots,894.235000,0
Ř,c75dea2f6f5184e720371220aa8938fd6719f4e9,simple,lapplyDots,815.229000,0
Ř,c75dea2f6f5184e720371220aa8938fd6719f4e9,simple,lapplyDots,1040.678000,0
Ř,c75dea2f6f5184e720371220aa8938fd6719f4e9,simple,lapplyDots,976.772000,0
Ř,c75dea2f6f5184e720371220aa8938fd6719f4e9,simple,lapplyDots,919.770000,1
Ř,c75dea2f6f5184e720371220aa8938fd6719f4e9,simple,lapplyDots,941.274000,1
Ř,c75dea2f6f5184e720371220aa8938fd6719f4e9,simple,lapplyDots,814.063000,1
Ř,c75dea2f6f5184e720371220aa8938fd6719f4e9,simple,lapplyDots,920.154000,1
Ř,c75dea2f6f5184e720371220aa8938fd6719f4e9,simple,lapplyDots,939.084000,1
Ř,c75dea2f6f5184e720371220aa8938fd6719f4e9,simple,lapplyDots,960.691000,1
Ř,c75dea2f6f5184e720371220aa8938fd6719f4e9,simple,lapplyDots,794.160000,1
Ř,c75dea2f6f5184e720371220aa8938fd6719f4e9,simple,lapplyDots,941.132000,1
Ř,c75dea2f6f5184e720371220aa8938fd6719f4e9,simple,lapplyDots,959.762000,1
Ř,c75dea2f6f5184e720371220aa8938fd6719f4e9,simple,lapplyDots,920.394000,1
Ř,c75dea2f6f5184e720371220aa8938fd6719f4e9,simple,scalarWhile,2289.317000,0
Ř,c75dea2f6f5184e720371220aa8938fd6719f4e9,simple,scalarWhile,2257.983000,0
Ř,c75dea2f6f5184e720371220aa8938fd6719f4e9,simple,scalarWhile,44.044000,0
Ř,c75dea2f6f5184e720371220aa8938fd6719f4e9,simple,scalarWhile,25.473000,0
Ř,c75dea2f6f5184e720371220aa8938fd6719f4e9,simple,scalarWhile,25.505000,0
Ř,c75dea2f6f5184e720371220aa8938fd6719f4e9,simple,scalarWhile,25.446000,1
Ř,c75dea2f6f5184e720371220aa8938fd6719f4e9,simple,scalarWhile,25.445000,1
Ř,c75dea2f6f5184e720371220aa8938fd6719f4e9,simple,scalarWhile,25.488000,1
Ř,c75dea2f6f5184e720371220aa8938fd6719f4e9,simple,scalarWhile,25.444000,1
Ř,c75dea2f6f5184e720371220aa8938fd6719f4e9,simple,scalarWhile,25.447000,1
Ř,c75dea2f6f5184e720371220aa8938fd6719f4e9,simple,scalarWhile,25.493000,1
Ř,c75dea2f6f5184e720371220aa8938fd6719f4e9,simple,scalarWhile,25.445000,1
Ř,c75dea2f6f5184e720371220aa8938fd6719f4e9,simple,scalarWhile,25.444000,1
Ř,c75dea2f6f5184e720371220aa8938fd6719f4e9,simple,scalarWhile,25.487000,1
Ř,c75dea2f6f5184e720371220aa8938fd6719f4e9,simple,scalarWhile,25.447000,1
Ř,c75dea2f6f5184e720371220aa8938fd6719f4e9,simple,listWhile,170.531000,0
Ř,c75dea2f6f5184e720371220aa8938fd6719f4e9,simple,listWhile,164.793000,0
Ř,c75dea2f6f5184e720371220aa8938fd6719f4e9,simple,listWhile,131.395000,0
Ř,c75dea2f6f5184e720371220aa8938fd6719f4e9,simple,listWhile,69.205000,0
Ř,c75dea2f6f5184e720371220aa8938fd6719f4e9,simple,listWhile,65.221000,0
Ř,c75dea2f6f5184e720371220aa8938fd6719f4e9,simple,listWhile,73.250000,1
Ř,c75dea2f6f5184e720371220aa8938fd6719f4e9,simple,listWhile,85.848000,1
Ř,c75dea2f6f5184e720371220aa8938fd6719f4e9,simple,listWhile,52.530000,1
Ř,c75dea2f6f5184e720371220aa8938fd6719f4e9,simple,listWhile,66.863000,1
Ř,c75dea2f6f5184e720371220aa8938fd6719f4e9,simple,listWhile,61.337000,1
Ř,c75dea2f6f5184e720371220aa8938fd6719f4e9,simple,listWhile,67.768000,1
Ř,c75dea2f6f5184e720371220aa8938fd6719f4e9,simple,listWhile,60.715000,1
Ř,c75dea2f6f5184e720371220aa8938fd6719f4e9,simple,listWhile,81.592000,1
Ř,c75dea2f6f5184e720371220aa8938fd6719f4e9,simple,listWhile,57.273000,1
Ř,c75dea2f6f5184e720371220aa8938fd6719f4e9,simple,listWhile,64.366000,1
Ř,c75dea2f6f5184e720371220aa8938fd6719f4e9,simple,scalarFor,4752.088000,0
Ř,c75dea2f6f5184e720371220aa8938fd6719f4e9,simple,scalarFor,5137.222000,0
Ř,c75dea2f6f5184e720371220aa8938fd6719f4e9,simple,scalarFor,17.425000,0
Ř,c75dea2f6f5184e720371220aa8938fd6719f4e9,simple,scalarFor,0.027000,0
Ř,c75dea2f6f5184e720371220aa8938fd6719f4e9,simple,scalarFor,0.010000,0
Ř,c75dea2f6f5184e720371220aa8938fd6719f4e9,simple,scalarFor,0.008000,1
Ř,c75dea2f6f5184e720371220aa8938fd6719f4e9,simple,scalarFor,0.008000,1
Ř,c75dea2f6f5184e720371220aa8938fd6719f4e9,simple,scalarFor,0.007000,1
Ř,c75dea2f6f5184e720371220aa8938fd6719f4e9,simple,scalarFor,0.008000,1
Ř,c75dea2f6f5184e720371220aa8938fd6719f4e9,simple,scalarFor,0.008000,1
Ř,c75dea2f6f5184e720371220aa8938fd6719f4e9,simple,scalarFor,0.008000,1
Ř,c75dea2f6f5184e720371220aa8938fd6719f4e9,simple,scalarFor,0.008000,1
Ř,c75dea2f6f5184e720371220aa8938fd6719f4e9,simple,scalarFor,0.008000,1
Ř,c75dea2f6f5184e720371220aa8938fd6719f4e9,simple,scalarFor,0.007000,1
Ř,c75dea2f6f5184e720371220aa8938fd6719f4e9,simple,scalarFor,0.007000,1
Ř,c75dea2f6f5184e720371220aa8938fd6719f4e9,simple,lapply,655.914000,0
Ř,c75dea2f6f5184e720371220aa8938fd6719f4e9,simple,lapply,769.670000,0
Ř,c75dea2f6f5184e720371220aa8938fd6719f4e9,simple,lapply,831.898000,0
Ř,c75dea2f6f5184e720371220aa8938fd6719f4e9,simple,lapply,754.252000,0
Ř,c75dea2f6f5184e720371220aa8938fd6719f4e9,simple,lapply,878.188000,0
Ř,c75dea2f6f5184e720371220aa8938fd6719f4e9,simple,lapply,756.582000,1
Ř,c75dea2f6f5184e720371220aa8938fd6719f4e9,simple,lapply,767.982000,1
Ř,c75dea2f6f5184e720371220aa8938fd6719f4e9,simple,lapply,774.432000,1
Ř,c75dea2f6f5184e720371220aa8938fd6719f4e9,simple,lapply,567.952000,1
Ř,c75dea2f6f5184e720371220aa8938fd6719f4e9,simple,lapply,673.030000,1
Ř,c75dea2f6f5184e720371220aa8938fd6719f4e9,simple,lapply,685.449000,1
Ř,c75dea2f6f5184e720371220aa8938fd6719f4e9,simple,lapply,708.778000,1
Ř,c75dea2f6f5184e720371220aa8938fd6719f4e9,simple,lapply,659.282000,1
Ř,c75dea2f6f5184e720371220aa8938fd6719f4e9,simple,lapply,575.511000,1
Ř,c75dea2f6f5184e720371220aa8938fd6719f4e9,simple,lapply,693.211000,1
Ř,c75dea2f6f5184e720371220aa8938fd6719f4e9,simple,vectorFor,1058.463000,0
Ř,c75dea2f6f5184e720371220aa8938fd6719f4e9,simple,vectorFor,1031.126000,0
Ř,c75dea2f6f5184e720371220aa8938fd6719f4e9,simple,vectorFor,76.444000,0
Ř,c75dea2f6f5184e720371220aa8938fd6719f4e9,simple,vectorFor,34.322000,0
Ř,c75dea2f6f5184e720371220aa8938fd6719f4e9,simple,vectorFor,34.257000,0
Ř,c75dea2f6f5184e720371220aa8938fd6719f4e9,simple,vectorFor,34.261000,1
Ř,c75dea2f6f5184e720371220aa8938fd6719f4e9,simple,vectorFor,34.228000,1
Ř,c75dea2f6f5184e720371220aa8938fd6719f4e9,simple,vectorFor,34.233000,1
Ř,c75dea2f6f5184e720371220aa8938fd6719f4e9,simple,vectorFor,34.264000,1
Ř,c75dea2f6f5184e720371220aa8938fd6719f4e9,simple,vectorFor,34.238000,1
Ř,c75dea2f6f5184e720371220aa8938fd6719f4e9,simple,vectorFor,34.238000,1
Ř,c75dea2f6f5184e720371220aa8938fd6719f4e9,simple,vectorFor,34.268000,1
Ř,c75dea2f6f5184e720371220aa8938fd6719f4e9,simple,vectorFor,34.222000,1
Ř,c75dea2f6f5184e720371220aa8938fd6719f4e9,simple,vectorFor,34.245000,1
Ř,c75dea2f6f5184e720371220aa8938fd6719f4e9,simple,vectorFor,34.260000,1
Ř,c75dea2f6f5184e720371220aa8938fd6719f4e9,simple,bytecodes,4310.386000,0
Ř,c75dea2f6f5184e720371220aa8938fd6719f4e9,simple,bytecodes,4074.095000,0
Ř,c75dea2f6f5184e720371220aa8938fd6719f4e9,simple,bytecodes,239.839000,0
Ř,c75dea2f6f5184e720371220aa8938fd6719f4e9,simple,bytecodes,9.205000,0
Ř,c75dea2f6f5184e720371220aa8938fd6719f4e9,simple,bytecodes,9.184000,0
Ř,c75dea2f6f5184e720371220aa8938fd6719f4e9,simple,bytecodes,9.136000,1
Ř,c75dea2f6f5184e720371220aa8938fd6719f4e9,simple,bytecodes,9.179000,1
Ř,c75dea2f6f5184e720371220aa8938fd6719f4e9,simple,bytecodes,9.181000,1
Ř,c75dea2f6f5184e720371220aa8938fd6719f4e9,simple,bytecodes,9.179000,1
Ř,c75dea2f6f5184e720371220aa8938fd6719f4e9,simple,bytecodes,9.179000,1
Ř,c75dea2f6f5184e720371220aa8938fd6719f4e9,simple,bytecodes,9.180000,1
Ř,c75dea2f6f5184e720371220aa8938fd6719f4e9,simple,bytecodes,9.135000,1
Ř,c75dea2f6f5184e720371220aa8938fd6719f4e9,simple,bytecodes,9.178000,1
Ř,c75dea2f6f5184e720371220aa8938fd6719f4e9,simple,bytecodes,9.179000,1
Ř,c75dea2f6f5184e720371220aa8938fd6719f4e9,simple,bytecodes,9.192000,1
Ř,c75dea2f6f5184e720371220aa8938fd6719f4e9,simple,emptyWhile,2172.625000,0
Ř,c75dea2f6f5184e720371220aa8938fd6719f4e9,simple,emptyWhile,2169.723000,0
Ř,c75dea2f6f5184e720371220aa8938fd6719f4e9,simple,emptyWhile,47.049000,0
Ř,c75dea2f6f5184e720371220aa8938fd6719f4e9,simple,emptyWhile,30.538000,0
Ř,c75dea2f6f5184e720371220aa8938fd6719f4e9,simple,emptyWhile,30.560000,0
Ř,c75dea2f6f5184e720371220aa8938fd6719f4e9,simple,emptyWhile,30.557000,1
Ř,c75dea2f6f5184e720371220aa8938fd6719f4e9,simple,emptyWhile,30.567000,1
Ř,c75dea2f6f5184e720371220aa8938fd6719f4e9,simple,emptyWhile,30.556000,1
Ř,c75dea2f6f5184e720371220aa8938fd6719f4e9,simple,emptyWhile,30.512000,1
Ř,c75dea2f6f5184e720371220aa8938fd6719f4e9,simple,emptyWhile,30.556000,1
Ř,c75dea2f6f5184e720371220aa8938fd6719f4e9,simple,emptyWhile,30.558000,1
Ř,c75dea2f6f5184e720371220aa8938fd6719f4e9,simple,emptyWhile,30.560000,1
Ř,c75dea2f6f5184e720371220aa8938fd6719f4e9,simple,emptyWhile,30.515000,1
Ř,c75dea2f6f5184e720371220aa8938fd6719f4e9,simple,emptyWhile,30.555000,1
Ř,c75dea2f6f5184e720371220aa8938fd6719f4e9,simple,emptyWhile,30.560000,1
Ř,c75dea2f6f5184e720371220aa8938fd6719f4e9,simple,listFor,203.288000,0
Ř,c75dea2f6f5184e720371220aa8938fd6719f4e9,simple,listFor,206.221000,0
Ř,c75dea2f6f5184e720371220aa8938fd6719f4e9,simple,listFor,89.328000,0
Ř,c75dea2f6f5184e720371220aa8938fd6719f4e9,simple,listFor,68.464000,0
Ř,c75dea2f6f5184e720371220aa8938fd6719f4e9,simple,listFor,78.659000,0
Ř,c75dea2f6f5184e720371220aa8938fd6719f4e9,simple,listFor,56.101000,1
Ř,c75dea2f6f5184e720371220aa8938fd6719f4e9,simple,listFor,66.848000,1
Ř,c75dea2f6f5184e720371220aa8938fd6719f4e9,simple,listFor,58.286000,1
Ř,c75dea2f6f5184e720371220aa8938fd6719f4e9,simple,listFor,68.783000,1
Ř,c75dea2f6f5184e720371220aa8938fd6719f4e9,simple,listFor,82.680000,1
Ř,c75dea2f6f5184e720371220aa8938fd6719f4e9,simple,listFor,61.836000,1
Ř,c75dea2f6f5184e720371220aa8938fd6719f4e9,simple,listFor,63.461000,1
Ř,c75dea2f6f5184e720371220aa8938fd6719f4e9,simple,listFor,71.680000,1
Ř,c75dea2f6f5184e720371220aa8938fd6719f4e9,simple,listFor,80.719000,1
Ř,c75dea2f6f5184e720371220aa8938fd6719f4e9,simple,listFor,53.342000,1
Ř,c75dea2f6f5184e720371220aa8938fd6719f4e9,shootout,spectralnorm_naive,954.341000,0
Ř,c75dea2f6f5184e720371220aa8938fd6719f4e9,shootout,spectralnorm_naive,1085.779000,0
Ř,c75dea2f6f5184e720371220aa8938fd6719f4e9,shootout,spectralnorm_naive,1186.236000,0
Ř,c75dea2f6f5184e720371220aa8938fd6719f4e9,shootout,spectralnorm_naive,40.643000,0
Ř,c75dea2f6f5184e720371220aa8938fd6719f4e9,shootout,spectralnorm_naive,40.835000,0
Ř,c75dea2f6f5184e720371220aa8938fd6719f4e9,shootout,spectralnorm_naive,40.710000,1
Ř,c75dea2f6f5184e720371220aa8938fd6719f4e9,shootout,spectralnorm_naive,40.721000,1
Ř,c75dea2f6f5184e720371220aa8938fd6719f4e9,shootout,spectralnorm_naive,40.787000,1
Ř,c75dea2f6f5184e720371220aa8938fd6719f4e9,shootout,spectralnorm_naive,40.830000,1
Ř,c75dea2f6f5184e720371220aa8938fd6719f4e9,shootout,spectralnorm_naive,40.855000,1
Ř,c75dea2f6f5184e720371220aa8938fd6719f4e9,shootout,spectralnorm_naive,40.849000,1
Ř,c75dea2f6f5184e720371220aa8938fd6719f4e9,shootout,spectralnorm_naive,40.774000,1
Ř,c75dea2f6f5184e720371220aa8938fd6719f4e9,shootout,spectralnorm_naive,40.840000,1
Ř,c75dea2f6f5184e720371220aa8938fd6719f4e9,shootout,spectralnorm_naive,40.702000,1
Ř,c75dea2f6f5184e720371220aa8938fd6719f4e9,shootout,spectralnorm_naive,42.223000,1
Ř,c75dea2f6f5184e720371220aa8938fd6719f4e9,shootout,fasta_2,1136.082000,0
Ř,c75dea2f6f5184e720371220aa8938fd6719f4e9,shootout,fasta_2,1578.368000,0
Ř,c75dea2f6f5184e720371220aa8938fd6719f4e9,shootout,fasta_2,2307.259000,0
Ř,c75dea2f6f5184e720371220aa8938fd6719f4e9,shootout,fasta_2,891.409000,0
Ř,c75dea2f6f5184e720371220aa8938fd6719f4e9,shootout,fasta_2,874.568000,0
Ř,c75dea2f6f5184e720371220aa8938fd6719f4e9,shootout,fasta_2,872.267000,1
Ř,c75dea2f6f5184e720371220aa8938fd6719f4e9,shootout,fasta_2,879.890000,1
Ř,c75dea2f6f5184e720371220aa8938fd6719f4e9,shootout,fasta_2,876.192000,1
Ř,c75dea2f6f5184e720371220aa8938fd6719f4e9,shootout,fasta_2,916.736000,1
Ř,c75dea2f6f5184e720371220aa8938fd6719f4e9,shootout,fasta_2,920.013000,1
Ř,c75dea2f6f5184e720371220aa8938fd6719f4e9,shootout,fasta_2,873.447000,1
Ř,c75dea2f6f5184e720371220aa8938fd6719f4e9,shootout,fasta_2,874.181000,1
Ř,c75dea2f6f5184e720371220aa8938fd6719f4e9,shootout,fasta_2,875.548000,1
Ř,c75dea2f6f5184e720371220aa8938fd6719f4e9,shootout,fasta_2,875.632000,1
Ř,c75dea2f6f5184e720371220aa8938fd6719f4e9,shootout,fasta_2,878.595000,1
Ř,c75dea2f6f5184e720371220aa8938fd6719f4e9,shootout,nbody_3,2032.127000,0
Ř,c75dea2f6f5184e720371220aa8938fd6719f4e9,shootout,nbody_3,2150.396000,0
Ř,c75dea2f6f5184e720371220aa8938fd6719f4e9,shootout,nbody_3,2240.671000,0
Ř,c75dea2f6f5184e720371220aa8938fd6719f4e9,shootout,nbody_3,1096.793000,0
Ř,c75dea2f6f5184e720371220aa8938fd6719f4e9,shootout,nbody_3,1106.061000,0
Ř,c75dea2f6f5184e720371220aa8938fd6719f4e9,shootout,nbody_3,1098.494000,1
Ř,c75dea2f6f5184e720371220aa8938fd6719f4e9,shootout,nbody_3,1106.534000,1
Ř,c75dea2f6f5184e720371220aa8938fd6719f4e9,shootout,nbody_3,1096.952000,1
Ř,c75dea2f6f5184e720371220aa8938fd6719f4e9,shootout,nbody_3,1109.743000,1
Ř,c75dea2f6f5184e720371220aa8938fd6719f4e9,shootout,nbody_3,1095.088000,1
Ř,c75dea2f6f5184e720371220aa8938fd6719f4e9,shootout,nbody_3,1097.044000,1
Ř,c75dea2f6f5184e720371220aa8938fd6719f4e9,shootout,nbody_3,1108.437000,1
Ř,c75dea2f6f5184e720371220aa8938fd6719f4e9,shootout,nbody_3,1096.151000,1
Ř,c75dea2f6f5184e720371220aa8938fd6719f4e9,shootout,nbody_3,1107.252000,1
Ř,c75dea2f6f5184e720371220aa8938fd6719f4e9,shootout,nbody_3,1098.117000,1
Ř,c75dea2f6f5184e720371220aa8938fd6719f4e9,shootout,reversecomplement,580.670000,0
Ř,c75dea2f6f5184e720371220aa8938fd6719f4e9,shootout,reversecomplement,673.700000,0
Ř,c75dea2f6f5184e720371220aa8938fd6719f4e9,shootout,reversecomplement,1313.372000,0
Ř,c75dea2f6f5184e720371220aa8938fd6719f4e9,shootout,reversecomplement,463.920000,0
Ř,c75dea2f6f5184e720371220aa8938fd6719f4e9,shootout,reversecomplement,470.409000,0
Ř,c75dea2f6f5184e720371220aa8938fd6719f4e9,shootout,reversecomplement,473.193000,1
Ř,c75dea2f6f5184e720371220aa8938fd6719f4e9,shootout,reversecomplement,479.053000,1
Ř,c75dea2f6f5184e720371220aa8938fd6719f4e9,shootout,reversecomplement,471.181000,1
Ř,c75dea2f6f5184e720371220aa8938fd6719f4e9,shootout,reversecomplement,474.355000,1
Ř,c75dea2f6f5184e720371220aa8938fd6719f4e9,shootout,reversecomplement,470.114000,1
Ř,c75dea2f6f5184e720371220aa8938fd6719f4e9,shootout,reversecomplement,474.369000,1
Ř,c75dea2f6f5184e720371220aa8938fd6719f4e9,shootout,reversecomplement,468.567000,1
Ř,c75dea2f6f5184e720371220aa8938fd6719f4e9,shootout,reversecomplement,472.733000,1
Ř,c75dea2f6f5184e720371220aa8938fd6719f4e9,shootout,reversecomplement,469.296000,1
Ř,c75dea2f6f5184e720371220aa8938fd6719f4e9,shootout,reversecomplement,475.080000,1
Ř,c75dea2f6f5184e720371220aa8938fd6719f4e9,shootout,mandelbrot_naive_ascii,633.631000,0
Ř,c75dea2f6f5184e720371220aa8938fd6719f4e9,shootout,mandelbrot_naive_ascii,638.252000,0
Ř,c75dea2f6f5184e720371220aa8938fd6719f4e9,shootout,mandelbrot_naive_ascii,1170.789000,0
Ř,c75dea2f6f5184e720371220aa8938fd6719f4e9,shootout,mandelbrot_naive_ascii,206.217000,0
Ř,c75dea2f6f5184e720371220aa8938fd6719f4e9,shootout,mandelbrot_naive_ascii,200.863000,0
Ř,c75dea2f6f5184e720371220aa8938fd6719f4e9,shootout,mandelbrot_naive_ascii,201.088000,1
Ř,c75dea2f6f5184e720371220aa8938fd6719f4e9,shootout,mandelbrot_naive_ascii,200.571000,1
Ř,c75dea2f6f5184e720371220aa8938fd6719f4e9,shootout,mandelbrot_naive_ascii,201.576000,1
Ř,c75dea2f6f5184e720371220aa8938fd6719f4e9,shootout,mandelbrot_naive_ascii,200.863000,1
Ř,c75dea2f6f5184e720371220aa8938fd6719f4e9,shootout,mandelbrot_naive_ascii,199.847000,1
Ř,c75dea2f6f5184e720371220aa8938fd6719f4e9,shootout,mandelbrot_naive_ascii,206.152000,1
Ř,c75dea2f6f5184e720371220aa8938fd6719f4e9,shootout,mandelbrot_naive_ascii,201.217000,1
Ř,c75dea2f6f5184e720371220aa8938fd6719f4e9,shootout,mandelbrot_naive_ascii,201.450000,1
Ř,c75dea2f6f5184e720371220aa8938fd6719f4e9,shootout,mandelbrot_naive_ascii,202.435000,1
Ř,c75dea2f6f5184e720371220aa8938fd6719f4e9,shootout,mandelbrot_naive_ascii,200.463000,1
Ř,c75dea2f6f5184e720371220aa8938fd6719f4e9,shootout,nbody,2395.298000,0
Ř,c75dea2f6f5184e720371220aa8938fd6719f4e9,shootout,nbody,2406.363000,0
Ř,c75dea2f6f5184e720371220aa8938fd6719f4e9,shootout,nbody,2306.592000,0
Ř,c75dea2f6f5184e720371220aa8938fd6719f4e9,shootout,nbody,783.943000,0
Ř,c75dea2f6f5184e720371220aa8938fd6719f4e9,shootout,nbody,780.737000,0
Ř,c75dea2f6f5184e720371220aa8938fd6719f4e9,shootout,nbody,772.238000,1
Ř,c75dea2f6f5184e720371220aa8938fd6719f4e9,shootout,nbody,770.906000,1
Ř,c75dea2f6f5184e720371220aa8938fd6719f4e9,shootout,nbody,768.625000,1
Ř,c75dea2f6f5184e720371220aa8938fd6719f4e9,shootout,nbody,780.468000,1
Ř,c75dea2f6f5184e720371220aa8938fd6719f4e9,shootout,nbody,771.977000,1
Ř,c75dea2f6f5184e720371220aa8938fd6719f4e9,shootout,nbody,771.480000,1
Ř,c75dea2f6f5184e720371220aa8938fd6719f4e9,shootout,nbody,768.975000,1
Ř,c75dea2f6f5184e720371220aa8938fd6719f4e9,shootout,nbody,783.667000,1
Ř,c75dea2f6f5184e720371220aa8938fd6719f4e9,shootout,nbody,770.194000,1
Ř,c75dea2f6f5184e720371220aa8938fd6719f4e9,shootout,nbody,773.154000,1
Ř,c75dea2f6f5184e720371220aa8938fd6719f4e9,shootout,fastaredux,656.950000,0
Ř,c75dea2f6f5184e720371220aa8938fd6719f4e9,shootout,fastaredux,1657.817000,0
Ř,c75dea2f6f5184e720371220aa8938fd6719f4e9,shootout,fastaredux,2376.907000,0
Ř,c75dea2f6f5184e720371220aa8938fd6719f4e9,shootout,fastaredux,385.377000,0
Ř,c75dea2f6f5184e720371220aa8938fd6719f4e9,shootout,fastaredux,396.423000,0
Ř,c75dea2f6f5184e720371220aa8938fd6719f4e9,shootout,fastaredux,382.194000,1
Ř,c75dea2f6f5184e720371220aa8938fd6719f4e9,shootout,fastaredux,385.662000,1
Ř,c75dea2f6f5184e720371220aa8938fd6719f4e9,shootout,fastaredux,388.485000,1
Ř,c75dea2f6f5184e720371220aa8938fd6719f4e9,shootout,fastaredux,389.532000,1
Ř,c75dea2f6f5184e720371220aa8938fd6719f4e9,shootout,fastaredux,386.825000,1
Ř,c75dea2f6f5184e720371220aa8938fd6719f4e9,shootout,fastaredux,395.932000,1
Ř,c75dea2f6f5184e720371220aa8938fd6719f4e9,shootout,fastaredux,390.445000,1
Ř,c75dea2f6f5184e720371220aa8938fd6719f4e9,shootout,fastaredux,386.177000,1
Ř,c75dea2f6f5184e720371220aa8938fd6719f4e9,shootout,fastaredux,389.378000,1
Ř,c75dea2f6f5184e720371220aa8938fd6719f4e9,shootout,fastaredux,393.406000,1
Ř,c75dea2f6f5184e720371220aa8938fd6719f4e9,shootout,knucleotide_brute_3,4434.736000,0
Ř,c75dea2f6f5184e720371220aa8938fd6719f4e9,shootout,knucleotide_brute_3,4498.015000,0
Ř,c75dea2f6f5184e720371220aa8938fd6719f4e9,shootout,knucleotide_brute_3,12384.240000,0
Ř,c75dea2f6f5184e720371220aa8938fd6719f4e9,shootout,knucleotide_brute_3,2831.244000,0
Ř,c75dea2f6f5184e720371220aa8938fd6719f4e9,shootout,knucleotide_brute_3,2838.684000,0
Ř,c75dea2f6f5184e720371220aa8938fd6719f4e9,shootout,knucleotide_brute_3,2831.372000,1
Ř,c75dea2f6f5184e720371220aa8938fd6719f4e9,shootout,knucleotide_brute_3,2834.933000,1
Ř,c75dea2f6f5184e720371220aa8938fd6719f4e9,shootout,knucleotide_brute_3,2817.822000,1
Ř,c75dea2f6f5184e720371220aa8938fd6719f4e9,shootout,knucleotide_brute_3,2840.681000,1
Ř,c75dea2f6f5184e720371220aa8938fd6719f4e9,shootout,knucleotide_brute_3,2817.029000,1
Ř,c75dea2f6f5184e720371220aa8938fd6719f4e9,shootout,knucleotide_brute_3,2829.103000,1
Ř,c75dea2f6f5184e720371220aa8938fd6719f4e9,shootout,knucleotide_brute_3,2825.267000,1
Ř,c75dea2f6f5184e720371220aa8938fd6719f4e9,shootout,knucleotide_brute_3,2824.208000,1
Ř,c75dea2f6f5184e720371220aa8938fd6719f4e9,shootout,knucleotide_brute_3,2823.667000,1
Ř,c75dea2f6f5184e720371220aa8938fd6719f4e9,shootout,knucleotide_brute_3,2824.182000,1
Ř,c75dea2f6f5184e720371220aa8938fd6719f4e9,shootout,fasta_naive_2,1037.657000,0
Ř,c75dea2f6f5184e720371220aa8938fd6719f4e9,shootout,fasta_naive_2,1248.940000,0
Ř,c75dea2f6f5184e720371220aa8938fd6719f4e9,shootout,fasta_naive_2,2386.274000,0
Ř,c75dea2f6f5184e720371220aa8938fd6719f4e9,shootout,fasta_naive_2,653.141000,0
Ř,c75dea2f6f5184e720371220aa8938fd6719f4e9,shootout,fasta_naive_2,638.573000,0
Ř,c75dea2f6f5184e720371220aa8938fd6719f4e9,shootout,fasta_naive_2,648.956000,1
Ř,c75dea2f6f5184e720371220aa8938fd6719f4e9,shootout,fasta_naive_2,638.589000,1
Ř,c75dea2f6f5184e720371220aa8938fd6719f4e9,shootout,fasta_naive_2,639.173000,1
Ř,c75dea2f6f5184e720371220aa8938fd6719f4e9,shootout,fasta_naive_2,662.521000,1
Ř,c75dea2f6f5184e720371220aa8938fd6719f4e9,shootout,fasta_naive_2,625.138000,1
Ř,c75dea2f6f5184e720371220aa8938fd6719f4e9,shootout,fasta_naive_2,639.302000,1
Ř,c75dea2f6f5184e720371220aa8938fd6719f4e9,shootout,fasta_naive_2,659.653000,1
Ř,c75dea2f6f5184e720371220aa8938fd6719f4e9,shootout,fasta_naive_2,626.540000,1
Ř,c75dea2f6f5184e720371220aa8938fd6719f4e9,shootout,fasta_naive_2,641.028000,1
Ř,c75dea2f6f5184e720371220aa8938fd6719f4e9,shootout,fasta_naive_2,659.839000,1
Ř,c75dea2f6f5184e720371220aa8938fd6719f4e9,shootout,fannkuchredux,2341.125000,0
Ř,c75dea2f6f5184e720371220aa8938fd6719f4e9,shootout,fannkuchredux,2285.335000,0
Ř,c75dea2f6f5184e720371220aa8938fd6719f4e9,shootout,fannkuchredux,3626.463000,0
Ř,c75dea2f6f5184e720371220aa8938fd6719f4e9,shootout,fannkuchredux,795.448000,0
Ř,c75dea2f6f5184e720371220aa8938fd6719f4e9,shootout,fannkuchredux,792.622000,0
Ř,c75dea2f6f5184e720371220aa8938fd6719f4e9,shootout,fannkuchredux,803.011000,1
Ř,c75dea2f6f5184e720371220aa8938fd6719f4e9,shootout,fannkuchredux,792.999000,1
Ř,c75dea2f6f5184e720371220aa8938fd6719f4e9,shootout,fannkuchredux,792.423000,1
Ř,c75dea2f6f5184e720371220aa8938fd6719f4e9,shootout,fannkuchredux,802.909000,1
Ř,c75dea2f6f5184e720371220aa8938fd6719f4e9,shootout,fannkuchredux,791.474000,1
Ř,c75dea2f6f5184e720371220aa8938fd6719f4e9,shootout,fannkuchredux,804.845000,1
Ř,c75dea2f6f5184e720371220aa8938fd6719f4e9,shootout,fannkuchredux,793.487000,1
Ř,c75dea2f6f5184e720371220aa8938fd6719f4e9,shootout,fannkuchredux,792.309000,1
Ř,c75dea2f6f5184e720371220aa8938fd6719f4e9,shootout,fannkuchredux,803.552000,1
Ř,c75dea2f6f5184e720371220aa8938fd6719f4e9,shootout,fannkuchredux,792.293000,1
Ř,c75dea2f6f5184e720371220aa8938fd6719f4e9,shootout,spectralnorm,2578.725000,0
Ř,c75dea2f6f5184e720371220aa8938fd6719f4e9,shootout,spectralnorm,2708.582000,0
Ř,c75dea2f6f5184e720371220aa8938fd6719f4e9,shootout,spectralnorm,2447.549000,0
Ř,c75dea2f6f5184e720371220aa8938fd6719f4e9,shootout,spectralnorm,71.161000,0
Ř,c75dea2f6f5184e720371220aa8938fd6719f4e9,shootout,spectralnorm,57.441000,0
Ř,c75dea2f6f5184e720371220aa8938fd6719f4e9,shootout,spectralnorm,58.736000,1
Ř,c75dea2f6f5184e720371220aa8938fd6719f4e9,shootout,spectralnorm,58.799000,1
Ř,c75dea2f6f5184e720371220aa8938fd6719f4e9,shootout,spectralnorm,57.444000,1
Ř,c75dea2f6f5184e720371220aa8938fd6719f4e9,shootout,spectralnorm,58.747000,1
Ř,c75dea2f6f5184e720371220aa8938fd6719f4e9,shootout,spectralnorm,58.656000,1
Ř,c75dea2f6f5184e720371220aa8938fd6719f4e9,shootout,spectralnorm,59.107000,1
Ř,c75dea2f6f5184e720371220aa8938fd6719f4e9,shootout,spectralnorm,57.431000,1
Ř,c75dea2f6f5184e720371220aa8938fd6719f4e9,shootout,spectralnorm,58.702000,1
Ř,c75dea2f6f5184e720371220aa8938fd6719f4e9,shootout,spectralnorm,58.771000,1
Ř,c75dea2f6f5184e720371220aa8938fd6719f4e9,shootout,spectralnorm,58.864000,1
Ř,c75dea2f6f5184e720371220aa8938fd6719f4e9,shootout,pidigits,35345.647000,0
Ř,c75dea2f6f5184e720371220aa8938fd6719f4e9,shootout,pidigits,802.953000,0
Ř,c75dea2f6f5184e720371220aa8938fd6719f4e9,shootout,pidigits,106202.633000,0
Ř,c75dea2f6f5184e720371220aa8938fd6719f4e9,shootout,pidigits,105.069000,0
Ř,c75dea2f6f5184e720371220aa8938fd6719f4e9,shootout,pidigits,114.740000,0
Ř,c75dea2f6f5184e720371220aa8938fd6719f4e9,shootout,pidigits,103.498000,1
Ř,c75dea2f6f5184e720371220aa8938fd6719f4e9,shootout,pidigits,104.280000,1
Ř,c75dea2f6f5184e720371220aa8938fd6719f4e9,shootout,pidigits,103.451000,1
Ř,c75dea2f6f5184e720371220aa8938fd6719f4e9,shootout,pidigits,103.343000,1
Ř,c75dea2f6f5184e720371220aa8938fd6719f4e9,shootout,pidigits,106.891000,1
Ř,c75dea2f6f5184e720371220aa8938fd6719f4e9,shootout,pidigits,103.382000,1
Ř,c75dea2f6f5184e720371220aa8938fd6719f4e9,shootout,pidigits,103.125000,1
Ř,c75dea2f6f5184e720371220aa8938fd6719f4e9,shootout,pidigits,104.243000,1
Ř,c75dea2f6f5184e720371220aa8938fd6719f4e9,shootout,pidigits,103.385000,1
Ř,c75dea2f6f5184e720371220aa8938fd6719f4e9,shootout,pidigits,103.699000,1
Ř,c75dea2f6f5184e720371220aa8938fd6719f4e9,shootout,nbody_naive,21776.109000,0
Ř,c75dea2f6f5184e720371220aa8938fd6719f4e9,shootout,nbody_naive,2343.498000,0
Ř,c75dea2f6f5184e720371220aa8938fd6719f4e9,shootout,nbody_naive,42267.259000,0
Ř,c75dea2f6f5184e720371220aa8938fd6719f4e9,shootout,nbody_naive,152.338000,0
Ř,c75dea2f6f5184e720371220aa8938fd6719f4e9,shootout,nbody_naive,157.011000,0
Ř,c75dea2f6f5184e720371220aa8938fd6719f4e9,shootout,nbody_naive,153.839000,1
Ř,c75dea2f6f5184e720371220aa8938fd6719f4e9,shootout,nbody_naive,153.436000,1
Ř,c75dea2f6f5184e720371220aa8938fd6719f4e9,shootout,nbody_naive,149.143000,1
Ř,c75dea2f6f5184e720371220aa8938fd6719f4e9,shootout,nbody_naive,149.384000,1
Ř,c75dea2f6f5184e720371220aa8938fd6719f4e9,shootout,nbody_naive,155.602000,1
Ř,c75dea2f6f5184e720371220aa8938fd6719f4e9,shootout,nbody_naive,152.183000,1
Ř,c75dea2f6f5184e720371220aa8938fd6719f4e9,shootout,nbody_naive,151.010000,1
Ř,c75dea2f6f5184e720371220aa8938fd6719f4e9,shootout,nbody_naive,148.868000,1
Ř,c75dea2f6f5184e720371220aa8938fd6719f4e9,shootout,nbody_naive,163.043000,1
Ř,c75dea2f6f5184e720371220aa8938fd6719f4e9,shootout,nbody_naive,152.596000,1
Ř,c75dea2f6f5184e720371220aa8938fd6719f4e9,shootout,binarytrees,1004.501000,0
Ř,c75dea2f6f5184e720371220aa8938fd6719f4e9,shootout,binarytrees,194.576000,0
Ř,c75dea2f6f5184e720371220aa8938fd6719f4e9,shootout,binarytrees,1391.983000,0
Ř,c75dea2f6f5184e720371220aa8938fd6719f4e9,shootout,binarytrees,72.734000,0
Ř,c75dea2f6f5184e720371220aa8938fd6719f4e9,shootout,binarytrees,72.684000,0
Ř,c75dea2f6f5184e720371220aa8938fd6719f4e9,shootout,binarytrees,83.680000,1
Ř,c75dea2f6f5184e720371220aa8938fd6719f4e9,shootout,binarytrees,72.915000,1
Ř,c75dea2f6f5184e720371220aa8938fd6719f4e9,shootout,binarytrees,72.963000,1
Ř,c75dea2f6f5184e720371220aa8938fd6719f4e9,shootout,binarytrees,72.858000,1
Ř,c75dea2f6f5184e720371220aa8938fd6719f4e9,shootout,binarytrees,73.015000,1
Ř,c75dea2f6f5184e720371220aa8938fd6719f4e9,shootout,binarytrees,75.883000,1
Ř,c75dea2f6f5184e720371220aa8938fd6719f4e9,shootout,binarytrees,72.449000,1
Ř,c75dea2f6f5184e720371220aa8938fd6719f4e9,shootout,binarytrees,73.361000,1
Ř,c75dea2f6f5184e720371220aa8938fd6719f4e9,shootout,binarytrees,72.785000,1
Ř,c75dea2f6f5184e720371220aa8938fd6719f4e9,shootout,binarytrees,73.481000,1
Ř,c75dea2f6f5184e720371220aa8938fd6719f4e9,shootout,knucleotide_brute_2,3514.979000,0
Ř,c75dea2f6f5184e720371220aa8938fd6719f4e9,shootout,knucleotide_brute_2,4581.244000,0
Ř,c75dea2f6f5184e720371220aa8938fd6719f4e9,shootout,knucleotide_brute_2,13343.033000,0
Ř,c75dea2f6f5184e720371220aa8938fd6719f4e9,shootout,knucleotide_brute_2,2501.329000,0
Ř,c75dea2f6f5184e720371220aa8938fd6719f4e9,shootout,knucleotide_brute_2,2690.439000,0
Ř,c75dea2f6f5184e720371220aa8938fd6719f4e9,shootout,knucleotide_brute_2,3360.565000,1
Ř,c75dea2f6f5184e720371220aa8938fd6719f4e9,shootout,knucleotide_brute_2,3651.358000,1
Ř,c75dea2f6f5184e720371220aa8938fd6719f4e9,shootout,knucleotide_brute_2,3294.126000,1
Ř,c75dea2f6f5184e720371220aa8938fd6719f4e9,shootout,knucleotide_brute_2,3580.979000,1
Ř,c75dea2f6f5184e720371220aa8938fd6719f4e9,shootout,knucleotide_brute_2,3811.822000,1
Ř,c75dea2f6f5184e720371220aa8938fd6719f4e9,shootout,knucleotide_brute_2,2099.493000,1
Ř,c75dea2f6f5184e720371220aa8938fd6719f4e9,shootout,knucleotide_brute_2,2124.736000,1
Ř,c75dea2f6f5184e720371220aa8938fd6719f4e9,shootout,knucleotide_brute_2,2209.524000,1
Ř,c75dea2f6f5184e720371220aa8938fd6719f4e9,shootout,knucleotide_brute_2,3090.307000,1
Ř,c75dea2f6f5184e720371220aa8938fd6719f4e9,shootout,knucleotide_brute_2,2535.805000,1
Ř,c75dea2f6f5184e720371220aa8938fd6719f4e9,shootout,binarytrees_2,1138.669000,0
Ř,c75dea2f6f5184e720371220aa8938fd6719f4e9,shootout,binarytrees_2,132.321000,0
Ř,c75dea2f6f5184e720371220aa8938fd6719f4e9,shootout,binarytrees_2,1403.033000,0
Ř,c75dea2f6f5184e720371220aa8938fd6719f4e9,shootout,binarytrees_2,88.073000,0
Ř,c75dea2f6f5184e720371220aa8938fd6719f4e9,shootout,binarytrees_2,98.201000,0
Ř,c75dea2f6f5184e720371220aa8938fd6719f4e9,shootout,binarytrees_2,87.607000,1
Ř,c75dea2f6f5184e720371220aa8938fd6719f4e9,shootout,binarytrees_2,88.006000,1
Ř,c75dea2f6f5184e720371220aa8938fd6719f4e9,shootout,binarytrees_2,87.569000,1
Ř,c75dea2f6f5184e720371220aa8938fd6719f4e9,shootout,binarytrees_2,90.273000,1
Ř,c75dea2f6f5184e720371220aa8938fd6719f4e9,shootout,binarytrees_2,87.686000,1
Ř,c75dea2f6f5184e720371220aa8938fd6719f4e9,shootout,binarytrees_2,87.510000,1
Ř,c75dea2f6f5184e720371220aa8938fd6719f4e9,shootout,binarytrees_2,87.540000,1
Ř,c75dea2f6f5184e720371220aa8938fd6719f4e9,shootout,binarytrees_2,88.723000,1
Ř,c75dea2f6f5184e720371220aa8938fd6719f4e9,shootout,binarytrees_2,88.443000,1
Ř,c75dea2f6f5184e720371220aa8938fd6719f4e9,shootout,binarytrees_2,88.685000,1
Ř,c75dea2f6f5184e720371220aa8938fd6719f4e9,shootout,nbody_naive_2,3157.233000,0
Ř,c75dea2f6f5184e720371220aa8938fd6719f4e9,shootout,nbody_naive_2,1842.546000,0
Ř,c75dea2f6f5184e720371220aa8938fd6719f4e9,shootout,nbody_naive_2,4795.869000,0
Ř,c75dea2f6f5184e720371220aa8938fd6719f4e9,shootout,nbody_naive_2,1040.065000,0
Ř,c75dea2f6f5184e720371220aa8938fd6719f4e9,shootout,nbody_naive_2,1035.981000,0
Ř,c75dea2f6f5184e720371220aa8938fd6719f4e9,shootout,nbody_naive_2,1023.297000,1
Ř,c75dea2f6f5184e720371220aa8938fd6719f4e9,shootout,nbody_naive_2,1037.553000,1
Ř,c75dea2f6f5184e720371220aa8938fd6719f4e9,shootout,nbody_naive_2,1027.046000,1
Ř,c75dea2f6f5184e720371220aa8938fd6719f4e9,shootout,nbody_naive_2,1036.770000,1
Ř,c75dea2f6f5184e720371220aa8938fd6719f4e9,shootout,nbody_naive_2,1036.270000,1
Ř,c75dea2f6f5184e720371220aa8938fd6719f4e9,shootout,nbody_naive_2,1025.994000,1
Ř,c75dea2f6f5184e720371220aa8938fd6719f4e9,shootout,nbody_naive_2,1035.311000,1
Ř,c75dea2f6f5184e720371220aa8938fd6719f4e9,shootout,nbody_naive_2,1026.128000,1
Ř,c75dea2f6f5184e720371220aa8938fd6719f4e9,shootout,nbody_naive_2,1038.830000,1
Ř,c75dea2f6f5184e720371220aa8938fd6719f4e9,shootout,nbody_naive_2,1036.963000,1
Ř,c75dea2f6f5184e720371220aa8938fd6719f4e9,shootout,reversecomplement_naive,515.740000,0
Ř,c75dea2f6f5184e720371220aa8938fd6719f4e9,shootout,reversecomplement_naive,566.528000,0
Ř,c75dea2f6f5184e720371220aa8938fd6719f4e9,shootout,reversecomplement_naive,1194.743000,0
Ř,c75dea2f6f5184e720371220aa8938fd6719f4e9,shootout,reversecomplement_naive,336.532000,0
Ř,c75dea2f6f5184e720371220aa8938fd6719f4e9,shootout,reversecomplement_naive,338.944000,0
Ř,c75dea2f6f5184e720371220aa8938fd6719f4e9,shootout,reversecomplement_naive,338.130000,1
Ř,c75dea2f6f5184e720371220aa8938fd6719f4e9,shootout,reversecomplement_naive,336.246000,1
Ř,c75dea2f6f5184e720371220aa8938fd6719f4e9,shootout,reversecomplement_naive,347.538000,1
Ř,c75dea2f6f5184e720371220aa8938fd6719f4e9,shootout,reversecomplement_naive,332.679000,1
Ř,c75dea2f6f5184e720371220aa8938fd6719f4e9,shootout,reversecomplement_naive,337.500000,1
Ř,c75dea2f6f5184e720371220aa8938fd6719f4e9,shootout,reversecomplement_naive,333.986000,1
Ř,c75dea2f6f5184e720371220aa8938fd6719f4e9,shootout,reversecomplement_naive,332.417000,1
Ř,c75dea2f6f5184e720371220aa8938fd6719f4e9,shootout,reversecomplement_naive,337.638000,1
Ř,c75dea2f6f5184e720371220aa8938fd6719f4e9,shootout,reversecomplement_naive,332.554000,1
Ř,c75dea2f6f5184e720371220aa8938fd6719f4e9,shootout,reversecomplement_naive,345.262000,1
Ř,c75dea2f6f5184e720371220aa8938fd6719f4e9,shootout,spectralnorm_alt_2,1718.520000,0
Ř,c75dea2f6f5184e720371220aa8938fd6719f4e9,shootout,spectralnorm_alt_2,1419.548000,0
Ř,c75dea2f6f5184e720371220aa8938fd6719f4e9,shootout,spectralnorm_alt_2,2605.315000,0
Ř,c75dea2f6f5184e720371220aa8938fd6719f4e9,shootout,spectralnorm_alt_2,1180.632000,0
Ř,c75dea2f6f5184e720371220aa8938fd6719f4e9,shootout,spectralnorm_alt_2,1251.197000,0
Ř,c75dea2f6f5184e720371220aa8938fd6719f4e9,shootout,spectralnorm_alt_2,1221.737000,1
Ř,c75dea2f6f5184e720371220aa8938fd6719f4e9,shootout,spectralnorm_alt_2,1214.847000,1
Ř,c75dea2f6f5184e720371220aa8938fd6719f4e9,shootout,spectralnorm_alt_2,1207.814000,1
Ř,c75dea2f6f5184e720371220aa8938fd6719f4e9,shootout,spectralnorm_alt_2,1219.308000,1
Ř,c75dea2f6f5184e720371220aa8938fd6719f4e9,shootout,spectralnorm_alt_2,1239.826000,1
Ř,c75dea2f6f5184e720371220aa8938fd6719f4e9,shootout,spectralnorm_alt_2,1205.407000,1
Ř,c75dea2f6f5184e720371220aa8938fd6719f4e9,shootout,spectralnorm_alt_2,1216.648000,1
Ř,c75dea2f6f5184e720371220aa8938fd6719f4e9,shootout,spectralnorm_alt_2,1232.590000,1
Ř,c75dea2f6f5184e720371220aa8938fd6719f4e9,shootout,spectralnorm_alt_2,1209.153000,1
Ř,c75dea2f6f5184e720371220aa8938fd6719f4e9,shootout,spectralnorm_alt_2,1207.411000,1
Ř,c75dea2f6f5184e720371220aa8938fd6719f4e9,shootout,reversecomplement_2,511.339000,0
Ř,c75dea2f6f5184e720371220aa8938fd6719f4e9,shootout,reversecomplement_2,538.863000,0
Ř,c75dea2f6f5184e720371220aa8938fd6719f4e9,shootout,reversecomplement_2,1545.556000,0
Ř,c75dea2f6f5184e720371220aa8938fd6719f4e9,shootout,reversecomplement_2,428.593000,0
Ř,c75dea2f6f5184e720371220aa8938fd6719f4e9,shootout,reversecomplement_2,410.258000,0
Ř,c75dea2f6f5184e720371220aa8938fd6719f4e9,shootout,reversecomplement_2,412.704000,1
Ř,c75dea2f6f5184e720371220aa8938fd6719f4e9,shootout,reversecomplement_2,411.357000,1
Ř,c75dea2f6f5184e720371220aa8938fd6719f4e9,shootout,reversecomplement_2,414.855000,1
Ř,c75dea2f6f5184e720371220aa8938fd6719f4e9,shootout,reversecomplement_2,414.011000,1
Ř,c75dea2f6f5184e720371220aa8938fd6719f4e9,shootout,reversecomplement_2,412.049000,1
Ř,c75dea2f6f5184e720371220aa8938fd6719f4e9,shootout,reversecomplement_2,415.740000,1
Ř,c75dea2f6f5184e720371220aa8938fd6719f4e9,shootout,reversecomplement_2,412.557000,1
Ř,c75dea2f6f5184e720371220aa8938fd6719f4e9,shootout,reversecomplement_2,412.915000,1
Ř,c75dea2f6f5184e720371220aa8938fd6719f4e9,shootout,reversecomplement_2,416.386000,1
Ř,c75dea2f6f5184e720371220aa8938fd6719f4e9,shootout,reversecomplement_2,412.813000,1
Ř,c75dea2f6f5184e720371220aa8938fd6719f4e9,shootout,fasta,1526.322000,0
Ř,c75dea2f6f5184e720371220aa8938fd6719f4e9,shootout,fasta,1282.985000,0
Ř,c75dea2f6f5184e720371220aa8938fd6719f4e9,shootout,fasta,2027.482000,0
Ř,c75dea2f6f5184e720371220aa8938fd6719f4e9,shootout,fasta,943.090000,0
Ř,c75dea2f6f5184e720371220aa8938fd6719f4e9,shootout,fasta,940.954000,0
Ř,c75dea2f6f5184e720371220aa8938fd6719f4e9,shootout,fasta,940.153000,1
Ř,c75dea2f6f5184e720371220aa8938fd6719f4e9,shootout,fasta,946.183000,1
Ř,c75dea2f6f5184e720371220aa8938fd6719f4e9,shootout,fasta,942.950000,1
Ř,c75dea2f6f5184e720371220aa8938fd6719f4e9,shootout,fasta,943.408000,1
Ř,c75dea2f6f5184e720371220aa8938fd6719f4e9,shootout,fasta,941.394000,1
Ř,c75dea2f6f5184e720371220aa8938fd6719f4e9,shootout,fasta,944.038000,1
Ř,c75dea2f6f5184e720371220aa8938fd6719f4e9,shootout,fasta,936.552000,1
Ř,c75dea2f6f5184e720371220aa8938fd6719f4e9,shootout,fasta,935.411000,1
Ř,c75dea2f6f5184e720371220aa8938fd6719f4e9,shootout,fasta,938.551000,1
Ř,c75dea2f6f5184e720371220aa8938fd6719f4e9,shootout,fasta,927.363000,1
Ř,c75dea2f6f5184e720371220aa8938fd6719f4e9,shootout,fannkuchredux_naive,2603.665000,0
Ř,c75dea2f6f5184e720371220aa8938fd6719f4e9,shootout,fannkuchredux_naive,2573.417000,0
Ř,c75dea2f6f5184e720371220aa8938fd6719f4e9,shootout,fannkuchredux_naive,2926.060000,0
Ř,c75dea2f6f5184e720371220aa8938fd6719f4e9,shootout,fannkuchredux_naive,211.514000,0
Ř,c75dea2f6f5184e720371220aa8938fd6719f4e9,shootout,fannkuchredux_naive,206.194000,0
Ř,c75dea2f6f5184e720371220aa8938fd6719f4e9,shootout,fannkuchredux_naive,205.560000,1
Ř,c75dea2f6f5184e720371220aa8938fd6719f4e9,shootout,fannkuchredux_naive,211.527000,1
Ř,c75dea2f6f5184e720371220aa8938fd6719f4e9,shootout,fannkuchredux_naive,205.630000,1
Ř,c75dea2f6f5184e720371220aa8938fd6719f4e9,shootout,fannkuchredux_naive,219.693000,1
Ř,c75dea2f6f5184e720371220aa8938fd6719f4e9,shootout,fannkuchredux_naive,207.322000,1
Ř,c75dea2f6f5184e720371220aa8938fd6719f4e9,shootout,fannkuchredux_naive,205.871000,1
Ř,c75dea2f6f5184e720371220aa8938fd6719f4e9,shootout,fannkuchredux_naive,210.201000,1
Ř,c75dea2f6f5184e720371220aa8938fd6719f4e9,shootout,fannkuchredux_naive,206.389000,1
Ř,c75dea2f6f5184e720371220aa8938fd6719f4e9,shootout,fannkuchredux_naive,205.249000,1
Ř,c75dea2f6f5184e720371220aa8938fd6719f4e9,shootout,fannkuchredux_naive,210.321000,1
Ř,c75dea2f6f5184e720371220aa8938fd6719f4e9,shootout,mandelbrot_ascii,391.486000,0
Ř,c75dea2f6f5184e720371220aa8938fd6719f4e9,shootout,mandelbrot_ascii,81.650000,0
Ř,c75dea2f6f5184e720371220aa8938fd6719f4e9,shootout,mandelbrot_ascii,960.445000,0
Ř,c75dea2f6f5184e720371220aa8938fd6719f4e9,shootout,mandelbrot_ascii,66.103000,0
Ř,c75dea2f6f5184e720371220aa8938fd6719f4e9,shootout,mandelbrot_ascii,64.481000,0
Ř,c75dea2f6f5184e720371220aa8938fd6719f4e9,shootout,mandelbrot_ascii,64.079000,1
Ř,c75dea2f6f5184e720371220aa8938fd6719f4e9,shootout,mandelbrot_ascii,64.578000,1
Ř,c75dea2f6f5184e720371220aa8938fd6719f4e9,shootout,mandelbrot_ascii,65.801000,1
Ř,c75dea2f6f5184e720371220aa8938fd6719f4e9,shootout,mandelbrot_ascii,64.278000,1
Ř,c75dea2f6f5184e720371220aa8938fd6719f4e9,shootout,mandelbrot_ascii,63.928000,1
Ř,c75dea2f6f5184e720371220aa8938fd6719f4e9,shootout,mandelbrot_ascii,64.078000,1
Ř,c75dea2f6f5184e720371220aa8938fd6719f4e9,shootout,mandelbrot_ascii,65.423000,1
Ř,c75dea2f6f5184e720371220aa8938fd6719f4e9,shootout,mandelbrot_ascii,64.642000,1
Ř,c75dea2f6f5184e720371220aa8938fd6719f4e9,shootout,mandelbrot_ascii,64.171000,1
Ř,c75dea2f6f5184e720371220aa8938fd6719f4e9,shootout,mandelbrot_ascii,66.149000,1
Ř,c75dea2f6f5184e720371220aa8938fd6719f4e9,shootout,regexdna,1577.527000,0
Ř,c75dea2f6f5184e720371220aa8938fd6719f4e9,shootout,regexdna,1549.968000,0
Ř,c75dea2f6f5184e720371220aa8938fd6719f4e9,shootout,regexdna,3733.229000,0
Ř,c75dea2f6f5184e720371220aa8938fd6719f4e9,shootout,regexdna,1488.092000,0
Ř,c75dea2f6f5184e720371220aa8938fd6719f4e9,shootout,regexdna,1489.463000,0
Ř,c75dea2f6f5184e720371220aa8938fd6719f4e9,shootout,regexdna,1506.983000,1
Ř,c75dea2f6f5184e720371220aa8938fd6719f4e9,shootout,regexdna,1488.668000,1
Ř,c75dea2f6f5184e720371220aa8938fd6719f4e9,shootout,regexdna,1491.679000,1
Ř,c75dea2f6f5184e720371220aa8938fd6719f4e9,shootout,regexdna,1488.674000,1
Ř,c75dea2f6f5184e720371220aa8938fd6719f4e9,shootout,regexdna,1508.757000,1
Ř,c75dea2f6f5184e720371220aa8938fd6719f4e9,shootout,regexdna,1488.516000,1
Ř,c75dea2f6f5184e720371220aa8938fd6719f4e9,shootout,regexdna,1489.852000,1
Ř,c75dea2f6f5184e720371220aa8938fd6719f4e9,shootout,regexdna,1494.050000,1
Ř,c75dea2f6f5184e720371220aa8938fd6719f4e9,shootout,regexdna,1500.519000,1
Ř,c75dea2f6f5184e720371220aa8938fd6719f4e9,shootout,regexdna,1485.038000,1
Ř,c75dea2f6f5184e720371220aa8938fd6719f4e9,shootout,fasta_naive,829.425000,0
Ř,c75dea2f6f5184e720371220aa8938fd6719f4e9,shootout,fasta_naive,881.659000,0
Ř,c75dea2f6f5184e720371220aa8938fd6719f4e9,shootout,fasta_naive,2012.918000,0
Ř,c75dea2f6f5184e720371220aa8938fd6719f4e9,shootout,fasta_naive,462.894000,0
Ř,c75dea2f6f5184e720371220aa8938fd6719f4e9,shootout,fasta_naive,478.755000,0
Ř,c75dea2f6f5184e720371220aa8938fd6719f4e9,shootout,fasta_naive,433.576000,1
Ř,c75dea2f6f5184e720371220aa8938fd6719f4e9,shootout,fasta_naive,443.909000,1
Ř,c75dea2f6f5184e720371220aa8938fd6719f4e9,shootout,fasta_naive,449.191000,1
Ř,c75dea2f6f5184e720371220aa8938fd6719f4e9,shootout,fasta_naive,458.952000,1
Ř,c75dea2f6f5184e720371220aa8938fd6719f4e9,shootout,fasta_naive,460.979000,1
Ř,c75dea2f6f5184e720371220aa8938fd6719f4e9,shootout,fasta_naive,455.847000,1
Ř,c75dea2f6f5184e720371220aa8938fd6719f4e9,shootout,fasta_naive,438.531000,1
Ř,c75dea2f6f5184e720371220aa8938fd6719f4e9,shootout,fasta_naive,451.787000,1
Ř,c75dea2f6f5184e720371220aa8938fd6719f4e9,shootout,fasta_naive,456.902000,1
Ř,c75dea2f6f5184e720371220aa8938fd6719f4e9,shootout,fasta_naive,461.071000,1
Ř,c75dea2f6f5184e720371220aa8938fd6719f4e9,shootout,knucleotide,3101.973000,0
Ř,c75dea2f6f5184e720371220aa8938fd6719f4e9,shootout,knucleotide,2190.603000,0
Ř,c75dea2f6f5184e720371220aa8938fd6719f4e9,shootout,knucleotide,9172.221000,0
Ř,c75dea2f6f5184e720371220aa8938fd6719f4e9,shootout,knucleotide,515.891000,0
Ř,c75dea2f6f5184e720371220aa8938fd6719f4e9,shootout,knucleotide,535.660000,0
Ř,c75dea2f6f5184e720371220aa8938fd6719f4e9,shootout,knucleotide,559.154000,1
Ř,c75dea2f6f5184e720371220aa8938fd6719f4e9,shootout,knucleotide,506.708000,1
Ř,c75dea2f6f5184e720371220aa8938fd6719f4e9,shootout,knucleotide,450.925000,1
Ř,c75dea2f6f5184e720371220aa8938fd6719f4e9,shootout,knucleotide,482.348000,1
Ř,c75dea2f6f5184e720371220aa8938fd6719f4e9,shootout,knucleotide,506.688000,1
Ř,c75dea2f6f5184e720371220aa8938fd6719f4e9,shootout,knucleotide,529.313000,1
Ř,c75dea2f6f5184e720371220aa8938fd6719f4e9,shootout,knucleotide,549.374000,1
Ř,c75dea2f6f5184e720371220aa8938fd6719f4e9,shootout,knucleotide,508.814000,1
Ř,c75dea2f6f5184e720371220aa8938fd6719f4e9,shootout,knucleotide,450.764000,1
Ř,c75dea2f6f5184e720371220aa8938fd6719f4e9,shootout,knucleotide,485.188000,1
Ř,c75dea2f6f5184e720371220aa8938fd6719f4e9,shootout,spectralnorm_math,3594.194000,0
Ř,c75dea2f6f5184e720371220aa8938fd6719f4e9,shootout,spectralnorm_math,3391.289000,0
Ř,c75dea2f6f5184e720371220aa8938fd6719f4e9,shootout,spectralnorm_math,3810.670000,0
Ř,c75dea2f6f5184e720371220aa8938fd6719f4e9,shootout,spectralnorm_math,3225.994000,0
Ř,c75dea2f6f5184e720371220aa8938fd6719f4e9,shootout,spectralnorm_math,3193.390000,0
Ř,c75dea2f6f5184e720371220aa8938fd6719f4e9,shootout,spectralnorm_math,3173.373000,1
Ř,c75dea2f6f5184e720371220aa8938fd6719f4e9,shootout,spectralnorm_math,3210.161000,1
Ř,c75dea2f6f5184e720371220aa8938fd6719f4e9,shootout,spectralnorm_math,3231.592000,1
Ř,c75dea2f6f5184e720371220aa8938fd6719f4e9,shootout,spectralnorm_math,3198.085000,1
Ř,c75dea2f6f5184e720371220aa8938fd6719f4e9,shootout,spectralnorm_math,3247.465000,1
Ř,c75dea2f6f5184e720371220aa8938fd6719f4e9,shootout,spectralnorm_math,3204.072000,1
Ř,c75dea2f6f5184e720371220aa8938fd6719f4e9,shootout,spectralnorm_math,3200.010000,1
Ř,c75dea2f6f5184e720371220aa8938fd6719f4e9,shootout,spectralnorm_math,3199.041000,1
Ř,c75dea2f6f5184e720371220aa8938fd6719f4e9,shootout,spectralnorm_math,3233.967000,1
Ř,c75dea2f6f5184e720371220aa8938fd6719f4e9,shootout,spectralnorm_math,3184.908000,1
Ř,c75dea2f6f5184e720371220aa8938fd6719f4e9,shootout,fastaredux_naive,710.434000,0
Ř,c75dea2f6f5184e720371220aa8938fd6719f4e9,shootout,fastaredux_naive,1390.111000,0
Ř,c75dea2f6f5184e720371220aa8938fd6719f4e9,shootout,fastaredux_naive,2500.751000,0
Ř,c75dea2f6f5184e720371220aa8938fd6719f4e9,shootout,fastaredux_naive,462.152000,0
Ř,c75dea2f6f5184e720371220aa8938fd6719f4e9,shootout,fastaredux_naive,469.528000,0
Ř,c75dea2f6f5184e720371220aa8938fd6719f4e9,shootout,fastaredux_naive,446.329000,1
Ř,c75dea2f6f5184e720371220aa8938fd6719f4e9,shootout,fastaredux_naive,429.443000,1
Ř,c75dea2f6f5184e720371220aa8938fd6719f4e9,shootout,fastaredux_naive,440.066000,1
Ř,c75dea2f6f5184e720371220aa8938fd6719f4e9,shootout,fastaredux_naive,463.083000,1
Ř,c75dea2f6f5184e720371220aa8938fd6719f4e9,shootout,fastaredux_naive,452.372000,1
Ř,c75dea2f6f5184e720371220aa8938fd6719f4e9,shootout,fastaredux_naive,465.181000,1
Ř,c75dea2f6f5184e720371220aa8938fd6719f4e9,shootout,fastaredux_naive,423.494000,1
Ř,c75dea2f6f5184e720371220aa8938fd6719f4e9,shootout,fastaredux_naive,437.263000,1
Ř,c75dea2f6f5184e720371220aa8938fd6719f4e9,shootout,fastaredux_naive,441.743000,1
Ř,c75dea2f6f5184e720371220aa8938fd6719f4e9,shootout,fastaredux_naive,452.528000,1
Ř,c75dea2f6f5184e720371220aa8938fd6719f4e9,shootout,mandelbrot_noout_naive,269.358000,0
Ř,c75dea2f6f5184e720371220aa8938fd6719f4e9,shootout,mandelbrot_noout_naive,249.851000,0
Ř,c75dea2f6f5184e720371220aa8938fd6719f4e9,shootout,mandelbrot_noout_naive,1186.409000,0
Ř,c75dea2f6f5184e720371220aa8938fd6719f4e9,shootout,mandelbrot_noout_naive,224.115000,0
Ř,c75dea2f6f5184e720371220aa8938fd6719f4e9,shootout,mandelbrot_noout_naive,225.137000,0
Ř,c75dea2f6f5184e720371220aa8938fd6719f4e9,shootout,mandelbrot_noout_naive,225.700000,1
Ř,c75dea2f6f5184e720371220aa8938fd6719f4e9,shootout,mandelbrot_noout_naive,235.411000,1
Ř,c75dea2f6f5184e720371220aa8938fd6719f4e9,shootout,mandelbrot_noout_naive,226.619000,1
Ř,c75dea2f6f5184e720371220aa8938fd6719f4e9,shootout,mandelbrot_noout_naive,234.966000,1
Ř,c75dea2f6f5184e720371220aa8938fd6719f4e9,shootout,mandelbrot_noout_naive,233.810000,1
Ř,c75dea2f6f5184e720371220aa8938fd6719f4e9,shootout,mandelbrot_noout_naive,243.876000,1
Ř,c75dea2f6f5184e720371220aa8938fd6719f4e9,shootout,mandelbrot_noout_naive,229.850000,1
Ř,c75dea2f6f5184e720371220aa8938fd6719f4e9,shootout,mandelbrot_noout_naive,231.910000,1
Ř,c75dea2f6f5184e720371220aa8938fd6719f4e9,shootout,mandelbrot_noout_naive,233.808000,1
Ř,c75dea2f6f5184e720371220aa8938fd6719f4e9,shootout,mandelbrot_noout_naive,245.250000,1
Ř,c75dea2f6f5184e720371220aa8938fd6719f4e9,shootout,knucleotide_brute,4507.337000,0
Ř,c75dea2f6f5184e720371220aa8938fd6719f4e9,shootout,knucleotide_brute,5443.677000,0
Ř,c75dea2f6f5184e720371220aa8938fd6719f4e9,shootout,knucleotide_brute,14683.936000,0
Ř,c75dea2f6f5184e720371220aa8938fd6719f4e9,shootout,knucleotide_brute,3843.671000,0
Ř,c75dea2f6f5184e720371220aa8938fd6719f4e9,shootout,knucleotide_brute,3981.831000,0
Ř,c75dea2f6f5184e720371220aa8938fd6719f4e9,shootout,knucleotide_brute,4066.706000,1
Ř,c75dea2f6f5184e720371220aa8938fd6719f4e9,shootout,knucleotide_brute,4058.689000,1
Ř,c75dea2f6f5184e720371220aa8938fd6719f4e9,shootout,knucleotide_brute,4129.364000,1
Ř,c75dea2f6f5184e720371220aa8938fd6719f4e9,shootout,knucleotide_brute,4145.694000,1
Ř,c75dea2f6f5184e720371220aa8938fd6719f4e9,shootout,knucleotide_brute,4183.079000,1
Ř,c75dea2f6f5184e720371220aa8938fd6719f4e9,shootout,knucleotide_brute,3501.291000,1
Ř,c75dea2f6f5184e720371220aa8938fd6719f4e9,shootout,knucleotide_brute,3499.848000,1
Ř,c75dea2f6f5184e720371220aa8938fd6719f4e9,shootout,knucleotide_brute,3781.533000,1
Ř,c75dea2f6f5184e720371220aa8938fd6719f4e9,shootout,knucleotide_brute,3824.246000,1
Ř,c75dea2f6f5184e720371220aa8938fd6719f4e9,shootout,knucleotide_brute,3974.204000,1
Ř,c75dea2f6f5184e720371220aa8938fd6719f4e9,shootout,spectralnorm_alt_3,1105.070000,0
Ř,c75dea2f6f5184e720371220aa8938fd6719f4e9,shootout,spectralnorm_alt_3,882.155000,0
Ř,c75dea2f6f5184e720371220aa8938fd6719f4e9,shootout,spectralnorm_alt_3,1489.925000,0
Ř,c75dea2f6f5184e720371220aa8938fd6719f4e9,shootout,spectralnorm_alt_3,98.759000,0
Ř,c75dea2f6f5184e720371220aa8938fd6719f4e9,shootout,spectralnorm_alt_3,98.755000,0
Ř,c75dea2f6f5184e720371220aa8938fd6719f4e9,shootout,spectralnorm_alt_3,97.732000,1
Ř,c75dea2f6f5184e720371220aa8938fd6719f4e9,shootout,spectralnorm_alt_3,98.928000,1
Ř,c75dea2f6f5184e720371220aa8938fd6719f4e9,shootout,spectralnorm_alt_3,98.415000,1
Ř,c75dea2f6f5184e720371220aa8938fd6719f4e9,shootout,spectralnorm_alt_3,105.188000,1
Ř,c75dea2f6f5184e720371220aa8938fd6719f4e9,shootout,spectralnorm_alt_3,98.422000,1
Ř,c75dea2f6f5184e720371220aa8938fd6719f4e9,shootout,spectralnorm_alt_3,98.175000,1
Ř,c75dea2f6f5184e720371220aa8938fd6719f4e9,shootout,spectralnorm_alt_3,98.934000,1
Ř,c75dea2f6f5184e720371220aa8938fd6719f4e9,shootout,spectralnorm_alt_3,97.988000,1
Ř,c75dea2f6f5184e720371220aa8938fd6719f4e9,shootout,spectralnorm_alt_3,100.557000,1
Ř,c75dea2f6f5184e720371220aa8938fd6719f4e9,shootout,spectralnorm_alt_3,97.385000,1
Ř,c75dea2f6f5184e720371220aa8938fd6719f4e9,shootout,mandelbrot_noout,392.736000,0
Ř,c75dea2f6f5184e720371220aa8938fd6719f4e9,shootout,mandelbrot_noout,70.915000,0
Ř,c75dea2f6f5184e720371220aa8938fd6719f4e9,shootout,mandelbrot_noout,734.751000,0
Ř,c75dea2f6f5184e720371220aa8938fd6719f4e9,shootout,mandelbrot_noout,66.724000,0
Ř,c75dea2f6f5184e720371220aa8938fd6719f4e9,shootout,mandelbrot_noout,68.081000,0
Ř,c75dea2f6f5184e720371220aa8938fd6719f4e9,shootout,mandelbrot_noout,66.583000,1
Ř,c75dea2f6f5184e720371220aa8938fd6719f4e9,shootout,mandelbrot_noout,66.524000,1
Ř,c75dea2f6f5184e720371220aa8938fd6719f4e9,shootout,mandelbrot_noout,66.585000,1
Ř,c75dea2f6f5184e720371220aa8938fd6719f4e9,shootout,mandelbrot_noout,67.711000,1
Ř,c75dea2f6f5184e720371220aa8938fd6719f4e9,shootout,mandelbrot_noout,76.585000,1
Ř,c75dea2f6f5184e720371220aa8938fd6719f4e9,shootout,mandelbrot_noout,66.585000,1
Ř,c75dea2f6f5184e720371220aa8938fd6719f4e9,shootout,mandelbrot_noout,66.428000,1
Ř,c75dea2f6f5184e720371220aa8938fd6719f4e9,shootout,mandelbrot_noout,66.396000,1
Ř,c75dea2f6f5184e720371220aa8938fd6719f4e9,shootout,mandelbrot_noout,67.554000,1
Ř,c75dea2f6f5184e720371220aa8938fd6719f4e9,shootout,mandelbrot_noout,66.467000,1
Ř,c75dea2f6f5184e720371220aa8938fd6719f4e9,shootout,fasta_3,1260.062000,0
Ř,c75dea2f6f5184e720371220aa8938fd6719f4e9,shootout,fasta_3,3563.020000,0
Ř,c75dea2f6f5184e720371220aa8938fd6719f4e9,shootout,fasta_3,4269.631000,0
Ř,c75dea2f6f5184e720371220aa8938fd6719f4e9,shootout,fasta_3,924.313000,0
Ř,c75dea2f6f5184e720371220aa8938fd6719f4e9,shootout,fasta_3,909.933000,0
Ř,c75dea2f6f5184e720371220aa8938fd6719f4e9,shootout,fasta_3,904.444000,1
Ř,c75dea2f6f5184e720371220aa8938fd6719f4e9,shootout,fasta_3,915.940000,1
Ř,c75dea2f6f5184e720371220aa8938fd6719f4e9,shootout,fasta_3,915.592000,1
Ř,c75dea2f6f5184e720371220aa8938fd6719f4e9,shootout,fasta_3,907.315000,1
Ř,c75dea2f6f5184e720371220aa8938fd6719f4e9,shootout,fasta_3,913.144000,1
Ř,c75dea2f6f5184e720371220aa8938fd6719f4e9,shootout,fasta_3,911.870000,1
Ř,c75dea2f6f5184e720371220aa8938fd6719f4e9,shootout,fasta_3,916.798000,1
Ř,c75dea2f6f5184e720371220aa8938fd6719f4e9,shootout,fasta_3,917.579000,1
Ř,c75dea2f6f5184e720371220aa8938fd6719f4e9,shootout,fasta_3,909.422000,1
Ř,c75dea2f6f5184e720371220aa8938fd6719f4e9,shootout,fasta_3,909.045000,1
Ř,c75dea2f6f5184e720371220aa8938fd6719f4e9,shootout,binarytrees_naive,899.422000,0
Ř,c75dea2f6f5184e720371220aa8938fd6719f4e9,shootout,binarytrees_naive,136.928000,0
Ř,c75dea2f6f5184e720371220aa8938fd6719f4e9,shootout,binarytrees_naive,3979.659000,0
Ř,c75dea2f6f5184e720371220aa8938fd6719f4e9,shootout,binarytrees_naive,91.548000,0
Ř,c75dea2f6f5184e720371220aa8938fd6719f4e9,shootout,binarytrees_naive,102.185000,0
Ř,c75dea2f6f5184e720371220aa8938fd6719f4e9,shootout,binarytrees_naive,91.807000,1
Ř,c75dea2f6f5184e720371220aa8938fd6719f4e9,shootout,binarytrees_naive,91.441000,1
Ř,c75dea2f6f5184e720371220aa8938fd6719f4e9,shootout,binarytrees_naive,91.373000,1
Ř,c75dea2f6f5184e720371220aa8938fd6719f4e9,shootout,binarytrees_naive,94.317000,1
Ř,c75dea2f6f5184e720371220aa8938fd6719f4e9,shootout,binarytrees_naive,91.238000,1
Ř,c75dea2f6f5184e720371220aa8938fd6719f4e9,shootout,binarytrees_naive,90.813000,1
Ř,c75dea2f6f5184e720371220aa8938fd6719f4e9,shootout,binarytrees_naive,90.962000,1
Ř,c75dea2f6f5184e720371220aa8938fd6719f4e9,shootout,binarytrees_naive,92.725000,1
Ř,c75dea2f6f5184e720371220aa8938fd6719f4e9,shootout,binarytrees_naive,92.265000,1
Ř,c75dea2f6f5184e720371220aa8938fd6719f4e9,shootout,binarytrees_naive,91.570000,1
Ř,c75dea2f6f5184e720371220aa8938fd6719f4e9,shootout,spectralnorm_alt,401.016000,0
Ř,c75dea2f6f5184e720371220aa8938fd6719f4e9,shootout,spectralnorm_alt,272.907000,0
Ř,c75dea2f6f5184e720371220aa8938fd6719f4e9,shootout,spectralnorm_alt,1549.528000,0
Ř,c75dea2f6f5184e720371220aa8938fd6719f4e9,shootout,spectralnorm_alt,214.872000,0
Ř,c75dea2f6f5184e720371220aa8938fd6719f4e9,shootout,spectralnorm_alt,202.469000,0
Ř,c75dea2f6f5184e720371220aa8938fd6719f4e9,shootout,spectralnorm_alt,219.265000,1
Ř,c75dea2f6f5184e720371220aa8938fd6719f4e9,shootout,spectralnorm_alt,206.949000,1
Ř,c75dea2f6f5184e720371220aa8938fd6719f4e9,shootout,spectralnorm_alt,191.881000,1
Ř,c75dea2f6f5184e720371220aa8938fd6719f4e9,shootout,spectralnorm_alt,192.371000,1
Ř,c75dea2f6f5184e720371220aa8938fd6719f4e9,shootout,spectralnorm_alt,203.471000,1
Ř,c75dea2f6f5184e720371220aa8938fd6719f4e9,shootout,spectralnorm_alt,189.965000,1
Ř,c75dea2f6f5184e720371220aa8938fd6719f4e9,shootout,spectralnorm_alt,199.724000,1
Ř,c75dea2f6f5184e720371220aa8938fd6719f4e9,shootout,spectralnorm_alt,197.372000,1
Ř,c75dea2f6f5184e720371220aa8938fd6719f4e9,shootout,spectralnorm_alt,206.827000,1
Ř,c75dea2f6f5184e720371220aa8938fd6719f4e9,shootout,spectralnorm_alt,191.792000,1
Ř,c75dea2f6f5184e720371220aa8938fd6719f4e9,shootout,nbody_2,1598.262000,0
Ř,c75dea2f6f5184e720371220aa8938fd6719f4e9,shootout,nbody_2,1449.593000,0
Ř,c75dea2f6f5184e720371220aa8938fd6719f4e9,shootout,nbody_2,1787.511000,0
Ř,c75dea2f6f5184e720371220aa8938fd6719f4e9,shootout,nbody_2,680.678000,0
Ř,c75dea2f6f5184e720371220aa8938fd6719f4e9,shootout,nbody_2,657.418000,0
Ř,c75dea2f6f5184e720371220aa8938fd6719f4e9,shootout,nbody_2,656.655000,1
Ř,c75dea2f6f5184e720371220aa8938fd6719f4e9,shootout,nbody_2,658.752000,1
Ř,c75dea2f6f5184e720371220aa8938fd6719f4e9,shootout,nbody_2,668.897000,1
Ř,c75dea2f6f5184e720371220aa8938fd6719f4e9,shootout,nbody_2,659.440000,1
Ř,c75dea2f6f5184e720371220aa8938fd6719f4e9,shootout,nbody_2,657.844000,1
Ř,c75dea2f6f5184e720371220aa8938fd6719f4e9,shootout,nbody_2,657.985000,1
Ř,c75dea2f6f5184e720371220aa8938fd6719f4e9,shootout,nbody_2,668.211000,1
Ř,c75dea2f6f5184e720371220aa8938fd6719f4e9,shootout,nbody_2,658.582000,1
Ř,c75dea2f6f5184e720371220aa8938fd6719f4e9,shootout,nbody_2,658.114000,1
Ř,c75dea2f6f5184e720371220aa8938fd6719f4e9,shootout,nbody_2,670.075000,1
Ř,c75dea2f6f5184e720371220aa8938fd6719f4e9,real_thing,flexclust_no_s4,17301.813000,0
Ř,c75dea2f6f5184e720371220aa8938fd6719f4e9,real_thing,flexclust_no_s4,14199.779000,0
Ř,c75dea2f6f5184e720371220aa8938fd6719f4e9,real_thing,flexclust_no_s4,27269.539000,0
Ř,c75dea2f6f5184e720371220aa8938fd6719f4e9,real_thing,flexclust_no_s4,24701.628000,0
Ř,c75dea2f6f5184e720371220aa8938fd6719f4e9,real_thing,flexclust_no_s4,18226.760000,0
Ř,c75dea2f6f5184e720371220aa8938fd6719f4e9,real_thing,flexclust_no_s4,13770.501000,1
Ř,c75dea2f6f5184e720371220aa8938fd6719f4e9,real_thing,flexclust_no_s4,13274.288000,1
Ř,c75dea2f6f5184e720371220aa8938fd6719f4e9,real_thing,flexclust_no_s4,13017.101000,1
Ř,c75dea2f6f5184e720371220aa8938fd6719f4e9,real_thing,flexclust_no_s4,13001.538000,1
Ř,c75dea2f6f5184e720371220aa8938fd6719f4e9,real_thing,flexclust_no_s4,13115.268000,1
Ř,c75dea2f6f5184e720371220aa8938fd6719f4e9,real_thing,flexclust_no_s4,13016.267000,1
Ř,c75dea2f6f5184e720371220aa8938fd6719f4e9,real_thing,flexclust_no_s4,13028.089000,1
Ř,c75dea2f6f5184e720371220aa8938fd6719f4e9,real_thing,flexclust_no_s4,13163.224000,1
Ř,c75dea2f6f5184e720371220aa8938fd6719f4e9,real_thing,flexclust_no_s4,12998.719000,1
Ř,c75dea2f6f5184e720371220aa8938fd6719f4e9,real_thing,flexclust_no_s4,13192.764000,1
Ř,c75dea2f6f5184e720371220aa8938fd6719f4e9,real_thing,convolution,721.778000,0
Ř,c75dea2f6f5184e720371220aa8938fd6719f4e9,real_thing,convolution,10.108000,0
Ř,c75dea2f6f5184e720371220aa8938fd6719f4e9,real_thing,convolution,581.743000,0
Ř,c75dea2f6f5184e720371220aa8938fd6719f4e9,real_thing,convolution,11.917000,0
Ř,c75dea2f6f5184e720371220aa8938fd6719f4e9,real_thing,convolution,12.159000,0
Ř,c75dea2f6f5184e720371220aa8938fd6719f4e9,real_thing,convolution,11.891000,1
Ř,c75dea2f6f5184e720371220aa8938fd6719f4e9,real_thing,convolution,11.901000,1
Ř,c75dea2f6f5184e720371220aa8938fd6719f4e9,real_thing,convolution,12.094000,1
Ř,c75dea2f6f5184e720371220aa8938fd6719f4e9,real_thing,convolution,12.090000,1
Ř,c75dea2f6f5184e720371220aa8938fd6719f4e9,real_thing,convolution,11.815000,1
Ř,c75dea2f6f5184e720371220aa8938fd6719f4e9,real_thing,convolution,11.986000,1
Ř,c75dea2f6f5184e720371220aa8938fd6719f4e9,real_thing,convolution,11.808000,1
Ř,c75dea2f6f5184e720371220aa8938fd6719f4e9,real_thing,convolution,11.915000,1
Ř,c75dea2f6f5184e720371220aa8938fd6719f4e9,real_thing,convolution,11.853000,1
Ř,c75dea2f6f5184e720371220aa8938fd6719f4e9,real_thing,convolution,11.988000,1
Ř,c75dea2f6f5184e720371220aa8938fd6719f4e9,real_thing,flexclust,45530.448000,0
Ř,c75dea2f6f5184e720371220aa8938fd6719f4e9,real_thing,flexclust,28926.766000,0
Ř,c75dea2f6f5184e720371220aa8938fd6719f4e9,real_thing,flexclust,32251.073000,0
Ř,c75dea2f6f5184e720371220aa8938fd6719f4e9,real_thing,flexclust,38834.290000,0
Ř,c75dea2f6f5184e720371220aa8938fd6719f4e9,real_thing,flexclust,26462.718000,0
Ř,c75dea2f6f5184e720371220aa8938fd6719f4e9,real_thing,flexclust,15967.949000,1
Ř,c75dea2f6f5184e720371220aa8938fd6719f4e9,real_thing,flexclust,15881.293000,1
Ř,c75dea2f6f5184e720371220aa8938fd6719f4e9,real_thing,flexclust,15766.592000,1
Ř,c75dea2f6f5184e720371220aa8938fd6719f4e9,real_thing,flexclust,15790.036000,1
Ř,c75dea2f6f5184e720371220aa8938fd6719f4e9,real_thing,flexclust,15860.176000,1
Ř,c75dea2f6f5184e720371220aa8938fd6719f4e9,real_thing,flexclust,15950.179000,1
Ř,c75dea2f6f5184e720371220aa8938fd6719f4e9,real_thing,flexclust,15923.800000,1
Ř,c75dea2f6f5184e720371220aa8938fd6719f4e9,real_thing,flexclust,15799.175000,1
Ř,c75dea2f6f5184e720371220aa8938fd6719f4e9,real_thing,flexclust,15868.612000,1
Ř,c75dea2f6f5184e720371220aa8938fd6719f4e9,real_thing,flexclust,15945.413000,1
Ř,c75dea2f6f5184e720371220aa8938fd6719f4e9,real_thing,convolution_v,632.763000,0
Ř,c75dea2f6f5184e720371220aa8938fd6719f4e9,real_thing,convolution_v,97.759000,0
Ř,c75dea2f6f5184e720371220aa8938fd6719f4e9,real_thing,convolution_v,719.805000,0
Ř,c75dea2f6f5184e720371220aa8938fd6719f4e9,real_thing,convolution_v,94.917000,0
Ř,c75dea2f6f5184e720371220aa8938fd6719f4e9,real_thing,convolution_v,105.448000,0
Ř,c75dea2f6f5184e720371220aa8938fd6719f4e9,real_thing,convolution_v,95.206000,1
Ř,c75dea2f6f5184e720371220aa8938fd6719f4e9,real_thing,convolution_v,94.394000,1
Ř,c75dea2f6f5184e720371220aa8938fd6719f4e9,real_thing,convolution_v,94.405000,1
Ř,c75dea2f6f5184e720371220aa8938fd6719f4e9,real_thing,convolution_v,94.767000,1
Ř,c75dea2f6f5184e720371220aa8938fd6719f4e9,real_thing,convolution_v,95.889000,1
Ř,c75dea2f6f5184e720371220aa8938fd6719f4e9,real_thing,convolution_v,96.512000,1
Ř,c75dea2f6f5184e720371220aa8938fd6719f4e9,real_thing,convolution_v,93.811000,1
Ř,c75dea2f6f5184e720371220aa8938fd6719f4e9,real_thing,convolution_v,97.529000,1
Ř,c75dea2f6f5184e720371220aa8938fd6719f4e9,real_thing,convolution_v,93.598000,1
Ř,c75dea2f6f5184e720371220aa8938fd6719f4e9,real_thing,convolution_v,94.454000,1
Ř,c75dea2f6f5184e720371220aa8938fd6719f4e9,real_thing,convolution_slow,633.378000,0
Ř,c75dea2f6f5184e720371220aa8938fd6719f4e9,real_thing,convolution_slow,98.212000,0
Ř,c75dea2f6f5184e720371220aa8938fd6719f4e9,real_thing,convolution_slow,720.852000,0
Ř,c75dea2f6f5184e720371220aa8938fd6719f4e9,real_thing,convolution_slow,94.688000,0
Ř,c75dea2f6f5184e720371220aa8938fd6719f4e9,real_thing,convolution_slow,105.844000,0
Ř,c75dea2f6f5184e720371220aa8938fd6719f4e9,real_thing,convolution_slow,97.285000,1
Ř,c75dea2f6f5184e720371220aa8938fd6719f4e9,real_thing,convolution_slow,94.657000,1
Ř,c75dea2f6f5184e720371220aa8938fd6719f4e9,real_thing,convolution_slow,94.858000,1
Ř,c75dea2f6f5184e720371220aa8938fd6719f4e9,real_thing,convolution_slow,94.594000,1
Ř,c75dea2f6f5184e720371220aa8938fd6719f4e9,real_thing,convolution_slow,96.359000,1
Ř,c75dea2f6f5184e720371220aa8938fd6719f4e9,real_thing,convolution_slow,98.109000,1
Ř,c75dea2f6f5184e720371220aa8938fd6719f4e9,real_thing,convolution_slow,94.053000,1
Ř,c75dea2f6f5184e720371220aa8938fd6719f4e9,real_thing,convolution_slow,98.556000,1
Ř,c75dea2f6f5184e720371220aa8938fd6719f4e9,real_thing,convolution_slow,93.252000,1
Ř,c75dea2f6f5184e720371220aa8938fd6719f4e9,real_thing,convolution_slow,94.360000,1
Ř,c75dea2f6f5184e720371220aa8938fd6719f4e9,are-we-fast-r,Mandelbrot,3775.862000,0
Ř,c75dea2f6f5184e720371220aa8938fd6719f4e9,are-we-fast-r,Mandelbrot,3723.675000,0
Ř,c75dea2f6f5184e720371220aa8938fd6719f4e9,are-we-fast-r,Mandelbrot,777.481000,0
Ř,c75dea2f6f5184e720371220aa8938fd6719f4e9,are-we-fast-r,Mandelbrot,1305.572000,0
Ř,c75dea2f6f5184e720371220aa8938fd6719f4e9,are-we-fast-r,Mandelbrot,66.972000,0
Ř,c75dea2f6f5184e720371220aa8938fd6719f4e9,are-we-fast-r,Mandelbrot,67.033000,1
Ř,c75dea2f6f5184e720371220aa8938fd6719f4e9,are-we-fast-r,Mandelbrot,66.880000,1
Ř,c75dea2f6f5184e720371220aa8938fd6719f4e9,are-we-fast-r,Mandelbrot,67.884000,1
Ř,c75dea2f6f5184e720371220aa8938fd6719f4e9,are-we-fast-r,Mandelbrot,66.787000,1
Ř,c75dea2f6f5184e720371220aa8938fd6719f4e9,are-we-fast-r,Mandelbrot,67.081000,1
Ř,c75dea2f6f5184e720371220aa8938fd6719f4e9,are-we-fast-r,Mandelbrot,66.974000,1
Ř,c75dea2f6f5184e720371220aa8938fd6719f4e9,are-we-fast-r,Mandelbrot,66.886000,1
Ř,c75dea2f6f5184e720371220aa8938fd6719f4e9,are-we-fast-r,Mandelbrot,66.825000,1
Ř,c75dea2f6f5184e720371220aa8938fd6719f4e9,are-we-fast-r,Mandelbrot,66.865000,1
Ř,c75dea2f6f5184e720371220aa8938fd6719f4e9,are-we-fast-r,Mandelbrot,67.289000,1
Ř,c75dea2f6f5184e720371220aa8938fd6719f4e9,are-we-fast-r,Bounce_nonames_simple,1992.638000,0
Ř,c75dea2f6f5184e720371220aa8938fd6719f4e9,are-we-fast-r,Bounce_nonames_simple,138.657000,0
Ř,c75dea2f6f5184e720371220aa8938fd6719f4e9,are-we-fast-r,Bounce_nonames_simple,148.120000,0
Ř,c75dea2f6f5184e720371220aa8938fd6719f4e9,are-we-fast-r,Bounce_nonames_simple,138.932000,0
Ř,c75dea2f6f5184e720371220aa8938fd6719f4e9,are-we-fast-r,Bounce_nonames_simple,137.777000,0
Ř,c75dea2f6f5184e720371220aa8938fd6719f4e9,are-we-fast-r,Bounce_nonames_simple,140.831000,1
Ř,c75dea2f6f5184e720371220aa8938fd6719f4e9,are-we-fast-r,Bounce_nonames_simple,138.506000,1
Ř,c75dea2f6f5184e720371220aa8938fd6719f4e9,are-we-fast-r,Bounce_nonames_simple,137.580000,1
Ř,c75dea2f6f5184e720371220aa8938fd6719f4e9,are-we-fast-r,Bounce_nonames_simple,137.734000,1
Ř,c75dea2f6f5184e720371220aa8938fd6719f4e9,are-we-fast-r,Bounce_nonames_simple,137.305000,1
Ř,c75dea2f6f5184e720371220aa8938fd6719f4e9,are-we-fast-r,Bounce_nonames_simple,138.260000,1
Ř,c75dea2f6f5184e720371220aa8938fd6719f4e9,are-we-fast-r,Bounce_nonames_simple,140.749000,1
Ř,c75dea2f6f5184e720371220aa8938fd6719f4e9,are-we-fast-r,Bounce_nonames_simple,137.944000,1
Ř,c75dea2f6f5184e720371220aa8938fd6719f4e9,are-we-fast-r,Bounce_nonames_simple,138.031000,1
Ř,c75dea2f6f5184e720371220aa8938fd6719f4e9,are-we-fast-r,Bounce_nonames_simple,138.116000,1
Ř,c75dea2f6f5184e720371220aa8938fd6719f4e9,are-we-fast-r,Storage,1201.261000,0
Ř,c75dea2f6f5184e720371220aa8938fd6719f4e9,are-we-fast-r,Storage,568.855000,0
Ř,c75dea2f6f5184e720371220aa8938fd6719f4e9,are-we-fast-r,Storage,537.622000,0
Ř,c75dea2f6f5184e720371220aa8938fd6719f4e9,are-we-fast-r,Storage,522.388000,0
Ř,c75dea2f6f5184e720371220aa8938fd6719f4e9,are-we-fast-r,Storage,501.498000,0
Ř,c75dea2f6f5184e720371220aa8938fd6719f4e9,are-we-fast-r,Storage,517.191000,1
Ř,c75dea2f6f5184e720371220aa8938fd6719f4e9,are-we-fast-r,Storage,582.638000,1
Ř,c75dea2f6f5184e720371220aa8938fd6719f4e9,are-we-fast-r,Storage,524.002000,1
Ř,c75dea2f6f5184e720371220aa8938fd6719f4e9,are-we-fast-r,Storage,532.286000,1
Ř,c75dea2f6f5184e720371220aa8938fd6719f4e9,are-we-fast-r,Storage,581.314000,1
Ř,c75dea2f6f5184e720371220aa8938fd6719f4e9,are-we-fast-r,Storage,585.611000,1
Ř,c75dea2f6f5184e720371220aa8938fd6719f4e9,are-we-fast-r,Storage,481.970000,1
Ř,c75dea2f6f5184e720371220aa8938fd6719f4e9,are-we-fast-r,Storage,519.042000,1
Ř,c75dea2f6f5184e720371220aa8938fd6719f4e9,are-we-fast-r,Storage,601.840000,1
Ř,c75dea2f6f5184e720371220aa8938fd6719f4e9,are-we-fast-r,Storage,598.413000,1
Ř,c75dea2f6f5184e720371220aa8938fd6719f4e9,are-we-fast-r,Bounce_nonames,1475.677000,0
Ř,c75dea2f6f5184e720371220aa8938fd6719f4e9,are-we-fast-r,Bounce_nonames,133.292000,0
Ř,c75dea2f6f5184e720371220aa8938fd6719f4e9,are-we-fast-r,Bounce_nonames,142.286000,0
Ř,c75dea2f6f5184e720371220aa8938fd6719f4e9,are-we-fast-r,Bounce_nonames,133.033000,0
Ř,c75dea2f6f5184e720371220aa8938fd6719f4e9,are-we-fast-r,Bounce_nonames,131.689000,0
Ř,c75dea2f6f5184e720371220aa8938fd6719f4e9,are-we-fast-r,Bounce_nonames,135.865000,1
Ř,c75dea2f6f5184e720371220aa8938fd6719f4e9,are-we-fast-r,Bounce_nonames,132.123000,1
Ř,c75dea2f6f5184e720371220aa8938fd6719f4e9,are-we-fast-r,Bounce_nonames,131.355000,1
Ř,c75dea2f6f5184e720371220aa8938fd6719f4e9,are-we-fast-r,Bounce_nonames,132.120000,1
Ř,c75dea2f6f5184e720371220aa8938fd6719f4e9,are-we-fast-r,Bounce_nonames,131.589000,1
Ř,c75dea2f6f5184e720371220aa8938fd6719f4e9,are-we-fast-r,Bounce_nonames,132.590000,1
Ř,c75dea2f6f5184e720371220aa8938fd6719f4e9,are-we-fast-r,Bounce_nonames,134.284000,1
Ř,c75dea2f6f5184e720371220aa8938fd6719f4e9,are-we-fast-r,Bounce_nonames,132.785000,1
Ř,c75dea2f6f5184e720371220aa8938fd6719f4e9,are-we-fast-r,Bounce_nonames,131.965000,1
Ř,c75dea2f6f5184e720371220aa8938fd6719f4e9,are-we-fast-r,Bounce_nonames,131.664000,1
Ř,c75dea2f6f5184e720371220aa8938fd6719f4e9,are-we-fast-r,Bounce,2301.863000,0
Ř,c75dea2f6f5184e720371220aa8938fd6719f4e9,are-we-fast-r,Bounce,858.012000,0
Ř,c75dea2f6f5184e720371220aa8938fd6719f4e9,are-we-fast-r,Bounce,878.130000,0
Ř,c75dea2f6f5184e720371220aa8938fd6719f4e9,are-we-fast-r,Bounce,856.742000,0
Ř,c75dea2f6f5184e720371220aa8938fd6719f4e9,are-we-fast-r,Bounce,835.782000,0
Ř,c75dea2f6f5184e720371220aa8938fd6719f4e9,are-we-fast-r,Bounce,857.115000,1
Ř,c75dea2f6f5184e720371220aa8938fd6719f4e9,are-we-fast-r,Bounce,868.752000,1
Ř,c75dea2f6f5184e720371220aa8938fd6719f4e9,are-we-fast-r,Bounce,828.020000,1
Ř,c75dea2f6f5184e720371220aa8938fd6719f4e9,are-we-fast-r,Bounce,842.751000,1
Ř,c75dea2f6f5184e720371220aa8938fd6719f4e9,are-we-fast-r,Bounce,863.688000,1
Ř,c75dea2f6f5184e720371220aa8938fd6719f4e9,are-we-fast-r,Bounce,841.172000,1
Ř,c75dea2f6f5184e720371220aa8938fd6719f4e9,are-we-fast-r,Bounce,836.596000,1
Ř,c75dea2f6f5184e720371220aa8938fd6719f4e9,are-we-fast-r,Bounce,856.564000,1
Ř,c75dea2f6f5184e720371220aa8938fd6719f4e9,are-we-fast-r,Bounce,862.582000,1
Ř,c75dea2f6f5184e720371220aa8938fd6719f4e9,are-we-fast-r,Bounce,829.792000,1
