vm,commit,suite,benchmark,ms,warm
Ř,23eb72baedfe5d54ffe7b8a10a1ed03c921ef654,simple,superWhile,2950.269000,0
Ř,23eb72baedfe5d54ffe7b8a10a1ed03c921ef654,simple,superWhile,2907.799000,0
Ř,23eb72baedfe5d54ffe7b8a10a1ed03c921ef654,simple,superWhile,55.294000,0
Ř,23eb72baedfe5d54ffe7b8a10a1ed03c921ef654,simple,superWhile,20.413000,0
Ř,23eb72baedfe5d54ffe7b8a10a1ed03c921ef654,simple,superWhile,20.379000,0
Ř,23eb72baedfe5d54ffe7b8a10a1ed03c921ef654,simple,superWhile,20.380000,1
Ř,23eb72baedfe5d54ffe7b8a10a1ed03c921ef654,simple,superWhile,20.377000,1
Ř,23eb72baedfe5d54ffe7b8a10a1ed03c921ef654,simple,superWhile,20.380000,1
Ř,23eb72baedfe5d54ffe7b8a10a1ed03c921ef654,simple,superWhile,20.333000,1
Ř,23eb72baedfe5d54ffe7b8a10a1ed03c921ef654,simple,superWhile,20.381000,1
Ř,23eb72baedfe5d54ffe7b8a10a1ed03c921ef654,simple,superWhile,20.375000,1
Ř,23eb72baedfe5d54ffe7b8a10a1ed03c921ef654,simple,superWhile,20.375000,1
Ř,23eb72baedfe5d54ffe7b8a10a1ed03c921ef654,simple,superWhile,20.375000,1
Ř,23eb72baedfe5d54ffe7b8a10a1ed03c921ef654,simple,superWhile,20.376000,1
Ř,23eb72baedfe5d54ffe7b8a10a1ed03c921ef654,simple,superWhile,20.378000,1
Ř,23eb72baedfe5d54ffe7b8a10a1ed03c921ef654,simple,matrixFor,399.983000,0
Ř,23eb72baedfe5d54ffe7b8a10a1ed03c921ef654,simple,matrixFor,405.287000,0
Ř,23eb72baedfe5d54ffe7b8a10a1ed03c921ef654,simple,matrixFor,162.573000,0
Ř,23eb72baedfe5d54ffe7b8a10a1ed03c921ef654,simple,matrixFor,52.873000,0
Ř,23eb72baedfe5d54ffe7b8a10a1ed03c921ef654,simple,matrixFor,52.742000,0
Ř,23eb72baedfe5d54ffe7b8a10a1ed03c921ef654,simple,matrixFor,52.787000,1
Ř,23eb72baedfe5d54ffe7b8a10a1ed03c921ef654,simple,matrixFor,52.798000,1
Ř,23eb72baedfe5d54ffe7b8a10a1ed03c921ef654,simple,matrixFor,52.680000,1
Ř,23eb72baedfe5d54ffe7b8a10a1ed03c921ef654,simple,matrixFor,458.780000,1
Ř,23eb72baedfe5d54ffe7b8a10a1ed03c921ef654,simple,matrixFor,382.262000,1
Ř,23eb72baedfe5d54ffe7b8a10a1ed03c921ef654,simple,matrixFor,168.825000,1
Ř,23eb72baedfe5d54ffe7b8a10a1ed03c921ef654,simple,matrixFor,58.918000,1
Ř,23eb72baedfe5d54ffe7b8a10a1ed03c921ef654,simple,matrixFor,57.385000,1
Ř,23eb72baedfe5d54ffe7b8a10a1ed03c921ef654,simple,matrixFor,53.509000,1
Ř,23eb72baedfe5d54ffe7b8a10a1ed03c921ef654,simple,matrixFor,53.488000,1
Ř,23eb72baedfe5d54ffe7b8a10a1ed03c921ef654,simple,vectorWhile,2240.133000,0
Ř,23eb72baedfe5d54ffe7b8a10a1ed03c921ef654,simple,vectorWhile,2231.385000,0
Ř,23eb72baedfe5d54ffe7b8a10a1ed03c921ef654,simple,vectorWhile,185.186000,0
Ř,23eb72baedfe5d54ffe7b8a10a1ed03c921ef654,simple,vectorWhile,128.110000,0
Ř,23eb72baedfe5d54ffe7b8a10a1ed03c921ef654,simple,vectorWhile,143.382000,0
Ř,23eb72baedfe5d54ffe7b8a10a1ed03c921ef654,simple,vectorWhile,129.822000,1
Ř,23eb72baedfe5d54ffe7b8a10a1ed03c921ef654,simple,vectorWhile,129.740000,1
Ř,23eb72baedfe5d54ffe7b8a10a1ed03c921ef654,simple,vectorWhile,129.744000,1
Ř,23eb72baedfe5d54ffe7b8a10a1ed03c921ef654,simple,vectorWhile,129.768000,1
Ř,23eb72baedfe5d54ffe7b8a10a1ed03c921ef654,simple,vectorWhile,129.746000,1
Ř,23eb72baedfe5d54ffe7b8a10a1ed03c921ef654,simple,vectorWhile,129.786000,1
Ř,23eb72baedfe5d54ffe7b8a10a1ed03c921ef654,simple,vectorWhile,129.823000,1
Ř,23eb72baedfe5d54ffe7b8a10a1ed03c921ef654,simple,vectorWhile,129.759000,1
Ř,23eb72baedfe5d54ffe7b8a10a1ed03c921ef654,simple,vectorWhile,129.820000,1
Ř,23eb72baedfe5d54ffe7b8a10a1ed03c921ef654,simple,vectorWhile,129.725000,1
Ř,23eb72baedfe5d54ffe7b8a10a1ed03c921ef654,simple,emptyFor,3370.363000,0
Ř,23eb72baedfe5d54ffe7b8a10a1ed03c921ef654,simple,emptyFor,3247.117000,0
Ř,23eb72baedfe5d54ffe7b8a10a1ed03c921ef654,simple,emptyFor,15.943000,0
Ř,23eb72baedfe5d54ffe7b8a10a1ed03c921ef654,simple,emptyFor,0.030000,0
Ř,23eb72baedfe5d54ffe7b8a10a1ed03c921ef654,simple,emptyFor,0.010000,0
Ř,23eb72baedfe5d54ffe7b8a10a1ed03c921ef654,simple,emptyFor,0.008000,1
Ř,23eb72baedfe5d54ffe7b8a10a1ed03c921ef654,simple,emptyFor,0.008000,1
Ř,23eb72baedfe5d54ffe7b8a10a1ed03c921ef654,simple,emptyFor,0.008000,1
Ř,23eb72baedfe5d54ffe7b8a10a1ed03c921ef654,simple,emptyFor,0.008000,1
Ř,23eb72baedfe5d54ffe7b8a10a1ed03c921ef654,simple,emptyFor,0.008000,1
Ř,23eb72baedfe5d54ffe7b8a10a1ed03c921ef654,simple,emptyFor,0.008000,1
Ř,23eb72baedfe5d54ffe7b8a10a1ed03c921ef654,simple,emptyFor,0.008000,1
Ř,23eb72baedfe5d54ffe7b8a10a1ed03c921ef654,simple,emptyFor,0.008000,1
Ř,23eb72baedfe5d54ffe7b8a10a1ed03c921ef654,simple,emptyFor,0.007000,1
Ř,23eb72baedfe5d54ffe7b8a10a1ed03c921ef654,simple,emptyFor,0.008000,1
Ř,23eb72baedfe5d54ffe7b8a10a1ed03c921ef654,simple,lapplyDots,780.811000,0
Ř,23eb72baedfe5d54ffe7b8a10a1ed03c921ef654,simple,lapplyDots,937.541000,0
Ř,23eb72baedfe5d54ffe7b8a10a1ed03c921ef654,simple,lapplyDots,854.431000,0
Ř,23eb72baedfe5d54ffe7b8a10a1ed03c921ef654,simple,lapplyDots,1065.704000,0
Ř,23eb72baedfe5d54ffe7b8a10a1ed03c921ef654,simple,lapplyDots,1012.079000,0
Ř,23eb72baedfe5d54ffe7b8a10a1ed03c921ef654,simple,lapplyDots,944.225000,1
Ř,23eb72baedfe5d54ffe7b8a10a1ed03c921ef654,simple,lapplyDots,957.974000,1
Ř,23eb72baedfe5d54ffe7b8a10a1ed03c921ef654,simple,lapplyDots,839.054000,1
Ř,23eb72baedfe5d54ffe7b8a10a1ed03c921ef654,simple,lapplyDots,947.763000,1
Ř,23eb72baedfe5d54ffe7b8a10a1ed03c921ef654,simple,lapplyDots,968.828000,1
Ř,23eb72baedfe5d54ffe7b8a10a1ed03c921ef654,simple,lapplyDots,986.276000,1
Ř,23eb72baedfe5d54ffe7b8a10a1ed03c921ef654,simple,lapplyDots,821.805000,1
Ř,23eb72baedfe5d54ffe7b8a10a1ed03c921ef654,simple,lapplyDots,959.238000,1
Ř,23eb72baedfe5d54ffe7b8a10a1ed03c921ef654,simple,lapplyDots,974.185000,1
Ř,23eb72baedfe5d54ffe7b8a10a1ed03c921ef654,simple,lapplyDots,956.362000,1
Ř,23eb72baedfe5d54ffe7b8a10a1ed03c921ef654,simple,scalarWhile,2234.329000,0
Ř,23eb72baedfe5d54ffe7b8a10a1ed03c921ef654,simple,scalarWhile,2236.827000,0
Ř,23eb72baedfe5d54ffe7b8a10a1ed03c921ef654,simple,scalarWhile,44.240000,0
Ř,23eb72baedfe5d54ffe7b8a10a1ed03c921ef654,simple,scalarWhile,25.474000,0
Ř,23eb72baedfe5d54ffe7b8a10a1ed03c921ef654,simple,scalarWhile,25.490000,0
Ř,23eb72baedfe5d54ffe7b8a10a1ed03c921ef654,simple,scalarWhile,25.445000,1
Ř,23eb72baedfe5d54ffe7b8a10a1ed03c921ef654,simple,scalarWhile,25.458000,1
Ř,23eb72baedfe5d54ffe7b8a10a1ed03c921ef654,simple,scalarWhile,25.444000,1
Ř,23eb72baedfe5d54ffe7b8a10a1ed03c921ef654,simple,scalarWhile,25.486000,1
Ř,23eb72baedfe5d54ffe7b8a10a1ed03c921ef654,simple,scalarWhile,25.445000,1
Ř,23eb72baedfe5d54ffe7b8a10a1ed03c921ef654,simple,scalarWhile,25.443000,1
Ř,23eb72baedfe5d54ffe7b8a10a1ed03c921ef654,simple,scalarWhile,25.491000,1
Ř,23eb72baedfe5d54ffe7b8a10a1ed03c921ef654,simple,scalarWhile,25.443000,1
Ř,23eb72baedfe5d54ffe7b8a10a1ed03c921ef654,simple,scalarWhile,25.444000,1
Ř,23eb72baedfe5d54ffe7b8a10a1ed03c921ef654,simple,scalarWhile,25.488000,1
Ř,23eb72baedfe5d54ffe7b8a10a1ed03c921ef654,simple,listWhile,166.568000,0
Ř,23eb72baedfe5d54ffe7b8a10a1ed03c921ef654,simple,listWhile,155.908000,0
Ř,23eb72baedfe5d54ffe7b8a10a1ed03c921ef654,simple,listWhile,131.470000,0
Ř,23eb72baedfe5d54ffe7b8a10a1ed03c921ef654,simple,listWhile,69.175000,0
Ř,23eb72baedfe5d54ffe7b8a10a1ed03c921ef654,simple,listWhile,65.474000,0
Ř,23eb72baedfe5d54ffe7b8a10a1ed03c921ef654,simple,listWhile,73.092000,1
Ř,23eb72baedfe5d54ffe7b8a10a1ed03c921ef654,simple,listWhile,86.400000,1
Ř,23eb72baedfe5d54ffe7b8a10a1ed03c921ef654,simple,listWhile,54.037000,1
Ř,23eb72baedfe5d54ffe7b8a10a1ed03c921ef654,simple,listWhile,67.091000,1
Ř,23eb72baedfe5d54ffe7b8a10a1ed03c921ef654,simple,listWhile,61.929000,1
Ř,23eb72baedfe5d54ffe7b8a10a1ed03c921ef654,simple,listWhile,67.168000,1
Ř,23eb72baedfe5d54ffe7b8a10a1ed03c921ef654,simple,listWhile,60.627000,1
Ř,23eb72baedfe5d54ffe7b8a10a1ed03c921ef654,simple,listWhile,81.581000,1
Ř,23eb72baedfe5d54ffe7b8a10a1ed03c921ef654,simple,listWhile,57.205000,1
Ř,23eb72baedfe5d54ffe7b8a10a1ed03c921ef654,simple,listWhile,64.396000,1
Ř,23eb72baedfe5d54ffe7b8a10a1ed03c921ef654,simple,scalarFor,4736.501000,0
Ř,23eb72baedfe5d54ffe7b8a10a1ed03c921ef654,simple,scalarFor,4667.990000,0
Ř,23eb72baedfe5d54ffe7b8a10a1ed03c921ef654,simple,scalarFor,17.448000,0
Ř,23eb72baedfe5d54ffe7b8a10a1ed03c921ef654,simple,scalarFor,0.028000,0
Ř,23eb72baedfe5d54ffe7b8a10a1ed03c921ef654,simple,scalarFor,0.010000,0
Ř,23eb72baedfe5d54ffe7b8a10a1ed03c921ef654,simple,scalarFor,0.009000,1
Ř,23eb72baedfe5d54ffe7b8a10a1ed03c921ef654,simple,scalarFor,0.008000,1
Ř,23eb72baedfe5d54ffe7b8a10a1ed03c921ef654,simple,scalarFor,0.008000,1
Ř,23eb72baedfe5d54ffe7b8a10a1ed03c921ef654,simple,scalarFor,0.008000,1
Ř,23eb72baedfe5d54ffe7b8a10a1ed03c921ef654,simple,scalarFor,0.008000,1
Ř,23eb72baedfe5d54ffe7b8a10a1ed03c921ef654,simple,scalarFor,0.008000,1
Ř,23eb72baedfe5d54ffe7b8a10a1ed03c921ef654,simple,scalarFor,0.008000,1
Ř,23eb72baedfe5d54ffe7b8a10a1ed03c921ef654,simple,scalarFor,0.008000,1
Ř,23eb72baedfe5d54ffe7b8a10a1ed03c921ef654,simple,scalarFor,0.008000,1
Ř,23eb72baedfe5d54ffe7b8a10a1ed03c921ef654,simple,scalarFor,0.008000,1
Ř,23eb72baedfe5d54ffe7b8a10a1ed03c921ef654,simple,lapply,648.243000,0
Ř,23eb72baedfe5d54ffe7b8a10a1ed03c921ef654,simple,lapply,780.384000,0
Ř,23eb72baedfe5d54ffe7b8a10a1ed03c921ef654,simple,lapply,835.181000,0
Ř,23eb72baedfe5d54ffe7b8a10a1ed03c921ef654,simple,lapply,781.560000,0
Ř,23eb72baedfe5d54ffe7b8a10a1ed03c921ef654,simple,lapply,900.023000,0
Ř,23eb72baedfe5d54ffe7b8a10a1ed03c921ef654,simple,lapply,785.418000,1
Ř,23eb72baedfe5d54ffe7b8a10a1ed03c921ef654,simple,lapply,794.835000,1
Ř,23eb72baedfe5d54ffe7b8a10a1ed03c921ef654,simple,lapply,788.876000,1
Ř,23eb72baedfe5d54ffe7b8a10a1ed03c921ef654,simple,lapply,595.850000,1
Ř,23eb72baedfe5d54ffe7b8a10a1ed03c921ef654,simple,lapply,699.109000,1
Ř,23eb72baedfe5d54ffe7b8a10a1ed03c921ef654,simple,lapply,712.677000,1
Ř,23eb72baedfe5d54ffe7b8a10a1ed03c921ef654,simple,lapply,730.059000,1
Ř,23eb72baedfe5d54ffe7b8a10a1ed03c921ef654,simple,lapply,683.084000,1
Ř,23eb72baedfe5d54ffe7b8a10a1ed03c921ef654,simple,lapply,601.096000,1
Ř,23eb72baedfe5d54ffe7b8a10a1ed03c921ef654,simple,lapply,711.410000,1
Ř,23eb72baedfe5d54ffe7b8a10a1ed03c921ef654,simple,vectorFor,1063.598000,0
Ř,23eb72baedfe5d54ffe7b8a10a1ed03c921ef654,simple,vectorFor,1028.709000,0
Ř,23eb72baedfe5d54ffe7b8a10a1ed03c921ef654,simple,vectorFor,76.478000,0
Ř,23eb72baedfe5d54ffe7b8a10a1ed03c921ef654,simple,vectorFor,34.018000,0
Ř,23eb72baedfe5d54ffe7b8a10a1ed03c921ef654,simple,vectorFor,33.973000,0
Ř,23eb72baedfe5d54ffe7b8a10a1ed03c921ef654,simple,vectorFor,33.971000,1
Ř,23eb72baedfe5d54ffe7b8a10a1ed03c921ef654,simple,vectorFor,33.953000,1
Ř,23eb72baedfe5d54ffe7b8a10a1ed03c921ef654,simple,vectorFor,34.018000,1
Ř,23eb72baedfe5d54ffe7b8a10a1ed03c921ef654,simple,vectorFor,33.978000,1
Ř,23eb72baedfe5d54ffe7b8a10a1ed03c921ef654,simple,vectorFor,33.989000,1
Ř,23eb72baedfe5d54ffe7b8a10a1ed03c921ef654,simple,vectorFor,33.972000,1
Ř,23eb72baedfe5d54ffe7b8a10a1ed03c921ef654,simple,vectorFor,33.955000,1
Ř,23eb72baedfe5d54ffe7b8a10a1ed03c921ef654,simple,vectorFor,33.974000,1
Ř,23eb72baedfe5d54ffe7b8a10a1ed03c921ef654,simple,vectorFor,34.017000,1
Ř,23eb72baedfe5d54ffe7b8a10a1ed03c921ef654,simple,vectorFor,33.971000,1
Ř,23eb72baedfe5d54ffe7b8a10a1ed03c921ef654,simple,bytecodes,4063.491000,0
Ř,23eb72baedfe5d54ffe7b8a10a1ed03c921ef654,simple,bytecodes,4031.968000,0
Ř,23eb72baedfe5d54ffe7b8a10a1ed03c921ef654,simple,bytecodes,237.983000,0
Ř,23eb72baedfe5d54ffe7b8a10a1ed03c921ef654,simple,bytecodes,9.213000,0
Ř,23eb72baedfe5d54ffe7b8a10a1ed03c921ef654,simple,bytecodes,9.187000,0
Ř,23eb72baedfe5d54ffe7b8a10a1ed03c921ef654,simple,bytecodes,9.183000,1
Ř,23eb72baedfe5d54ffe7b8a10a1ed03c921ef654,simple,bytecodes,9.182000,1
Ř,23eb72baedfe5d54ffe7b8a10a1ed03c921ef654,simple,bytecodes,9.182000,1
Ř,23eb72baedfe5d54ffe7b8a10a1ed03c921ef654,simple,bytecodes,9.138000,1
Ř,23eb72baedfe5d54ffe7b8a10a1ed03c921ef654,simple,bytecodes,9.182000,1
Ř,23eb72baedfe5d54ffe7b8a10a1ed03c921ef654,simple,bytecodes,9.183000,1
Ř,23eb72baedfe5d54ffe7b8a10a1ed03c921ef654,simple,bytecodes,9.192000,1
Ř,23eb72baedfe5d54ffe7b8a10a1ed03c921ef654,simple,bytecodes,9.166000,1
Ř,23eb72baedfe5d54ffe7b8a10a1ed03c921ef654,simple,bytecodes,9.182000,1
Ř,23eb72baedfe5d54ffe7b8a10a1ed03c921ef654,simple,bytecodes,9.181000,1
Ř,23eb72baedfe5d54ffe7b8a10a1ed03c921ef654,simple,emptyWhile,2170.794000,0
Ř,23eb72baedfe5d54ffe7b8a10a1ed03c921ef654,simple,emptyWhile,2165.036000,0
Ř,23eb72baedfe5d54ffe7b8a10a1ed03c921ef654,simple,emptyWhile,47.217000,0
Ř,23eb72baedfe5d54ffe7b8a10a1ed03c921ef654,simple,emptyWhile,30.587000,0
Ř,23eb72baedfe5d54ffe7b8a10a1ed03c921ef654,simple,emptyWhile,30.559000,0
Ř,23eb72baedfe5d54ffe7b8a10a1ed03c921ef654,simple,emptyWhile,30.514000,1
Ř,23eb72baedfe5d54ffe7b8a10a1ed03c921ef654,simple,emptyWhile,30.568000,1
Ř,23eb72baedfe5d54ffe7b8a10a1ed03c921ef654,simple,emptyWhile,30.556000,1
Ř,23eb72baedfe5d54ffe7b8a10a1ed03c921ef654,simple,emptyWhile,30.554000,1
Ř,23eb72baedfe5d54ffe7b8a10a1ed03c921ef654,simple,emptyWhile,30.555000,1
Ř,23eb72baedfe5d54ffe7b8a10a1ed03c921ef654,simple,emptyWhile,30.529000,1
Ř,23eb72baedfe5d54ffe7b8a10a1ed03c921ef654,simple,emptyWhile,30.558000,1
Ř,23eb72baedfe5d54ffe7b8a10a1ed03c921ef654,simple,emptyWhile,30.558000,1
Ř,23eb72baedfe5d54ffe7b8a10a1ed03c921ef654,simple,emptyWhile,30.576000,1
Ř,23eb72baedfe5d54ffe7b8a10a1ed03c921ef654,simple,emptyWhile,30.519000,1
Ř,23eb72baedfe5d54ffe7b8a10a1ed03c921ef654,simple,listFor,206.453000,0
Ř,23eb72baedfe5d54ffe7b8a10a1ed03c921ef654,simple,listFor,214.707000,0
Ř,23eb72baedfe5d54ffe7b8a10a1ed03c921ef654,simple,listFor,89.356000,0
Ř,23eb72baedfe5d54ffe7b8a10a1ed03c921ef654,simple,listFor,67.950000,0
Ř,23eb72baedfe5d54ffe7b8a10a1ed03c921ef654,simple,listFor,78.415000,0
Ř,23eb72baedfe5d54ffe7b8a10a1ed03c921ef654,simple,listFor,54.636000,1
Ř,23eb72baedfe5d54ffe7b8a10a1ed03c921ef654,simple,listFor,66.505000,1
Ř,23eb72baedfe5d54ffe7b8a10a1ed03c921ef654,simple,listFor,55.496000,1
Ř,23eb72baedfe5d54ffe7b8a10a1ed03c921ef654,simple,listFor,68.019000,1
Ř,23eb72baedfe5d54ffe7b8a10a1ed03c921ef654,simple,listFor,79.371000,1
Ř,23eb72baedfe5d54ffe7b8a10a1ed03c921ef654,simple,listFor,59.967000,1
Ř,23eb72baedfe5d54ffe7b8a10a1ed03c921ef654,simple,listFor,65.967000,1
Ř,23eb72baedfe5d54ffe7b8a10a1ed03c921ef654,simple,listFor,72.072000,1
Ř,23eb72baedfe5d54ffe7b8a10a1ed03c921ef654,simple,listFor,76.602000,1
Ř,23eb72baedfe5d54ffe7b8a10a1ed03c921ef654,simple,listFor,53.719000,1
Ř,23eb72baedfe5d54ffe7b8a10a1ed03c921ef654,shootout,spectralnorm_naive,952.141000,0
Ř,23eb72baedfe5d54ffe7b8a10a1ed03c921ef654,shootout,spectralnorm_naive,1083.755000,0
Ř,23eb72baedfe5d54ffe7b8a10a1ed03c921ef654,shootout,spectralnorm_naive,1181.006000,0
Ř,23eb72baedfe5d54ffe7b8a10a1ed03c921ef654,shootout,spectralnorm_naive,40.754000,0
Ř,23eb72baedfe5d54ffe7b8a10a1ed03c921ef654,shootout,spectralnorm_naive,40.833000,0
Ř,23eb72baedfe5d54ffe7b8a10a1ed03c921ef654,shootout,spectralnorm_naive,40.885000,1
Ř,23eb72baedfe5d54ffe7b8a10a1ed03c921ef654,shootout,spectralnorm_naive,40.827000,1
Ř,23eb72baedfe5d54ffe7b8a10a1ed03c921ef654,shootout,spectralnorm_naive,40.720000,1
Ř,23eb72baedfe5d54ffe7b8a10a1ed03c921ef654,shootout,spectralnorm_naive,40.806000,1
Ř,23eb72baedfe5d54ffe7b8a10a1ed03c921ef654,shootout,spectralnorm_naive,40.765000,1
Ř,23eb72baedfe5d54ffe7b8a10a1ed03c921ef654,shootout,spectralnorm_naive,40.794000,1
Ř,23eb72baedfe5d54ffe7b8a10a1ed03c921ef654,shootout,spectralnorm_naive,40.846000,1
Ř,23eb72baedfe5d54ffe7b8a10a1ed03c921ef654,shootout,spectralnorm_naive,40.824000,1
Ř,23eb72baedfe5d54ffe7b8a10a1ed03c921ef654,shootout,spectralnorm_naive,40.769000,1
Ř,23eb72baedfe5d54ffe7b8a10a1ed03c921ef654,shootout,spectralnorm_naive,42.262000,1
Ř,23eb72baedfe5d54ffe7b8a10a1ed03c921ef654,shootout,fasta_2,1168.422000,0
Ř,23eb72baedfe5d54ffe7b8a10a1ed03c921ef654,shootout,fasta_2,1591.548000,0
Ř,23eb72baedfe5d54ffe7b8a10a1ed03c921ef654,shootout,fasta_2,2323.459000,0
Ř,23eb72baedfe5d54ffe7b8a10a1ed03c921ef654,shootout,fasta_2,891.796000,0
Ř,23eb72baedfe5d54ffe7b8a10a1ed03c921ef654,shootout,fasta_2,881.710000,0
Ř,23eb72baedfe5d54ffe7b8a10a1ed03c921ef654,shootout,fasta_2,870.672000,1
Ř,23eb72baedfe5d54ffe7b8a10a1ed03c921ef654,shootout,fasta_2,883.517000,1
Ř,23eb72baedfe5d54ffe7b8a10a1ed03c921ef654,shootout,fasta_2,881.420000,1
Ř,23eb72baedfe5d54ffe7b8a10a1ed03c921ef654,shootout,fasta_2,887.762000,1
Ř,23eb72baedfe5d54ffe7b8a10a1ed03c921ef654,shootout,fasta_2,885.276000,1
Ř,23eb72baedfe5d54ffe7b8a10a1ed03c921ef654,shootout,fasta_2,882.506000,1
Ř,23eb72baedfe5d54ffe7b8a10a1ed03c921ef654,shootout,fasta_2,884.998000,1
Ř,23eb72baedfe5d54ffe7b8a10a1ed03c921ef654,shootout,fasta_2,882.280000,1
Ř,23eb72baedfe5d54ffe7b8a10a1ed03c921ef654,shootout,fasta_2,880.900000,1
Ř,23eb72baedfe5d54ffe7b8a10a1ed03c921ef654,shootout,fasta_2,876.945000,1
Ř,23eb72baedfe5d54ffe7b8a10a1ed03c921ef654,shootout,nbody_3,2047.137000,0
Ř,23eb72baedfe5d54ffe7b8a10a1ed03c921ef654,shootout,nbody_3,2169.471000,0
Ř,23eb72baedfe5d54ffe7b8a10a1ed03c921ef654,shootout,nbody_3,2809.093000,0
Ř,23eb72baedfe5d54ffe7b8a10a1ed03c921ef654,shootout,nbody_3,1672.821000,0
Ř,23eb72baedfe5d54ffe7b8a10a1ed03c921ef654,shootout,nbody_3,1090.056000,0
Ř,23eb72baedfe5d54ffe7b8a10a1ed03c921ef654,shootout,nbody_3,1078.958000,1
Ř,23eb72baedfe5d54ffe7b8a10a1ed03c921ef654,shootout,nbody_3,1089.364000,1
Ř,23eb72baedfe5d54ffe7b8a10a1ed03c921ef654,shootout,nbody_3,1078.843000,1
Ř,23eb72baedfe5d54ffe7b8a10a1ed03c921ef654,shootout,nbody_3,1091.544000,1
Ř,23eb72baedfe5d54ffe7b8a10a1ed03c921ef654,shootout,nbody_3,1077.370000,1
Ř,23eb72baedfe5d54ffe7b8a10a1ed03c921ef654,shootout,nbody_3,1078.659000,1
Ř,23eb72baedfe5d54ffe7b8a10a1ed03c921ef654,shootout,nbody_3,1089.560000,1
Ř,23eb72baedfe5d54ffe7b8a10a1ed03c921ef654,shootout,nbody_3,1079.316000,1
Ř,23eb72baedfe5d54ffe7b8a10a1ed03c921ef654,shootout,nbody_3,1091.182000,1
Ř,23eb72baedfe5d54ffe7b8a10a1ed03c921ef654,shootout,nbody_3,1079.180000,1
Ř,23eb72baedfe5d54ffe7b8a10a1ed03c921ef654,shootout,reversecomplement,536.113000,0
Ř,23eb72baedfe5d54ffe7b8a10a1ed03c921ef654,shootout,reversecomplement,585.586000,0
Ř,23eb72baedfe5d54ffe7b8a10a1ed03c921ef654,shootout,reversecomplement,1310.192000,0
Ř,23eb72baedfe5d54ffe7b8a10a1ed03c921ef654,shootout,reversecomplement,454.568000,0
Ř,23eb72baedfe5d54ffe7b8a10a1ed03c921ef654,shootout,reversecomplement,461.161000,0
Ř,23eb72baedfe5d54ffe7b8a10a1ed03c921ef654,shootout,reversecomplement,465.351000,1
Ř,23eb72baedfe5d54ffe7b8a10a1ed03c921ef654,shootout,reversecomplement,469.725000,1
Ř,23eb72baedfe5d54ffe7b8a10a1ed03c921ef654,shootout,reversecomplement,461.454000,1
Ř,23eb72baedfe5d54ffe7b8a10a1ed03c921ef654,shootout,reversecomplement,464.298000,1
Ř,23eb72baedfe5d54ffe7b8a10a1ed03c921ef654,shootout,reversecomplement,473.572000,1
Ř,23eb72baedfe5d54ffe7b8a10a1ed03c921ef654,shootout,reversecomplement,466.226000,1
Ř,23eb72baedfe5d54ffe7b8a10a1ed03c921ef654,shootout,reversecomplement,462.231000,1
Ř,23eb72baedfe5d54ffe7b8a10a1ed03c921ef654,shootout,reversecomplement,503.040000,1
Ř,23eb72baedfe5d54ffe7b8a10a1ed03c921ef654,shootout,reversecomplement,484.822000,1
Ř,23eb72baedfe5d54ffe7b8a10a1ed03c921ef654,shootout,reversecomplement,466.641000,1
Ř,23eb72baedfe5d54ffe7b8a10a1ed03c921ef654,shootout,mandelbrot_naive_ascii,632.349000,0
Ř,23eb72baedfe5d54ffe7b8a10a1ed03c921ef654,shootout,mandelbrot_naive_ascii,626.517000,0
Ř,23eb72baedfe5d54ffe7b8a10a1ed03c921ef654,shootout,mandelbrot_naive_ascii,1178.412000,0
Ř,23eb72baedfe5d54ffe7b8a10a1ed03c921ef654,shootout,mandelbrot_naive_ascii,206.687000,0
Ř,23eb72baedfe5d54ffe7b8a10a1ed03c921ef654,shootout,mandelbrot_naive_ascii,200.341000,0
Ř,23eb72baedfe5d54ffe7b8a10a1ed03c921ef654,shootout,mandelbrot_naive_ascii,200.187000,1
Ř,23eb72baedfe5d54ffe7b8a10a1ed03c921ef654,shootout,mandelbrot_naive_ascii,200.974000,1
Ř,23eb72baedfe5d54ffe7b8a10a1ed03c921ef654,shootout,mandelbrot_naive_ascii,201.559000,1
Ř,23eb72baedfe5d54ffe7b8a10a1ed03c921ef654,shootout,mandelbrot_naive_ascii,200.579000,1
Ř,23eb72baedfe5d54ffe7b8a10a1ed03c921ef654,shootout,mandelbrot_naive_ascii,200.600000,1
Ř,23eb72baedfe5d54ffe7b8a10a1ed03c921ef654,shootout,mandelbrot_naive_ascii,206.480000,1
Ř,23eb72baedfe5d54ffe7b8a10a1ed03c921ef654,shootout,mandelbrot_naive_ascii,200.546000,1
Ř,23eb72baedfe5d54ffe7b8a10a1ed03c921ef654,shootout,mandelbrot_naive_ascii,200.375000,1
Ř,23eb72baedfe5d54ffe7b8a10a1ed03c921ef654,shootout,mandelbrot_naive_ascii,201.556000,1
Ř,23eb72baedfe5d54ffe7b8a10a1ed03c921ef654,shootout,mandelbrot_naive_ascii,200.576000,1
Ř,23eb72baedfe5d54ffe7b8a10a1ed03c921ef654,shootout,nbody,2422.002000,0
Ř,23eb72baedfe5d54ffe7b8a10a1ed03c921ef654,shootout,nbody,2228.969000,0
Ř,23eb72baedfe5d54ffe7b8a10a1ed03c921ef654,shootout,nbody,2315.553000,0
Ř,23eb72baedfe5d54ffe7b8a10a1ed03c921ef654,shootout,nbody,783.430000,0
Ř,23eb72baedfe5d54ffe7b8a10a1ed03c921ef654,shootout,nbody,778.630000,0
Ř,23eb72baedfe5d54ffe7b8a10a1ed03c921ef654,shootout,nbody,768.161000,1
Ř,23eb72baedfe5d54ffe7b8a10a1ed03c921ef654,shootout,nbody,768.324000,1
Ř,23eb72baedfe5d54ffe7b8a10a1ed03c921ef654,shootout,nbody,767.681000,1
Ř,23eb72baedfe5d54ffe7b8a10a1ed03c921ef654,shootout,nbody,774.253000,1
Ř,23eb72baedfe5d54ffe7b8a10a1ed03c921ef654,shootout,nbody,764.144000,1
Ř,23eb72baedfe5d54ffe7b8a10a1ed03c921ef654,shootout,nbody,768.096000,1
Ř,23eb72baedfe5d54ffe7b8a10a1ed03c921ef654,shootout,nbody,765.820000,1
Ř,23eb72baedfe5d54ffe7b8a10a1ed03c921ef654,shootout,nbody,772.726000,1
Ř,23eb72baedfe5d54ffe7b8a10a1ed03c921ef654,shootout,nbody,762.104000,1
Ř,23eb72baedfe5d54ffe7b8a10a1ed03c921ef654,shootout,nbody,763.330000,1
Ř,23eb72baedfe5d54ffe7b8a10a1ed03c921ef654,shootout,fastaredux,661.230000,0
Ř,23eb72baedfe5d54ffe7b8a10a1ed03c921ef654,shootout,fastaredux,1663.715000,0
Ř,23eb72baedfe5d54ffe7b8a10a1ed03c921ef654,shootout,fastaredux,2374.019000,0
Ř,23eb72baedfe5d54ffe7b8a10a1ed03c921ef654,shootout,fastaredux,389.839000,0
Ř,23eb72baedfe5d54ffe7b8a10a1ed03c921ef654,shootout,fastaredux,398.399000,0
Ř,23eb72baedfe5d54ffe7b8a10a1ed03c921ef654,shootout,fastaredux,383.626000,1
Ř,23eb72baedfe5d54ffe7b8a10a1ed03c921ef654,shootout,fastaredux,387.199000,1
Ř,23eb72baedfe5d54ffe7b8a10a1ed03c921ef654,shootout,fastaredux,390.813000,1
Ř,23eb72baedfe5d54ffe7b8a10a1ed03c921ef654,shootout,fastaredux,391.360000,1
Ř,23eb72baedfe5d54ffe7b8a10a1ed03c921ef654,shootout,fastaredux,389.054000,1
Ř,23eb72baedfe5d54ffe7b8a10a1ed03c921ef654,shootout,fastaredux,399.163000,1
Ř,23eb72baedfe5d54ffe7b8a10a1ed03c921ef654,shootout,fastaredux,389.653000,1
Ř,23eb72baedfe5d54ffe7b8a10a1ed03c921ef654,shootout,fastaredux,384.666000,1
Ř,23eb72baedfe5d54ffe7b8a10a1ed03c921ef654,shootout,fastaredux,389.371000,1
Ř,23eb72baedfe5d54ffe7b8a10a1ed03c921ef654,shootout,fastaredux,394.335000,1
Ř,23eb72baedfe5d54ffe7b8a10a1ed03c921ef654,shootout,knucleotide_brute_3,4450.222000,0
Ř,23eb72baedfe5d54ffe7b8a10a1ed03c921ef654,shootout,knucleotide_brute_3,4525.636000,0
Ř,23eb72baedfe5d54ffe7b8a10a1ed03c921ef654,shootout,knucleotide_brute_3,12475.930000,0
Ř,23eb72baedfe5d54ffe7b8a10a1ed03c921ef654,shootout,knucleotide_brute_3,2836.673000,0
Ř,23eb72baedfe5d54ffe7b8a10a1ed03c921ef654,shootout,knucleotide_brute_3,2846.102000,0
Ř,23eb72baedfe5d54ffe7b8a10a1ed03c921ef654,shootout,knucleotide_brute_3,2838.829000,1
Ř,23eb72baedfe5d54ffe7b8a10a1ed03c921ef654,shootout,knucleotide_brute_3,2840.715000,1
Ř,23eb72baedfe5d54ffe7b8a10a1ed03c921ef654,shootout,knucleotide_brute_3,2826.077000,1
Ř,23eb72baedfe5d54ffe7b8a10a1ed03c921ef654,shootout,knucleotide_brute_3,2847.296000,1
Ř,23eb72baedfe5d54ffe7b8a10a1ed03c921ef654,shootout,knucleotide_brute_3,2825.690000,1
Ř,23eb72baedfe5d54ffe7b8a10a1ed03c921ef654,shootout,knucleotide_brute_3,2836.457000,1
Ř,23eb72baedfe5d54ffe7b8a10a1ed03c921ef654,shootout,knucleotide_brute_3,2829.714000,1
Ř,23eb72baedfe5d54ffe7b8a10a1ed03c921ef654,shootout,knucleotide_brute_3,2829.945000,1
Ř,23eb72baedfe5d54ffe7b8a10a1ed03c921ef654,shootout,knucleotide_brute_3,2830.965000,1
Ř,23eb72baedfe5d54ffe7b8a10a1ed03c921ef654,shootout,knucleotide_brute_3,2830.925000,1
Ř,23eb72baedfe5d54ffe7b8a10a1ed03c921ef654,shootout,fasta_naive_2,1050.402000,0
Ř,23eb72baedfe5d54ffe7b8a10a1ed03c921ef654,shootout,fasta_naive_2,1246.817000,0
Ř,23eb72baedfe5d54ffe7b8a10a1ed03c921ef654,shootout,fasta_naive_2,3213.831000,0
Ř,23eb72baedfe5d54ffe7b8a10a1ed03c921ef654,shootout,fasta_naive_2,1252.207000,0
Ř,23eb72baedfe5d54ffe7b8a10a1ed03c921ef654,shootout,fasta_naive_2,1247.665000,0
Ř,23eb72baedfe5d54ffe7b8a10a1ed03c921ef654,shootout,fasta_naive_2,1275.162000,1
Ř,23eb72baedfe5d54ffe7b8a10a1ed03c921ef654,shootout,fasta_naive_2,1251.531000,1
Ř,23eb72baedfe5d54ffe7b8a10a1ed03c921ef654,shootout,fasta_naive_2,1253.446000,1
Ř,23eb72baedfe5d54ffe7b8a10a1ed03c921ef654,shootout,fasta_naive_2,1292.167000,1
Ř,23eb72baedfe5d54ffe7b8a10a1ed03c921ef654,shootout,fasta_naive_2,623.624000,1
Ř,23eb72baedfe5d54ffe7b8a10a1ed03c921ef654,shootout,fasta_naive_2,637.244000,1
Ř,23eb72baedfe5d54ffe7b8a10a1ed03c921ef654,shootout,fasta_naive_2,660.419000,1
Ř,23eb72baedfe5d54ffe7b8a10a1ed03c921ef654,shootout,fasta_naive_2,1445.638000,1
Ř,23eb72baedfe5d54ffe7b8a10a1ed03c921ef654,shootout,fasta_naive_2,1252.352000,1
Ř,23eb72baedfe5d54ffe7b8a10a1ed03c921ef654,shootout,fasta_naive_2,659.085000,1
Ř,23eb72baedfe5d54ffe7b8a10a1ed03c921ef654,shootout,fannkuchredux,2279.566000,0
Ř,23eb72baedfe5d54ffe7b8a10a1ed03c921ef654,shootout,fannkuchredux,2228.747000,0
Ř,23eb72baedfe5d54ffe7b8a10a1ed03c921ef654,shootout,fannkuchredux,3678.716000,0
Ř,23eb72baedfe5d54ffe7b8a10a1ed03c921ef654,shootout,fannkuchredux,794.429000,0
Ř,23eb72baedfe5d54ffe7b8a10a1ed03c921ef654,shootout,fannkuchredux,792.308000,0
Ř,23eb72baedfe5d54ffe7b8a10a1ed03c921ef654,shootout,fannkuchredux,801.656000,1
Ř,23eb72baedfe5d54ffe7b8a10a1ed03c921ef654,shootout,fannkuchredux,793.807000,1
Ř,23eb72baedfe5d54ffe7b8a10a1ed03c921ef654,shootout,fannkuchredux,793.803000,1
Ř,23eb72baedfe5d54ffe7b8a10a1ed03c921ef654,shootout,fannkuchredux,803.735000,1
Ř,23eb72baedfe5d54ffe7b8a10a1ed03c921ef654,shootout,fannkuchredux,793.699000,1
Ř,23eb72baedfe5d54ffe7b8a10a1ed03c921ef654,shootout,fannkuchredux,805.318000,1
Ř,23eb72baedfe5d54ffe7b8a10a1ed03c921ef654,shootout,fannkuchredux,794.432000,1
Ř,23eb72baedfe5d54ffe7b8a10a1ed03c921ef654,shootout,fannkuchredux,792.120000,1
Ř,23eb72baedfe5d54ffe7b8a10a1ed03c921ef654,shootout,fannkuchredux,804.273000,1
Ř,23eb72baedfe5d54ffe7b8a10a1ed03c921ef654,shootout,fannkuchredux,792.557000,1
Ř,23eb72baedfe5d54ffe7b8a10a1ed03c921ef654,shootout,spectralnorm,2725.319000,0
Ř,23eb72baedfe5d54ffe7b8a10a1ed03c921ef654,shootout,spectralnorm,2929.625000,0
Ř,23eb72baedfe5d54ffe7b8a10a1ed03c921ef654,shootout,spectralnorm,2571.533000,0
Ř,23eb72baedfe5d54ffe7b8a10a1ed03c921ef654,shootout,spectralnorm,74.047000,0
Ř,23eb72baedfe5d54ffe7b8a10a1ed03c921ef654,shootout,spectralnorm,59.607000,0
Ř,23eb72baedfe5d54ffe7b8a10a1ed03c921ef654,shootout,spectralnorm,60.905000,1
Ř,23eb72baedfe5d54ffe7b8a10a1ed03c921ef654,shootout,spectralnorm,61.102000,1
Ř,23eb72baedfe5d54ffe7b8a10a1ed03c921ef654,shootout,spectralnorm,59.401000,1
Ř,23eb72baedfe5d54ffe7b8a10a1ed03c921ef654,shootout,spectralnorm,61.267000,1
Ř,23eb72baedfe5d54ffe7b8a10a1ed03c921ef654,shootout,spectralnorm,60.723000,1
Ř,23eb72baedfe5d54ffe7b8a10a1ed03c921ef654,shootout,spectralnorm,60.746000,1
Ř,23eb72baedfe5d54ffe7b8a10a1ed03c921ef654,shootout,spectralnorm,59.502000,1
Ř,23eb72baedfe5d54ffe7b8a10a1ed03c921ef654,shootout,spectralnorm,60.927000,1
Ř,23eb72baedfe5d54ffe7b8a10a1ed03c921ef654,shootout,spectralnorm,60.984000,1
Ř,23eb72baedfe5d54ffe7b8a10a1ed03c921ef654,shootout,spectralnorm,60.791000,1
Ř,23eb72baedfe5d54ffe7b8a10a1ed03c921ef654,shootout,pidigits,57087.157000,0
Ř,23eb72baedfe5d54ffe7b8a10a1ed03c921ef654,shootout,pidigits,778.698000,0
Ř,23eb72baedfe5d54ffe7b8a10a1ed03c921ef654,shootout,pidigits,34332.030000,0
Ř,23eb72baedfe5d54ffe7b8a10a1ed03c921ef654,shootout,pidigits,103.317000,0
Ř,23eb72baedfe5d54ffe7b8a10a1ed03c921ef654,shootout,pidigits,114.440000,0
Ř,23eb72baedfe5d54ffe7b8a10a1ed03c921ef654,shootout,pidigits,103.498000,1
Ř,23eb72baedfe5d54ffe7b8a10a1ed03c921ef654,shootout,pidigits,102.422000,1
Ř,23eb72baedfe5d54ffe7b8a10a1ed03c921ef654,shootout,pidigits,103.207000,1
Ř,23eb72baedfe5d54ffe7b8a10a1ed03c921ef654,shootout,pidigits,102.346000,1
Ř,23eb72baedfe5d54ffe7b8a10a1ed03c921ef654,shootout,pidigits,105.254000,1
Ř,23eb72baedfe5d54ffe7b8a10a1ed03c921ef654,shootout,pidigits,103.295000,1
Ř,23eb72baedfe5d54ffe7b8a10a1ed03c921ef654,shootout,pidigits,102.747000,1
Ř,23eb72baedfe5d54ffe7b8a10a1ed03c921ef654,shootout,pidigits,102.601000,1
Ř,23eb72baedfe5d54ffe7b8a10a1ed03c921ef654,shootout,pidigits,103.527000,1
Ř,23eb72baedfe5d54ffe7b8a10a1ed03c921ef654,shootout,pidigits,102.796000,1
Ř,23eb72baedfe5d54ffe7b8a10a1ed03c921ef654,shootout,nbody_naive,21183.258000,0
Ř,23eb72baedfe5d54ffe7b8a10a1ed03c921ef654,shootout,nbody_naive,2177.736000,0
Ř,23eb72baedfe5d54ffe7b8a10a1ed03c921ef654,shootout,nbody_naive,42666.291000,0
Ř,23eb72baedfe5d54ffe7b8a10a1ed03c921ef654,shootout,nbody_naive,151.761000,0
Ř,23eb72baedfe5d54ffe7b8a10a1ed03c921ef654,shootout,nbody_naive,156.145000,0
Ř,23eb72baedfe5d54ffe7b8a10a1ed03c921ef654,shootout,nbody_naive,152.381000,1
Ř,23eb72baedfe5d54ffe7b8a10a1ed03c921ef654,shootout,nbody_naive,151.565000,1
Ř,23eb72baedfe5d54ffe7b8a10a1ed03c921ef654,shootout,nbody_naive,147.834000,1
Ř,23eb72baedfe5d54ffe7b8a10a1ed03c921ef654,shootout,nbody_naive,147.066000,1
Ř,23eb72baedfe5d54ffe7b8a10a1ed03c921ef654,shootout,nbody_naive,154.866000,1
Ř,23eb72baedfe5d54ffe7b8a10a1ed03c921ef654,shootout,nbody_naive,152.397000,1
Ř,23eb72baedfe5d54ffe7b8a10a1ed03c921ef654,shootout,nbody_naive,150.930000,1
Ř,23eb72baedfe5d54ffe7b8a10a1ed03c921ef654,shootout,nbody_naive,148.314000,1
Ř,23eb72baedfe5d54ffe7b8a10a1ed03c921ef654,shootout,nbody_naive,162.056000,1
Ř,23eb72baedfe5d54ffe7b8a10a1ed03c921ef654,shootout,nbody_naive,151.224000,1
Ř,23eb72baedfe5d54ffe7b8a10a1ed03c921ef654,shootout,binarytrees,1016.094000,0
Ř,23eb72baedfe5d54ffe7b8a10a1ed03c921ef654,shootout,binarytrees,195.824000,0
Ř,23eb72baedfe5d54ffe7b8a10a1ed03c921ef654,shootout,binarytrees,1390.967000,0
Ř,23eb72baedfe5d54ffe7b8a10a1ed03c921ef654,shootout,binarytrees,72.669000,0
Ř,23eb72baedfe5d54ffe7b8a10a1ed03c921ef654,shootout,binarytrees,72.408000,0
Ř,23eb72baedfe5d54ffe7b8a10a1ed03c921ef654,shootout,binarytrees,83.395000,1
Ř,23eb72baedfe5d54ffe7b8a10a1ed03c921ef654,shootout,binarytrees,72.816000,1
Ř,23eb72baedfe5d54ffe7b8a10a1ed03c921ef654,shootout,binarytrees,72.800000,1
Ř,23eb72baedfe5d54ffe7b8a10a1ed03c921ef654,shootout,binarytrees,72.946000,1
Ř,23eb72baedfe5d54ffe7b8a10a1ed03c921ef654,shootout,binarytrees,73.087000,1
Ř,23eb72baedfe5d54ffe7b8a10a1ed03c921ef654,shootout,binarytrees,75.570000,1
Ř,23eb72baedfe5d54ffe7b8a10a1ed03c921ef654,shootout,binarytrees,72.754000,1
Ř,23eb72baedfe5d54ffe7b8a10a1ed03c921ef654,shootout,binarytrees,72.758000,1
Ř,23eb72baedfe5d54ffe7b8a10a1ed03c921ef654,shootout,binarytrees,72.854000,1
Ř,23eb72baedfe5d54ffe7b8a10a1ed03c921ef654,shootout,binarytrees,72.903000,1
Ř,23eb72baedfe5d54ffe7b8a10a1ed03c921ef654,shootout,knucleotide_brute_2,3516.228000,0
Ř,23eb72baedfe5d54ffe7b8a10a1ed03c921ef654,shootout,knucleotide_brute_2,4750.190000,0
Ř,23eb72baedfe5d54ffe7b8a10a1ed03c921ef654,shootout,knucleotide_brute_2,13439.499000,0
Ř,23eb72baedfe5d54ffe7b8a10a1ed03c921ef654,shootout,knucleotide_brute_2,2510.664000,0
Ř,23eb72baedfe5d54ffe7b8a10a1ed03c921ef654,shootout,knucleotide_brute_2,2713.402000,0
Ř,23eb72baedfe5d54ffe7b8a10a1ed03c921ef654,shootout,knucleotide_brute_2,3137.773000,1
Ř,23eb72baedfe5d54ffe7b8a10a1ed03c921ef654,shootout,knucleotide_brute_2,4530.962000,1
Ř,23eb72baedfe5d54ffe7b8a10a1ed03c921ef654,shootout,knucleotide_brute_2,3173.988000,1
Ř,23eb72baedfe5d54ffe7b8a10a1ed03c921ef654,shootout,knucleotide_brute_2,3366.545000,1
Ř,23eb72baedfe5d54ffe7b8a10a1ed03c921ef654,shootout,knucleotide_brute_2,4485.363000,1
Ř,23eb72baedfe5d54ffe7b8a10a1ed03c921ef654,shootout,knucleotide_brute_2,2711.681000,1
Ř,23eb72baedfe5d54ffe7b8a10a1ed03c921ef654,shootout,knucleotide_brute_2,2105.964000,1
Ř,23eb72baedfe5d54ffe7b8a10a1ed03c921ef654,shootout,knucleotide_brute_2,2192.141000,1
Ř,23eb72baedfe5d54ffe7b8a10a1ed03c921ef654,shootout,knucleotide_brute_2,3631.002000,1
Ř,23eb72baedfe5d54ffe7b8a10a1ed03c921ef654,shootout,knucleotide_brute_2,3736.547000,1
Ř,23eb72baedfe5d54ffe7b8a10a1ed03c921ef654,shootout,binarytrees_2,1159.477000,0
Ř,23eb72baedfe5d54ffe7b8a10a1ed03c921ef654,shootout,binarytrees_2,133.476000,0
Ř,23eb72baedfe5d54ffe7b8a10a1ed03c921ef654,shootout,binarytrees_2,1539.355000,0
Ř,23eb72baedfe5d54ffe7b8a10a1ed03c921ef654,shootout,binarytrees_2,229.915000,0
Ř,23eb72baedfe5d54ffe7b8a10a1ed03c921ef654,shootout,binarytrees_2,748.361000,0
Ř,23eb72baedfe5d54ffe7b8a10a1ed03c921ef654,shootout,binarytrees_2,158.399000,1
Ř,23eb72baedfe5d54ffe7b8a10a1ed03c921ef654,shootout,binarytrees_2,94.180000,1
Ř,23eb72baedfe5d54ffe7b8a10a1ed03c921ef654,shootout,binarytrees_2,94.046000,1
Ř,23eb72baedfe5d54ffe7b8a10a1ed03c921ef654,shootout,binarytrees_2,97.163000,1
Ř,23eb72baedfe5d54ffe7b8a10a1ed03c921ef654,shootout,binarytrees_2,94.463000,1
Ř,23eb72baedfe5d54ffe7b8a10a1ed03c921ef654,shootout,binarytrees_2,216.353000,1
Ř,23eb72baedfe5d54ffe7b8a10a1ed03c921ef654,shootout,binarytrees_2,151.857000,1
Ř,23eb72baedfe5d54ffe7b8a10a1ed03c921ef654,shootout,binarytrees_2,87.551000,1
Ř,23eb72baedfe5d54ffe7b8a10a1ed03c921ef654,shootout,binarytrees_2,87.570000,1
Ř,23eb72baedfe5d54ffe7b8a10a1ed03c921ef654,shootout,binarytrees_2,87.461000,1
Ř,23eb72baedfe5d54ffe7b8a10a1ed03c921ef654,shootout,nbody_naive_2,3121.893000,0
Ř,23eb72baedfe5d54ffe7b8a10a1ed03c921ef654,shootout,nbody_naive_2,1828.624000,0
Ř,23eb72baedfe5d54ffe7b8a10a1ed03c921ef654,shootout,nbody_naive_2,12126.864000,0
Ř,23eb72baedfe5d54ffe7b8a10a1ed03c921ef654,shootout,nbody_naive_2,13848.279000,0
Ř,23eb72baedfe5d54ffe7b8a10a1ed03c921ef654,shootout,nbody_naive_2,2848.429000,0
Ř,23eb72baedfe5d54ffe7b8a10a1ed03c921ef654,shootout,nbody_naive_2,988.752000,1
Ř,23eb72baedfe5d54ffe7b8a10a1ed03c921ef654,shootout,nbody_naive_2,2851.970000,1
Ř,23eb72baedfe5d54ffe7b8a10a1ed03c921ef654,shootout,nbody_naive_2,4635.111000,1
Ř,23eb72baedfe5d54ffe7b8a10a1ed03c921ef654,shootout,nbody_naive_2,4673.499000,1
Ř,23eb72baedfe5d54ffe7b8a10a1ed03c921ef654,shootout,nbody_naive_2,1006.931000,1
Ř,23eb72baedfe5d54ffe7b8a10a1ed03c921ef654,shootout,nbody_naive_2,11953.902000,1
Ř,23eb72baedfe5d54ffe7b8a10a1ed03c921ef654,shootout,nbody_naive_2,6467.936000,1
Ř,23eb72baedfe5d54ffe7b8a10a1ed03c921ef654,shootout,nbody_naive_2,4675.038000,1
Ř,23eb72baedfe5d54ffe7b8a10a1ed03c921ef654,shootout,nbody_naive_2,6444.831000,1
Ř,23eb72baedfe5d54ffe7b8a10a1ed03c921ef654,shootout,nbody_naive_2,4675.100000,1
Ř,23eb72baedfe5d54ffe7b8a10a1ed03c921ef654,shootout,reversecomplement_naive,514.970000,0
Ř,23eb72baedfe5d54ffe7b8a10a1ed03c921ef654,shootout,reversecomplement_naive,566.520000,0
Ř,23eb72baedfe5d54ffe7b8a10a1ed03c921ef654,shootout,reversecomplement_naive,1205.086000,0
Ř,23eb72baedfe5d54ffe7b8a10a1ed03c921ef654,shootout,reversecomplement_naive,346.384000,0
Ř,23eb72baedfe5d54ffe7b8a10a1ed03c921ef654,shootout,reversecomplement_naive,347.306000,0
Ř,23eb72baedfe5d54ffe7b8a10a1ed03c921ef654,shootout,reversecomplement_naive,344.711000,1
Ř,23eb72baedfe5d54ffe7b8a10a1ed03c921ef654,shootout,reversecomplement_naive,344.526000,1
Ř,23eb72baedfe5d54ffe7b8a10a1ed03c921ef654,shootout,reversecomplement_naive,353.686000,1
Ř,23eb72baedfe5d54ffe7b8a10a1ed03c921ef654,shootout,reversecomplement_naive,340.175000,1
Ř,23eb72baedfe5d54ffe7b8a10a1ed03c921ef654,shootout,reversecomplement_naive,343.647000,1
Ř,23eb72baedfe5d54ffe7b8a10a1ed03c921ef654,shootout,reversecomplement_naive,340.998000,1
Ř,23eb72baedfe5d54ffe7b8a10a1ed03c921ef654,shootout,reversecomplement_naive,340.231000,1
Ř,23eb72baedfe5d54ffe7b8a10a1ed03c921ef654,shootout,reversecomplement_naive,344.088000,1
Ř,23eb72baedfe5d54ffe7b8a10a1ed03c921ef654,shootout,reversecomplement_naive,340.430000,1
Ř,23eb72baedfe5d54ffe7b8a10a1ed03c921ef654,shootout,reversecomplement_naive,352.594000,1
Ř,23eb72baedfe5d54ffe7b8a10a1ed03c921ef654,shootout,spectralnorm_alt_2,1727.091000,0
Ř,23eb72baedfe5d54ffe7b8a10a1ed03c921ef654,shootout,spectralnorm_alt_2,1418.804000,0
Ř,23eb72baedfe5d54ffe7b8a10a1ed03c921ef654,shootout,spectralnorm_alt_2,2614.115000,0
Ř,23eb72baedfe5d54ffe7b8a10a1ed03c921ef654,shootout,spectralnorm_alt_2,1227.857000,0
Ř,23eb72baedfe5d54ffe7b8a10a1ed03c921ef654,shootout,spectralnorm_alt_2,1212.051000,0
Ř,23eb72baedfe5d54ffe7b8a10a1ed03c921ef654,shootout,spectralnorm_alt_2,1257.898000,1
Ř,23eb72baedfe5d54ffe7b8a10a1ed03c921ef654,shootout,spectralnorm_alt_2,1198.041000,1
Ř,23eb72baedfe5d54ffe7b8a10a1ed03c921ef654,shootout,spectralnorm_alt_2,1177.485000,1
Ř,23eb72baedfe5d54ffe7b8a10a1ed03c921ef654,shootout,spectralnorm_alt_2,1229.949000,1
Ř,23eb72baedfe5d54ffe7b8a10a1ed03c921ef654,shootout,spectralnorm_alt_2,1230.133000,1
Ř,23eb72baedfe5d54ffe7b8a10a1ed03c921ef654,shootout,spectralnorm_alt_2,1240.083000,1
Ř,23eb72baedfe5d54ffe7b8a10a1ed03c921ef654,shootout,spectralnorm_alt_2,1236.047000,1
Ř,23eb72baedfe5d54ffe7b8a10a1ed03c921ef654,shootout,spectralnorm_alt_2,1216.847000,1
Ř,23eb72baedfe5d54ffe7b8a10a1ed03c921ef654,shootout,spectralnorm_alt_2,1206.212000,1
Ř,23eb72baedfe5d54ffe7b8a10a1ed03c921ef654,shootout,spectralnorm_alt_2,1223.660000,1
Ř,23eb72baedfe5d54ffe7b8a10a1ed03c921ef654,shootout,reversecomplement_2,526.209000,0
Ř,23eb72baedfe5d54ffe7b8a10a1ed03c921ef654,shootout,reversecomplement_2,553.868000,0
Ř,23eb72baedfe5d54ffe7b8a10a1ed03c921ef654,shootout,reversecomplement_2,1560.526000,0
Ř,23eb72baedfe5d54ffe7b8a10a1ed03c921ef654,shootout,reversecomplement_2,446.902000,0
Ř,23eb72baedfe5d54ffe7b8a10a1ed03c921ef654,shootout,reversecomplement_2,429.184000,0
Ř,23eb72baedfe5d54ffe7b8a10a1ed03c921ef654,shootout,reversecomplement_2,429.765000,1
Ř,23eb72baedfe5d54ffe7b8a10a1ed03c921ef654,shootout,reversecomplement_2,429.914000,1
Ř,23eb72baedfe5d54ffe7b8a10a1ed03c921ef654,shootout,reversecomplement_2,433.114000,1
Ř,23eb72baedfe5d54ffe7b8a10a1ed03c921ef654,shootout,reversecomplement_2,431.813000,1
Ř,23eb72baedfe5d54ffe7b8a10a1ed03c921ef654,shootout,reversecomplement_2,430.597000,1
Ř,23eb72baedfe5d54ffe7b8a10a1ed03c921ef654,shootout,reversecomplement_2,432.093000,1
Ř,23eb72baedfe5d54ffe7b8a10a1ed03c921ef654,shootout,reversecomplement_2,429.092000,1
Ř,23eb72baedfe5d54ffe7b8a10a1ed03c921ef654,shootout,reversecomplement_2,430.050000,1
Ř,23eb72baedfe5d54ffe7b8a10a1ed03c921ef654,shootout,reversecomplement_2,433.141000,1
Ř,23eb72baedfe5d54ffe7b8a10a1ed03c921ef654,shootout,reversecomplement_2,429.444000,1
Ř,23eb72baedfe5d54ffe7b8a10a1ed03c921ef654,shootout,fasta,1545.838000,0
Ř,23eb72baedfe5d54ffe7b8a10a1ed03c921ef654,shootout,fasta,1273.547000,0
Ř,23eb72baedfe5d54ffe7b8a10a1ed03c921ef654,shootout,fasta,2009.153000,0
Ř,23eb72baedfe5d54ffe7b8a10a1ed03c921ef654,shootout,fasta,909.485000,0
Ř,23eb72baedfe5d54ffe7b8a10a1ed03c921ef654,shootout,fasta,920.492000,0
Ř,23eb72baedfe5d54ffe7b8a10a1ed03c921ef654,shootout,fasta,911.576000,1
Ř,23eb72baedfe5d54ffe7b8a10a1ed03c921ef654,shootout,fasta,925.119000,1
Ř,23eb72baedfe5d54ffe7b8a10a1ed03c921ef654,shootout,fasta,922.135000,1
Ř,23eb72baedfe5d54ffe7b8a10a1ed03c921ef654,shootout,fasta,921.518000,1
Ř,23eb72baedfe5d54ffe7b8a10a1ed03c921ef654,shootout,fasta,929.786000,1
Ř,23eb72baedfe5d54ffe7b8a10a1ed03c921ef654,shootout,fasta,932.513000,1
Ř,23eb72baedfe5d54ffe7b8a10a1ed03c921ef654,shootout,fasta,930.171000,1
Ř,23eb72baedfe5d54ffe7b8a10a1ed03c921ef654,shootout,fasta,922.119000,1
Ř,23eb72baedfe5d54ffe7b8a10a1ed03c921ef654,shootout,fasta,931.729000,1
Ř,23eb72baedfe5d54ffe7b8a10a1ed03c921ef654,shootout,fasta,922.287000,1
Ř,23eb72baedfe5d54ffe7b8a10a1ed03c921ef654,shootout,fannkuchredux_naive,2607.338000,0
Ř,23eb72baedfe5d54ffe7b8a10a1ed03c921ef654,shootout,fannkuchredux_naive,2581.289000,0
Ř,23eb72baedfe5d54ffe7b8a10a1ed03c921ef654,shootout,fannkuchredux_naive,2924.235000,0
Ř,23eb72baedfe5d54ffe7b8a10a1ed03c921ef654,shootout,fannkuchredux_naive,215.695000,0
Ř,23eb72baedfe5d54ffe7b8a10a1ed03c921ef654,shootout,fannkuchredux_naive,209.313000,0
Ř,23eb72baedfe5d54ffe7b8a10a1ed03c921ef654,shootout,fannkuchredux_naive,209.221000,1
Ř,23eb72baedfe5d54ffe7b8a10a1ed03c921ef654,shootout,fannkuchredux_naive,215.826000,1
Ř,23eb72baedfe5d54ffe7b8a10a1ed03c921ef654,shootout,fannkuchredux_naive,210.392000,1
Ř,23eb72baedfe5d54ffe7b8a10a1ed03c921ef654,shootout,fannkuchredux_naive,224.050000,1
Ř,23eb72baedfe5d54ffe7b8a10a1ed03c921ef654,shootout,fannkuchredux_naive,211.858000,1
Ř,23eb72baedfe5d54ffe7b8a10a1ed03c921ef654,shootout,fannkuchredux_naive,210.120000,1
Ř,23eb72baedfe5d54ffe7b8a10a1ed03c921ef654,shootout,fannkuchredux_naive,214.765000,1
Ř,23eb72baedfe5d54ffe7b8a10a1ed03c921ef654,shootout,fannkuchredux_naive,211.309000,1
Ř,23eb72baedfe5d54ffe7b8a10a1ed03c921ef654,shootout,fannkuchredux_naive,209.381000,1
Ř,23eb72baedfe5d54ffe7b8a10a1ed03c921ef654,shootout,fannkuchredux_naive,214.555000,1
Ř,23eb72baedfe5d54ffe7b8a10a1ed03c921ef654,shootout,mandelbrot_ascii,393.359000,0
Ř,23eb72baedfe5d54ffe7b8a10a1ed03c921ef654,shootout,mandelbrot_ascii,80.330000,0
Ř,23eb72baedfe5d54ffe7b8a10a1ed03c921ef654,shootout,mandelbrot_ascii,961.920000,0
Ř,23eb72baedfe5d54ffe7b8a10a1ed03c921ef654,shootout,mandelbrot_ascii,65.606000,0
Ř,23eb72baedfe5d54ffe7b8a10a1ed03c921ef654,shootout,mandelbrot_ascii,63.637000,0
Ř,23eb72baedfe5d54ffe7b8a10a1ed03c921ef654,shootout,mandelbrot_ascii,63.761000,1
Ř,23eb72baedfe5d54ffe7b8a10a1ed03c921ef654,shootout,mandelbrot_ascii,63.752000,1
Ř,23eb72baedfe5d54ffe7b8a10a1ed03c921ef654,shootout,mandelbrot_ascii,64.915000,1
Ř,23eb72baedfe5d54ffe7b8a10a1ed03c921ef654,shootout,mandelbrot_ascii,63.278000,1
Ř,23eb72baedfe5d54ffe7b8a10a1ed03c921ef654,shootout,mandelbrot_ascii,63.895000,1
Ř,23eb72baedfe5d54ffe7b8a10a1ed03c921ef654,shootout,mandelbrot_ascii,63.828000,1
Ř,23eb72baedfe5d54ffe7b8a10a1ed03c921ef654,shootout,mandelbrot_ascii,65.434000,1
Ř,23eb72baedfe5d54ffe7b8a10a1ed03c921ef654,shootout,mandelbrot_ascii,63.852000,1
Ř,23eb72baedfe5d54ffe7b8a10a1ed03c921ef654,shootout,mandelbrot_ascii,63.849000,1
Ř,23eb72baedfe5d54ffe7b8a10a1ed03c921ef654,shootout,mandelbrot_ascii,65.358000,1
Ř,23eb72baedfe5d54ffe7b8a10a1ed03c921ef654,shootout,regexdna,1571.159000,0
Ř,23eb72baedfe5d54ffe7b8a10a1ed03c921ef654,shootout,regexdna,1547.470000,0
Ř,23eb72baedfe5d54ffe7b8a10a1ed03c921ef654,shootout,regexdna,3752.527000,0
Ř,23eb72baedfe5d54ffe7b8a10a1ed03c921ef654,shootout,regexdna,1492.775000,0
Ř,23eb72baedfe5d54ffe7b8a10a1ed03c921ef654,shootout,regexdna,1493.819000,0
Ř,23eb72baedfe5d54ffe7b8a10a1ed03c921ef654,shootout,regexdna,1506.650000,1
Ř,23eb72baedfe5d54ffe7b8a10a1ed03c921ef654,shootout,regexdna,1492.785000,1
Ř,23eb72baedfe5d54ffe7b8a10a1ed03c921ef654,shootout,regexdna,1496.604000,1
Ř,23eb72baedfe5d54ffe7b8a10a1ed03c921ef654,shootout,regexdna,1497.435000,1
Ř,23eb72baedfe5d54ffe7b8a10a1ed03c921ef654,shootout,regexdna,1506.117000,1
Ř,23eb72baedfe5d54ffe7b8a10a1ed03c921ef654,shootout,regexdna,1493.851000,1
Ř,23eb72baedfe5d54ffe7b8a10a1ed03c921ef654,shootout,regexdna,1494.587000,1
Ř,23eb72baedfe5d54ffe7b8a10a1ed03c921ef654,shootout,regexdna,1500.199000,1
Ř,23eb72baedfe5d54ffe7b8a10a1ed03c921ef654,shootout,regexdna,1513.555000,1
Ř,23eb72baedfe5d54ffe7b8a10a1ed03c921ef654,shootout,regexdna,1502.681000,1
Ř,23eb72baedfe5d54ffe7b8a10a1ed03c921ef654,shootout,fasta_naive,831.254000,0
Ř,23eb72baedfe5d54ffe7b8a10a1ed03c921ef654,shootout,fasta_naive,869.845000,0
Ř,23eb72baedfe5d54ffe7b8a10a1ed03c921ef654,shootout,fasta_naive,2021.445000,0
Ř,23eb72baedfe5d54ffe7b8a10a1ed03c921ef654,shootout,fasta_naive,448.622000,0
Ř,23eb72baedfe5d54ffe7b8a10a1ed03c921ef654,shootout,fasta_naive,465.716000,0
Ř,23eb72baedfe5d54ffe7b8a10a1ed03c921ef654,shootout,fasta_naive,431.891000,1
Ř,23eb72baedfe5d54ffe7b8a10a1ed03c921ef654,shootout,fasta_naive,429.917000,1
Ř,23eb72baedfe5d54ffe7b8a10a1ed03c921ef654,shootout,fasta_naive,433.831000,1
Ř,23eb72baedfe5d54ffe7b8a10a1ed03c921ef654,shootout,fasta_naive,449.021000,1
Ř,23eb72baedfe5d54ffe7b8a10a1ed03c921ef654,shootout,fasta_naive,454.153000,1
Ř,23eb72baedfe5d54ffe7b8a10a1ed03c921ef654,shootout,fasta_naive,442.266000,1
Ř,23eb72baedfe5d54ffe7b8a10a1ed03c921ef654,shootout,fasta_naive,425.205000,1
Ř,23eb72baedfe5d54ffe7b8a10a1ed03c921ef654,shootout,fasta_naive,441.070000,1
Ř,23eb72baedfe5d54ffe7b8a10a1ed03c921ef654,shootout,fasta_naive,448.735000,1
Ř,23eb72baedfe5d54ffe7b8a10a1ed03c921ef654,shootout,fasta_naive,451.917000,1
Ř,23eb72baedfe5d54ffe7b8a10a1ed03c921ef654,shootout,knucleotide,3123.917000,0
Ř,23eb72baedfe5d54ffe7b8a10a1ed03c921ef654,shootout,knucleotide,2202.901000,0
Ř,23eb72baedfe5d54ffe7b8a10a1ed03c921ef654,shootout,knucleotide,9108.138000,0
Ř,23eb72baedfe5d54ffe7b8a10a1ed03c921ef654,shootout,knucleotide,506.648000,0
Ř,23eb72baedfe5d54ffe7b8a10a1ed03c921ef654,shootout,knucleotide,526.890000,0
Ř,23eb72baedfe5d54ffe7b8a10a1ed03c921ef654,shootout,knucleotide,551.989000,1
Ř,23eb72baedfe5d54ffe7b8a10a1ed03c921ef654,shootout,knucleotide,495.725000,1
Ř,23eb72baedfe5d54ffe7b8a10a1ed03c921ef654,shootout,knucleotide,440.608000,1
Ř,23eb72baedfe5d54ffe7b8a10a1ed03c921ef654,shootout,knucleotide,475.667000,1
Ř,23eb72baedfe5d54ffe7b8a10a1ed03c921ef654,shootout,knucleotide,498.848000,1
Ř,23eb72baedfe5d54ffe7b8a10a1ed03c921ef654,shootout,knucleotide,522.372000,1
Ř,23eb72baedfe5d54ffe7b8a10a1ed03c921ef654,shootout,knucleotide,542.430000,1
Ř,23eb72baedfe5d54ffe7b8a10a1ed03c921ef654,shootout,knucleotide,498.059000,1
Ř,23eb72baedfe5d54ffe7b8a10a1ed03c921ef654,shootout,knucleotide,442.941000,1
Ř,23eb72baedfe5d54ffe7b8a10a1ed03c921ef654,shootout,knucleotide,476.993000,1
Ř,23eb72baedfe5d54ffe7b8a10a1ed03c921ef654,shootout,spectralnorm_math,3597.732000,0
Ř,23eb72baedfe5d54ffe7b8a10a1ed03c921ef654,shootout,spectralnorm_math,3398.691000,0
Ř,23eb72baedfe5d54ffe7b8a10a1ed03c921ef654,shootout,spectralnorm_math,3815.953000,0
Ř,23eb72baedfe5d54ffe7b8a10a1ed03c921ef654,shootout,spectralnorm_math,3213.336000,0
Ř,23eb72baedfe5d54ffe7b8a10a1ed03c921ef654,shootout,spectralnorm_math,3203.305000,0
Ř,23eb72baedfe5d54ffe7b8a10a1ed03c921ef654,shootout,spectralnorm_math,3169.940000,1
Ř,23eb72baedfe5d54ffe7b8a10a1ed03c921ef654,shootout,spectralnorm_math,3208.778000,1
Ř,23eb72baedfe5d54ffe7b8a10a1ed03c921ef654,shootout,spectralnorm_math,3238.834000,1
Ř,23eb72baedfe5d54ffe7b8a10a1ed03c921ef654,shootout,spectralnorm_math,3198.389000,1
Ř,23eb72baedfe5d54ffe7b8a10a1ed03c921ef654,shootout,spectralnorm_math,3244.347000,1
Ř,23eb72baedfe5d54ffe7b8a10a1ed03c921ef654,shootout,spectralnorm_math,3189.040000,1
Ř,23eb72baedfe5d54ffe7b8a10a1ed03c921ef654,shootout,spectralnorm_math,3234.947000,1
Ř,23eb72baedfe5d54ffe7b8a10a1ed03c921ef654,shootout,spectralnorm_math,3194.164000,1
Ř,23eb72baedfe5d54ffe7b8a10a1ed03c921ef654,shootout,spectralnorm_math,3224.781000,1
Ř,23eb72baedfe5d54ffe7b8a10a1ed03c921ef654,shootout,spectralnorm_math,3198.507000,1
Ř,23eb72baedfe5d54ffe7b8a10a1ed03c921ef654,shootout,fastaredux_naive,716.958000,0
Ř,23eb72baedfe5d54ffe7b8a10a1ed03c921ef654,shootout,fastaredux_naive,1378.656000,0
Ř,23eb72baedfe5d54ffe7b8a10a1ed03c921ef654,shootout,fastaredux_naive,2514.966000,0
Ř,23eb72baedfe5d54ffe7b8a10a1ed03c921ef654,shootout,fastaredux_naive,491.651000,0
Ř,23eb72baedfe5d54ffe7b8a10a1ed03c921ef654,shootout,fastaredux_naive,502.970000,0
Ř,23eb72baedfe5d54ffe7b8a10a1ed03c921ef654,shootout,fastaredux_naive,489.525000,1
Ř,23eb72baedfe5d54ffe7b8a10a1ed03c921ef654,shootout,fastaredux_naive,477.001000,1
Ř,23eb72baedfe5d54ffe7b8a10a1ed03c921ef654,shootout,fastaredux_naive,481.830000,1
Ř,23eb72baedfe5d54ffe7b8a10a1ed03c921ef654,shootout,fastaredux_naive,495.247000,1
Ř,23eb72baedfe5d54ffe7b8a10a1ed03c921ef654,shootout,fastaredux_naive,497.270000,1
Ř,23eb72baedfe5d54ffe7b8a10a1ed03c921ef654,shootout,fastaredux_naive,500.562000,1
Ř,23eb72baedfe5d54ffe7b8a10a1ed03c921ef654,shootout,fastaredux_naive,433.142000,1
Ř,23eb72baedfe5d54ffe7b8a10a1ed03c921ef654,shootout,fastaredux_naive,441.048000,1
Ř,23eb72baedfe5d54ffe7b8a10a1ed03c921ef654,shootout,fastaredux_naive,446.614000,1
Ř,23eb72baedfe5d54ffe7b8a10a1ed03c921ef654,shootout,fastaredux_naive,455.866000,1
Ř,23eb72baedfe5d54ffe7b8a10a1ed03c921ef654,shootout,mandelbrot_noout_naive,263.228000,0
Ř,23eb72baedfe5d54ffe7b8a10a1ed03c921ef654,shootout,mandelbrot_noout_naive,249.489000,0
Ř,23eb72baedfe5d54ffe7b8a10a1ed03c921ef654,shootout,mandelbrot_noout_naive,1181.057000,0
Ř,23eb72baedfe5d54ffe7b8a10a1ed03c921ef654,shootout,mandelbrot_noout_naive,224.505000,0
Ř,23eb72baedfe5d54ffe7b8a10a1ed03c921ef654,shootout,mandelbrot_noout_naive,225.281000,0
Ř,23eb72baedfe5d54ffe7b8a10a1ed03c921ef654,shootout,mandelbrot_noout_naive,225.279000,1
Ř,23eb72baedfe5d54ffe7b8a10a1ed03c921ef654,shootout,mandelbrot_noout_naive,235.237000,1
Ř,23eb72baedfe5d54ffe7b8a10a1ed03c921ef654,shootout,mandelbrot_noout_naive,226.441000,1
Ř,23eb72baedfe5d54ffe7b8a10a1ed03c921ef654,shootout,mandelbrot_noout_naive,234.612000,1
Ř,23eb72baedfe5d54ffe7b8a10a1ed03c921ef654,shootout,mandelbrot_noout_naive,233.133000,1
Ř,23eb72baedfe5d54ffe7b8a10a1ed03c921ef654,shootout,mandelbrot_noout_naive,243.287000,1
Ř,23eb72baedfe5d54ffe7b8a10a1ed03c921ef654,shootout,mandelbrot_noout_naive,229.806000,1
Ř,23eb72baedfe5d54ffe7b8a10a1ed03c921ef654,shootout,mandelbrot_noout_naive,231.658000,1
Ř,23eb72baedfe5d54ffe7b8a10a1ed03c921ef654,shootout,mandelbrot_noout_naive,234.086000,1
Ř,23eb72baedfe5d54ffe7b8a10a1ed03c921ef654,shootout,mandelbrot_noout_naive,244.932000,1
Ř,23eb72baedfe5d54ffe7b8a10a1ed03c921ef654,shootout,knucleotide_brute,4451.490000,0
Ř,23eb72baedfe5d54ffe7b8a10a1ed03c921ef654,shootout,knucleotide_brute,5367.921000,0
Ř,23eb72baedfe5d54ffe7b8a10a1ed03c921ef654,shootout,knucleotide_brute,14563.753000,0
Ř,23eb72baedfe5d54ffe7b8a10a1ed03c921ef654,shootout,knucleotide_brute,3777.462000,0
Ř,23eb72baedfe5d54ffe7b8a10a1ed03c921ef654,shootout,knucleotide_brute,3903.418000,0
Ř,23eb72baedfe5d54ffe7b8a10a1ed03c921ef654,shootout,knucleotide_brute,3993.785000,1
Ř,23eb72baedfe5d54ffe7b8a10a1ed03c921ef654,shootout,knucleotide_brute,4422.659000,1
Ř,23eb72baedfe5d54ffe7b8a10a1ed03c921ef654,shootout,knucleotide_brute,4073.816000,1
Ř,23eb72baedfe5d54ffe7b8a10a1ed03c921ef654,shootout,knucleotide_brute,4081.340000,1
Ř,23eb72baedfe5d54ffe7b8a10a1ed03c921ef654,shootout,knucleotide_brute,4553.648000,1
Ř,23eb72baedfe5d54ffe7b8a10a1ed03c921ef654,shootout,knucleotide_brute,3867.546000,1
Ř,23eb72baedfe5d54ffe7b8a10a1ed03c921ef654,shootout,knucleotide_brute,3425.794000,1
Ř,23eb72baedfe5d54ffe7b8a10a1ed03c921ef654,shootout,knucleotide_brute,3706.937000,1
Ř,23eb72baedfe5d54ffe7b8a10a1ed03c921ef654,shootout,knucleotide_brute,4185.886000,1
Ř,23eb72baedfe5d54ffe7b8a10a1ed03c921ef654,shootout,knucleotide_brute,4342.982000,1
Ř,23eb72baedfe5d54ffe7b8a10a1ed03c921ef654,shootout,spectralnorm_alt_3,1200.629000,0
Ř,23eb72baedfe5d54ffe7b8a10a1ed03c921ef654,shootout,spectralnorm_alt_3,910.555000,0
Ř,23eb72baedfe5d54ffe7b8a10a1ed03c921ef654,shootout,spectralnorm_alt_3,1513.822000,0
Ř,23eb72baedfe5d54ffe7b8a10a1ed03c921ef654,shootout,spectralnorm_alt_3,106.296000,0
Ř,23eb72baedfe5d54ffe7b8a10a1ed03c921ef654,shootout,spectralnorm_alt_3,101.129000,0
Ř,23eb72baedfe5d54ffe7b8a10a1ed03c921ef654,shootout,spectralnorm_alt_3,100.354000,1
Ř,23eb72baedfe5d54ffe7b8a10a1ed03c921ef654,shootout,spectralnorm_alt_3,101.661000,1
Ř,23eb72baedfe5d54ffe7b8a10a1ed03c921ef654,shootout,spectralnorm_alt_3,100.918000,1
Ř,23eb72baedfe5d54ffe7b8a10a1ed03c921ef654,shootout,spectralnorm_alt_3,100.386000,1
Ř,23eb72baedfe5d54ffe7b8a10a1ed03c921ef654,shootout,spectralnorm_alt_3,101.274000,1
Ř,23eb72baedfe5d54ffe7b8a10a1ed03c921ef654,shootout,spectralnorm_alt_3,100.917000,1
Ř,23eb72baedfe5d54ffe7b8a10a1ed03c921ef654,shootout,spectralnorm_alt_3,100.588000,1
Ř,23eb72baedfe5d54ffe7b8a10a1ed03c921ef654,shootout,spectralnorm_alt_3,101.145000,1
Ř,23eb72baedfe5d54ffe7b8a10a1ed03c921ef654,shootout,spectralnorm_alt_3,103.766000,1
Ř,23eb72baedfe5d54ffe7b8a10a1ed03c921ef654,shootout,spectralnorm_alt_3,100.039000,1
Ř,23eb72baedfe5d54ffe7b8a10a1ed03c921ef654,shootout,mandelbrot_noout,396.684000,0
Ř,23eb72baedfe5d54ffe7b8a10a1ed03c921ef654,shootout,mandelbrot_noout,71.569000,0
Ř,23eb72baedfe5d54ffe7b8a10a1ed03c921ef654,shootout,mandelbrot_noout,742.794000,0
Ř,23eb72baedfe5d54ffe7b8a10a1ed03c921ef654,shootout,mandelbrot_noout,67.070000,0
Ř,23eb72baedfe5d54ffe7b8a10a1ed03c921ef654,shootout,mandelbrot_noout,68.058000,0
Ř,23eb72baedfe5d54ffe7b8a10a1ed03c921ef654,shootout,mandelbrot_noout,66.849000,1
Ř,23eb72baedfe5d54ffe7b8a10a1ed03c921ef654,shootout,mandelbrot_noout,66.824000,1
Ř,23eb72baedfe5d54ffe7b8a10a1ed03c921ef654,shootout,mandelbrot_noout,67.051000,1
Ř,23eb72baedfe5d54ffe7b8a10a1ed03c921ef654,shootout,mandelbrot_noout,68.018000,1
Ř,23eb72baedfe5d54ffe7b8a10a1ed03c921ef654,shootout,mandelbrot_noout,76.841000,1
Ř,23eb72baedfe5d54ffe7b8a10a1ed03c921ef654,shootout,mandelbrot_noout,66.879000,1
Ř,23eb72baedfe5d54ffe7b8a10a1ed03c921ef654,shootout,mandelbrot_noout,66.668000,1
Ř,23eb72baedfe5d54ffe7b8a10a1ed03c921ef654,shootout,mandelbrot_noout,66.639000,1
Ř,23eb72baedfe5d54ffe7b8a10a1ed03c921ef654,shootout,mandelbrot_noout,67.772000,1
Ř,23eb72baedfe5d54ffe7b8a10a1ed03c921ef654,shootout,mandelbrot_noout,66.613000,1
Ř,23eb72baedfe5d54ffe7b8a10a1ed03c921ef654,shootout,fasta_3,1218.311000,0
Ř,23eb72baedfe5d54ffe7b8a10a1ed03c921ef654,shootout,fasta_3,3539.270000,0
Ř,23eb72baedfe5d54ffe7b8a10a1ed03c921ef654,shootout,fasta_3,4282.539000,0
Ř,23eb72baedfe5d54ffe7b8a10a1ed03c921ef654,shootout,fasta_3,914.123000,0
Ř,23eb72baedfe5d54ffe7b8a10a1ed03c921ef654,shootout,fasta_3,896.533000,0
Ř,23eb72baedfe5d54ffe7b8a10a1ed03c921ef654,shootout,fasta_3,899.379000,1
Ř,23eb72baedfe5d54ffe7b8a10a1ed03c921ef654,shootout,fasta_3,903.778000,1
Ř,23eb72baedfe5d54ffe7b8a10a1ed03c921ef654,shootout,fasta_3,903.484000,1
Ř,23eb72baedfe5d54ffe7b8a10a1ed03c921ef654,shootout,fasta_3,895.961000,1
Ř,23eb72baedfe5d54ffe7b8a10a1ed03c921ef654,shootout,fasta_3,902.095000,1
Ř,23eb72baedfe5d54ffe7b8a10a1ed03c921ef654,shootout,fasta_3,894.495000,1
Ř,23eb72baedfe5d54ffe7b8a10a1ed03c921ef654,shootout,fasta_3,894.940000,1
Ř,23eb72baedfe5d54ffe7b8a10a1ed03c921ef654,shootout,fasta_3,901.849000,1
Ř,23eb72baedfe5d54ffe7b8a10a1ed03c921ef654,shootout,fasta_3,902.067000,1
Ř,23eb72baedfe5d54ffe7b8a10a1ed03c921ef654,shootout,fasta_3,901.855000,1
Ř,23eb72baedfe5d54ffe7b8a10a1ed03c921ef654,shootout,binarytrees_naive,1023.022000,0
Ř,23eb72baedfe5d54ffe7b8a10a1ed03c921ef654,shootout,binarytrees_naive,274.152000,0
Ř,23eb72baedfe5d54ffe7b8a10a1ed03c921ef654,shootout,binarytrees_naive,4003.674000,0
Ř,23eb72baedfe5d54ffe7b8a10a1ed03c921ef654,shootout,binarytrees_naive,86.093000,0
Ř,23eb72baedfe5d54ffe7b8a10a1ed03c921ef654,shootout,binarytrees_naive,96.585000,0
Ř,23eb72baedfe5d54ffe7b8a10a1ed03c921ef654,shootout,binarytrees_naive,85.739000,1
Ř,23eb72baedfe5d54ffe7b8a10a1ed03c921ef654,shootout,binarytrees_naive,85.681000,1
Ř,23eb72baedfe5d54ffe7b8a10a1ed03c921ef654,shootout,binarytrees_naive,213.985000,1
Ř,23eb72baedfe5d54ffe7b8a10a1ed03c921ef654,shootout,binarytrees_naive,997.197000,1
Ř,23eb72baedfe5d54ffe7b8a10a1ed03c921ef654,shootout,binarytrees_naive,154.617000,1
Ř,23eb72baedfe5d54ffe7b8a10a1ed03c921ef654,shootout,binarytrees_naive,90.202000,1
Ř,23eb72baedfe5d54ffe7b8a10a1ed03c921ef654,shootout,binarytrees_naive,90.688000,1
Ř,23eb72baedfe5d54ffe7b8a10a1ed03c921ef654,shootout,binarytrees_naive,154.713000,1
Ř,23eb72baedfe5d54ffe7b8a10a1ed03c921ef654,shootout,binarytrees_naive,211.720000,1
Ř,23eb72baedfe5d54ffe7b8a10a1ed03c921ef654,shootout,binarytrees_naive,90.830000,1
Ř,23eb72baedfe5d54ffe7b8a10a1ed03c921ef654,shootout,spectralnorm_alt,403.526000,0
Ř,23eb72baedfe5d54ffe7b8a10a1ed03c921ef654,shootout,spectralnorm_alt,272.946000,0
Ř,23eb72baedfe5d54ffe7b8a10a1ed03c921ef654,shootout,spectralnorm_alt,1558.296000,0
Ř,23eb72baedfe5d54ffe7b8a10a1ed03c921ef654,shootout,spectralnorm_alt,213.955000,0
Ř,23eb72baedfe5d54ffe7b8a10a1ed03c921ef654,shootout,spectralnorm_alt,202.132000,0
Ř,23eb72baedfe5d54ffe7b8a10a1ed03c921ef654,shootout,spectralnorm_alt,218.423000,1
Ř,23eb72baedfe5d54ffe7b8a10a1ed03c921ef654,shootout,spectralnorm_alt,206.535000,1
Ř,23eb72baedfe5d54ffe7b8a10a1ed03c921ef654,shootout,spectralnorm_alt,191.371000,1
Ř,23eb72baedfe5d54ffe7b8a10a1ed03c921ef654,shootout,spectralnorm_alt,191.737000,1
Ř,23eb72baedfe5d54ffe7b8a10a1ed03c921ef654,shootout,spectralnorm_alt,202.689000,1
Ř,23eb72baedfe5d54ffe7b8a10a1ed03c921ef654,shootout,spectralnorm_alt,189.705000,1
Ř,23eb72baedfe5d54ffe7b8a10a1ed03c921ef654,shootout,spectralnorm_alt,199.265000,1
Ř,23eb72baedfe5d54ffe7b8a10a1ed03c921ef654,shootout,spectralnorm_alt,197.247000,1
Ř,23eb72baedfe5d54ffe7b8a10a1ed03c921ef654,shootout,spectralnorm_alt,206.280000,1
Ř,23eb72baedfe5d54ffe7b8a10a1ed03c921ef654,shootout,spectralnorm_alt,191.109000,1
Ř,23eb72baedfe5d54ffe7b8a10a1ed03c921ef654,shootout,nbody_2,1594.000000,0
Ř,23eb72baedfe5d54ffe7b8a10a1ed03c921ef654,shootout,nbody_2,1445.085000,0
Ř,23eb72baedfe5d54ffe7b8a10a1ed03c921ef654,shootout,nbody_2,1788.864000,0
Ř,23eb72baedfe5d54ffe7b8a10a1ed03c921ef654,shootout,nbody_2,666.433000,0
Ř,23eb72baedfe5d54ffe7b8a10a1ed03c921ef654,shootout,nbody_2,644.146000,0
Ř,23eb72baedfe5d54ffe7b8a10a1ed03c921ef654,shootout,nbody_2,641.671000,1
Ř,23eb72baedfe5d54ffe7b8a10a1ed03c921ef654,shootout,nbody_2,644.668000,1
Ř,23eb72baedfe5d54ffe7b8a10a1ed03c921ef654,shootout,nbody_2,654.976000,1
Ř,23eb72baedfe5d54ffe7b8a10a1ed03c921ef654,shootout,nbody_2,644.005000,1
Ř,23eb72baedfe5d54ffe7b8a10a1ed03c921ef654,shootout,nbody_2,644.385000,1
Ř,23eb72baedfe5d54ffe7b8a10a1ed03c921ef654,shootout,nbody_2,643.268000,1
Ř,23eb72baedfe5d54ffe7b8a10a1ed03c921ef654,shootout,nbody_2,654.036000,1
Ř,23eb72baedfe5d54ffe7b8a10a1ed03c921ef654,shootout,nbody_2,643.261000,1
Ř,23eb72baedfe5d54ffe7b8a10a1ed03c921ef654,shootout,nbody_2,643.473000,1
Ř,23eb72baedfe5d54ffe7b8a10a1ed03c921ef654,shootout,nbody_2,653.647000,1
Ř,23eb72baedfe5d54ffe7b8a10a1ed03c921ef654,real_thing,flexclust_no_s4,17704.559000,0
Ř,23eb72baedfe5d54ffe7b8a10a1ed03c921ef654,real_thing,flexclust_no_s4,14126.776000,0
Ř,23eb72baedfe5d54ffe7b8a10a1ed03c921ef654,real_thing,flexclust_no_s4,27185.213000,0
Ř,23eb72baedfe5d54ffe7b8a10a1ed03c921ef654,real_thing,flexclust_no_s4,24637.496000,0
Ř,23eb72baedfe5d54ffe7b8a10a1ed03c921ef654,real_thing,flexclust_no_s4,18805.861000,0
Ř,23eb72baedfe5d54ffe7b8a10a1ed03c921ef654,real_thing,flexclust_no_s4,14966.641000,1
Ř,23eb72baedfe5d54ffe7b8a10a1ed03c921ef654,real_thing,flexclust_no_s4,19032.810000,1
Ř,23eb72baedfe5d54ffe7b8a10a1ed03c921ef654,real_thing,flexclust_no_s4,13440.093000,1
Ř,23eb72baedfe5d54ffe7b8a10a1ed03c921ef654,real_thing,flexclust_no_s4,13261.374000,1
Ř,23eb72baedfe5d54ffe7b8a10a1ed03c921ef654,real_thing,flexclust_no_s4,12989.410000,1
Ř,23eb72baedfe5d54ffe7b8a10a1ed03c921ef654,real_thing,flexclust_no_s4,13247.445000,1
Ř,23eb72baedfe5d54ffe7b8a10a1ed03c921ef654,real_thing,flexclust_no_s4,12985.737000,1
Ř,23eb72baedfe5d54ffe7b8a10a1ed03c921ef654,real_thing,flexclust_no_s4,13038.060000,1
Ř,23eb72baedfe5d54ffe7b8a10a1ed03c921ef654,real_thing,flexclust_no_s4,13086.967000,1
Ř,23eb72baedfe5d54ffe7b8a10a1ed03c921ef654,real_thing,flexclust_no_s4,13106.554000,1
Ř,23eb72baedfe5d54ffe7b8a10a1ed03c921ef654,real_thing,convolution,744.927000,0
Ř,23eb72baedfe5d54ffe7b8a10a1ed03c921ef654,real_thing,convolution,12.769000,0
Ř,23eb72baedfe5d54ffe7b8a10a1ed03c921ef654,real_thing,convolution,582.635000,0
Ř,23eb72baedfe5d54ffe7b8a10a1ed03c921ef654,real_thing,convolution,12.112000,0
Ř,23eb72baedfe5d54ffe7b8a10a1ed03c921ef654,real_thing,convolution,12.096000,0
Ř,23eb72baedfe5d54ffe7b8a10a1ed03c921ef654,real_thing,convolution,12.099000,1
Ř,23eb72baedfe5d54ffe7b8a10a1ed03c921ef654,real_thing,convolution,12.094000,1
Ř,23eb72baedfe5d54ffe7b8a10a1ed03c921ef654,real_thing,convolution,12.116000,1
Ř,23eb72baedfe5d54ffe7b8a10a1ed03c921ef654,real_thing,convolution,12.075000,1
Ř,23eb72baedfe5d54ffe7b8a10a1ed03c921ef654,real_thing,convolution,12.070000,1
Ř,23eb72baedfe5d54ffe7b8a10a1ed03c921ef654,real_thing,convolution,12.231000,1
Ř,23eb72baedfe5d54ffe7b8a10a1ed03c921ef654,real_thing,convolution,12.072000,1
Ř,23eb72baedfe5d54ffe7b8a10a1ed03c921ef654,real_thing,convolution,12.367000,1
Ř,23eb72baedfe5d54ffe7b8a10a1ed03c921ef654,real_thing,convolution,12.078000,1
Ř,23eb72baedfe5d54ffe7b8a10a1ed03c921ef654,real_thing,convolution,12.290000,1
Ř,23eb72baedfe5d54ffe7b8a10a1ed03c921ef654,real_thing,flexclust,45864.045000,0
Ř,23eb72baedfe5d54ffe7b8a10a1ed03c921ef654,real_thing,flexclust,29271.641000,0
Ř,23eb72baedfe5d54ffe7b8a10a1ed03c921ef654,real_thing,flexclust,43346.191000,0
Ř,23eb72baedfe5d54ffe7b8a10a1ed03c921ef654,real_thing,flexclust,55184.813000,0
Ř,23eb72baedfe5d54ffe7b8a10a1ed03c921ef654,real_thing,flexclust,26625.814000,0
Ř,23eb72baedfe5d54ffe7b8a10a1ed03c921ef654,real_thing,flexclust,27060.745000,1
Ř,23eb72baedfe5d54ffe7b8a10a1ed03c921ef654,real_thing,flexclust,16214.581000,1
Ř,23eb72baedfe5d54ffe7b8a10a1ed03c921ef654,real_thing,flexclust,16288.688000,1
Ř,23eb72baedfe5d54ffe7b8a10a1ed03c921ef654,real_thing,flexclust,15483.291000,1
Ř,23eb72baedfe5d54ffe7b8a10a1ed03c921ef654,real_thing,flexclust,15729.443000,1
Ř,23eb72baedfe5d54ffe7b8a10a1ed03c921ef654,real_thing,flexclust,15462.261000,1
Ř,23eb72baedfe5d54ffe7b8a10a1ed03c921ef654,real_thing,flexclust,16787.642000,1
Ř,23eb72baedfe5d54ffe7b8a10a1ed03c921ef654,real_thing,flexclust,15379.824000,1
Ř,23eb72baedfe5d54ffe7b8a10a1ed03c921ef654,real_thing,flexclust,15460.397000,1
Ř,23eb72baedfe5d54ffe7b8a10a1ed03c921ef654,real_thing,flexclust,15753.710000,1
Ř,23eb72baedfe5d54ffe7b8a10a1ed03c921ef654,real_thing,convolution_v,640.852000,0
Ř,23eb72baedfe5d54ffe7b8a10a1ed03c921ef654,real_thing,convolution_v,98.040000,0
Ř,23eb72baedfe5d54ffe7b8a10a1ed03c921ef654,real_thing,convolution_v,726.479000,0
Ř,23eb72baedfe5d54ffe7b8a10a1ed03c921ef654,real_thing,convolution_v,95.108000,0
Ř,23eb72baedfe5d54ffe7b8a10a1ed03c921ef654,real_thing,convolution_v,105.727000,0
Ř,23eb72baedfe5d54ffe7b8a10a1ed03c921ef654,real_thing,convolution_v,95.441000,1
Ř,23eb72baedfe5d54ffe7b8a10a1ed03c921ef654,real_thing,convolution_v,94.670000,1
Ř,23eb72baedfe5d54ffe7b8a10a1ed03c921ef654,real_thing,convolution_v,94.667000,1
Ř,23eb72baedfe5d54ffe7b8a10a1ed03c921ef654,real_thing,convolution_v,95.033000,1
Ř,23eb72baedfe5d54ffe7b8a10a1ed03c921ef654,real_thing,convolution_v,96.147000,1
Ř,23eb72baedfe5d54ffe7b8a10a1ed03c921ef654,real_thing,convolution_v,96.642000,1
Ř,23eb72baedfe5d54ffe7b8a10a1ed03c921ef654,real_thing,convolution_v,94.128000,1
Ř,23eb72baedfe5d54ffe7b8a10a1ed03c921ef654,real_thing,convolution_v,97.450000,1
Ř,23eb72baedfe5d54ffe7b8a10a1ed03c921ef654,real_thing,convolution_v,94.194000,1
Ř,23eb72baedfe5d54ffe7b8a10a1ed03c921ef654,real_thing,convolution_v,94.703000,1
Ř,23eb72baedfe5d54ffe7b8a10a1ed03c921ef654,real_thing,convolution_slow,644.748000,0
Ř,23eb72baedfe5d54ffe7b8a10a1ed03c921ef654,real_thing,convolution_slow,99.118000,0
Ř,23eb72baedfe5d54ffe7b8a10a1ed03c921ef654,real_thing,convolution_slow,731.302000,0
Ř,23eb72baedfe5d54ffe7b8a10a1ed03c921ef654,real_thing,convolution_slow,95.487000,0
Ř,23eb72baedfe5d54ffe7b8a10a1ed03c921ef654,real_thing,convolution_slow,106.445000,0
Ř,23eb72baedfe5d54ffe7b8a10a1ed03c921ef654,real_thing,convolution_slow,95.386000,1
Ř,23eb72baedfe5d54ffe7b8a10a1ed03c921ef654,real_thing,convolution_slow,95.560000,1
Ř,23eb72baedfe5d54ffe7b8a10a1ed03c921ef654,real_thing,convolution_slow,95.963000,1
Ř,23eb72baedfe5d54ffe7b8a10a1ed03c921ef654,real_thing,convolution_slow,95.847000,1
Ř,23eb72baedfe5d54ffe7b8a10a1ed03c921ef654,real_thing,convolution_slow,99.591000,1
Ř,23eb72baedfe5d54ffe7b8a10a1ed03c921ef654,real_thing,convolution_slow,99.095000,1
Ř,23eb72baedfe5d54ffe7b8a10a1ed03c921ef654,real_thing,convolution_slow,95.265000,1
Ř,23eb72baedfe5d54ffe7b8a10a1ed03c921ef654,real_thing,convolution_slow,101.669000,1
Ř,23eb72baedfe5d54ffe7b8a10a1ed03c921ef654,real_thing,convolution_slow,94.973000,1
Ř,23eb72baedfe5d54ffe7b8a10a1ed03c921ef654,real_thing,convolution_slow,95.602000,1
Ř,23eb72baedfe5d54ffe7b8a10a1ed03c921ef654,are-we-fast-r,Mandelbrot,3516.148000,0
Ř,23eb72baedfe5d54ffe7b8a10a1ed03c921ef654,are-we-fast-r,Mandelbrot,3465.857000,0
Ř,23eb72baedfe5d54ffe7b8a10a1ed03c921ef654,are-we-fast-r,Mandelbrot,769.120000,0
Ř,23eb72baedfe5d54ffe7b8a10a1ed03c921ef654,are-we-fast-r,Mandelbrot,1290.749000,0
Ř,23eb72baedfe5d54ffe7b8a10a1ed03c921ef654,are-we-fast-r,Mandelbrot,66.921000,0
Ř,23eb72baedfe5d54ffe7b8a10a1ed03c921ef654,are-we-fast-r,Mandelbrot,66.924000,1
Ř,23eb72baedfe5d54ffe7b8a10a1ed03c921ef654,are-we-fast-r,Mandelbrot,67.806000,1
Ř,23eb72baedfe5d54ffe7b8a10a1ed03c921ef654,are-we-fast-r,Mandelbrot,66.968000,1
Ř,23eb72baedfe5d54ffe7b8a10a1ed03c921ef654,are-we-fast-r,Mandelbrot,66.876000,1
Ř,23eb72baedfe5d54ffe7b8a10a1ed03c921ef654,are-we-fast-r,Mandelbrot,66.907000,1
Ř,23eb72baedfe5d54ffe7b8a10a1ed03c921ef654,are-we-fast-r,Mandelbrot,66.919000,1
Ř,23eb72baedfe5d54ffe7b8a10a1ed03c921ef654,are-we-fast-r,Mandelbrot,66.941000,1
Ř,23eb72baedfe5d54ffe7b8a10a1ed03c921ef654,are-we-fast-r,Mandelbrot,67.172000,1
Ř,23eb72baedfe5d54ffe7b8a10a1ed03c921ef654,are-we-fast-r,Mandelbrot,66.923000,1
Ř,23eb72baedfe5d54ffe7b8a10a1ed03c921ef654,are-we-fast-r,Mandelbrot,66.747000,1
Ř,23eb72baedfe5d54ffe7b8a10a1ed03c921ef654,are-we-fast-r,Bounce_nonames_simple,1976.258000,0
Ř,23eb72baedfe5d54ffe7b8a10a1ed03c921ef654,are-we-fast-r,Bounce_nonames_simple,142.522000,0
Ř,23eb72baedfe5d54ffe7b8a10a1ed03c921ef654,are-we-fast-r,Bounce_nonames_simple,151.985000,0
Ř,23eb72baedfe5d54ffe7b8a10a1ed03c921ef654,are-we-fast-r,Bounce_nonames_simple,143.549000,0
Ř,23eb72baedfe5d54ffe7b8a10a1ed03c921ef654,are-we-fast-r,Bounce_nonames_simple,142.359000,0
Ř,23eb72baedfe5d54ffe7b8a10a1ed03c921ef654,are-we-fast-r,Bounce_nonames_simple,145.875000,1
Ř,23eb72baedfe5d54ffe7b8a10a1ed03c921ef654,are-we-fast-r,Bounce_nonames_simple,142.882000,1
Ř,23eb72baedfe5d54ffe7b8a10a1ed03c921ef654,are-we-fast-r,Bounce_nonames_simple,142.071000,1
Ř,23eb72baedfe5d54ffe7b8a10a1ed03c921ef654,are-we-fast-r,Bounce_nonames_simple,141.912000,1
Ř,23eb72baedfe5d54ffe7b8a10a1ed03c921ef654,are-we-fast-r,Bounce_nonames_simple,141.419000,1
Ř,23eb72baedfe5d54ffe7b8a10a1ed03c921ef654,are-we-fast-r,Bounce_nonames_simple,142.473000,1
Ř,23eb72baedfe5d54ffe7b8a10a1ed03c921ef654,are-we-fast-r,Bounce_nonames_simple,145.078000,1
Ř,23eb72baedfe5d54ffe7b8a10a1ed03c921ef654,are-we-fast-r,Bounce_nonames_simple,142.028000,1
Ř,23eb72baedfe5d54ffe7b8a10a1ed03c921ef654,are-we-fast-r,Bounce_nonames_simple,142.098000,1
Ř,23eb72baedfe5d54ffe7b8a10a1ed03c921ef654,are-we-fast-r,Bounce_nonames_simple,142.508000,1
Ř,23eb72baedfe5d54ffe7b8a10a1ed03c921ef654,are-we-fast-r,Storage,1214.493000,0
Ř,23eb72baedfe5d54ffe7b8a10a1ed03c921ef654,are-we-fast-r,Storage,572.973000,0
Ř,23eb72baedfe5d54ffe7b8a10a1ed03c921ef654,are-we-fast-r,Storage,536.919000,0
Ř,23eb72baedfe5d54ffe7b8a10a1ed03c921ef654,are-we-fast-r,Storage,527.610000,0
Ř,23eb72baedfe5d54ffe7b8a10a1ed03c921ef654,are-we-fast-r,Storage,508.649000,0
Ř,23eb72baedfe5d54ffe7b8a10a1ed03c921ef654,are-we-fast-r,Storage,521.173000,1
Ř,23eb72baedfe5d54ffe7b8a10a1ed03c921ef654,are-we-fast-r,Storage,585.508000,1
Ř,23eb72baedfe5d54ffe7b8a10a1ed03c921ef654,are-we-fast-r,Storage,526.793000,1
Ř,23eb72baedfe5d54ffe7b8a10a1ed03c921ef654,are-we-fast-r,Storage,532.614000,1
Ř,23eb72baedfe5d54ffe7b8a10a1ed03c921ef654,are-we-fast-r,Storage,587.411000,1
Ř,23eb72baedfe5d54ffe7b8a10a1ed03c921ef654,are-we-fast-r,Storage,589.731000,1
Ř,23eb72baedfe5d54ffe7b8a10a1ed03c921ef654,are-we-fast-r,Storage,485.393000,1
Ř,23eb72baedfe5d54ffe7b8a10a1ed03c921ef654,are-we-fast-r,Storage,654.861000,1
Ř,23eb72baedfe5d54ffe7b8a10a1ed03c921ef654,are-we-fast-r,Storage,750.513000,1
Ř,23eb72baedfe5d54ffe7b8a10a1ed03c921ef654,are-we-fast-r,Storage,607.147000,1
Ř,23eb72baedfe5d54ffe7b8a10a1ed03c921ef654,are-we-fast-r,Bounce_nonames,1491.208000,0
Ř,23eb72baedfe5d54ffe7b8a10a1ed03c921ef654,are-we-fast-r,Bounce_nonames,142.143000,0
Ř,23eb72baedfe5d54ffe7b8a10a1ed03c921ef654,are-we-fast-r,Bounce_nonames,150.830000,0
Ř,23eb72baedfe5d54ffe7b8a10a1ed03c921ef654,are-we-fast-r,Bounce_nonames,142.251000,0
Ř,23eb72baedfe5d54ffe7b8a10a1ed03c921ef654,are-we-fast-r,Bounce_nonames,141.187000,0
Ř,23eb72baedfe5d54ffe7b8a10a1ed03c921ef654,are-we-fast-r,Bounce_nonames,144.319000,1
Ř,23eb72baedfe5d54ffe7b8a10a1ed03c921ef654,are-we-fast-r,Bounce_nonames,141.321000,1
Ř,23eb72baedfe5d54ffe7b8a10a1ed03c921ef654,are-we-fast-r,Bounce_nonames,139.801000,1
Ř,23eb72baedfe5d54ffe7b8a10a1ed03c921ef654,are-we-fast-r,Bounce_nonames,141.083000,1
Ř,23eb72baedfe5d54ffe7b8a10a1ed03c921ef654,are-we-fast-r,Bounce_nonames,140.367000,1
Ř,23eb72baedfe5d54ffe7b8a10a1ed03c921ef654,are-we-fast-r,Bounce_nonames,141.121000,1
Ř,23eb72baedfe5d54ffe7b8a10a1ed03c921ef654,are-we-fast-r,Bounce_nonames,143.318000,1
Ř,23eb72baedfe5d54ffe7b8a10a1ed03c921ef654,are-we-fast-r,Bounce_nonames,140.569000,1
Ř,23eb72baedfe5d54ffe7b8a10a1ed03c921ef654,are-we-fast-r,Bounce_nonames,141.770000,1
Ř,23eb72baedfe5d54ffe7b8a10a1ed03c921ef654,are-we-fast-r,Bounce_nonames,140.941000,1
Ř,23eb72baedfe5d54ffe7b8a10a1ed03c921ef654,are-we-fast-r,Bounce,2296.295000,0
Ř,23eb72baedfe5d54ffe7b8a10a1ed03c921ef654,are-we-fast-r,Bounce,844.288000,0
Ř,23eb72baedfe5d54ffe7b8a10a1ed03c921ef654,are-we-fast-r,Bounce,862.403000,0
Ř,23eb72baedfe5d54ffe7b8a10a1ed03c921ef654,are-we-fast-r,Bounce,841.856000,0
Ř,23eb72baedfe5d54ffe7b8a10a1ed03c921ef654,are-we-fast-r,Bounce,820.475000,0
Ř,23eb72baedfe5d54ffe7b8a10a1ed03c921ef654,are-we-fast-r,Bounce,842.434000,1
Ř,23eb72baedfe5d54ffe7b8a10a1ed03c921ef654,are-we-fast-r,Bounce,853.416000,1
Ř,23eb72baedfe5d54ffe7b8a10a1ed03c921ef654,are-we-fast-r,Bounce,810.462000,1
Ř,23eb72baedfe5d54ffe7b8a10a1ed03c921ef654,are-we-fast-r,Bounce,826.015000,1
Ř,23eb72baedfe5d54ffe7b8a10a1ed03c921ef654,are-we-fast-r,Bounce,849.179000,1
Ř,23eb72baedfe5d54ffe7b8a10a1ed03c921ef654,are-we-fast-r,Bounce,825.161000,1
Ř,23eb72baedfe5d54ffe7b8a10a1ed03c921ef654,are-we-fast-r,Bounce,820.306000,1
Ř,23eb72baedfe5d54ffe7b8a10a1ed03c921ef654,are-we-fast-r,Bounce,842.263000,1
Ř,23eb72baedfe5d54ffe7b8a10a1ed03c921ef654,are-we-fast-r,Bounce,849.958000,1
Ř,23eb72baedfe5d54ffe7b8a10a1ed03c921ef654,are-we-fast-r,Bounce,816.465000,1
