vm,commit,suite,benchmark,ms,warm
Ř,b59550ac47ef156bc66621ebce29455f66f1445a,simple,superWhile,2864.354000,0
Ř,b59550ac47ef156bc66621ebce29455f66f1445a,simple,superWhile,2847.860000,0
Ř,b59550ac47ef156bc66621ebce29455f66f1445a,simple,superWhile,54.312000,0
Ř,b59550ac47ef156bc66621ebce29455f66f1445a,simple,superWhile,20.290000,0
Ř,b59550ac47ef156bc66621ebce29455f66f1445a,simple,superWhile,20.199000,0
Ř,b59550ac47ef156bc66621ebce29455f66f1445a,simple,superWhile,20.197000,1
Ř,b59550ac47ef156bc66621ebce29455f66f1445a,simple,superWhile,20.196000,1
Ř,b59550ac47ef156bc66621ebce29455f66f1445a,simple,superWhile,20.196000,1
Ř,b59550ac47ef156bc66621ebce29455f66f1445a,simple,superWhile,20.247000,1
Ř,b59550ac47ef156bc66621ebce29455f66f1445a,simple,superWhile,20.198000,1
Ř,b59550ac47ef156bc66621ebce29455f66f1445a,simple,superWhile,20.198000,1
Ř,b59550ac47ef156bc66621ebce29455f66f1445a,simple,superWhile,20.196000,1
Ř,b59550ac47ef156bc66621ebce29455f66f1445a,simple,superWhile,20.196000,1
Ř,b59550ac47ef156bc66621ebce29455f66f1445a,simple,superWhile,20.195000,1
Ř,b59550ac47ef156bc66621ebce29455f66f1445a,simple,superWhile,20.241000,1
Ř,b59550ac47ef156bc66621ebce29455f66f1445a,simple,matrixFor,383.994000,0
Ř,b59550ac47ef156bc66621ebce29455f66f1445a,simple,matrixFor,416.160000,0
Ř,b59550ac47ef156bc66621ebce29455f66f1445a,simple,matrixFor,162.200000,0
Ř,b59550ac47ef156bc66621ebce29455f66f1445a,simple,matrixFor,53.572000,0
Ř,b59550ac47ef156bc66621ebce29455f66f1445a,simple,matrixFor,53.532000,0
Ř,b59550ac47ef156bc66621ebce29455f66f1445a,simple,matrixFor,53.523000,1
Ř,b59550ac47ef156bc66621ebce29455f66f1445a,simple,matrixFor,53.532000,1
Ř,b59550ac47ef156bc66621ebce29455f66f1445a,simple,matrixFor,53.509000,1
Ř,b59550ac47ef156bc66621ebce29455f66f1445a,simple,matrixFor,53.561000,1
Ř,b59550ac47ef156bc66621ebce29455f66f1445a,simple,matrixFor,53.525000,1
Ř,b59550ac47ef156bc66621ebce29455f66f1445a,simple,matrixFor,53.519000,1
Ř,b59550ac47ef156bc66621ebce29455f66f1445a,simple,matrixFor,53.488000,1
Ř,b59550ac47ef156bc66621ebce29455f66f1445a,simple,matrixFor,53.531000,1
Ř,b59550ac47ef156bc66621ebce29455f66f1445a,simple,matrixFor,53.508000,1
Ř,b59550ac47ef156bc66621ebce29455f66f1445a,simple,matrixFor,53.530000,1
Ř,b59550ac47ef156bc66621ebce29455f66f1445a,simple,vectorWhile,2155.910000,0
Ř,b59550ac47ef156bc66621ebce29455f66f1445a,simple,vectorWhile,2135.061000,0
Ř,b59550ac47ef156bc66621ebce29455f66f1445a,simple,vectorWhile,181.748000,0
Ř,b59550ac47ef156bc66621ebce29455f66f1445a,simple,vectorWhile,125.917000,0
Ř,b59550ac47ef156bc66621ebce29455f66f1445a,simple,vectorWhile,141.423000,0
Ř,b59550ac47ef156bc66621ebce29455f66f1445a,simple,vectorWhile,127.778000,1
Ř,b59550ac47ef156bc66621ebce29455f66f1445a,simple,vectorWhile,127.802000,1
Ř,b59550ac47ef156bc66621ebce29455f66f1445a,simple,vectorWhile,127.751000,1
Ř,b59550ac47ef156bc66621ebce29455f66f1445a,simple,vectorWhile,127.727000,1
Ř,b59550ac47ef156bc66621ebce29455f66f1445a,simple,vectorWhile,127.782000,1
Ř,b59550ac47ef156bc66621ebce29455f66f1445a,simple,vectorWhile,127.828000,1
Ř,b59550ac47ef156bc66621ebce29455f66f1445a,simple,vectorWhile,127.793000,1
Ř,b59550ac47ef156bc66621ebce29455f66f1445a,simple,vectorWhile,127.804000,1
Ř,b59550ac47ef156bc66621ebce29455f66f1445a,simple,vectorWhile,127.843000,1
Ř,b59550ac47ef156bc66621ebce29455f66f1445a,simple,vectorWhile,127.852000,1
Ř,b59550ac47ef156bc66621ebce29455f66f1445a,simple,emptyFor,3140.266000,0
Ř,b59550ac47ef156bc66621ebce29455f66f1445a,simple,emptyFor,3141.851000,0
Ř,b59550ac47ef156bc66621ebce29455f66f1445a,simple,emptyFor,15.731000,0
Ř,b59550ac47ef156bc66621ebce29455f66f1445a,simple,emptyFor,0.028000,0
Ř,b59550ac47ef156bc66621ebce29455f66f1445a,simple,emptyFor,0.010000,0
Ř,b59550ac47ef156bc66621ebce29455f66f1445a,simple,emptyFor,0.008000,1
Ř,b59550ac47ef156bc66621ebce29455f66f1445a,simple,emptyFor,0.008000,1
Ř,b59550ac47ef156bc66621ebce29455f66f1445a,simple,emptyFor,0.008000,1
Ř,b59550ac47ef156bc66621ebce29455f66f1445a,simple,emptyFor,0.007000,1
Ř,b59550ac47ef156bc66621ebce29455f66f1445a,simple,emptyFor,0.008000,1
Ř,b59550ac47ef156bc66621ebce29455f66f1445a,simple,emptyFor,0.008000,1
Ř,b59550ac47ef156bc66621ebce29455f66f1445a,simple,emptyFor,0.008000,1
Ř,b59550ac47ef156bc66621ebce29455f66f1445a,simple,emptyFor,0.007000,1
Ř,b59550ac47ef156bc66621ebce29455f66f1445a,simple,emptyFor,0.007000,1
Ř,b59550ac47ef156bc66621ebce29455f66f1445a,simple,emptyFor,0.007000,1
Ř,b59550ac47ef156bc66621ebce29455f66f1445a,simple,lapplyDots,760.463000,0
Ř,b59550ac47ef156bc66621ebce29455f66f1445a,simple,lapplyDots,913.136000,0
Ř,b59550ac47ef156bc66621ebce29455f66f1445a,simple,lapplyDots,831.619000,0
Ř,b59550ac47ef156bc66621ebce29455f66f1445a,simple,lapplyDots,1052.276000,0
Ř,b59550ac47ef156bc66621ebce29455f66f1445a,simple,lapplyDots,988.500000,0
Ř,b59550ac47ef156bc66621ebce29455f66f1445a,simple,lapplyDots,939.557000,1
Ř,b59550ac47ef156bc66621ebce29455f66f1445a,simple,lapplyDots,955.320000,1
Ř,b59550ac47ef156bc66621ebce29455f66f1445a,simple,lapplyDots,837.958000,1
Ř,b59550ac47ef156bc66621ebce29455f66f1445a,simple,lapplyDots,945.648000,1
Ř,b59550ac47ef156bc66621ebce29455f66f1445a,simple,lapplyDots,958.538000,1
Ř,b59550ac47ef156bc66621ebce29455f66f1445a,simple,lapplyDots,974.242000,1
Ř,b59550ac47ef156bc66621ebce29455f66f1445a,simple,lapplyDots,822.030000,1
Ř,b59550ac47ef156bc66621ebce29455f66f1445a,simple,lapplyDots,958.837000,1
Ř,b59550ac47ef156bc66621ebce29455f66f1445a,simple,lapplyDots,966.442000,1
Ř,b59550ac47ef156bc66621ebce29455f66f1445a,simple,lapplyDots,925.297000,1
Ř,b59550ac47ef156bc66621ebce29455f66f1445a,simple,scalarWhile,2196.402000,0
Ř,b59550ac47ef156bc66621ebce29455f66f1445a,simple,scalarWhile,2149.488000,0
Ř,b59550ac47ef156bc66621ebce29455f66f1445a,simple,scalarWhile,43.718000,0
Ř,b59550ac47ef156bc66621ebce29455f66f1445a,simple,scalarWhile,25.326000,0
Ř,b59550ac47ef156bc66621ebce29455f66f1445a,simple,scalarWhile,25.245000,0
Ř,b59550ac47ef156bc66621ebce29455f66f1445a,simple,scalarWhile,25.243000,1
Ř,b59550ac47ef156bc66621ebce29455f66f1445a,simple,scalarWhile,25.243000,1
Ř,b59550ac47ef156bc66621ebce29455f66f1445a,simple,scalarWhile,25.300000,1
Ř,b59550ac47ef156bc66621ebce29455f66f1445a,simple,scalarWhile,25.243000,1
Ř,b59550ac47ef156bc66621ebce29455f66f1445a,simple,scalarWhile,25.243000,1
Ř,b59550ac47ef156bc66621ebce29455f66f1445a,simple,scalarWhile,25.242000,1
Ř,b59550ac47ef156bc66621ebce29455f66f1445a,simple,scalarWhile,25.288000,1
Ř,b59550ac47ef156bc66621ebce29455f66f1445a,simple,scalarWhile,25.248000,1
Ř,b59550ac47ef156bc66621ebce29455f66f1445a,simple,scalarWhile,25.242000,1
Ř,b59550ac47ef156bc66621ebce29455f66f1445a,simple,scalarWhile,25.242000,1
Ř,b59550ac47ef156bc66621ebce29455f66f1445a,simple,listWhile,153.687000,0
Ř,b59550ac47ef156bc66621ebce29455f66f1445a,simple,listWhile,147.054000,0
Ř,b59550ac47ef156bc66621ebce29455f66f1445a,simple,listWhile,128.902000,0
Ř,b59550ac47ef156bc66621ebce29455f66f1445a,simple,listWhile,67.408000,0
Ř,b59550ac47ef156bc66621ebce29455f66f1445a,simple,listWhile,62.941000,0
Ř,b59550ac47ef156bc66621ebce29455f66f1445a,simple,listWhile,72.166000,1
Ř,b59550ac47ef156bc66621ebce29455f66f1445a,simple,listWhile,84.474000,1
Ř,b59550ac47ef156bc66621ebce29455f66f1445a,simple,listWhile,52.258000,1
Ř,b59550ac47ef156bc66621ebce29455f66f1445a,simple,listWhile,65.321000,1
Ř,b59550ac47ef156bc66621ebce29455f66f1445a,simple,listWhile,61.093000,1
Ř,b59550ac47ef156bc66621ebce29455f66f1445a,simple,listWhile,64.230000,1
Ř,b59550ac47ef156bc66621ebce29455f66f1445a,simple,listWhile,58.089000,1
Ř,b59550ac47ef156bc66621ebce29455f66f1445a,simple,listWhile,79.544000,1
Ř,b59550ac47ef156bc66621ebce29455f66f1445a,simple,listWhile,55.399000,1
Ř,b59550ac47ef156bc66621ebce29455f66f1445a,simple,listWhile,62.166000,1
Ř,b59550ac47ef156bc66621ebce29455f66f1445a,simple,scalarFor,4498.614000,0
Ř,b59550ac47ef156bc66621ebce29455f66f1445a,simple,scalarFor,4546.035000,0
Ř,b59550ac47ef156bc66621ebce29455f66f1445a,simple,scalarFor,17.221000,0
Ř,b59550ac47ef156bc66621ebce29455f66f1445a,simple,scalarFor,0.029000,0
Ř,b59550ac47ef156bc66621ebce29455f66f1445a,simple,scalarFor,0.010000,0
Ř,b59550ac47ef156bc66621ebce29455f66f1445a,simple,scalarFor,0.009000,1
Ř,b59550ac47ef156bc66621ebce29455f66f1445a,simple,scalarFor,0.008000,1
Ř,b59550ac47ef156bc66621ebce29455f66f1445a,simple,scalarFor,0.007000,1
Ř,b59550ac47ef156bc66621ebce29455f66f1445a,simple,scalarFor,0.008000,1
Ř,b59550ac47ef156bc66621ebce29455f66f1445a,simple,scalarFor,0.007000,1
Ř,b59550ac47ef156bc66621ebce29455f66f1445a,simple,scalarFor,0.007000,1
Ř,b59550ac47ef156bc66621ebce29455f66f1445a,simple,scalarFor,0.008000,1
Ř,b59550ac47ef156bc66621ebce29455f66f1445a,simple,scalarFor,0.008000,1
Ř,b59550ac47ef156bc66621ebce29455f66f1445a,simple,scalarFor,0.007000,1
Ř,b59550ac47ef156bc66621ebce29455f66f1445a,simple,scalarFor,0.008000,1
Ř,b59550ac47ef156bc66621ebce29455f66f1445a,simple,lapply,636.542000,0
Ř,b59550ac47ef156bc66621ebce29455f66f1445a,simple,lapply,713.585000,0
Ř,b59550ac47ef156bc66621ebce29455f66f1445a,simple,lapply,768.572000,0
Ř,b59550ac47ef156bc66621ebce29455f66f1445a,simple,lapply,737.563000,0
Ř,b59550ac47ef156bc66621ebce29455f66f1445a,simple,lapply,854.718000,0
Ř,b59550ac47ef156bc66621ebce29455f66f1445a,simple,lapply,738.058000,1
Ř,b59550ac47ef156bc66621ebce29455f66f1445a,simple,lapply,750.217000,1
Ř,b59550ac47ef156bc66621ebce29455f66f1445a,simple,lapply,746.722000,1
Ř,b59550ac47ef156bc66621ebce29455f66f1445a,simple,lapply,551.524000,1
Ř,b59550ac47ef156bc66621ebce29455f66f1445a,simple,lapply,655.293000,1
Ř,b59550ac47ef156bc66621ebce29455f66f1445a,simple,lapply,666.660000,1
Ř,b59550ac47ef156bc66621ebce29455f66f1445a,simple,lapply,690.530000,1
Ř,b59550ac47ef156bc66621ebce29455f66f1445a,simple,lapply,637.328000,1
Ř,b59550ac47ef156bc66621ebce29455f66f1445a,simple,lapply,560.110000,1
Ř,b59550ac47ef156bc66621ebce29455f66f1445a,simple,lapply,663.255000,1
Ř,b59550ac47ef156bc66621ebce29455f66f1445a,simple,vectorFor,1027.533000,0
Ř,b59550ac47ef156bc66621ebce29455f66f1445a,simple,vectorFor,997.391000,0
Ř,b59550ac47ef156bc66621ebce29455f66f1445a,simple,vectorFor,74.847000,0
Ř,b59550ac47ef156bc66621ebce29455f66f1445a,simple,vectorFor,32.677000,0
Ř,b59550ac47ef156bc66621ebce29455f66f1445a,simple,vectorFor,32.679000,0
Ř,b59550ac47ef156bc66621ebce29455f66f1445a,simple,vectorFor,32.660000,1
Ř,b59550ac47ef156bc66621ebce29455f66f1445a,simple,vectorFor,32.613000,1
Ř,b59550ac47ef156bc66621ebce29455f66f1445a,simple,vectorFor,32.700000,1
Ř,b59550ac47ef156bc66621ebce29455f66f1445a,simple,vectorFor,32.580000,1
Ř,b59550ac47ef156bc66621ebce29455f66f1445a,simple,vectorFor,32.675000,1
Ř,b59550ac47ef156bc66621ebce29455f66f1445a,simple,vectorFor,32.674000,1
Ř,b59550ac47ef156bc66621ebce29455f66f1445a,simple,vectorFor,32.624000,1
Ř,b59550ac47ef156bc66621ebce29455f66f1445a,simple,vectorFor,32.674000,1
Ř,b59550ac47ef156bc66621ebce29455f66f1445a,simple,vectorFor,32.653000,1
Ř,b59550ac47ef156bc66621ebce29455f66f1445a,simple,vectorFor,32.596000,1
Ř,b59550ac47ef156bc66621ebce29455f66f1445a,simple,bytecodes,3904.048000,0
Ř,b59550ac47ef156bc66621ebce29455f66f1445a,simple,bytecodes,3899.596000,0
Ř,b59550ac47ef156bc66621ebce29455f66f1445a,simple,bytecodes,234.389000,0
Ř,b59550ac47ef156bc66621ebce29455f66f1445a,simple,bytecodes,9.117000,0
Ř,b59550ac47ef156bc66621ebce29455f66f1445a,simple,bytecodes,9.096000,0
Ř,b59550ac47ef156bc66621ebce29455f66f1445a,simple,bytecodes,9.094000,1
Ř,b59550ac47ef156bc66621ebce29455f66f1445a,simple,bytecodes,9.093000,1
Ř,b59550ac47ef156bc66621ebce29455f66f1445a,simple,bytecodes,9.094000,1
Ř,b59550ac47ef156bc66621ebce29455f66f1445a,simple,bytecodes,9.093000,1
Ř,b59550ac47ef156bc66621ebce29455f66f1445a,simple,bytecodes,9.093000,1
Ř,b59550ac47ef156bc66621ebce29455f66f1445a,simple,bytecodes,9.094000,1
Ř,b59550ac47ef156bc66621ebce29455f66f1445a,simple,bytecodes,9.147000,1
Ř,b59550ac47ef156bc66621ebce29455f66f1445a,simple,bytecodes,9.093000,1
Ř,b59550ac47ef156bc66621ebce29455f66f1445a,simple,bytecodes,9.106000,1
Ř,b59550ac47ef156bc66621ebce29455f66f1445a,simple,bytecodes,9.094000,1
Ř,b59550ac47ef156bc66621ebce29455f66f1445a,simple,emptyWhile,2147.306000,0
Ř,b59550ac47ef156bc66621ebce29455f66f1445a,simple,emptyWhile,2106.611000,0
Ř,b59550ac47ef156bc66621ebce29455f66f1445a,simple,emptyWhile,46.660000,0
Ř,b59550ac47ef156bc66621ebce29455f66f1445a,simple,emptyWhile,30.311000,0
Ř,b59550ac47ef156bc66621ebce29455f66f1445a,simple,emptyWhile,30.300000,0
Ř,b59550ac47ef156bc66621ebce29455f66f1445a,simple,emptyWhile,30.348000,1
Ř,b59550ac47ef156bc66621ebce29455f66f1445a,simple,emptyWhile,30.289000,1
Ř,b59550ac47ef156bc66621ebce29455f66f1445a,simple,emptyWhile,30.289000,1
Ř,b59550ac47ef156bc66621ebce29455f66f1445a,simple,emptyWhile,30.289000,1
Ř,b59550ac47ef156bc66621ebce29455f66f1445a,simple,emptyWhile,30.336000,1
Ř,b59550ac47ef156bc66621ebce29455f66f1445a,simple,emptyWhile,30.289000,1
Ř,b59550ac47ef156bc66621ebce29455f66f1445a,simple,emptyWhile,30.288000,1
Ř,b59550ac47ef156bc66621ebce29455f66f1445a,simple,emptyWhile,30.293000,1
Ř,b59550ac47ef156bc66621ebce29455f66f1445a,simple,emptyWhile,30.335000,1
Ř,b59550ac47ef156bc66621ebce29455f66f1445a,simple,emptyWhile,30.289000,1
Ř,b59550ac47ef156bc66621ebce29455f66f1445a,simple,listFor,198.877000,0
Ř,b59550ac47ef156bc66621ebce29455f66f1445a,simple,listFor,202.279000,0
Ř,b59550ac47ef156bc66621ebce29455f66f1445a,simple,listFor,87.451000,0
Ř,b59550ac47ef156bc66621ebce29455f66f1445a,simple,listFor,66.298000,0
Ř,b59550ac47ef156bc66621ebce29455f66f1445a,simple,listFor,76.574000,0
Ř,b59550ac47ef156bc66621ebce29455f66f1445a,simple,listFor,52.526000,1
Ř,b59550ac47ef156bc66621ebce29455f66f1445a,simple,listFor,64.540000,1
Ř,b59550ac47ef156bc66621ebce29455f66f1445a,simple,listFor,53.061000,1
Ř,b59550ac47ef156bc66621ebce29455f66f1445a,simple,listFor,67.321000,1
Ř,b59550ac47ef156bc66621ebce29455f66f1445a,simple,listFor,77.455000,1
Ř,b59550ac47ef156bc66621ebce29455f66f1445a,simple,listFor,58.491000,1
Ř,b59550ac47ef156bc66621ebce29455f66f1445a,simple,listFor,62.520000,1
Ř,b59550ac47ef156bc66621ebce29455f66f1445a,simple,listFor,71.733000,1
Ř,b59550ac47ef156bc66621ebce29455f66f1445a,simple,listFor,76.898000,1
Ř,b59550ac47ef156bc66621ebce29455f66f1445a,simple,listFor,51.689000,1
Ř,b59550ac47ef156bc66621ebce29455f66f1445a,shootout,spectralnorm_naive,932.607000,0
Ř,b59550ac47ef156bc66621ebce29455f66f1445a,shootout,spectralnorm_naive,1056.114000,0
Ř,b59550ac47ef156bc66621ebce29455f66f1445a,shootout,spectralnorm_naive,1168.181000,0
Ř,b59550ac47ef156bc66621ebce29455f66f1445a,shootout,spectralnorm_naive,39.507000,0
Ř,b59550ac47ef156bc66621ebce29455f66f1445a,shootout,spectralnorm_naive,39.539000,0
Ř,b59550ac47ef156bc66621ebce29455f66f1445a,shootout,spectralnorm_naive,39.474000,1
Ř,b59550ac47ef156bc66621ebce29455f66f1445a,shootout,spectralnorm_naive,39.529000,1
Ř,b59550ac47ef156bc66621ebce29455f66f1445a,shootout,spectralnorm_naive,39.376000,1
Ř,b59550ac47ef156bc66621ebce29455f66f1445a,shootout,spectralnorm_naive,39.528000,1
Ř,b59550ac47ef156bc66621ebce29455f66f1445a,shootout,spectralnorm_naive,39.496000,1
Ř,b59550ac47ef156bc66621ebce29455f66f1445a,shootout,spectralnorm_naive,39.450000,1
Ř,b59550ac47ef156bc66621ebce29455f66f1445a,shootout,spectralnorm_naive,39.623000,1
Ř,b59550ac47ef156bc66621ebce29455f66f1445a,shootout,spectralnorm_naive,39.499000,1
Ř,b59550ac47ef156bc66621ebce29455f66f1445a,shootout,spectralnorm_naive,39.413000,1
Ř,b59550ac47ef156bc66621ebce29455f66f1445a,shootout,spectralnorm_naive,40.974000,1
Ř,b59550ac47ef156bc66621ebce29455f66f1445a,shootout,fasta_2,1151.020000,0
Ř,b59550ac47ef156bc66621ebce29455f66f1445a,shootout,fasta_2,1590.374000,0
Ř,b59550ac47ef156bc66621ebce29455f66f1445a,shootout,fasta_2,2318.251000,0
Ř,b59550ac47ef156bc66621ebce29455f66f1445a,shootout,fasta_2,913.234000,0
Ř,b59550ac47ef156bc66621ebce29455f66f1445a,shootout,fasta_2,898.876000,0
Ř,b59550ac47ef156bc66621ebce29455f66f1445a,shootout,fasta_2,903.440000,1
Ř,b59550ac47ef156bc66621ebce29455f66f1445a,shootout,fasta_2,903.342000,1
Ř,b59550ac47ef156bc66621ebce29455f66f1445a,shootout,fasta_2,907.033000,1
Ř,b59550ac47ef156bc66621ebce29455f66f1445a,shootout,fasta_2,909.044000,1
Ř,b59550ac47ef156bc66621ebce29455f66f1445a,shootout,fasta_2,909.452000,1
Ř,b59550ac47ef156bc66621ebce29455f66f1445a,shootout,fasta_2,902.209000,1
Ř,b59550ac47ef156bc66621ebce29455f66f1445a,shootout,fasta_2,908.148000,1
Ř,b59550ac47ef156bc66621ebce29455f66f1445a,shootout,fasta_2,907.961000,1
Ř,b59550ac47ef156bc66621ebce29455f66f1445a,shootout,fasta_2,905.914000,1
Ř,b59550ac47ef156bc66621ebce29455f66f1445a,shootout,fasta_2,910.412000,1
Ř,b59550ac47ef156bc66621ebce29455f66f1445a,shootout,nbody_3,1995.283000,0
Ř,b59550ac47ef156bc66621ebce29455f66f1445a,shootout,nbody_3,2111.440000,0
Ř,b59550ac47ef156bc66621ebce29455f66f1445a,shootout,nbody_3,2164.834000,0
Ř,b59550ac47ef156bc66621ebce29455f66f1445a,shootout,nbody_3,1044.346000,0
Ř,b59550ac47ef156bc66621ebce29455f66f1445a,shootout,nbody_3,1054.676000,0
Ř,b59550ac47ef156bc66621ebce29455f66f1445a,shootout,nbody_3,1616.034000,1
Ř,b59550ac47ef156bc66621ebce29455f66f1445a,shootout,nbody_3,1061.807000,1
Ř,b59550ac47ef156bc66621ebce29455f66f1445a,shootout,nbody_3,1050.584000,1
Ř,b59550ac47ef156bc66621ebce29455f66f1445a,shootout,nbody_3,1063.729000,1
Ř,b59550ac47ef156bc66621ebce29455f66f1445a,shootout,nbody_3,1050.381000,1
Ř,b59550ac47ef156bc66621ebce29455f66f1445a,shootout,nbody_3,1050.729000,1
Ř,b59550ac47ef156bc66621ebce29455f66f1445a,shootout,nbody_3,1061.796000,1
Ř,b59550ac47ef156bc66621ebce29455f66f1445a,shootout,nbody_3,1048.625000,1
Ř,b59550ac47ef156bc66621ebce29455f66f1445a,shootout,nbody_3,1056.963000,1
Ř,b59550ac47ef156bc66621ebce29455f66f1445a,shootout,nbody_3,1050.959000,1
Ř,b59550ac47ef156bc66621ebce29455f66f1445a,shootout,reversecomplement,586.666000,0
Ř,b59550ac47ef156bc66621ebce29455f66f1445a,shootout,reversecomplement,596.119000,0
Ř,b59550ac47ef156bc66621ebce29455f66f1445a,shootout,reversecomplement,1309.013000,0
Ř,b59550ac47ef156bc66621ebce29455f66f1445a,shootout,reversecomplement,465.625000,0
Ř,b59550ac47ef156bc66621ebce29455f66f1445a,shootout,reversecomplement,471.338000,0
Ř,b59550ac47ef156bc66621ebce29455f66f1445a,shootout,reversecomplement,475.641000,1
Ř,b59550ac47ef156bc66621ebce29455f66f1445a,shootout,reversecomplement,480.035000,1
Ř,b59550ac47ef156bc66621ebce29455f66f1445a,shootout,reversecomplement,471.362000,1
Ř,b59550ac47ef156bc66621ebce29455f66f1445a,shootout,reversecomplement,474.216000,1
Ř,b59550ac47ef156bc66621ebce29455f66f1445a,shootout,reversecomplement,473.114000,1
Ř,b59550ac47ef156bc66621ebce29455f66f1445a,shootout,reversecomplement,475.587000,1
Ř,b59550ac47ef156bc66621ebce29455f66f1445a,shootout,reversecomplement,472.089000,1
Ř,b59550ac47ef156bc66621ebce29455f66f1445a,shootout,reversecomplement,475.413000,1
Ř,b59550ac47ef156bc66621ebce29455f66f1445a,shootout,reversecomplement,472.347000,1
Ř,b59550ac47ef156bc66621ebce29455f66f1445a,shootout,reversecomplement,477.302000,1
Ř,b59550ac47ef156bc66621ebce29455f66f1445a,shootout,mandelbrot_naive_ascii,623.202000,0
Ř,b59550ac47ef156bc66621ebce29455f66f1445a,shootout,mandelbrot_naive_ascii,617.431000,0
Ř,b59550ac47ef156bc66621ebce29455f66f1445a,shootout,mandelbrot_naive_ascii,1160.167000,0
Ř,b59550ac47ef156bc66621ebce29455f66f1445a,shootout,mandelbrot_naive_ascii,203.703000,0
Ř,b59550ac47ef156bc66621ebce29455f66f1445a,shootout,mandelbrot_naive_ascii,197.754000,0
Ř,b59550ac47ef156bc66621ebce29455f66f1445a,shootout,mandelbrot_naive_ascii,198.320000,1
Ř,b59550ac47ef156bc66621ebce29455f66f1445a,shootout,mandelbrot_naive_ascii,198.629000,1
Ř,b59550ac47ef156bc66621ebce29455f66f1445a,shootout,mandelbrot_naive_ascii,198.958000,1
Ř,b59550ac47ef156bc66621ebce29455f66f1445a,shootout,mandelbrot_naive_ascii,197.855000,1
Ř,b59550ac47ef156bc66621ebce29455f66f1445a,shootout,mandelbrot_naive_ascii,197.790000,1
Ř,b59550ac47ef156bc66621ebce29455f66f1445a,shootout,mandelbrot_naive_ascii,203.370000,1
Ř,b59550ac47ef156bc66621ebce29455f66f1445a,shootout,mandelbrot_naive_ascii,197.701000,1
Ř,b59550ac47ef156bc66621ebce29455f66f1445a,shootout,mandelbrot_naive_ascii,198.687000,1
Ř,b59550ac47ef156bc66621ebce29455f66f1445a,shootout,mandelbrot_naive_ascii,199.357000,1
Ř,b59550ac47ef156bc66621ebce29455f66f1445a,shootout,mandelbrot_naive_ascii,198.439000,1
Ř,b59550ac47ef156bc66621ebce29455f66f1445a,shootout,nbody,2360.283000,0
Ř,b59550ac47ef156bc66621ebce29455f66f1445a,shootout,nbody,2181.371000,0
Ř,b59550ac47ef156bc66621ebce29455f66f1445a,shootout,nbody,2258.115000,0
Ř,b59550ac47ef156bc66621ebce29455f66f1445a,shootout,nbody,759.691000,0
Ř,b59550ac47ef156bc66621ebce29455f66f1445a,shootout,nbody,755.630000,0
Ř,b59550ac47ef156bc66621ebce29455f66f1445a,shootout,nbody,743.778000,1
Ř,b59550ac47ef156bc66621ebce29455f66f1445a,shootout,nbody,743.187000,1
Ř,b59550ac47ef156bc66621ebce29455f66f1445a,shootout,nbody,739.607000,1
Ř,b59550ac47ef156bc66621ebce29455f66f1445a,shootout,nbody,754.320000,1
Ř,b59550ac47ef156bc66621ebce29455f66f1445a,shootout,nbody,743.372000,1
Ř,b59550ac47ef156bc66621ebce29455f66f1445a,shootout,nbody,745.347000,1
Ř,b59550ac47ef156bc66621ebce29455f66f1445a,shootout,nbody,741.645000,1
Ř,b59550ac47ef156bc66621ebce29455f66f1445a,shootout,nbody,754.556000,1
Ř,b59550ac47ef156bc66621ebce29455f66f1445a,shootout,nbody,746.402000,1
Ř,b59550ac47ef156bc66621ebce29455f66f1445a,shootout,nbody,746.485000,1
Ř,b59550ac47ef156bc66621ebce29455f66f1445a,shootout,fastaredux,667.268000,0
Ř,b59550ac47ef156bc66621ebce29455f66f1445a,shootout,fastaredux,1647.698000,0
Ř,b59550ac47ef156bc66621ebce29455f66f1445a,shootout,fastaredux,2358.238000,0
Ř,b59550ac47ef156bc66621ebce29455f66f1445a,shootout,fastaredux,377.364000,0
Ř,b59550ac47ef156bc66621ebce29455f66f1445a,shootout,fastaredux,385.549000,0
Ř,b59550ac47ef156bc66621ebce29455f66f1445a,shootout,fastaredux,368.589000,1
Ř,b59550ac47ef156bc66621ebce29455f66f1445a,shootout,fastaredux,369.932000,1
Ř,b59550ac47ef156bc66621ebce29455f66f1445a,shootout,fastaredux,374.348000,1
Ř,b59550ac47ef156bc66621ebce29455f66f1445a,shootout,fastaredux,375.808000,1
Ř,b59550ac47ef156bc66621ebce29455f66f1445a,shootout,fastaredux,373.579000,1
Ř,b59550ac47ef156bc66621ebce29455f66f1445a,shootout,fastaredux,381.832000,1
Ř,b59550ac47ef156bc66621ebce29455f66f1445a,shootout,fastaredux,376.040000,1
Ř,b59550ac47ef156bc66621ebce29455f66f1445a,shootout,fastaredux,370.712000,1
Ř,b59550ac47ef156bc66621ebce29455f66f1445a,shootout,fastaredux,377.937000,1
Ř,b59550ac47ef156bc66621ebce29455f66f1445a,shootout,fastaredux,379.499000,1
Ř,b59550ac47ef156bc66621ebce29455f66f1445a,shootout,knucleotide_brute_3,4341.346000,0
Ř,b59550ac47ef156bc66621ebce29455f66f1445a,shootout,knucleotide_brute_3,4408.222000,0
Ř,b59550ac47ef156bc66621ebce29455f66f1445a,shootout,knucleotide_brute_3,12148.707000,0
Ř,b59550ac47ef156bc66621ebce29455f66f1445a,shootout,knucleotide_brute_3,2757.407000,0
Ř,b59550ac47ef156bc66621ebce29455f66f1445a,shootout,knucleotide_brute_3,2766.023000,0
Ř,b59550ac47ef156bc66621ebce29455f66f1445a,shootout,knucleotide_brute_3,2760.499000,1
Ř,b59550ac47ef156bc66621ebce29455f66f1445a,shootout,knucleotide_brute_3,2761.765000,1
Ř,b59550ac47ef156bc66621ebce29455f66f1445a,shootout,knucleotide_brute_3,2747.052000,1
Ř,b59550ac47ef156bc66621ebce29455f66f1445a,shootout,knucleotide_brute_3,2769.067000,1
Ř,b59550ac47ef156bc66621ebce29455f66f1445a,shootout,knucleotide_brute_3,2745.400000,1
Ř,b59550ac47ef156bc66621ebce29455f66f1445a,shootout,knucleotide_brute_3,2756.130000,1
Ř,b59550ac47ef156bc66621ebce29455f66f1445a,shootout,knucleotide_brute_3,2750.775000,1
Ř,b59550ac47ef156bc66621ebce29455f66f1445a,shootout,knucleotide_brute_3,2750.135000,1
Ř,b59550ac47ef156bc66621ebce29455f66f1445a,shootout,knucleotide_brute_3,2750.941000,1
Ř,b59550ac47ef156bc66621ebce29455f66f1445a,shootout,knucleotide_brute_3,2750.889000,1
Ř,b59550ac47ef156bc66621ebce29455f66f1445a,shootout,fasta_naive_2,1023.935000,0
Ř,b59550ac47ef156bc66621ebce29455f66f1445a,shootout,fasta_naive_2,1220.089000,0
Ř,b59550ac47ef156bc66621ebce29455f66f1445a,shootout,fasta_naive_2,2356.034000,0
Ř,b59550ac47ef156bc66621ebce29455f66f1445a,shootout,fasta_naive_2,621.935000,0
Ř,b59550ac47ef156bc66621ebce29455f66f1445a,shootout,fasta_naive_2,617.989000,0
Ř,b59550ac47ef156bc66621ebce29455f66f1445a,shootout,fasta_naive_2,630.184000,1
Ř,b59550ac47ef156bc66621ebce29455f66f1445a,shootout,fasta_naive_2,1222.935000,1
Ř,b59550ac47ef156bc66621ebce29455f66f1445a,shootout,fasta_naive_2,618.773000,1
Ř,b59550ac47ef156bc66621ebce29455f66f1445a,shootout,fasta_naive_2,641.246000,1
Ř,b59550ac47ef156bc66621ebce29455f66f1445a,shootout,fasta_naive_2,605.883000,1
Ř,b59550ac47ef156bc66621ebce29455f66f1445a,shootout,fasta_naive_2,1230.864000,1
Ř,b59550ac47ef156bc66621ebce29455f66f1445a,shootout,fasta_naive_2,645.506000,1
Ř,b59550ac47ef156bc66621ebce29455f66f1445a,shootout,fasta_naive_2,614.687000,1
Ř,b59550ac47ef156bc66621ebce29455f66f1445a,shootout,fasta_naive_2,625.562000,1
Ř,b59550ac47ef156bc66621ebce29455f66f1445a,shootout,fasta_naive_2,648.930000,1
Ř,b59550ac47ef156bc66621ebce29455f66f1445a,shootout,fannkuchredux,2224.207000,0
Ř,b59550ac47ef156bc66621ebce29455f66f1445a,shootout,fannkuchredux,2172.441000,0
Ř,b59550ac47ef156bc66621ebce29455f66f1445a,shootout,fannkuchredux,3668.875000,0
Ř,b59550ac47ef156bc66621ebce29455f66f1445a,shootout,fannkuchredux,798.965000,0
Ř,b59550ac47ef156bc66621ebce29455f66f1445a,shootout,fannkuchredux,794.924000,0
Ř,b59550ac47ef156bc66621ebce29455f66f1445a,shootout,fannkuchredux,808.002000,1
Ř,b59550ac47ef156bc66621ebce29455f66f1445a,shootout,fannkuchredux,798.868000,1
Ř,b59550ac47ef156bc66621ebce29455f66f1445a,shootout,fannkuchredux,794.376000,1
Ř,b59550ac47ef156bc66621ebce29455f66f1445a,shootout,fannkuchredux,806.415000,1
Ř,b59550ac47ef156bc66621ebce29455f66f1445a,shootout,fannkuchredux,794.186000,1
Ř,b59550ac47ef156bc66621ebce29455f66f1445a,shootout,fannkuchredux,807.368000,1
Ř,b59550ac47ef156bc66621ebce29455f66f1445a,shootout,fannkuchredux,798.285000,1
Ř,b59550ac47ef156bc66621ebce29455f66f1445a,shootout,fannkuchredux,795.862000,1
Ř,b59550ac47ef156bc66621ebce29455f66f1445a,shootout,fannkuchredux,805.485000,1
Ř,b59550ac47ef156bc66621ebce29455f66f1445a,shootout,fannkuchredux,795.418000,1
Ř,b59550ac47ef156bc66621ebce29455f66f1445a,shootout,spectralnorm,2471.265000,0
Ř,b59550ac47ef156bc66621ebce29455f66f1445a,shootout,spectralnorm,2666.064000,0
Ř,b59550ac47ef156bc66621ebce29455f66f1445a,shootout,spectralnorm,2407.953000,0
Ř,b59550ac47ef156bc66621ebce29455f66f1445a,shootout,spectralnorm,72.505000,0
Ř,b59550ac47ef156bc66621ebce29455f66f1445a,shootout,spectralnorm,57.840000,0
Ř,b59550ac47ef156bc66621ebce29455f66f1445a,shootout,spectralnorm,59.310000,1
Ř,b59550ac47ef156bc66621ebce29455f66f1445a,shootout,spectralnorm,59.445000,1
Ř,b59550ac47ef156bc66621ebce29455f66f1445a,shootout,spectralnorm,57.879000,1
Ř,b59550ac47ef156bc66621ebce29455f66f1445a,shootout,spectralnorm,59.044000,1
Ř,b59550ac47ef156bc66621ebce29455f66f1445a,shootout,spectralnorm,64.403000,1
Ř,b59550ac47ef156bc66621ebce29455f66f1445a,shootout,spectralnorm,59.309000,1
Ř,b59550ac47ef156bc66621ebce29455f66f1445a,shootout,spectralnorm,58.019000,1
Ř,b59550ac47ef156bc66621ebce29455f66f1445a,shootout,spectralnorm,59.163000,1
Ř,b59550ac47ef156bc66621ebce29455f66f1445a,shootout,spectralnorm,59.266000,1
Ř,b59550ac47ef156bc66621ebce29455f66f1445a,shootout,spectralnorm,59.139000,1
Ř,b59550ac47ef156bc66621ebce29455f66f1445a,shootout,pidigits,49139.804000,0
Ř,b59550ac47ef156bc66621ebce29455f66f1445a,shootout,pidigits,798.536000,0
Ř,b59550ac47ef156bc66621ebce29455f66f1445a,shootout,pidigits,104103.994000,0
Ř,b59550ac47ef156bc66621ebce29455f66f1445a,shootout,pidigits,103.759000,0
Ř,b59550ac47ef156bc66621ebce29455f66f1445a,shootout,pidigits,113.764000,0
Ř,b59550ac47ef156bc66621ebce29455f66f1445a,shootout,pidigits,103.385000,1
Ř,b59550ac47ef156bc66621ebce29455f66f1445a,shootout,pidigits,102.945000,1
Ř,b59550ac47ef156bc66621ebce29455f66f1445a,shootout,pidigits,102.529000,1
Ř,b59550ac47ef156bc66621ebce29455f66f1445a,shootout,pidigits,103.410000,1
Ř,b59550ac47ef156bc66621ebce29455f66f1445a,shootout,pidigits,105.214000,1
Ř,b59550ac47ef156bc66621ebce29455f66f1445a,shootout,pidigits,102.491000,1
Ř,b59550ac47ef156bc66621ebce29455f66f1445a,shootout,pidigits,103.386000,1
Ř,b59550ac47ef156bc66621ebce29455f66f1445a,shootout,pidigits,102.413000,1
Ř,b59550ac47ef156bc66621ebce29455f66f1445a,shootout,pidigits,102.333000,1
Ř,b59550ac47ef156bc66621ebce29455f66f1445a,shootout,pidigits,103.780000,1
Ř,b59550ac47ef156bc66621ebce29455f66f1445a,shootout,nbody_naive,21399.156000,0
Ř,b59550ac47ef156bc66621ebce29455f66f1445a,shootout,nbody_naive,2328.208000,0
Ř,b59550ac47ef156bc66621ebce29455f66f1445a,shootout,nbody_naive,41910.299000,0
Ř,b59550ac47ef156bc66621ebce29455f66f1445a,shootout,nbody_naive,147.887000,0
Ř,b59550ac47ef156bc66621ebce29455f66f1445a,shootout,nbody_naive,152.216000,0
Ř,b59550ac47ef156bc66621ebce29455f66f1445a,shootout,nbody_naive,149.581000,1
Ř,b59550ac47ef156bc66621ebce29455f66f1445a,shootout,nbody_naive,149.010000,1
Ř,b59550ac47ef156bc66621ebce29455f66f1445a,shootout,nbody_naive,145.090000,1
Ř,b59550ac47ef156bc66621ebce29455f66f1445a,shootout,nbody_naive,145.364000,1
Ř,b59550ac47ef156bc66621ebce29455f66f1445a,shootout,nbody_naive,151.347000,1
Ř,b59550ac47ef156bc66621ebce29455f66f1445a,shootout,nbody_naive,149.445000,1
Ř,b59550ac47ef156bc66621ebce29455f66f1445a,shootout,nbody_naive,147.683000,1
Ř,b59550ac47ef156bc66621ebce29455f66f1445a,shootout,nbody_naive,144.410000,1
Ř,b59550ac47ef156bc66621ebce29455f66f1445a,shootout,nbody_naive,157.957000,1
Ř,b59550ac47ef156bc66621ebce29455f66f1445a,shootout,nbody_naive,149.356000,1
Ř,b59550ac47ef156bc66621ebce29455f66f1445a,shootout,binarytrees,999.031000,0
Ř,b59550ac47ef156bc66621ebce29455f66f1445a,shootout,binarytrees,192.400000,0
Ř,b59550ac47ef156bc66621ebce29455f66f1445a,shootout,binarytrees,1365.703000,0
Ř,b59550ac47ef156bc66621ebce29455f66f1445a,shootout,binarytrees,71.535000,0
Ř,b59550ac47ef156bc66621ebce29455f66f1445a,shootout,binarytrees,71.297000,0
Ř,b59550ac47ef156bc66621ebce29455f66f1445a,shootout,binarytrees,82.335000,1
Ř,b59550ac47ef156bc66621ebce29455f66f1445a,shootout,binarytrees,71.780000,1
Ř,b59550ac47ef156bc66621ebce29455f66f1445a,shootout,binarytrees,71.682000,1
Ř,b59550ac47ef156bc66621ebce29455f66f1445a,shootout,binarytrees,71.828000,1
Ř,b59550ac47ef156bc66621ebce29455f66f1445a,shootout,binarytrees,71.820000,1
Ř,b59550ac47ef156bc66621ebce29455f66f1445a,shootout,binarytrees,74.479000,1
Ř,b59550ac47ef156bc66621ebce29455f66f1445a,shootout,binarytrees,71.760000,1
Ř,b59550ac47ef156bc66621ebce29455f66f1445a,shootout,binarytrees,71.830000,1
Ř,b59550ac47ef156bc66621ebce29455f66f1445a,shootout,binarytrees,71.879000,1
Ř,b59550ac47ef156bc66621ebce29455f66f1445a,shootout,binarytrees,71.988000,1
Ř,b59550ac47ef156bc66621ebce29455f66f1445a,shootout,knucleotide_brute_2,3479.310000,0
Ř,b59550ac47ef156bc66621ebce29455f66f1445a,shootout,knucleotide_brute_2,4688.346000,0
Ř,b59550ac47ef156bc66621ebce29455f66f1445a,shootout,knucleotide_brute_2,13216.166000,0
Ř,b59550ac47ef156bc66621ebce29455f66f1445a,shootout,knucleotide_brute_2,2478.306000,0
Ř,b59550ac47ef156bc66621ebce29455f66f1445a,shootout,knucleotide_brute_2,2664.531000,0
Ř,b59550ac47ef156bc66621ebce29455f66f1445a,shootout,knucleotide_brute_2,3284.294000,1
Ř,b59550ac47ef156bc66621ebce29455f66f1445a,shootout,knucleotide_brute_2,3582.728000,1
Ř,b59550ac47ef156bc66621ebce29455f66f1445a,shootout,knucleotide_brute_2,3300.740000,1
Ř,b59550ac47ef156bc66621ebce29455f66f1445a,shootout,knucleotide_brute_2,3554.795000,1
Ř,b59550ac47ef156bc66621ebce29455f66f1445a,shootout,knucleotide_brute_2,3801.014000,1
Ř,b59550ac47ef156bc66621ebce29455f66f1445a,shootout,knucleotide_brute_2,2069.058000,1
Ř,b59550ac47ef156bc66621ebce29455f66f1445a,shootout,knucleotide_brute_2,2091.224000,1
Ř,b59550ac47ef156bc66621ebce29455f66f1445a,shootout,knucleotide_brute_2,2186.969000,1
Ř,b59550ac47ef156bc66621ebce29455f66f1445a,shootout,knucleotide_brute_2,3062.504000,1
Ř,b59550ac47ef156bc66621ebce29455f66f1445a,shootout,knucleotide_brute_2,2473.830000,1
Ř,b59550ac47ef156bc66621ebce29455f66f1445a,shootout,binarytrees_2,1140.217000,0
Ř,b59550ac47ef156bc66621ebce29455f66f1445a,shootout,binarytrees_2,131.939000,0
Ř,b59550ac47ef156bc66621ebce29455f66f1445a,shootout,binarytrees_2,1396.948000,0
Ř,b59550ac47ef156bc66621ebce29455f66f1445a,shootout,binarytrees_2,84.954000,0
Ř,b59550ac47ef156bc66621ebce29455f66f1445a,shootout,binarytrees_2,95.849000,0
Ř,b59550ac47ef156bc66621ebce29455f66f1445a,shootout,binarytrees_2,84.615000,1
Ř,b59550ac47ef156bc66621ebce29455f66f1445a,shootout,binarytrees_2,84.746000,1
Ř,b59550ac47ef156bc66621ebce29455f66f1445a,shootout,binarytrees_2,84.513000,1
Ř,b59550ac47ef156bc66621ebce29455f66f1445a,shootout,binarytrees_2,87.771000,1
Ř,b59550ac47ef156bc66621ebce29455f66f1445a,shootout,binarytrees_2,84.514000,1
Ř,b59550ac47ef156bc66621ebce29455f66f1445a,shootout,binarytrees_2,84.607000,1
Ř,b59550ac47ef156bc66621ebce29455f66f1445a,shootout,binarytrees_2,84.517000,1
Ř,b59550ac47ef156bc66621ebce29455f66f1445a,shootout,binarytrees_2,85.415000,1
Ř,b59550ac47ef156bc66621ebce29455f66f1445a,shootout,binarytrees_2,85.753000,1
Ř,b59550ac47ef156bc66621ebce29455f66f1445a,shootout,binarytrees_2,85.672000,1
Ř,b59550ac47ef156bc66621ebce29455f66f1445a,shootout,nbody_naive_2,3077.327000,0
Ř,b59550ac47ef156bc66621ebce29455f66f1445a,shootout,nbody_naive_2,1774.367000,0
Ř,b59550ac47ef156bc66621ebce29455f66f1445a,shootout,nbody_naive_2,4718.202000,0
Ř,b59550ac47ef156bc66621ebce29455f66f1445a,shootout,nbody_naive_2,971.839000,0
Ř,b59550ac47ef156bc66621ebce29455f66f1445a,shootout,nbody_naive_2,966.887000,0
Ř,b59550ac47ef156bc66621ebce29455f66f1445a,shootout,nbody_naive_2,956.345000,1
Ř,b59550ac47ef156bc66621ebce29455f66f1445a,shootout,nbody_naive_2,969.318000,1
Ř,b59550ac47ef156bc66621ebce29455f66f1445a,shootout,nbody_naive_2,956.454000,1
Ř,b59550ac47ef156bc66621ebce29455f66f1445a,shootout,nbody_naive_2,966.589000,1
Ř,b59550ac47ef156bc66621ebce29455f66f1445a,shootout,nbody_naive_2,967.063000,1
Ř,b59550ac47ef156bc66621ebce29455f66f1445a,shootout,nbody_naive_2,955.250000,1
Ř,b59550ac47ef156bc66621ebce29455f66f1445a,shootout,nbody_naive_2,962.346000,1
Ř,b59550ac47ef156bc66621ebce29455f66f1445a,shootout,nbody_naive_2,956.031000,1
Ř,b59550ac47ef156bc66621ebce29455f66f1445a,shootout,nbody_naive_2,970.641000,1
Ř,b59550ac47ef156bc66621ebce29455f66f1445a,shootout,nbody_naive_2,964.299000,1
Ř,b59550ac47ef156bc66621ebce29455f66f1445a,shootout,reversecomplement_naive,505.008000,0
Ř,b59550ac47ef156bc66621ebce29455f66f1445a,shootout,reversecomplement_naive,553.102000,0
Ř,b59550ac47ef156bc66621ebce29455f66f1445a,shootout,reversecomplement_naive,1190.479000,0
Ř,b59550ac47ef156bc66621ebce29455f66f1445a,shootout,reversecomplement_naive,337.178000,0
Ř,b59550ac47ef156bc66621ebce29455f66f1445a,shootout,reversecomplement_naive,340.820000,0
Ř,b59550ac47ef156bc66621ebce29455f66f1445a,shootout,reversecomplement_naive,340.659000,1
Ř,b59550ac47ef156bc66621ebce29455f66f1445a,shootout,reversecomplement_naive,338.074000,1
Ř,b59550ac47ef156bc66621ebce29455f66f1445a,shootout,reversecomplement_naive,345.381000,1
Ř,b59550ac47ef156bc66621ebce29455f66f1445a,shootout,reversecomplement_naive,335.075000,1
Ř,b59550ac47ef156bc66621ebce29455f66f1445a,shootout,reversecomplement_naive,335.485000,1
Ř,b59550ac47ef156bc66621ebce29455f66f1445a,shootout,reversecomplement_naive,335.732000,1
Ř,b59550ac47ef156bc66621ebce29455f66f1445a,shootout,reversecomplement_naive,335.541000,1
Ř,b59550ac47ef156bc66621ebce29455f66f1445a,shootout,reversecomplement_naive,339.078000,1
Ř,b59550ac47ef156bc66621ebce29455f66f1445a,shootout,reversecomplement_naive,336.928000,1
Ř,b59550ac47ef156bc66621ebce29455f66f1445a,shootout,reversecomplement_naive,343.287000,1
Ř,b59550ac47ef156bc66621ebce29455f66f1445a,shootout,spectralnorm_alt_2,1689.730000,0
Ř,b59550ac47ef156bc66621ebce29455f66f1445a,shootout,spectralnorm_alt_2,1391.764000,0
Ř,b59550ac47ef156bc66621ebce29455f66f1445a,shootout,spectralnorm_alt_2,2566.007000,0
Ř,b59550ac47ef156bc66621ebce29455f66f1445a,shootout,spectralnorm_alt_2,1149.578000,0
Ř,b59550ac47ef156bc66621ebce29455f66f1445a,shootout,spectralnorm_alt_2,1195.169000,0
Ř,b59550ac47ef156bc66621ebce29455f66f1445a,shootout,spectralnorm_alt_2,1224.667000,1
Ř,b59550ac47ef156bc66621ebce29455f66f1445a,shootout,spectralnorm_alt_2,1204.063000,1
Ř,b59550ac47ef156bc66621ebce29455f66f1445a,shootout,spectralnorm_alt_2,1166.316000,1
Ř,b59550ac47ef156bc66621ebce29455f66f1445a,shootout,spectralnorm_alt_2,1229.553000,1
Ř,b59550ac47ef156bc66621ebce29455f66f1445a,shootout,spectralnorm_alt_2,1201.058000,1
Ř,b59550ac47ef156bc66621ebce29455f66f1445a,shootout,spectralnorm_alt_2,1174.160000,1
Ř,b59550ac47ef156bc66621ebce29455f66f1445a,shootout,spectralnorm_alt_2,1182.110000,1
Ř,b59550ac47ef156bc66621ebce29455f66f1445a,shootout,spectralnorm_alt_2,1215.659000,1
Ř,b59550ac47ef156bc66621ebce29455f66f1445a,shootout,spectralnorm_alt_2,1180.144000,1
Ř,b59550ac47ef156bc66621ebce29455f66f1445a,shootout,spectralnorm_alt_2,1190.321000,1
Ř,b59550ac47ef156bc66621ebce29455f66f1445a,shootout,reversecomplement_2,535.261000,0
Ř,b59550ac47ef156bc66621ebce29455f66f1445a,shootout,reversecomplement_2,535.882000,0
Ř,b59550ac47ef156bc66621ebce29455f66f1445a,shootout,reversecomplement_2,1516.693000,0
Ř,b59550ac47ef156bc66621ebce29455f66f1445a,shootout,reversecomplement_2,429.663000,0
Ř,b59550ac47ef156bc66621ebce29455f66f1445a,shootout,reversecomplement_2,410.300000,0
Ř,b59550ac47ef156bc66621ebce29455f66f1445a,shootout,reversecomplement_2,412.784000,1
Ř,b59550ac47ef156bc66621ebce29455f66f1445a,shootout,reversecomplement_2,412.271000,1
Ř,b59550ac47ef156bc66621ebce29455f66f1445a,shootout,reversecomplement_2,417.772000,1
Ř,b59550ac47ef156bc66621ebce29455f66f1445a,shootout,reversecomplement_2,415.797000,1
Ř,b59550ac47ef156bc66621ebce29455f66f1445a,shootout,reversecomplement_2,414.108000,1
Ř,b59550ac47ef156bc66621ebce29455f66f1445a,shootout,reversecomplement_2,416.704000,1
Ř,b59550ac47ef156bc66621ebce29455f66f1445a,shootout,reversecomplement_2,413.429000,1
Ř,b59550ac47ef156bc66621ebce29455f66f1445a,shootout,reversecomplement_2,414.422000,1
Ř,b59550ac47ef156bc66621ebce29455f66f1445a,shootout,reversecomplement_2,417.401000,1
Ř,b59550ac47ef156bc66621ebce29455f66f1445a,shootout,reversecomplement_2,414.665000,1
Ř,b59550ac47ef156bc66621ebce29455f66f1445a,shootout,fasta,1506.265000,0
Ř,b59550ac47ef156bc66621ebce29455f66f1445a,shootout,fasta,1280.463000,0
Ř,b59550ac47ef156bc66621ebce29455f66f1445a,shootout,fasta,1993.763000,0
Ř,b59550ac47ef156bc66621ebce29455f66f1445a,shootout,fasta,923.797000,0
Ř,b59550ac47ef156bc66621ebce29455f66f1445a,shootout,fasta,938.258000,0
Ř,b59550ac47ef156bc66621ebce29455f66f1445a,shootout,fasta,938.672000,1
Ř,b59550ac47ef156bc66621ebce29455f66f1445a,shootout,fasta,940.031000,1
Ř,b59550ac47ef156bc66621ebce29455f66f1445a,shootout,fasta,923.655000,1
Ř,b59550ac47ef156bc66621ebce29455f66f1445a,shootout,fasta,935.431000,1
Ř,b59550ac47ef156bc66621ebce29455f66f1445a,shootout,fasta,936.698000,1
Ř,b59550ac47ef156bc66621ebce29455f66f1445a,shootout,fasta,936.351000,1
Ř,b59550ac47ef156bc66621ebce29455f66f1445a,shootout,fasta,926.703000,1
Ř,b59550ac47ef156bc66621ebce29455f66f1445a,shootout,fasta,930.071000,1
Ř,b59550ac47ef156bc66621ebce29455f66f1445a,shootout,fasta,933.226000,1
Ř,b59550ac47ef156bc66621ebce29455f66f1445a,shootout,fasta,921.411000,1
Ř,b59550ac47ef156bc66621ebce29455f66f1445a,shootout,fannkuchredux_naive,2568.446000,0
Ř,b59550ac47ef156bc66621ebce29455f66f1445a,shootout,fannkuchredux_naive,2509.470000,0
Ř,b59550ac47ef156bc66621ebce29455f66f1445a,shootout,fannkuchredux_naive,2874.775000,0
Ř,b59550ac47ef156bc66621ebce29455f66f1445a,shootout,fannkuchredux_naive,204.289000,0
Ř,b59550ac47ef156bc66621ebce29455f66f1445a,shootout,fannkuchredux_naive,198.551000,0
Ř,b59550ac47ef156bc66621ebce29455f66f1445a,shootout,fannkuchredux_naive,197.844000,1
Ř,b59550ac47ef156bc66621ebce29455f66f1445a,shootout,fannkuchredux_naive,204.327000,1
Ř,b59550ac47ef156bc66621ebce29455f66f1445a,shootout,fannkuchredux_naive,198.463000,1
Ř,b59550ac47ef156bc66621ebce29455f66f1445a,shootout,fannkuchredux_naive,212.372000,1
Ř,b59550ac47ef156bc66621ebce29455f66f1445a,shootout,fannkuchredux_naive,199.914000,1
Ř,b59550ac47ef156bc66621ebce29455f66f1445a,shootout,fannkuchredux_naive,198.666000,1
Ř,b59550ac47ef156bc66621ebce29455f66f1445a,shootout,fannkuchredux_naive,202.726000,1
Ř,b59550ac47ef156bc66621ebce29455f66f1445a,shootout,fannkuchredux_naive,199.053000,1
Ř,b59550ac47ef156bc66621ebce29455f66f1445a,shootout,fannkuchredux_naive,198.088000,1
Ř,b59550ac47ef156bc66621ebce29455f66f1445a,shootout,fannkuchredux_naive,203.508000,1
Ř,b59550ac47ef156bc66621ebce29455f66f1445a,shootout,mandelbrot_ascii,387.764000,0
Ř,b59550ac47ef156bc66621ebce29455f66f1445a,shootout,mandelbrot_ascii,80.899000,0
Ř,b59550ac47ef156bc66621ebce29455f66f1445a,shootout,mandelbrot_ascii,942.193000,0
Ř,b59550ac47ef156bc66621ebce29455f66f1445a,shootout,mandelbrot_ascii,63.599000,0
Ř,b59550ac47ef156bc66621ebce29455f66f1445a,shootout,mandelbrot_ascii,61.845000,0
Ř,b59550ac47ef156bc66621ebce29455f66f1445a,shootout,mandelbrot_ascii,62.191000,1
Ř,b59550ac47ef156bc66621ebce29455f66f1445a,shootout,mandelbrot_ascii,62.207000,1
Ř,b59550ac47ef156bc66621ebce29455f66f1445a,shootout,mandelbrot_ascii,63.652000,1
Ř,b59550ac47ef156bc66621ebce29455f66f1445a,shootout,mandelbrot_ascii,62.131000,1
Ř,b59550ac47ef156bc66621ebce29455f66f1445a,shootout,mandelbrot_ascii,62.150000,1
Ř,b59550ac47ef156bc66621ebce29455f66f1445a,shootout,mandelbrot_ascii,62.044000,1
Ř,b59550ac47ef156bc66621ebce29455f66f1445a,shootout,mandelbrot_ascii,63.669000,1
Ř,b59550ac47ef156bc66621ebce29455f66f1445a,shootout,mandelbrot_ascii,62.148000,1
Ř,b59550ac47ef156bc66621ebce29455f66f1445a,shootout,mandelbrot_ascii,62.074000,1
Ř,b59550ac47ef156bc66621ebce29455f66f1445a,shootout,mandelbrot_ascii,63.691000,1
Ř,b59550ac47ef156bc66621ebce29455f66f1445a,shootout,regexdna,1524.625000,0
Ř,b59550ac47ef156bc66621ebce29455f66f1445a,shootout,regexdna,1501.740000,0
Ř,b59550ac47ef156bc66621ebce29455f66f1445a,shootout,regexdna,3658.241000,0
Ř,b59550ac47ef156bc66621ebce29455f66f1445a,shootout,regexdna,1433.968000,0
Ř,b59550ac47ef156bc66621ebce29455f66f1445a,shootout,regexdna,1437.933000,0
Ř,b59550ac47ef156bc66621ebce29455f66f1445a,shootout,regexdna,1454.224000,1
Ř,b59550ac47ef156bc66621ebce29455f66f1445a,shootout,regexdna,1437.340000,1
Ř,b59550ac47ef156bc66621ebce29455f66f1445a,shootout,regexdna,1440.610000,1
Ř,b59550ac47ef156bc66621ebce29455f66f1445a,shootout,regexdna,1442.822000,1
Ř,b59550ac47ef156bc66621ebce29455f66f1445a,shootout,regexdna,1451.752000,1
Ř,b59550ac47ef156bc66621ebce29455f66f1445a,shootout,regexdna,1434.304000,1
Ř,b59550ac47ef156bc66621ebce29455f66f1445a,shootout,regexdna,1437.221000,1
Ř,b59550ac47ef156bc66621ebce29455f66f1445a,shootout,regexdna,1440.784000,1
Ř,b59550ac47ef156bc66621ebce29455f66f1445a,shootout,regexdna,1459.007000,1
Ř,b59550ac47ef156bc66621ebce29455f66f1445a,shootout,regexdna,1435.950000,1
Ř,b59550ac47ef156bc66621ebce29455f66f1445a,shootout,fasta_naive,814.420000,0
Ř,b59550ac47ef156bc66621ebce29455f66f1445a,shootout,fasta_naive,852.425000,0
Ř,b59550ac47ef156bc66621ebce29455f66f1445a,shootout,fasta_naive,1977.023000,0
Ř,b59550ac47ef156bc66621ebce29455f66f1445a,shootout,fasta_naive,438.975000,0
Ř,b59550ac47ef156bc66621ebce29455f66f1445a,shootout,fasta_naive,454.303000,0
Ř,b59550ac47ef156bc66621ebce29455f66f1445a,shootout,fasta_naive,412.258000,1
Ř,b59550ac47ef156bc66621ebce29455f66f1445a,shootout,fasta_naive,421.385000,1
Ř,b59550ac47ef156bc66621ebce29455f66f1445a,shootout,fasta_naive,428.808000,1
Ř,b59550ac47ef156bc66621ebce29455f66f1445a,shootout,fasta_naive,438.244000,1
Ř,b59550ac47ef156bc66621ebce29455f66f1445a,shootout,fasta_naive,441.836000,1
Ř,b59550ac47ef156bc66621ebce29455f66f1445a,shootout,fasta_naive,434.911000,1
Ř,b59550ac47ef156bc66621ebce29455f66f1445a,shootout,fasta_naive,414.556000,1
Ř,b59550ac47ef156bc66621ebce29455f66f1445a,shootout,fasta_naive,430.582000,1
Ř,b59550ac47ef156bc66621ebce29455f66f1445a,shootout,fasta_naive,432.174000,1
Ř,b59550ac47ef156bc66621ebce29455f66f1445a,shootout,fasta_naive,434.526000,1
Ř,b59550ac47ef156bc66621ebce29455f66f1445a,shootout,knucleotide,3074.404000,0
Ř,b59550ac47ef156bc66621ebce29455f66f1445a,shootout,knucleotide,2173.569000,0
Ř,b59550ac47ef156bc66621ebce29455f66f1445a,shootout,knucleotide,8959.823000,0
Ř,b59550ac47ef156bc66621ebce29455f66f1445a,shootout,knucleotide,500.423000,0
Ř,b59550ac47ef156bc66621ebce29455f66f1445a,shootout,knucleotide,520.618000,0
Ř,b59550ac47ef156bc66621ebce29455f66f1445a,shootout,knucleotide,546.096000,1
Ř,b59550ac47ef156bc66621ebce29455f66f1445a,shootout,knucleotide,487.868000,1
Ř,b59550ac47ef156bc66621ebce29455f66f1445a,shootout,knucleotide,433.369000,1
Ř,b59550ac47ef156bc66621ebce29455f66f1445a,shootout,knucleotide,466.979000,1
Ř,b59550ac47ef156bc66621ebce29455f66f1445a,shootout,knucleotide,490.842000,1
Ř,b59550ac47ef156bc66621ebce29455f66f1445a,shootout,knucleotide,515.047000,1
Ř,b59550ac47ef156bc66621ebce29455f66f1445a,shootout,knucleotide,534.636000,1
Ř,b59550ac47ef156bc66621ebce29455f66f1445a,shootout,knucleotide,489.884000,1
Ř,b59550ac47ef156bc66621ebce29455f66f1445a,shootout,knucleotide,435.441000,1
Ř,b59550ac47ef156bc66621ebce29455f66f1445a,shootout,knucleotide,468.957000,1
Ř,b59550ac47ef156bc66621ebce29455f66f1445a,shootout,spectralnorm_math,3529.427000,0
Ř,b59550ac47ef156bc66621ebce29455f66f1445a,shootout,spectralnorm_math,3307.359000,0
Ř,b59550ac47ef156bc66621ebce29455f66f1445a,shootout,spectralnorm_math,3818.323000,0
Ř,b59550ac47ef156bc66621ebce29455f66f1445a,shootout,spectralnorm_math,3129.072000,0
Ř,b59550ac47ef156bc66621ebce29455f66f1445a,shootout,spectralnorm_math,3134.757000,0
Ř,b59550ac47ef156bc66621ebce29455f66f1445a,shootout,spectralnorm_math,3115.031000,1
Ř,b59550ac47ef156bc66621ebce29455f66f1445a,shootout,spectralnorm_math,3128.525000,1
Ř,b59550ac47ef156bc66621ebce29455f66f1445a,shootout,spectralnorm_math,3200.774000,1
Ř,b59550ac47ef156bc66621ebce29455f66f1445a,shootout,spectralnorm_math,3143.462000,1
Ř,b59550ac47ef156bc66621ebce29455f66f1445a,shootout,spectralnorm_math,3171.279000,1
Ř,b59550ac47ef156bc66621ebce29455f66f1445a,shootout,spectralnorm_math,3155.464000,1
Ř,b59550ac47ef156bc66621ebce29455f66f1445a,shootout,spectralnorm_math,3160.090000,1
Ř,b59550ac47ef156bc66621ebce29455f66f1445a,shootout,spectralnorm_math,3126.843000,1
Ř,b59550ac47ef156bc66621ebce29455f66f1445a,shootout,spectralnorm_math,3148.552000,1
Ř,b59550ac47ef156bc66621ebce29455f66f1445a,shootout,spectralnorm_math,3151.150000,1
Ř,b59550ac47ef156bc66621ebce29455f66f1445a,shootout,fastaredux_naive,688.796000,0
Ř,b59550ac47ef156bc66621ebce29455f66f1445a,shootout,fastaredux_naive,1353.518000,0
Ř,b59550ac47ef156bc66621ebce29455f66f1445a,shootout,fastaredux_naive,2448.760000,0
Ř,b59550ac47ef156bc66621ebce29455f66f1445a,shootout,fastaredux_naive,437.482000,0
Ř,b59550ac47ef156bc66621ebce29455f66f1445a,shootout,fastaredux_naive,444.591000,0
Ř,b59550ac47ef156bc66621ebce29455f66f1445a,shootout,fastaredux_naive,428.885000,1
Ř,b59550ac47ef156bc66621ebce29455f66f1445a,shootout,fastaredux_naive,418.930000,1
Ř,b59550ac47ef156bc66621ebce29455f66f1445a,shootout,fastaredux_naive,422.216000,1
Ř,b59550ac47ef156bc66621ebce29455f66f1445a,shootout,fastaredux_naive,436.151000,1
Ř,b59550ac47ef156bc66621ebce29455f66f1445a,shootout,fastaredux_naive,435.753000,1
Ř,b59550ac47ef156bc66621ebce29455f66f1445a,shootout,fastaredux_naive,439.006000,1
Ř,b59550ac47ef156bc66621ebce29455f66f1445a,shootout,fastaredux_naive,410.129000,1
Ř,b59550ac47ef156bc66621ebce29455f66f1445a,shootout,fastaredux_naive,420.836000,1
Ř,b59550ac47ef156bc66621ebce29455f66f1445a,shootout,fastaredux_naive,427.224000,1
Ř,b59550ac47ef156bc66621ebce29455f66f1445a,shootout,fastaredux_naive,435.984000,1
Ř,b59550ac47ef156bc66621ebce29455f66f1445a,shootout,mandelbrot_noout_naive,256.257000,0
Ř,b59550ac47ef156bc66621ebce29455f66f1445a,shootout,mandelbrot_noout_naive,242.954000,0
Ř,b59550ac47ef156bc66621ebce29455f66f1445a,shootout,mandelbrot_noout_naive,1165.858000,0
Ř,b59550ac47ef156bc66621ebce29455f66f1445a,shootout,mandelbrot_noout_naive,217.673000,0
Ř,b59550ac47ef156bc66621ebce29455f66f1445a,shootout,mandelbrot_noout_naive,218.917000,0
Ř,b59550ac47ef156bc66621ebce29455f66f1445a,shootout,mandelbrot_noout_naive,218.760000,1
Ř,b59550ac47ef156bc66621ebce29455f66f1445a,shootout,mandelbrot_noout_naive,228.676000,1
Ř,b59550ac47ef156bc66621ebce29455f66f1445a,shootout,mandelbrot_noout_naive,219.794000,1
Ř,b59550ac47ef156bc66621ebce29455f66f1445a,shootout,mandelbrot_noout_naive,228.401000,1
Ř,b59550ac47ef156bc66621ebce29455f66f1445a,shootout,mandelbrot_noout_naive,226.952000,1
Ř,b59550ac47ef156bc66621ebce29455f66f1445a,shootout,mandelbrot_noout_naive,236.830000,1
Ř,b59550ac47ef156bc66621ebce29455f66f1445a,shootout,mandelbrot_noout_naive,223.291000,1
Ř,b59550ac47ef156bc66621ebce29455f66f1445a,shootout,mandelbrot_noout_naive,225.415000,1
Ř,b59550ac47ef156bc66621ebce29455f66f1445a,shootout,mandelbrot_noout_naive,227.548000,1
Ř,b59550ac47ef156bc66621ebce29455f66f1445a,shootout,mandelbrot_noout_naive,238.584000,1
Ř,b59550ac47ef156bc66621ebce29455f66f1445a,shootout,knucleotide_brute,4409.313000,0
Ř,b59550ac47ef156bc66621ebce29455f66f1445a,shootout,knucleotide_brute,5327.237000,0
Ř,b59550ac47ef156bc66621ebce29455f66f1445a,shootout,knucleotide_brute,14399.619000,0
Ř,b59550ac47ef156bc66621ebce29455f66f1445a,shootout,knucleotide_brute,3750.815000,0
Ř,b59550ac47ef156bc66621ebce29455f66f1445a,shootout,knucleotide_brute,3886.705000,0
Ř,b59550ac47ef156bc66621ebce29455f66f1445a,shootout,knucleotide_brute,3976.470000,1
Ř,b59550ac47ef156bc66621ebce29455f66f1445a,shootout,knucleotide_brute,3970.313000,1
Ř,b59550ac47ef156bc66621ebce29455f66f1445a,shootout,knucleotide_brute,4051.030000,1
Ř,b59550ac47ef156bc66621ebce29455f66f1445a,shootout,knucleotide_brute,4055.946000,1
Ř,b59550ac47ef156bc66621ebce29455f66f1445a,shootout,knucleotide_brute,4101.852000,1
Ř,b59550ac47ef156bc66621ebce29455f66f1445a,shootout,knucleotide_brute,3404.083000,1
Ř,b59550ac47ef156bc66621ebce29455f66f1445a,shootout,knucleotide_brute,3410.878000,1
Ř,b59550ac47ef156bc66621ebce29455f66f1445a,shootout,knucleotide_brute,3687.601000,1
Ř,b59550ac47ef156bc66621ebce29455f66f1445a,shootout,knucleotide_brute,3729.449000,1
Ř,b59550ac47ef156bc66621ebce29455f66f1445a,shootout,knucleotide_brute,3877.445000,1
Ř,b59550ac47ef156bc66621ebce29455f66f1445a,shootout,spectralnorm_alt_3,1083.419000,0
Ř,b59550ac47ef156bc66621ebce29455f66f1445a,shootout,spectralnorm_alt_3,869.860000,0
Ř,b59550ac47ef156bc66621ebce29455f66f1445a,shootout,spectralnorm_alt_3,1465.199000,0
Ř,b59550ac47ef156bc66621ebce29455f66f1445a,shootout,spectralnorm_alt_3,97.155000,0
Ř,b59550ac47ef156bc66621ebce29455f66f1445a,shootout,spectralnorm_alt_3,96.868000,0
Ř,b59550ac47ef156bc66621ebce29455f66f1445a,shootout,spectralnorm_alt_3,96.589000,1
Ř,b59550ac47ef156bc66621ebce29455f66f1445a,shootout,spectralnorm_alt_3,96.730000,1
Ř,b59550ac47ef156bc66621ebce29455f66f1445a,shootout,spectralnorm_alt_3,97.068000,1
Ř,b59550ac47ef156bc66621ebce29455f66f1445a,shootout,spectralnorm_alt_3,96.164000,1
Ř,b59550ac47ef156bc66621ebce29455f66f1445a,shootout,spectralnorm_alt_3,96.960000,1
Ř,b59550ac47ef156bc66621ebce29455f66f1445a,shootout,spectralnorm_alt_3,96.816000,1
Ř,b59550ac47ef156bc66621ebce29455f66f1445a,shootout,spectralnorm_alt_3,95.914000,1
Ř,b59550ac47ef156bc66621ebce29455f66f1445a,shootout,spectralnorm_alt_3,96.611000,1
Ř,b59550ac47ef156bc66621ebce29455f66f1445a,shootout,spectralnorm_alt_3,99.388000,1
Ř,b59550ac47ef156bc66621ebce29455f66f1445a,shootout,spectralnorm_alt_3,95.785000,1
Ř,b59550ac47ef156bc66621ebce29455f66f1445a,shootout,mandelbrot_noout,387.801000,0
Ř,b59550ac47ef156bc66621ebce29455f66f1445a,shootout,mandelbrot_noout,68.644000,0
Ř,b59550ac47ef156bc66621ebce29455f66f1445a,shootout,mandelbrot_noout,726.177000,0
Ř,b59550ac47ef156bc66621ebce29455f66f1445a,shootout,mandelbrot_noout,64.661000,0
Ř,b59550ac47ef156bc66621ebce29455f66f1445a,shootout,mandelbrot_noout,65.799000,0
Ř,b59550ac47ef156bc66621ebce29455f66f1445a,shootout,mandelbrot_noout,64.398000,1
Ř,b59550ac47ef156bc66621ebce29455f66f1445a,shootout,mandelbrot_noout,64.477000,1
Ř,b59550ac47ef156bc66621ebce29455f66f1445a,shootout,mandelbrot_noout,64.425000,1
Ř,b59550ac47ef156bc66621ebce29455f66f1445a,shootout,mandelbrot_noout,65.630000,1
Ř,b59550ac47ef156bc66621ebce29455f66f1445a,shootout,mandelbrot_noout,74.426000,1
Ř,b59550ac47ef156bc66621ebce29455f66f1445a,shootout,mandelbrot_noout,64.468000,1
Ř,b59550ac47ef156bc66621ebce29455f66f1445a,shootout,mandelbrot_noout,64.369000,1
Ř,b59550ac47ef156bc66621ebce29455f66f1445a,shootout,mandelbrot_noout,64.389000,1
Ř,b59550ac47ef156bc66621ebce29455f66f1445a,shootout,mandelbrot_noout,65.466000,1
Ř,b59550ac47ef156bc66621ebce29455f66f1445a,shootout,mandelbrot_noout,64.235000,1
Ř,b59550ac47ef156bc66621ebce29455f66f1445a,shootout,fasta_3,1207.317000,0
Ř,b59550ac47ef156bc66621ebce29455f66f1445a,shootout,fasta_3,3487.982000,0
Ř,b59550ac47ef156bc66621ebce29455f66f1445a,shootout,fasta_3,4199.709000,0
Ř,b59550ac47ef156bc66621ebce29455f66f1445a,shootout,fasta_3,911.404000,0
Ř,b59550ac47ef156bc66621ebce29455f66f1445a,shootout,fasta_3,897.382000,0
Ř,b59550ac47ef156bc66621ebce29455f66f1445a,shootout,fasta_3,900.608000,1
Ř,b59550ac47ef156bc66621ebce29455f66f1445a,shootout,fasta_3,902.434000,1
Ř,b59550ac47ef156bc66621ebce29455f66f1445a,shootout,fasta_3,901.827000,1
Ř,b59550ac47ef156bc66621ebce29455f66f1445a,shootout,fasta_3,894.783000,1
Ř,b59550ac47ef156bc66621ebce29455f66f1445a,shootout,fasta_3,900.316000,1
Ř,b59550ac47ef156bc66621ebce29455f66f1445a,shootout,fasta_3,902.692000,1
Ř,b59550ac47ef156bc66621ebce29455f66f1445a,shootout,fasta_3,897.126000,1
Ř,b59550ac47ef156bc66621ebce29455f66f1445a,shootout,fasta_3,901.120000,1
Ř,b59550ac47ef156bc66621ebce29455f66f1445a,shootout,fasta_3,895.504000,1
Ř,b59550ac47ef156bc66621ebce29455f66f1445a,shootout,fasta_3,902.648000,1
Ř,b59550ac47ef156bc66621ebce29455f66f1445a,shootout,binarytrees_naive,892.694000,0
Ř,b59550ac47ef156bc66621ebce29455f66f1445a,shootout,binarytrees_naive,130.541000,0
Ř,b59550ac47ef156bc66621ebce29455f66f1445a,shootout,binarytrees_naive,3928.704000,0
Ř,b59550ac47ef156bc66621ebce29455f66f1445a,shootout,binarytrees_naive,84.050000,0
Ř,b59550ac47ef156bc66621ebce29455f66f1445a,shootout,binarytrees_naive,94.707000,0
Ř,b59550ac47ef156bc66621ebce29455f66f1445a,shootout,binarytrees_naive,83.990000,1
Ř,b59550ac47ef156bc66621ebce29455f66f1445a,shootout,binarytrees_naive,83.913000,1
Ř,b59550ac47ef156bc66621ebce29455f66f1445a,shootout,binarytrees_naive,84.523000,1
Ř,b59550ac47ef156bc66621ebce29455f66f1445a,shootout,binarytrees_naive,86.715000,1
Ř,b59550ac47ef156bc66621ebce29455f66f1445a,shootout,binarytrees_naive,83.086000,1
Ř,b59550ac47ef156bc66621ebce29455f66f1445a,shootout,binarytrees_naive,83.638000,1
Ř,b59550ac47ef156bc66621ebce29455f66f1445a,shootout,binarytrees_naive,83.249000,1
Ř,b59550ac47ef156bc66621ebce29455f66f1445a,shootout,binarytrees_naive,85.539000,1
Ř,b59550ac47ef156bc66621ebce29455f66f1445a,shootout,binarytrees_naive,84.787000,1
Ř,b59550ac47ef156bc66621ebce29455f66f1445a,shootout,binarytrees_naive,84.311000,1
Ř,b59550ac47ef156bc66621ebce29455f66f1445a,shootout,spectralnorm_alt,398.443000,0
Ř,b59550ac47ef156bc66621ebce29455f66f1445a,shootout,spectralnorm_alt,268.534000,0
Ř,b59550ac47ef156bc66621ebce29455f66f1445a,shootout,spectralnorm_alt,1531.797000,0
Ř,b59550ac47ef156bc66621ebce29455f66f1445a,shootout,spectralnorm_alt,210.117000,0
Ř,b59550ac47ef156bc66621ebce29455f66f1445a,shootout,spectralnorm_alt,198.194000,0
Ř,b59550ac47ef156bc66621ebce29455f66f1445a,shootout,spectralnorm_alt,214.658000,1
Ř,b59550ac47ef156bc66621ebce29455f66f1445a,shootout,spectralnorm_alt,202.227000,1
Ř,b59550ac47ef156bc66621ebce29455f66f1445a,shootout,spectralnorm_alt,187.460000,1
Ř,b59550ac47ef156bc66621ebce29455f66f1445a,shootout,spectralnorm_alt,187.749000,1
Ř,b59550ac47ef156bc66621ebce29455f66f1445a,shootout,spectralnorm_alt,198.495000,1
Ř,b59550ac47ef156bc66621ebce29455f66f1445a,shootout,spectralnorm_alt,185.777000,1
Ř,b59550ac47ef156bc66621ebce29455f66f1445a,shootout,spectralnorm_alt,195.264000,1
Ř,b59550ac47ef156bc66621ebce29455f66f1445a,shootout,spectralnorm_alt,193.138000,1
Ř,b59550ac47ef156bc66621ebce29455f66f1445a,shootout,spectralnorm_alt,202.629000,1
Ř,b59550ac47ef156bc66621ebce29455f66f1445a,shootout,spectralnorm_alt,187.622000,1
Ř,b59550ac47ef156bc66621ebce29455f66f1445a,shootout,nbody_2,1546.499000,0
Ř,b59550ac47ef156bc66621ebce29455f66f1445a,shootout,nbody_2,1416.865000,0
Ř,b59550ac47ef156bc66621ebce29455f66f1445a,shootout,nbody_2,1740.570000,0
Ř,b59550ac47ef156bc66621ebce29455f66f1445a,shootout,nbody_2,646.950000,0
Ř,b59550ac47ef156bc66621ebce29455f66f1445a,shootout,nbody_2,625.758000,0
Ř,b59550ac47ef156bc66621ebce29455f66f1445a,shootout,nbody_2,621.249000,1
Ř,b59550ac47ef156bc66621ebce29455f66f1445a,shootout,nbody_2,626.234000,1
Ř,b59550ac47ef156bc66621ebce29455f66f1445a,shootout,nbody_2,635.203000,1
Ř,b59550ac47ef156bc66621ebce29455f66f1445a,shootout,nbody_2,623.799000,1
Ř,b59550ac47ef156bc66621ebce29455f66f1445a,shootout,nbody_2,626.180000,1
Ř,b59550ac47ef156bc66621ebce29455f66f1445a,shootout,nbody_2,623.831000,1
Ř,b59550ac47ef156bc66621ebce29455f66f1445a,shootout,nbody_2,634.372000,1
Ř,b59550ac47ef156bc66621ebce29455f66f1445a,shootout,nbody_2,626.474000,1
Ř,b59550ac47ef156bc66621ebce29455f66f1445a,shootout,nbody_2,624.518000,1
Ř,b59550ac47ef156bc66621ebce29455f66f1445a,shootout,nbody_2,635.467000,1
Ř,b59550ac47ef156bc66621ebce29455f66f1445a,real_thing,flexclust_no_s4,17251.976000,0
Ř,b59550ac47ef156bc66621ebce29455f66f1445a,real_thing,flexclust_no_s4,14090.048000,0
Ř,b59550ac47ef156bc66621ebce29455f66f1445a,real_thing,flexclust_no_s4,26864.596000,0
Ř,b59550ac47ef156bc66621ebce29455f66f1445a,real_thing,flexclust_no_s4,24513.773000,0
Ř,b59550ac47ef156bc66621ebce29455f66f1445a,real_thing,flexclust_no_s4,17982.772000,0
Ř,b59550ac47ef156bc66621ebce29455f66f1445a,real_thing,flexclust_no_s4,13635.593000,1
Ř,b59550ac47ef156bc66621ebce29455f66f1445a,real_thing,flexclust_no_s4,13249.435000,1
Ř,b59550ac47ef156bc66621ebce29455f66f1445a,real_thing,flexclust_no_s4,12980.326000,1
Ř,b59550ac47ef156bc66621ebce29455f66f1445a,real_thing,flexclust_no_s4,12947.578000,1
Ř,b59550ac47ef156bc66621ebce29455f66f1445a,real_thing,flexclust_no_s4,13005.875000,1
Ř,b59550ac47ef156bc66621ebce29455f66f1445a,real_thing,flexclust_no_s4,12944.261000,1
Ř,b59550ac47ef156bc66621ebce29455f66f1445a,real_thing,flexclust_no_s4,13227.941000,1
Ř,b59550ac47ef156bc66621ebce29455f66f1445a,real_thing,flexclust_no_s4,12990.416000,1
Ř,b59550ac47ef156bc66621ebce29455f66f1445a,real_thing,flexclust_no_s4,15247.209000,1
Ř,b59550ac47ef156bc66621ebce29455f66f1445a,real_thing,flexclust_no_s4,13572.518000,1
Ř,b59550ac47ef156bc66621ebce29455f66f1445a,real_thing,convolution,712.702000,0
Ř,b59550ac47ef156bc66621ebce29455f66f1445a,real_thing,convolution,9.984000,0
Ř,b59550ac47ef156bc66621ebce29455f66f1445a,real_thing,convolution,572.340000,0
Ř,b59550ac47ef156bc66621ebce29455f66f1445a,real_thing,convolution,11.638000,0
Ř,b59550ac47ef156bc66621ebce29455f66f1445a,real_thing,convolution,11.790000,0
Ř,b59550ac47ef156bc66621ebce29455f66f1445a,real_thing,convolution,11.837000,1
Ř,b59550ac47ef156bc66621ebce29455f66f1445a,real_thing,convolution,11.698000,1
Ř,b59550ac47ef156bc66621ebce29455f66f1445a,real_thing,convolution,11.627000,1
Ř,b59550ac47ef156bc66621ebce29455f66f1445a,real_thing,convolution,11.678000,1
Ř,b59550ac47ef156bc66621ebce29455f66f1445a,real_thing,convolution,11.617000,1
Ř,b59550ac47ef156bc66621ebce29455f66f1445a,real_thing,convolution,11.878000,1
Ř,b59550ac47ef156bc66621ebce29455f66f1445a,real_thing,convolution,11.643000,1
Ř,b59550ac47ef156bc66621ebce29455f66f1445a,real_thing,convolution,11.660000,1
Ř,b59550ac47ef156bc66621ebce29455f66f1445a,real_thing,convolution,11.707000,1
Ř,b59550ac47ef156bc66621ebce29455f66f1445a,real_thing,convolution,11.749000,1
Ř,b59550ac47ef156bc66621ebce29455f66f1445a,real_thing,flexclust,44910.104000,0
Ř,b59550ac47ef156bc66621ebce29455f66f1445a,real_thing,flexclust,28359.877000,0
Ř,b59550ac47ef156bc66621ebce29455f66f1445a,real_thing,flexclust,31644.893000,0
Ř,b59550ac47ef156bc66621ebce29455f66f1445a,real_thing,flexclust,38154.242000,0
Ř,b59550ac47ef156bc66621ebce29455f66f1445a,real_thing,flexclust,32803.095000,0
Ř,b59550ac47ef156bc66621ebce29455f66f1445a,real_thing,flexclust,15446.366000,1
Ř,b59550ac47ef156bc66621ebce29455f66f1445a,real_thing,flexclust,15468.660000,1
Ř,b59550ac47ef156bc66621ebce29455f66f1445a,real_thing,flexclust,15593.136000,1
Ř,b59550ac47ef156bc66621ebce29455f66f1445a,real_thing,flexclust,15457.403000,1
Ř,b59550ac47ef156bc66621ebce29455f66f1445a,real_thing,flexclust,15588.010000,1
Ř,b59550ac47ef156bc66621ebce29455f66f1445a,real_thing,flexclust,15949.444000,1
Ř,b59550ac47ef156bc66621ebce29455f66f1445a,real_thing,flexclust,25304.475000,1
Ř,b59550ac47ef156bc66621ebce29455f66f1445a,real_thing,flexclust,15220.999000,1
Ř,b59550ac47ef156bc66621ebce29455f66f1445a,real_thing,flexclust,15397.775000,1
Ř,b59550ac47ef156bc66621ebce29455f66f1445a,real_thing,flexclust,15196.302000,1
Ř,b59550ac47ef156bc66621ebce29455f66f1445a,real_thing,convolution_v,631.770000,0
Ř,b59550ac47ef156bc66621ebce29455f66f1445a,real_thing,convolution_v,96.358000,0
Ř,b59550ac47ef156bc66621ebce29455f66f1445a,real_thing,convolution_v,715.777000,0
Ř,b59550ac47ef156bc66621ebce29455f66f1445a,real_thing,convolution_v,92.920000,0
Ř,b59550ac47ef156bc66621ebce29455f66f1445a,real_thing,convolution_v,103.855000,0
Ř,b59550ac47ef156bc66621ebce29455f66f1445a,real_thing,convolution_v,95.406000,1
Ř,b59550ac47ef156bc66621ebce29455f66f1445a,real_thing,convolution_v,93.050000,1
Ř,b59550ac47ef156bc66621ebce29455f66f1445a,real_thing,convolution_v,93.060000,1
Ř,b59550ac47ef156bc66621ebce29455f66f1445a,real_thing,convolution_v,92.583000,1
Ř,b59550ac47ef156bc66621ebce29455f66f1445a,real_thing,convolution_v,94.412000,1
Ř,b59550ac47ef156bc66621ebce29455f66f1445a,real_thing,convolution_v,96.257000,1
Ř,b59550ac47ef156bc66621ebce29455f66f1445a,real_thing,convolution_v,92.196000,1
Ř,b59550ac47ef156bc66621ebce29455f66f1445a,real_thing,convolution_v,96.658000,1
Ř,b59550ac47ef156bc66621ebce29455f66f1445a,real_thing,convolution_v,92.205000,1
Ř,b59550ac47ef156bc66621ebce29455f66f1445a,real_thing,convolution_v,92.876000,1
Ř,b59550ac47ef156bc66621ebce29455f66f1445a,real_thing,convolution_slow,630.481000,0
Ř,b59550ac47ef156bc66621ebce29455f66f1445a,real_thing,convolution_slow,96.482000,0
Ř,b59550ac47ef156bc66621ebce29455f66f1445a,real_thing,convolution_slow,715.506000,0
Ř,b59550ac47ef156bc66621ebce29455f66f1445a,real_thing,convolution_slow,92.679000,0
Ř,b59550ac47ef156bc66621ebce29455f66f1445a,real_thing,convolution_slow,104.752000,0
Ř,b59550ac47ef156bc66621ebce29455f66f1445a,real_thing,convolution_slow,96.579000,1
Ř,b59550ac47ef156bc66621ebce29455f66f1445a,real_thing,convolution_slow,92.651000,1
Ř,b59550ac47ef156bc66621ebce29455f66f1445a,real_thing,convolution_slow,92.798000,1
Ř,b59550ac47ef156bc66621ebce29455f66f1445a,real_thing,convolution_slow,92.552000,1
Ř,b59550ac47ef156bc66621ebce29455f66f1445a,real_thing,convolution_slow,96.563000,1
Ř,b59550ac47ef156bc66621ebce29455f66f1445a,real_thing,convolution_slow,96.212000,1
Ř,b59550ac47ef156bc66621ebce29455f66f1445a,real_thing,convolution_slow,92.077000,1
Ř,b59550ac47ef156bc66621ebce29455f66f1445a,real_thing,convolution_slow,98.600000,1
Ř,b59550ac47ef156bc66621ebce29455f66f1445a,real_thing,convolution_slow,91.821000,1
Ř,b59550ac47ef156bc66621ebce29455f66f1445a,real_thing,convolution_slow,93.059000,1
Ř,b59550ac47ef156bc66621ebce29455f66f1445a,are-we-fast-r,Mandelbrot,3468.974000,0
Ř,b59550ac47ef156bc66621ebce29455f66f1445a,are-we-fast-r,Mandelbrot,3382.856000,0
Ř,b59550ac47ef156bc66621ebce29455f66f1445a,are-we-fast-r,Mandelbrot,769.293000,0
Ř,b59550ac47ef156bc66621ebce29455f66f1445a,are-we-fast-r,Mandelbrot,1259.748000,0
Ř,b59550ac47ef156bc66621ebce29455f66f1445a,are-we-fast-r,Mandelbrot,64.987000,0
Ř,b59550ac47ef156bc66621ebce29455f66f1445a,are-we-fast-r,Mandelbrot,65.188000,1
Ř,b59550ac47ef156bc66621ebce29455f66f1445a,are-we-fast-r,Mandelbrot,65.078000,1
Ř,b59550ac47ef156bc66621ebce29455f66f1445a,are-we-fast-r,Mandelbrot,66.047000,1
Ř,b59550ac47ef156bc66621ebce29455f66f1445a,are-we-fast-r,Mandelbrot,65.046000,1
Ř,b59550ac47ef156bc66621ebce29455f66f1445a,are-we-fast-r,Mandelbrot,65.174000,1
Ř,b59550ac47ef156bc66621ebce29455f66f1445a,are-we-fast-r,Mandelbrot,65.048000,1
Ř,b59550ac47ef156bc66621ebce29455f66f1445a,are-we-fast-r,Mandelbrot,65.198000,1
Ř,b59550ac47ef156bc66621ebce29455f66f1445a,are-we-fast-r,Mandelbrot,65.075000,1
Ř,b59550ac47ef156bc66621ebce29455f66f1445a,are-we-fast-r,Mandelbrot,65.062000,1
Ř,b59550ac47ef156bc66621ebce29455f66f1445a,are-we-fast-r,Mandelbrot,65.184000,1
Ř,b59550ac47ef156bc66621ebce29455f66f1445a,are-we-fast-r,Bounce_nonames_simple,1951.689000,0
Ř,b59550ac47ef156bc66621ebce29455f66f1445a,are-we-fast-r,Bounce_nonames_simple,134.367000,0
Ř,b59550ac47ef156bc66621ebce29455f66f1445a,are-we-fast-r,Bounce_nonames_simple,141.013000,0
Ř,b59550ac47ef156bc66621ebce29455f66f1445a,are-we-fast-r,Bounce_nonames_simple,128.748000,0
Ř,b59550ac47ef156bc66621ebce29455f66f1445a,are-we-fast-r,Bounce_nonames_simple,128.304000,0
Ř,b59550ac47ef156bc66621ebce29455f66f1445a,are-we-fast-r,Bounce_nonames_simple,132.423000,1
Ř,b59550ac47ef156bc66621ebce29455f66f1445a,are-we-fast-r,Bounce_nonames_simple,133.795000,1
Ř,b59550ac47ef156bc66621ebce29455f66f1445a,are-we-fast-r,Bounce_nonames_simple,130.986000,1
Ř,b59550ac47ef156bc66621ebce29455f66f1445a,are-we-fast-r,Bounce_nonames_simple,127.238000,1
Ř,b59550ac47ef156bc66621ebce29455f66f1445a,are-we-fast-r,Bounce_nonames_simple,127.018000,1
Ř,b59550ac47ef156bc66621ebce29455f66f1445a,are-we-fast-r,Bounce_nonames_simple,128.716000,1
Ř,b59550ac47ef156bc66621ebce29455f66f1445a,are-we-fast-r,Bounce_nonames_simple,130.401000,1
Ř,b59550ac47ef156bc66621ebce29455f66f1445a,are-we-fast-r,Bounce_nonames_simple,129.344000,1
Ř,b59550ac47ef156bc66621ebce29455f66f1445a,are-we-fast-r,Bounce_nonames_simple,132.614000,1
Ř,b59550ac47ef156bc66621ebce29455f66f1445a,are-we-fast-r,Bounce_nonames_simple,128.644000,1
Ř,b59550ac47ef156bc66621ebce29455f66f1445a,are-we-fast-r,Storage,1208.762000,0
Ř,b59550ac47ef156bc66621ebce29455f66f1445a,are-we-fast-r,Storage,578.792000,0
Ř,b59550ac47ef156bc66621ebce29455f66f1445a,are-we-fast-r,Storage,545.501000,0
Ř,b59550ac47ef156bc66621ebce29455f66f1445a,are-we-fast-r,Storage,536.550000,0
Ř,b59550ac47ef156bc66621ebce29455f66f1445a,are-we-fast-r,Storage,513.047000,0
Ř,b59550ac47ef156bc66621ebce29455f66f1445a,are-we-fast-r,Storage,528.024000,1
Ř,b59550ac47ef156bc66621ebce29455f66f1445a,are-we-fast-r,Storage,589.843000,1
Ř,b59550ac47ef156bc66621ebce29455f66f1445a,are-we-fast-r,Storage,535.747000,1
Ř,b59550ac47ef156bc66621ebce29455f66f1445a,are-we-fast-r,Storage,539.942000,1
Ř,b59550ac47ef156bc66621ebce29455f66f1445a,are-we-fast-r,Storage,593.564000,1
Ř,b59550ac47ef156bc66621ebce29455f66f1445a,are-we-fast-r,Storage,597.538000,1
Ř,b59550ac47ef156bc66621ebce29455f66f1445a,are-we-fast-r,Storage,496.365000,1
Ř,b59550ac47ef156bc66621ebce29455f66f1445a,are-we-fast-r,Storage,530.753000,1
Ř,b59550ac47ef156bc66621ebce29455f66f1445a,are-we-fast-r,Storage,613.934000,1
Ř,b59550ac47ef156bc66621ebce29455f66f1445a,are-we-fast-r,Storage,738.334000,1
Ř,b59550ac47ef156bc66621ebce29455f66f1445a,are-we-fast-r,Bounce_nonames,1449.549000,0
Ř,b59550ac47ef156bc66621ebce29455f66f1445a,are-we-fast-r,Bounce_nonames,138.564000,0
Ř,b59550ac47ef156bc66621ebce29455f66f1445a,are-we-fast-r,Bounce_nonames,147.808000,0
Ř,b59550ac47ef156bc66621ebce29455f66f1445a,are-we-fast-r,Bounce_nonames,138.229000,0
Ř,b59550ac47ef156bc66621ebce29455f66f1445a,are-we-fast-r,Bounce_nonames,138.241000,0
Ř,b59550ac47ef156bc66621ebce29455f66f1445a,are-we-fast-r,Bounce_nonames,140.143000,1
Ř,b59550ac47ef156bc66621ebce29455f66f1445a,are-we-fast-r,Bounce_nonames,137.533000,1
Ř,b59550ac47ef156bc66621ebce29455f66f1445a,are-we-fast-r,Bounce_nonames,136.678000,1
Ř,b59550ac47ef156bc66621ebce29455f66f1445a,are-we-fast-r,Bounce_nonames,137.697000,1
Ř,b59550ac47ef156bc66621ebce29455f66f1445a,are-we-fast-r,Bounce_nonames,137.188000,1
Ř,b59550ac47ef156bc66621ebce29455f66f1445a,are-we-fast-r,Bounce_nonames,138.625000,1
Ř,b59550ac47ef156bc66621ebce29455f66f1445a,are-we-fast-r,Bounce_nonames,140.908000,1
Ř,b59550ac47ef156bc66621ebce29455f66f1445a,are-we-fast-r,Bounce_nonames,136.708000,1
Ř,b59550ac47ef156bc66621ebce29455f66f1445a,are-we-fast-r,Bounce_nonames,137.803000,1
Ř,b59550ac47ef156bc66621ebce29455f66f1445a,are-we-fast-r,Bounce_nonames,136.862000,1
Ř,b59550ac47ef156bc66621ebce29455f66f1445a,are-we-fast-r,Bounce,2240.581000,0
Ř,b59550ac47ef156bc66621ebce29455f66f1445a,are-we-fast-r,Bounce,814.561000,0
Ř,b59550ac47ef156bc66621ebce29455f66f1445a,are-we-fast-r,Bounce,833.649000,0
Ř,b59550ac47ef156bc66621ebce29455f66f1445a,are-we-fast-r,Bounce,812.356000,0
Ř,b59550ac47ef156bc66621ebce29455f66f1445a,are-we-fast-r,Bounce,791.847000,0
Ř,b59550ac47ef156bc66621ebce29455f66f1445a,are-we-fast-r,Bounce,810.633000,1
Ř,b59550ac47ef156bc66621ebce29455f66f1445a,are-we-fast-r,Bounce,826.089000,1
Ř,b59550ac47ef156bc66621ebce29455f66f1445a,are-we-fast-r,Bounce,785.326000,1
Ř,b59550ac47ef156bc66621ebce29455f66f1445a,are-we-fast-r,Bounce,798.610000,1
Ř,b59550ac47ef156bc66621ebce29455f66f1445a,are-we-fast-r,Bounce,816.483000,1
Ř,b59550ac47ef156bc66621ebce29455f66f1445a,are-we-fast-r,Bounce,796.138000,1
Ř,b59550ac47ef156bc66621ebce29455f66f1445a,are-we-fast-r,Bounce,793.558000,1
Ř,b59550ac47ef156bc66621ebce29455f66f1445a,are-we-fast-r,Bounce,811.686000,1
Ř,b59550ac47ef156bc66621ebce29455f66f1445a,are-we-fast-r,Bounce,816.340000,1
Ř,b59550ac47ef156bc66621ebce29455f66f1445a,are-we-fast-r,Bounce,788.789000,1
