vm,commit,suite,benchmark,ms,warm
Ř,4a0b2a2f451a612bed4294611a49846010cf56c6,simple,superWhile,2951.484000,0
Ř,4a0b2a2f451a612bed4294611a49846010cf56c6,simple,superWhile,2981.081000,0
Ř,4a0b2a2f451a612bed4294611a49846010cf56c6,simple,superWhile,55.302000,0
Ř,4a0b2a2f451a612bed4294611a49846010cf56c6,simple,superWhile,20.403000,0
Ř,4a0b2a2f451a612bed4294611a49846010cf56c6,simple,superWhile,20.383000,0
Ř,4a0b2a2f451a612bed4294611a49846010cf56c6,simple,superWhile,20.394000,1
Ř,4a0b2a2f451a612bed4294611a49846010cf56c6,simple,superWhile,20.380000,1
Ř,4a0b2a2f451a612bed4294611a49846010cf56c6,simple,superWhile,20.377000,1
Ř,4a0b2a2f451a612bed4294611a49846010cf56c6,simple,superWhile,20.377000,1
Ř,4a0b2a2f451a612bed4294611a49846010cf56c6,simple,superWhile,20.336000,1
Ř,4a0b2a2f451a612bed4294611a49846010cf56c6,simple,superWhile,20.380000,1
Ř,4a0b2a2f451a612bed4294611a49846010cf56c6,simple,superWhile,20.383000,1
Ř,4a0b2a2f451a612bed4294611a49846010cf56c6,simple,superWhile,20.376000,1
Ř,4a0b2a2f451a612bed4294611a49846010cf56c6,simple,superWhile,20.378000,1
Ř,4a0b2a2f451a612bed4294611a49846010cf56c6,simple,superWhile,20.376000,1
Ř,4a0b2a2f451a612bed4294611a49846010cf56c6,simple,matrixFor,400.419000,0
Ř,4a0b2a2f451a612bed4294611a49846010cf56c6,simple,matrixFor,417.772000,0
Ř,4a0b2a2f451a612bed4294611a49846010cf56c6,simple,matrixFor,163.622000,0
Ř,4a0b2a2f451a612bed4294611a49846010cf56c6,simple,matrixFor,53.190000,0
Ř,4a0b2a2f451a612bed4294611a49846010cf56c6,simple,matrixFor,53.104000,0
Ř,4a0b2a2f451a612bed4294611a49846010cf56c6,simple,matrixFor,53.223000,1
Ř,4a0b2a2f451a612bed4294611a49846010cf56c6,simple,matrixFor,53.113000,1
Ř,4a0b2a2f451a612bed4294611a49846010cf56c6,simple,matrixFor,53.584000,1
Ř,4a0b2a2f451a612bed4294611a49846010cf56c6,simple,matrixFor,53.201000,1
Ř,4a0b2a2f451a612bed4294611a49846010cf56c6,simple,matrixFor,53.104000,1
Ř,4a0b2a2f451a612bed4294611a49846010cf56c6,simple,matrixFor,53.128000,1
Ř,4a0b2a2f451a612bed4294611a49846010cf56c6,simple,matrixFor,462.474000,1
Ř,4a0b2a2f451a612bed4294611a49846010cf56c6,simple,matrixFor,388.157000,1
Ř,4a0b2a2f451a612bed4294611a49846010cf56c6,simple,matrixFor,163.790000,1
Ř,4a0b2a2f451a612bed4294611a49846010cf56c6,simple,matrixFor,57.015000,1
Ř,4a0b2a2f451a612bed4294611a49846010cf56c6,simple,vectorWhile,2257.813000,0
Ř,4a0b2a2f451a612bed4294611a49846010cf56c6,simple,vectorWhile,2242.767000,0
Ř,4a0b2a2f451a612bed4294611a49846010cf56c6,simple,vectorWhile,184.712000,0
Ř,4a0b2a2f451a612bed4294611a49846010cf56c6,simple,vectorWhile,128.031000,0
Ř,4a0b2a2f451a612bed4294611a49846010cf56c6,simple,vectorWhile,143.421000,0
Ř,4a0b2a2f451a612bed4294611a49846010cf56c6,simple,vectorWhile,129.788000,1
Ř,4a0b2a2f451a612bed4294611a49846010cf56c6,simple,vectorWhile,129.735000,1
Ř,4a0b2a2f451a612bed4294611a49846010cf56c6,simple,vectorWhile,129.771000,1
Ř,4a0b2a2f451a612bed4294611a49846010cf56c6,simple,vectorWhile,129.734000,1
Ř,4a0b2a2f451a612bed4294611a49846010cf56c6,simple,vectorWhile,129.805000,1
Ř,4a0b2a2f451a612bed4294611a49846010cf56c6,simple,vectorWhile,129.811000,1
Ř,4a0b2a2f451a612bed4294611a49846010cf56c6,simple,vectorWhile,129.796000,1
Ř,4a0b2a2f451a612bed4294611a49846010cf56c6,simple,vectorWhile,129.855000,1
Ř,4a0b2a2f451a612bed4294611a49846010cf56c6,simple,vectorWhile,129.729000,1
Ř,4a0b2a2f451a612bed4294611a49846010cf56c6,simple,vectorWhile,129.791000,1
Ř,4a0b2a2f451a612bed4294611a49846010cf56c6,simple,emptyFor,3273.496000,0
Ř,4a0b2a2f451a612bed4294611a49846010cf56c6,simple,emptyFor,3256.188000,0
Ř,4a0b2a2f451a612bed4294611a49846010cf56c6,simple,emptyFor,16.041000,0
Ř,4a0b2a2f451a612bed4294611a49846010cf56c6,simple,emptyFor,0.028000,0
Ř,4a0b2a2f451a612bed4294611a49846010cf56c6,simple,emptyFor,0.010000,0
Ř,4a0b2a2f451a612bed4294611a49846010cf56c6,simple,emptyFor,0.009000,1
Ř,4a0b2a2f451a612bed4294611a49846010cf56c6,simple,emptyFor,0.008000,1
Ř,4a0b2a2f451a612bed4294611a49846010cf56c6,simple,emptyFor,0.008000,1
Ř,4a0b2a2f451a612bed4294611a49846010cf56c6,simple,emptyFor,0.008000,1
Ř,4a0b2a2f451a612bed4294611a49846010cf56c6,simple,emptyFor,0.008000,1
Ř,4a0b2a2f451a612bed4294611a49846010cf56c6,simple,emptyFor,0.008000,1
Ř,4a0b2a2f451a612bed4294611a49846010cf56c6,simple,emptyFor,0.008000,1
Ř,4a0b2a2f451a612bed4294611a49846010cf56c6,simple,emptyFor,0.008000,1
Ř,4a0b2a2f451a612bed4294611a49846010cf56c6,simple,emptyFor,0.007000,1
Ř,4a0b2a2f451a612bed4294611a49846010cf56c6,simple,emptyFor,0.008000,1
Ř,4a0b2a2f451a612bed4294611a49846010cf56c6,simple,lapplyDots,772.136000,0
Ř,4a0b2a2f451a612bed4294611a49846010cf56c6,simple,lapplyDots,897.745000,0
Ř,4a0b2a2f451a612bed4294611a49846010cf56c6,simple,lapplyDots,821.013000,0
Ř,4a0b2a2f451a612bed4294611a49846010cf56c6,simple,lapplyDots,1046.393000,0
Ř,4a0b2a2f451a612bed4294611a49846010cf56c6,simple,lapplyDots,981.298000,0
Ř,4a0b2a2f451a612bed4294611a49846010cf56c6,simple,lapplyDots,924.394000,1
Ř,4a0b2a2f451a612bed4294611a49846010cf56c6,simple,lapplyDots,945.978000,1
Ř,4a0b2a2f451a612bed4294611a49846010cf56c6,simple,lapplyDots,817.252000,1
Ř,4a0b2a2f451a612bed4294611a49846010cf56c6,simple,lapplyDots,923.633000,1
Ř,4a0b2a2f451a612bed4294611a49846010cf56c6,simple,lapplyDots,943.746000,1
Ř,4a0b2a2f451a612bed4294611a49846010cf56c6,simple,lapplyDots,966.506000,1
Ř,4a0b2a2f451a612bed4294611a49846010cf56c6,simple,lapplyDots,796.613000,1
Ř,4a0b2a2f451a612bed4294611a49846010cf56c6,simple,lapplyDots,943.399000,1
Ř,4a0b2a2f451a612bed4294611a49846010cf56c6,simple,lapplyDots,964.853000,1
Ř,4a0b2a2f451a612bed4294611a49846010cf56c6,simple,lapplyDots,924.628000,1
Ř,4a0b2a2f451a612bed4294611a49846010cf56c6,simple,scalarWhile,2254.613000,0
Ř,4a0b2a2f451a612bed4294611a49846010cf56c6,simple,scalarWhile,2266.141000,0
Ř,4a0b2a2f451a612bed4294611a49846010cf56c6,simple,scalarWhile,44.292000,0
Ř,4a0b2a2f451a612bed4294611a49846010cf56c6,simple,scalarWhile,25.470000,0
Ř,4a0b2a2f451a612bed4294611a49846010cf56c6,simple,scalarWhile,25.491000,0
Ř,4a0b2a2f451a612bed4294611a49846010cf56c6,simple,scalarWhile,25.445000,1
Ř,4a0b2a2f451a612bed4294611a49846010cf56c6,simple,scalarWhile,25.445000,1
Ř,4a0b2a2f451a612bed4294611a49846010cf56c6,simple,scalarWhile,25.498000,1
Ř,4a0b2a2f451a612bed4294611a49846010cf56c6,simple,scalarWhile,25.445000,1
Ř,4a0b2a2f451a612bed4294611a49846010cf56c6,simple,scalarWhile,25.445000,1
Ř,4a0b2a2f451a612bed4294611a49846010cf56c6,simple,scalarWhile,25.486000,1
Ř,4a0b2a2f451a612bed4294611a49846010cf56c6,simple,scalarWhile,25.447000,1
Ř,4a0b2a2f451a612bed4294611a49846010cf56c6,simple,scalarWhile,25.450000,1
Ř,4a0b2a2f451a612bed4294611a49846010cf56c6,simple,scalarWhile,25.471000,1
Ř,4a0b2a2f451a612bed4294611a49846010cf56c6,simple,scalarWhile,25.446000,1
Ř,4a0b2a2f451a612bed4294611a49846010cf56c6,simple,listWhile,158.085000,0
Ř,4a0b2a2f451a612bed4294611a49846010cf56c6,simple,listWhile,151.511000,0
Ř,4a0b2a2f451a612bed4294611a49846010cf56c6,simple,listWhile,131.523000,0
Ř,4a0b2a2f451a612bed4294611a49846010cf56c6,simple,listWhile,69.203000,0
Ř,4a0b2a2f451a612bed4294611a49846010cf56c6,simple,listWhile,64.985000,0
Ř,4a0b2a2f451a612bed4294611a49846010cf56c6,simple,listWhile,72.681000,1
Ř,4a0b2a2f451a612bed4294611a49846010cf56c6,simple,listWhile,85.532000,1
Ř,4a0b2a2f451a612bed4294611a49846010cf56c6,simple,listWhile,52.438000,1
Ř,4a0b2a2f451a612bed4294611a49846010cf56c6,simple,listWhile,66.676000,1
Ř,4a0b2a2f451a612bed4294611a49846010cf56c6,simple,listWhile,61.309000,1
Ř,4a0b2a2f451a612bed4294611a49846010cf56c6,simple,listWhile,66.665000,1
Ř,4a0b2a2f451a612bed4294611a49846010cf56c6,simple,listWhile,59.770000,1
Ř,4a0b2a2f451a612bed4294611a49846010cf56c6,simple,listWhile,81.070000,1
Ř,4a0b2a2f451a612bed4294611a49846010cf56c6,simple,listWhile,57.120000,1
Ř,4a0b2a2f451a612bed4294611a49846010cf56c6,simple,listWhile,64.686000,1
Ř,4a0b2a2f451a612bed4294611a49846010cf56c6,simple,scalarFor,4743.877000,0
Ř,4a0b2a2f451a612bed4294611a49846010cf56c6,simple,scalarFor,4633.282000,0
Ř,4a0b2a2f451a612bed4294611a49846010cf56c6,simple,scalarFor,17.661000,0
Ř,4a0b2a2f451a612bed4294611a49846010cf56c6,simple,scalarFor,0.028000,0
Ř,4a0b2a2f451a612bed4294611a49846010cf56c6,simple,scalarFor,0.010000,0
Ř,4a0b2a2f451a612bed4294611a49846010cf56c6,simple,scalarFor,0.008000,1
Ř,4a0b2a2f451a612bed4294611a49846010cf56c6,simple,scalarFor,0.008000,1
Ř,4a0b2a2f451a612bed4294611a49846010cf56c6,simple,scalarFor,0.008000,1
Ř,4a0b2a2f451a612bed4294611a49846010cf56c6,simple,scalarFor,0.007000,1
Ř,4a0b2a2f451a612bed4294611a49846010cf56c6,simple,scalarFor,0.007000,1
Ř,4a0b2a2f451a612bed4294611a49846010cf56c6,simple,scalarFor,0.008000,1
Ř,4a0b2a2f451a612bed4294611a49846010cf56c6,simple,scalarFor,0.008000,1
Ř,4a0b2a2f451a612bed4294611a49846010cf56c6,simple,scalarFor,0.007000,1
Ř,4a0b2a2f451a612bed4294611a49846010cf56c6,simple,scalarFor,0.007000,1
Ř,4a0b2a2f451a612bed4294611a49846010cf56c6,simple,scalarFor,0.008000,1
Ř,4a0b2a2f451a612bed4294611a49846010cf56c6,simple,lapply,651.810000,0
Ř,4a0b2a2f451a612bed4294611a49846010cf56c6,simple,lapply,766.483000,0
Ř,4a0b2a2f451a612bed4294611a49846010cf56c6,simple,lapply,835.155000,0
Ř,4a0b2a2f451a612bed4294611a49846010cf56c6,simple,lapply,766.983000,0
Ř,4a0b2a2f451a612bed4294611a49846010cf56c6,simple,lapply,888.297000,0
Ř,4a0b2a2f451a612bed4294611a49846010cf56c6,simple,lapply,759.972000,1
Ř,4a0b2a2f451a612bed4294611a49846010cf56c6,simple,lapply,771.649000,1
Ř,4a0b2a2f451a612bed4294611a49846010cf56c6,simple,lapply,769.754000,1
Ř,4a0b2a2f451a612bed4294611a49846010cf56c6,simple,lapply,572.783000,1
Ř,4a0b2a2f451a612bed4294611a49846010cf56c6,simple,lapply,691.251000,1
Ř,4a0b2a2f451a612bed4294611a49846010cf56c6,simple,lapply,690.691000,1
Ř,4a0b2a2f451a612bed4294611a49846010cf56c6,simple,lapply,715.140000,1
Ř,4a0b2a2f451a612bed4294611a49846010cf56c6,simple,lapply,670.839000,1
Ř,4a0b2a2f451a612bed4294611a49846010cf56c6,simple,lapply,587.608000,1
Ř,4a0b2a2f451a612bed4294611a49846010cf56c6,simple,lapply,688.476000,1
Ř,4a0b2a2f451a612bed4294611a49846010cf56c6,simple,vectorFor,1062.483000,0
Ř,4a0b2a2f451a612bed4294611a49846010cf56c6,simple,vectorFor,1030.406000,0
Ř,4a0b2a2f451a612bed4294611a49846010cf56c6,simple,vectorFor,75.555000,0
Ř,4a0b2a2f451a612bed4294611a49846010cf56c6,simple,vectorFor,33.237000,0
Ř,4a0b2a2f451a612bed4294611a49846010cf56c6,simple,vectorFor,33.197000,0
Ř,4a0b2a2f451a612bed4294611a49846010cf56c6,simple,vectorFor,33.173000,1
Ř,4a0b2a2f451a612bed4294611a49846010cf56c6,simple,vectorFor,33.187000,1
Ř,4a0b2a2f451a612bed4294611a49846010cf56c6,simple,vectorFor,33.255000,1
Ř,4a0b2a2f451a612bed4294611a49846010cf56c6,simple,vectorFor,33.206000,1
Ř,4a0b2a2f451a612bed4294611a49846010cf56c6,simple,vectorFor,33.176000,1
Ř,4a0b2a2f451a612bed4294611a49846010cf56c6,simple,vectorFor,33.179000,1
Ř,4a0b2a2f451a612bed4294611a49846010cf56c6,simple,vectorFor,33.230000,1
Ř,4a0b2a2f451a612bed4294611a49846010cf56c6,simple,vectorFor,33.179000,1
Ř,4a0b2a2f451a612bed4294611a49846010cf56c6,simple,vectorFor,33.180000,1
Ř,4a0b2a2f451a612bed4294611a49846010cf56c6,simple,vectorFor,33.162000,1
Ř,4a0b2a2f451a612bed4294611a49846010cf56c6,simple,bytecodes,4045.678000,0
Ř,4a0b2a2f451a612bed4294611a49846010cf56c6,simple,bytecodes,4038.982000,0
Ř,4a0b2a2f451a612bed4294611a49846010cf56c6,simple,bytecodes,239.648000,0
Ř,4a0b2a2f451a612bed4294611a49846010cf56c6,simple,bytecodes,9.158000,0
Ř,4a0b2a2f451a612bed4294611a49846010cf56c6,simple,bytecodes,9.184000,0
Ř,4a0b2a2f451a612bed4294611a49846010cf56c6,simple,bytecodes,9.181000,1
Ř,4a0b2a2f451a612bed4294611a49846010cf56c6,simple,bytecodes,9.192000,1
Ř,4a0b2a2f451a612bed4294611a49846010cf56c6,simple,bytecodes,9.180000,1
Ř,4a0b2a2f451a612bed4294611a49846010cf56c6,simple,bytecodes,9.185000,1
Ř,4a0b2a2f451a612bed4294611a49846010cf56c6,simple,bytecodes,9.138000,1
Ř,4a0b2a2f451a612bed4294611a49846010cf56c6,simple,bytecodes,9.180000,1
Ř,4a0b2a2f451a612bed4294611a49846010cf56c6,simple,bytecodes,9.179000,1
Ř,4a0b2a2f451a612bed4294611a49846010cf56c6,simple,bytecodes,9.183000,1
Ř,4a0b2a2f451a612bed4294611a49846010cf56c6,simple,bytecodes,9.180000,1
Ř,4a0b2a2f451a612bed4294611a49846010cf56c6,simple,bytecodes,9.178000,1
Ř,4a0b2a2f451a612bed4294611a49846010cf56c6,simple,emptyWhile,2228.774000,0
Ř,4a0b2a2f451a612bed4294611a49846010cf56c6,simple,emptyWhile,2209.472000,0
Ř,4a0b2a2f451a612bed4294611a49846010cf56c6,simple,emptyWhile,47.122000,0
Ř,4a0b2a2f451a612bed4294611a49846010cf56c6,simple,emptyWhile,30.593000,0
Ř,4a0b2a2f451a612bed4294611a49846010cf56c6,simple,emptyWhile,30.519000,0
Ř,4a0b2a2f451a612bed4294611a49846010cf56c6,simple,emptyWhile,30.560000,1
Ř,4a0b2a2f451a612bed4294611a49846010cf56c6,simple,emptyWhile,30.557000,1
Ř,4a0b2a2f451a612bed4294611a49846010cf56c6,simple,emptyWhile,30.563000,1
Ř,4a0b2a2f451a612bed4294611a49846010cf56c6,simple,emptyWhile,30.515000,1
Ř,4a0b2a2f451a612bed4294611a49846010cf56c6,simple,emptyWhile,30.565000,1
Ř,4a0b2a2f451a612bed4294611a49846010cf56c6,simple,emptyWhile,30.558000,1
Ř,4a0b2a2f451a612bed4294611a49846010cf56c6,simple,emptyWhile,30.560000,1
Ř,4a0b2a2f451a612bed4294611a49846010cf56c6,simple,emptyWhile,30.563000,1
Ř,4a0b2a2f451a612bed4294611a49846010cf56c6,simple,emptyWhile,30.516000,1
Ř,4a0b2a2f451a612bed4294611a49846010cf56c6,simple,emptyWhile,30.558000,1
Ř,4a0b2a2f451a612bed4294611a49846010cf56c6,simple,listFor,202.865000,0
Ř,4a0b2a2f451a612bed4294611a49846010cf56c6,simple,listFor,205.913000,0
Ř,4a0b2a2f451a612bed4294611a49846010cf56c6,simple,listFor,89.257000,0
Ř,4a0b2a2f451a612bed4294611a49846010cf56c6,simple,listFor,68.095000,0
Ř,4a0b2a2f451a612bed4294611a49846010cf56c6,simple,listFor,78.292000,0
Ř,4a0b2a2f451a612bed4294611a49846010cf56c6,simple,listFor,54.122000,1
Ř,4a0b2a2f451a612bed4294611a49846010cf56c6,simple,listFor,66.455000,1
Ř,4a0b2a2f451a612bed4294611a49846010cf56c6,simple,listFor,55.505000,1
Ř,4a0b2a2f451a612bed4294611a49846010cf56c6,simple,listFor,68.637000,1
Ř,4a0b2a2f451a612bed4294611a49846010cf56c6,simple,listFor,78.272000,1
Ř,4a0b2a2f451a612bed4294611a49846010cf56c6,simple,listFor,60.665000,1
Ř,4a0b2a2f451a612bed4294611a49846010cf56c6,simple,listFor,64.296000,1
Ř,4a0b2a2f451a612bed4294611a49846010cf56c6,simple,listFor,73.436000,1
Ř,4a0b2a2f451a612bed4294611a49846010cf56c6,simple,listFor,79.208000,1
Ř,4a0b2a2f451a612bed4294611a49846010cf56c6,simple,listFor,51.007000,1
Ř,4a0b2a2f451a612bed4294611a49846010cf56c6,shootout,spectralnorm_naive,952.142000,0
Ř,4a0b2a2f451a612bed4294611a49846010cf56c6,shootout,spectralnorm_naive,1073.828000,0
Ř,4a0b2a2f451a612bed4294611a49846010cf56c6,shootout,spectralnorm_naive,1188.968000,0
Ř,4a0b2a2f451a612bed4294611a49846010cf56c6,shootout,spectralnorm_naive,40.779000,0
Ř,4a0b2a2f451a612bed4294611a49846010cf56c6,shootout,spectralnorm_naive,40.825000,0
Ř,4a0b2a2f451a612bed4294611a49846010cf56c6,shootout,spectralnorm_naive,40.906000,1
Ř,4a0b2a2f451a612bed4294611a49846010cf56c6,shootout,spectralnorm_naive,40.937000,1
Ř,4a0b2a2f451a612bed4294611a49846010cf56c6,shootout,spectralnorm_naive,40.908000,1
Ř,4a0b2a2f451a612bed4294611a49846010cf56c6,shootout,spectralnorm_naive,40.816000,1
Ř,4a0b2a2f451a612bed4294611a49846010cf56c6,shootout,spectralnorm_naive,40.858000,1
Ř,4a0b2a2f451a612bed4294611a49846010cf56c6,shootout,spectralnorm_naive,40.838000,1
Ř,4a0b2a2f451a612bed4294611a49846010cf56c6,shootout,spectralnorm_naive,40.826000,1
Ř,4a0b2a2f451a612bed4294611a49846010cf56c6,shootout,spectralnorm_naive,40.806000,1
Ř,4a0b2a2f451a612bed4294611a49846010cf56c6,shootout,spectralnorm_naive,40.862000,1
Ř,4a0b2a2f451a612bed4294611a49846010cf56c6,shootout,spectralnorm_naive,42.258000,1
Ř,4a0b2a2f451a612bed4294611a49846010cf56c6,shootout,fasta_2,1141.511000,0
Ř,4a0b2a2f451a612bed4294611a49846010cf56c6,shootout,fasta_2,1592.726000,0
Ř,4a0b2a2f451a612bed4294611a49846010cf56c6,shootout,fasta_2,2316.726000,0
Ř,4a0b2a2f451a612bed4294611a49846010cf56c6,shootout,fasta_2,897.344000,0
Ř,4a0b2a2f451a612bed4294611a49846010cf56c6,shootout,fasta_2,885.270000,0
Ř,4a0b2a2f451a612bed4294611a49846010cf56c6,shootout,fasta_2,870.777000,1
Ř,4a0b2a2f451a612bed4294611a49846010cf56c6,shootout,fasta_2,873.719000,1
Ř,4a0b2a2f451a612bed4294611a49846010cf56c6,shootout,fasta_2,872.711000,1
Ř,4a0b2a2f451a612bed4294611a49846010cf56c6,shootout,fasta_2,873.271000,1
Ř,4a0b2a2f451a612bed4294611a49846010cf56c6,shootout,fasta_2,877.145000,1
Ř,4a0b2a2f451a612bed4294611a49846010cf56c6,shootout,fasta_2,870.830000,1
Ř,4a0b2a2f451a612bed4294611a49846010cf56c6,shootout,fasta_2,873.558000,1
Ř,4a0b2a2f451a612bed4294611a49846010cf56c6,shootout,fasta_2,870.146000,1
Ř,4a0b2a2f451a612bed4294611a49846010cf56c6,shootout,fasta_2,861.519000,1
Ř,4a0b2a2f451a612bed4294611a49846010cf56c6,shootout,fasta_2,871.502000,1
Ř,4a0b2a2f451a612bed4294611a49846010cf56c6,shootout,nbody_3,2039.002000,0
Ř,4a0b2a2f451a612bed4294611a49846010cf56c6,shootout,nbody_3,2151.642000,0
Ř,4a0b2a2f451a612bed4294611a49846010cf56c6,shootout,nbody_3,2794.064000,0
Ř,4a0b2a2f451a612bed4294611a49846010cf56c6,shootout,nbody_3,1078.500000,0
Ř,4a0b2a2f451a612bed4294611a49846010cf56c6,shootout,nbody_3,1087.435000,0
Ř,4a0b2a2f451a612bed4294611a49846010cf56c6,shootout,nbody_3,1080.305000,1
Ř,4a0b2a2f451a612bed4294611a49846010cf56c6,shootout,nbody_3,1086.308000,1
Ř,4a0b2a2f451a612bed4294611a49846010cf56c6,shootout,nbody_3,1075.373000,1
Ř,4a0b2a2f451a612bed4294611a49846010cf56c6,shootout,nbody_3,1090.420000,1
Ř,4a0b2a2f451a612bed4294611a49846010cf56c6,shootout,nbody_3,2239.041000,1
Ř,4a0b2a2f451a612bed4294611a49846010cf56c6,shootout,nbody_3,1661.009000,1
Ř,4a0b2a2f451a612bed4294611a49846010cf56c6,shootout,nbody_3,1094.520000,1
Ř,4a0b2a2f451a612bed4294611a49846010cf56c6,shootout,nbody_3,1081.683000,1
Ř,4a0b2a2f451a612bed4294611a49846010cf56c6,shootout,nbody_3,1092.177000,1
Ř,4a0b2a2f451a612bed4294611a49846010cf56c6,shootout,nbody_3,1081.671000,1
Ř,4a0b2a2f451a612bed4294611a49846010cf56c6,shootout,reversecomplement,580.110000,0
Ř,4a0b2a2f451a612bed4294611a49846010cf56c6,shootout,reversecomplement,670.338000,0
Ř,4a0b2a2f451a612bed4294611a49846010cf56c6,shootout,reversecomplement,1382.509000,0
Ř,4a0b2a2f451a612bed4294611a49846010cf56c6,shootout,reversecomplement,528.336000,0
Ř,4a0b2a2f451a612bed4294611a49846010cf56c6,shootout,reversecomplement,534.587000,0
Ř,4a0b2a2f451a612bed4294611a49846010cf56c6,shootout,reversecomplement,539.105000,1
Ř,4a0b2a2f451a612bed4294611a49846010cf56c6,shootout,reversecomplement,468.486000,1
Ř,4a0b2a2f451a612bed4294611a49846010cf56c6,shootout,reversecomplement,462.915000,1
Ř,4a0b2a2f451a612bed4294611a49846010cf56c6,shootout,reversecomplement,464.901000,1
Ř,4a0b2a2f451a612bed4294611a49846010cf56c6,shootout,reversecomplement,461.301000,1
Ř,4a0b2a2f451a612bed4294611a49846010cf56c6,shootout,reversecomplement,465.834000,1
Ř,4a0b2a2f451a612bed4294611a49846010cf56c6,shootout,reversecomplement,460.968000,1
Ř,4a0b2a2f451a612bed4294611a49846010cf56c6,shootout,reversecomplement,466.313000,1
Ř,4a0b2a2f451a612bed4294611a49846010cf56c6,shootout,reversecomplement,462.454000,1
Ř,4a0b2a2f451a612bed4294611a49846010cf56c6,shootout,reversecomplement,467.010000,1
Ř,4a0b2a2f451a612bed4294611a49846010cf56c6,shootout,mandelbrot_naive_ascii,625.861000,0
Ř,4a0b2a2f451a612bed4294611a49846010cf56c6,shootout,mandelbrot_naive_ascii,624.172000,0
Ř,4a0b2a2f451a612bed4294611a49846010cf56c6,shootout,mandelbrot_naive_ascii,1165.760000,0
Ř,4a0b2a2f451a612bed4294611a49846010cf56c6,shootout,mandelbrot_naive_ascii,206.439000,0
Ř,4a0b2a2f451a612bed4294611a49846010cf56c6,shootout,mandelbrot_naive_ascii,200.859000,0
Ř,4a0b2a2f451a612bed4294611a49846010cf56c6,shootout,mandelbrot_naive_ascii,200.608000,1
Ř,4a0b2a2f451a612bed4294611a49846010cf56c6,shootout,mandelbrot_naive_ascii,200.531000,1
Ř,4a0b2a2f451a612bed4294611a49846010cf56c6,shootout,mandelbrot_naive_ascii,201.538000,1
Ř,4a0b2a2f451a612bed4294611a49846010cf56c6,shootout,mandelbrot_naive_ascii,208.157000,1
Ř,4a0b2a2f451a612bed4294611a49846010cf56c6,shootout,mandelbrot_naive_ascii,203.905000,1
Ř,4a0b2a2f451a612bed4294611a49846010cf56c6,shootout,mandelbrot_naive_ascii,206.342000,1
Ř,4a0b2a2f451a612bed4294611a49846010cf56c6,shootout,mandelbrot_naive_ascii,200.729000,1
Ř,4a0b2a2f451a612bed4294611a49846010cf56c6,shootout,mandelbrot_naive_ascii,200.730000,1
Ř,4a0b2a2f451a612bed4294611a49846010cf56c6,shootout,mandelbrot_naive_ascii,202.314000,1
Ř,4a0b2a2f451a612bed4294611a49846010cf56c6,shootout,mandelbrot_naive_ascii,201.211000,1
Ř,4a0b2a2f451a612bed4294611a49846010cf56c6,shootout,nbody,2402.086000,0
Ř,4a0b2a2f451a612bed4294611a49846010cf56c6,shootout,nbody,2213.869000,0
Ř,4a0b2a2f451a612bed4294611a49846010cf56c6,shootout,nbody,2305.273000,0
Ř,4a0b2a2f451a612bed4294611a49846010cf56c6,shootout,nbody,766.473000,0
Ř,4a0b2a2f451a612bed4294611a49846010cf56c6,shootout,nbody,765.753000,0
Ř,4a0b2a2f451a612bed4294611a49846010cf56c6,shootout,nbody,754.333000,1
Ř,4a0b2a2f451a612bed4294611a49846010cf56c6,shootout,nbody,752.719000,1
Ř,4a0b2a2f451a612bed4294611a49846010cf56c6,shootout,nbody,753.108000,1
Ř,4a0b2a2f451a612bed4294611a49846010cf56c6,shootout,nbody,763.320000,1
Ř,4a0b2a2f451a612bed4294611a49846010cf56c6,shootout,nbody,754.109000,1
Ř,4a0b2a2f451a612bed4294611a49846010cf56c6,shootout,nbody,751.597000,1
Ř,4a0b2a2f451a612bed4294611a49846010cf56c6,shootout,nbody,750.849000,1
Ř,4a0b2a2f451a612bed4294611a49846010cf56c6,shootout,nbody,763.896000,1
Ř,4a0b2a2f451a612bed4294611a49846010cf56c6,shootout,nbody,753.945000,1
Ř,4a0b2a2f451a612bed4294611a49846010cf56c6,shootout,nbody,751.030000,1
Ř,4a0b2a2f451a612bed4294611a49846010cf56c6,shootout,fastaredux,659.603000,0
Ř,4a0b2a2f451a612bed4294611a49846010cf56c6,shootout,fastaredux,1658.678000,0
Ř,4a0b2a2f451a612bed4294611a49846010cf56c6,shootout,fastaredux,3802.058000,0
Ř,4a0b2a2f451a612bed4294611a49846010cf56c6,shootout,fastaredux,1720.293000,0
Ř,4a0b2a2f451a612bed4294611a49846010cf56c6,shootout,fastaredux,389.754000,0
Ř,4a0b2a2f451a612bed4294611a49846010cf56c6,shootout,fastaredux,389.359000,1
Ř,4a0b2a2f451a612bed4294611a49846010cf56c6,shootout,fastaredux,1646.319000,1
Ř,4a0b2a2f451a612bed4294611a49846010cf56c6,shootout,fastaredux,395.405000,1
Ř,4a0b2a2f451a612bed4294611a49846010cf56c6,shootout,fastaredux,393.515000,1
Ř,4a0b2a2f451a612bed4294611a49846010cf56c6,shootout,fastaredux,391.635000,1
Ř,4a0b2a2f451a612bed4294611a49846010cf56c6,shootout,fastaredux,393.150000,1
Ř,4a0b2a2f451a612bed4294611a49846010cf56c6,shootout,fastaredux,387.284000,1
Ř,4a0b2a2f451a612bed4294611a49846010cf56c6,shootout,fastaredux,391.291000,1
Ř,4a0b2a2f451a612bed4294611a49846010cf56c6,shootout,fastaredux,392.212000,1
Ř,4a0b2a2f451a612bed4294611a49846010cf56c6,shootout,fastaredux,394.704000,1
Ř,4a0b2a2f451a612bed4294611a49846010cf56c6,shootout,knucleotide_brute_3,4456.140000,0
Ř,4a0b2a2f451a612bed4294611a49846010cf56c6,shootout,knucleotide_brute_3,4517.336000,0
Ř,4a0b2a2f451a612bed4294611a49846010cf56c6,shootout,knucleotide_brute_3,12451.562000,0
Ř,4a0b2a2f451a612bed4294611a49846010cf56c6,shootout,knucleotide_brute_3,2837.901000,0
Ř,4a0b2a2f451a612bed4294611a49846010cf56c6,shootout,knucleotide_brute_3,2847.568000,0
Ř,4a0b2a2f451a612bed4294611a49846010cf56c6,shootout,knucleotide_brute_3,2834.683000,1
Ř,4a0b2a2f451a612bed4294611a49846010cf56c6,shootout,knucleotide_brute_3,2840.433000,1
Ř,4a0b2a2f451a612bed4294611a49846010cf56c6,shootout,knucleotide_brute_3,2826.043000,1
Ř,4a0b2a2f451a612bed4294611a49846010cf56c6,shootout,knucleotide_brute_3,2845.317000,1
Ř,4a0b2a2f451a612bed4294611a49846010cf56c6,shootout,knucleotide_brute_3,2824.719000,1
Ř,4a0b2a2f451a612bed4294611a49846010cf56c6,shootout,knucleotide_brute_3,2835.740000,1
Ř,4a0b2a2f451a612bed4294611a49846010cf56c6,shootout,knucleotide_brute_3,2832.927000,1
Ř,4a0b2a2f451a612bed4294611a49846010cf56c6,shootout,knucleotide_brute_3,2830.766000,1
Ř,4a0b2a2f451a612bed4294611a49846010cf56c6,shootout,knucleotide_brute_3,2831.307000,1
Ř,4a0b2a2f451a612bed4294611a49846010cf56c6,shootout,knucleotide_brute_3,2828.262000,1
Ř,4a0b2a2f451a612bed4294611a49846010cf56c6,shootout,fasta_naive_2,1060.692000,0
Ř,4a0b2a2f451a612bed4294611a49846010cf56c6,shootout,fasta_naive_2,1289.517000,0
Ř,4a0b2a2f451a612bed4294611a49846010cf56c6,shootout,fasta_naive_2,2450.616000,0
Ř,4a0b2a2f451a612bed4294611a49846010cf56c6,shootout,fasta_naive_2,1304.878000,0
Ř,4a0b2a2f451a612bed4294611a49846010cf56c6,shootout,fasta_naive_2,1279.562000,0
Ř,4a0b2a2f451a612bed4294611a49846010cf56c6,shootout,fasta_naive_2,1272.397000,1
Ř,4a0b2a2f451a612bed4294611a49846010cf56c6,shootout,fasta_naive_2,1256.099000,1
Ř,4a0b2a2f451a612bed4294611a49846010cf56c6,shootout,fasta_naive_2,1279.215000,1
Ř,4a0b2a2f451a612bed4294611a49846010cf56c6,shootout,fasta_naive_2,1288.338000,1
Ř,4a0b2a2f451a612bed4294611a49846010cf56c6,shootout,fasta_naive_2,1289.475000,1
Ř,4a0b2a2f451a612bed4294611a49846010cf56c6,shootout,fasta_naive_2,1273.068000,1
Ř,4a0b2a2f451a612bed4294611a49846010cf56c6,shootout,fasta_naive_2,1291.456000,1
Ř,4a0b2a2f451a612bed4294611a49846010cf56c6,shootout,fasta_naive_2,1261.319000,1
Ř,4a0b2a2f451a612bed4294611a49846010cf56c6,shootout,fasta_naive_2,650.958000,1
Ř,4a0b2a2f451a612bed4294611a49846010cf56c6,shootout,fasta_naive_2,668.062000,1
Ř,4a0b2a2f451a612bed4294611a49846010cf56c6,shootout,fannkuchredux,2250.407000,0
Ř,4a0b2a2f451a612bed4294611a49846010cf56c6,shootout,fannkuchredux,2188.374000,0
Ř,4a0b2a2f451a612bed4294611a49846010cf56c6,shootout,fannkuchredux,3672.166000,0
Ř,4a0b2a2f451a612bed4294611a49846010cf56c6,shootout,fannkuchredux,797.985000,0
Ř,4a0b2a2f451a612bed4294611a49846010cf56c6,shootout,fannkuchredux,795.050000,0
Ř,4a0b2a2f451a612bed4294611a49846010cf56c6,shootout,fannkuchredux,805.959000,1
Ř,4a0b2a2f451a612bed4294611a49846010cf56c6,shootout,fannkuchredux,795.808000,1
Ř,4a0b2a2f451a612bed4294611a49846010cf56c6,shootout,fannkuchredux,795.187000,1
Ř,4a0b2a2f451a612bed4294611a49846010cf56c6,shootout,fannkuchredux,805.582000,1
Ř,4a0b2a2f451a612bed4294611a49846010cf56c6,shootout,fannkuchredux,798.063000,1
Ř,4a0b2a2f451a612bed4294611a49846010cf56c6,shootout,fannkuchredux,806.532000,1
Ř,4a0b2a2f451a612bed4294611a49846010cf56c6,shootout,fannkuchredux,794.788000,1
Ř,4a0b2a2f451a612bed4294611a49846010cf56c6,shootout,fannkuchredux,794.534000,1
Ř,4a0b2a2f451a612bed4294611a49846010cf56c6,shootout,fannkuchredux,806.567000,1
Ř,4a0b2a2f451a612bed4294611a49846010cf56c6,shootout,fannkuchredux,797.194000,1
Ř,4a0b2a2f451a612bed4294611a49846010cf56c6,shootout,spectralnorm,2526.802000,0
Ř,4a0b2a2f451a612bed4294611a49846010cf56c6,shootout,spectralnorm,2737.526000,0
Ř,4a0b2a2f451a612bed4294611a49846010cf56c6,shootout,spectralnorm,2467.666000,0
Ř,4a0b2a2f451a612bed4294611a49846010cf56c6,shootout,spectralnorm,71.583000,0
Ř,4a0b2a2f451a612bed4294611a49846010cf56c6,shootout,spectralnorm,57.845000,0
Ř,4a0b2a2f451a612bed4294611a49846010cf56c6,shootout,spectralnorm,59.183000,1
Ř,4a0b2a2f451a612bed4294611a49846010cf56c6,shootout,spectralnorm,59.116000,1
Ř,4a0b2a2f451a612bed4294611a49846010cf56c6,shootout,spectralnorm,59.087000,1
Ř,4a0b2a2f451a612bed4294611a49846010cf56c6,shootout,spectralnorm,57.950000,1
Ř,4a0b2a2f451a612bed4294611a49846010cf56c6,shootout,spectralnorm,59.012000,1
Ř,4a0b2a2f451a612bed4294611a49846010cf56c6,shootout,spectralnorm,59.169000,1
Ř,4a0b2a2f451a612bed4294611a49846010cf56c6,shootout,spectralnorm,57.767000,1
Ř,4a0b2a2f451a612bed4294611a49846010cf56c6,shootout,spectralnorm,59.088000,1
Ř,4a0b2a2f451a612bed4294611a49846010cf56c6,shootout,spectralnorm,59.145000,1
Ř,4a0b2a2f451a612bed4294611a49846010cf56c6,shootout,spectralnorm,59.232000,1
Ř,4a0b2a2f451a612bed4294611a49846010cf56c6,shootout,pidigits,56657.528000,0
Ř,4a0b2a2f451a612bed4294611a49846010cf56c6,shootout,pidigits,781.897000,0
Ř,4a0b2a2f451a612bed4294611a49846010cf56c6,shootout,pidigits,34491.190000,0
Ř,4a0b2a2f451a612bed4294611a49846010cf56c6,shootout,pidigits,104.562000,0
Ř,4a0b2a2f451a612bed4294611a49846010cf56c6,shootout,pidigits,115.679000,0
Ř,4a0b2a2f451a612bed4294611a49846010cf56c6,shootout,pidigits,104.999000,1
Ř,4a0b2a2f451a612bed4294611a49846010cf56c6,shootout,pidigits,104.511000,1
Ř,4a0b2a2f451a612bed4294611a49846010cf56c6,shootout,pidigits,104.043000,1
Ř,4a0b2a2f451a612bed4294611a49846010cf56c6,shootout,pidigits,105.363000,1
Ř,4a0b2a2f451a612bed4294611a49846010cf56c6,shootout,pidigits,106.768000,1
Ř,4a0b2a2f451a612bed4294611a49846010cf56c6,shootout,pidigits,104.623000,1
Ř,4a0b2a2f451a612bed4294611a49846010cf56c6,shootout,pidigits,104.098000,1
Ř,4a0b2a2f451a612bed4294611a49846010cf56c6,shootout,pidigits,103.955000,1
Ř,4a0b2a2f451a612bed4294611a49846010cf56c6,shootout,pidigits,105.840000,1
Ř,4a0b2a2f451a612bed4294611a49846010cf56c6,shootout,pidigits,104.379000,1
Ř,4a0b2a2f451a612bed4294611a49846010cf56c6,shootout,nbody_naive,21028.234000,0
Ř,4a0b2a2f451a612bed4294611a49846010cf56c6,shootout,nbody_naive,2162.009000,0
Ř,4a0b2a2f451a612bed4294611a49846010cf56c6,shootout,nbody_naive,42947.252000,0
Ř,4a0b2a2f451a612bed4294611a49846010cf56c6,shootout,nbody_naive,150.748000,0
Ř,4a0b2a2f451a612bed4294611a49846010cf56c6,shootout,nbody_naive,155.729000,0
Ř,4a0b2a2f451a612bed4294611a49846010cf56c6,shootout,nbody_naive,152.778000,1
Ř,4a0b2a2f451a612bed4294611a49846010cf56c6,shootout,nbody_naive,152.094000,1
Ř,4a0b2a2f451a612bed4294611a49846010cf56c6,shootout,nbody_naive,148.281000,1
Ř,4a0b2a2f451a612bed4294611a49846010cf56c6,shootout,nbody_naive,148.021000,1
Ř,4a0b2a2f451a612bed4294611a49846010cf56c6,shootout,nbody_naive,154.617000,1
Ř,4a0b2a2f451a612bed4294611a49846010cf56c6,shootout,nbody_naive,152.585000,1
Ř,4a0b2a2f451a612bed4294611a49846010cf56c6,shootout,nbody_naive,151.189000,1
Ř,4a0b2a2f451a612bed4294611a49846010cf56c6,shootout,nbody_naive,148.307000,1
Ř,4a0b2a2f451a612bed4294611a49846010cf56c6,shootout,nbody_naive,161.150000,1
Ř,4a0b2a2f451a612bed4294611a49846010cf56c6,shootout,nbody_naive,152.289000,1
Ř,4a0b2a2f451a612bed4294611a49846010cf56c6,shootout,binarytrees,1013.681000,0
Ř,4a0b2a2f451a612bed4294611a49846010cf56c6,shootout,binarytrees,195.638000,0
Ř,4a0b2a2f451a612bed4294611a49846010cf56c6,shootout,binarytrees,1381.090000,0
Ř,4a0b2a2f451a612bed4294611a49846010cf56c6,shootout,binarytrees,72.281000,0
Ř,4a0b2a2f451a612bed4294611a49846010cf56c6,shootout,binarytrees,72.549000,0
Ř,4a0b2a2f451a612bed4294611a49846010cf56c6,shootout,binarytrees,83.374000,1
Ř,4a0b2a2f451a612bed4294611a49846010cf56c6,shootout,binarytrees,72.976000,1
Ř,4a0b2a2f451a612bed4294611a49846010cf56c6,shootout,binarytrees,73.791000,1
Ř,4a0b2a2f451a612bed4294611a49846010cf56c6,shootout,binarytrees,73.233000,1
Ř,4a0b2a2f451a612bed4294611a49846010cf56c6,shootout,binarytrees,73.082000,1
Ř,4a0b2a2f451a612bed4294611a49846010cf56c6,shootout,binarytrees,75.734000,1
Ř,4a0b2a2f451a612bed4294611a49846010cf56c6,shootout,binarytrees,73.056000,1
Ř,4a0b2a2f451a612bed4294611a49846010cf56c6,shootout,binarytrees,73.111000,1
Ř,4a0b2a2f451a612bed4294611a49846010cf56c6,shootout,binarytrees,72.998000,1
Ř,4a0b2a2f451a612bed4294611a49846010cf56c6,shootout,binarytrees,73.017000,1
Ř,4a0b2a2f451a612bed4294611a49846010cf56c6,shootout,knucleotide_brute_2,3566.324000,0
Ř,4a0b2a2f451a612bed4294611a49846010cf56c6,shootout,knucleotide_brute_2,4812.907000,0
Ř,4a0b2a2f451a612bed4294611a49846010cf56c6,shootout,knucleotide_brute_2,13470.085000,0
Ř,4a0b2a2f451a612bed4294611a49846010cf56c6,shootout,knucleotide_brute_2,2542.930000,0
Ř,4a0b2a2f451a612bed4294611a49846010cf56c6,shootout,knucleotide_brute_2,2730.925000,0
Ř,4a0b2a2f451a612bed4294611a49846010cf56c6,shootout,knucleotide_brute_2,3356.950000,1
Ř,4a0b2a2f451a612bed4294611a49846010cf56c6,shootout,knucleotide_brute_2,3640.378000,1
Ř,4a0b2a2f451a612bed4294611a49846010cf56c6,shootout,knucleotide_brute_2,3390.998000,1
Ř,4a0b2a2f451a612bed4294611a49846010cf56c6,shootout,knucleotide_brute_2,4321.340000,1
Ř,4a0b2a2f451a612bed4294611a49846010cf56c6,shootout,knucleotide_brute_2,3947.639000,1
Ř,4a0b2a2f451a612bed4294611a49846010cf56c6,shootout,knucleotide_brute_2,2129.580000,1
Ř,4a0b2a2f451a612bed4294611a49846010cf56c6,shootout,knucleotide_brute_2,2166.061000,1
Ř,4a0b2a2f451a612bed4294611a49846010cf56c6,shootout,knucleotide_brute_2,2252.899000,1
Ř,4a0b2a2f451a612bed4294611a49846010cf56c6,shootout,knucleotide_brute_2,2981.345000,1
Ř,4a0b2a2f451a612bed4294611a49846010cf56c6,shootout,knucleotide_brute_2,3112.221000,1
Ř,4a0b2a2f451a612bed4294611a49846010cf56c6,shootout,binarytrees_2,1161.015000,0
Ř,4a0b2a2f451a612bed4294611a49846010cf56c6,shootout,binarytrees_2,133.848000,0
Ř,4a0b2a2f451a612bed4294611a49846010cf56c6,shootout,binarytrees_2,1542.206000,0
Ř,4a0b2a2f451a612bed4294611a49846010cf56c6,shootout,binarytrees_2,232.038000,0
Ř,4a0b2a2f451a612bed4294611a49846010cf56c6,shootout,binarytrees_2,748.111000,0
Ř,4a0b2a2f451a612bed4294611a49846010cf56c6,shootout,binarytrees_2,156.708000,1
Ř,4a0b2a2f451a612bed4294611a49846010cf56c6,shootout,binarytrees_2,92.130000,1
Ř,4a0b2a2f451a612bed4294611a49846010cf56c6,shootout,binarytrees_2,92.718000,1
Ř,4a0b2a2f451a612bed4294611a49846010cf56c6,shootout,binarytrees_2,94.921000,1
Ř,4a0b2a2f451a612bed4294611a49846010cf56c6,shootout,binarytrees_2,92.604000,1
Ř,4a0b2a2f451a612bed4294611a49846010cf56c6,shootout,binarytrees_2,92.602000,1
Ř,4a0b2a2f451a612bed4294611a49846010cf56c6,shootout,binarytrees_2,92.536000,1
Ř,4a0b2a2f451a612bed4294611a49846010cf56c6,shootout,binarytrees_2,93.271000,1
Ř,4a0b2a2f451a612bed4294611a49846010cf56c6,shootout,binarytrees_2,93.419000,1
Ř,4a0b2a2f451a612bed4294611a49846010cf56c6,shootout,binarytrees_2,93.107000,1
Ř,4a0b2a2f451a612bed4294611a49846010cf56c6,shootout,nbody_naive_2,3194.246000,0
Ř,4a0b2a2f451a612bed4294611a49846010cf56c6,shootout,nbody_naive_2,1845.363000,0
Ř,4a0b2a2f451a612bed4294611a49846010cf56c6,shootout,nbody_naive_2,4814.200000,0
Ř,4a0b2a2f451a612bed4294611a49846010cf56c6,shootout,nbody_naive_2,1038.116000,0
Ř,4a0b2a2f451a612bed4294611a49846010cf56c6,shootout,nbody_naive_2,1034.316000,0
Ř,4a0b2a2f451a612bed4294611a49846010cf56c6,shootout,nbody_naive_2,1023.921000,1
Ř,4a0b2a2f451a612bed4294611a49846010cf56c6,shootout,nbody_naive_2,2846.179000,1
Ř,4a0b2a2f451a612bed4294611a49846010cf56c6,shootout,nbody_naive_2,6524.070000,1
Ř,4a0b2a2f451a612bed4294611a49846010cf56c6,shootout,nbody_naive_2,4742.286000,1
Ř,4a0b2a2f451a612bed4294611a49846010cf56c6,shootout,nbody_naive_2,1060.167000,1
Ř,4a0b2a2f451a612bed4294611a49846010cf56c6,shootout,nbody_naive_2,8319.020000,1
Ř,4a0b2a2f451a612bed4294611a49846010cf56c6,shootout,nbody_naive_2,4723.190000,1
Ř,4a0b2a2f451a612bed4294611a49846010cf56c6,shootout,nbody_naive_2,1031.062000,1
Ř,4a0b2a2f451a612bed4294611a49846010cf56c6,shootout,nbody_naive_2,4739.563000,1
Ř,4a0b2a2f451a612bed4294611a49846010cf56c6,shootout,nbody_naive_2,1040.185000,1
Ř,4a0b2a2f451a612bed4294611a49846010cf56c6,shootout,reversecomplement_naive,526.892000,0
Ř,4a0b2a2f451a612bed4294611a49846010cf56c6,shootout,reversecomplement_naive,580.136000,0
Ř,4a0b2a2f451a612bed4294611a49846010cf56c6,shootout,reversecomplement_naive,1200.163000,0
Ř,4a0b2a2f451a612bed4294611a49846010cf56c6,shootout,reversecomplement_naive,340.820000,0
Ř,4a0b2a2f451a612bed4294611a49846010cf56c6,shootout,reversecomplement_naive,372.091000,0
Ř,4a0b2a2f451a612bed4294611a49846010cf56c6,shootout,reversecomplement_naive,370.920000,1
Ř,4a0b2a2f451a612bed4294611a49846010cf56c6,shootout,reversecomplement_naive,365.694000,1
Ř,4a0b2a2f451a612bed4294611a49846010cf56c6,shootout,reversecomplement_naive,350.593000,1
Ř,4a0b2a2f451a612bed4294611a49846010cf56c6,shootout,reversecomplement_naive,336.811000,1
Ř,4a0b2a2f451a612bed4294611a49846010cf56c6,shootout,reversecomplement_naive,339.683000,1
Ř,4a0b2a2f451a612bed4294611a49846010cf56c6,shootout,reversecomplement_naive,337.100000,1
Ř,4a0b2a2f451a612bed4294611a49846010cf56c6,shootout,reversecomplement_naive,335.815000,1
Ř,4a0b2a2f451a612bed4294611a49846010cf56c6,shootout,reversecomplement_naive,339.917000,1
Ř,4a0b2a2f451a612bed4294611a49846010cf56c6,shootout,reversecomplement_naive,336.811000,1
Ř,4a0b2a2f451a612bed4294611a49846010cf56c6,shootout,reversecomplement_naive,349.331000,1
Ř,4a0b2a2f451a612bed4294611a49846010cf56c6,shootout,spectralnorm_alt_2,1728.605000,0
Ř,4a0b2a2f451a612bed4294611a49846010cf56c6,shootout,spectralnorm_alt_2,1420.650000,0
Ř,4a0b2a2f451a612bed4294611a49846010cf56c6,shootout,spectralnorm_alt_2,2629.392000,0
Ř,4a0b2a2f451a612bed4294611a49846010cf56c6,shootout,spectralnorm_alt_2,1180.038000,0
Ř,4a0b2a2f451a612bed4294611a49846010cf56c6,shootout,spectralnorm_alt_2,1221.679000,0
Ř,4a0b2a2f451a612bed4294611a49846010cf56c6,shootout,spectralnorm_alt_2,1254.148000,1
Ř,4a0b2a2f451a612bed4294611a49846010cf56c6,shootout,spectralnorm_alt_2,1231.180000,1
Ř,4a0b2a2f451a612bed4294611a49846010cf56c6,shootout,spectralnorm_alt_2,1195.352000,1
Ř,4a0b2a2f451a612bed4294611a49846010cf56c6,shootout,spectralnorm_alt_2,1259.005000,1
Ř,4a0b2a2f451a612bed4294611a49846010cf56c6,shootout,spectralnorm_alt_2,1229.057000,1
Ř,4a0b2a2f451a612bed4294611a49846010cf56c6,shootout,spectralnorm_alt_2,1202.546000,1
Ř,4a0b2a2f451a612bed4294611a49846010cf56c6,shootout,spectralnorm_alt_2,1209.942000,1
Ř,4a0b2a2f451a612bed4294611a49846010cf56c6,shootout,spectralnorm_alt_2,1245.084000,1
Ř,4a0b2a2f451a612bed4294611a49846010cf56c6,shootout,spectralnorm_alt_2,1211.122000,1
Ř,4a0b2a2f451a612bed4294611a49846010cf56c6,shootout,spectralnorm_alt_2,1220.320000,1
Ř,4a0b2a2f451a612bed4294611a49846010cf56c6,shootout,reversecomplement_2,519.499000,0
Ř,4a0b2a2f451a612bed4294611a49846010cf56c6,shootout,reversecomplement_2,549.010000,0
Ř,4a0b2a2f451a612bed4294611a49846010cf56c6,shootout,reversecomplement_2,1549.982000,0
Ř,4a0b2a2f451a612bed4294611a49846010cf56c6,shootout,reversecomplement_2,440.389000,0
Ř,4a0b2a2f451a612bed4294611a49846010cf56c6,shootout,reversecomplement_2,421.638000,0
Ř,4a0b2a2f451a612bed4294611a49846010cf56c6,shootout,reversecomplement_2,423.173000,1
Ř,4a0b2a2f451a612bed4294611a49846010cf56c6,shootout,reversecomplement_2,423.723000,1
Ř,4a0b2a2f451a612bed4294611a49846010cf56c6,shootout,reversecomplement_2,429.701000,1
Ř,4a0b2a2f451a612bed4294611a49846010cf56c6,shootout,reversecomplement_2,427.503000,1
Ř,4a0b2a2f451a612bed4294611a49846010cf56c6,shootout,reversecomplement_2,425.727000,1
Ř,4a0b2a2f451a612bed4294611a49846010cf56c6,shootout,reversecomplement_2,430.627000,1
Ř,4a0b2a2f451a612bed4294611a49846010cf56c6,shootout,reversecomplement_2,425.353000,1
Ř,4a0b2a2f451a612bed4294611a49846010cf56c6,shootout,reversecomplement_2,426.104000,1
Ř,4a0b2a2f451a612bed4294611a49846010cf56c6,shootout,reversecomplement_2,430.680000,1
Ř,4a0b2a2f451a612bed4294611a49846010cf56c6,shootout,reversecomplement_2,425.366000,1
Ř,4a0b2a2f451a612bed4294611a49846010cf56c6,shootout,fasta,1516.062000,0
Ř,4a0b2a2f451a612bed4294611a49846010cf56c6,shootout,fasta,1268.240000,0
Ř,4a0b2a2f451a612bed4294611a49846010cf56c6,shootout,fasta,2022.739000,0
Ř,4a0b2a2f451a612bed4294611a49846010cf56c6,shootout,fasta,928.138000,0
Ř,4a0b2a2f451a612bed4294611a49846010cf56c6,shootout,fasta,925.782000,0
Ř,4a0b2a2f451a612bed4294611a49846010cf56c6,shootout,fasta,918.425000,1
Ř,4a0b2a2f451a612bed4294611a49846010cf56c6,shootout,fasta,927.527000,1
Ř,4a0b2a2f451a612bed4294611a49846010cf56c6,shootout,fasta,928.540000,1
Ř,4a0b2a2f451a612bed4294611a49846010cf56c6,shootout,fasta,927.198000,1
Ř,4a0b2a2f451a612bed4294611a49846010cf56c6,shootout,fasta,917.245000,1
Ř,4a0b2a2f451a612bed4294611a49846010cf56c6,shootout,fasta,927.656000,1
Ř,4a0b2a2f451a612bed4294611a49846010cf56c6,shootout,fasta,937.974000,1
Ř,4a0b2a2f451a612bed4294611a49846010cf56c6,shootout,fasta,927.199000,1
Ř,4a0b2a2f451a612bed4294611a49846010cf56c6,shootout,fasta,923.846000,1
Ř,4a0b2a2f451a612bed4294611a49846010cf56c6,shootout,fasta,924.269000,1
Ř,4a0b2a2f451a612bed4294611a49846010cf56c6,shootout,fannkuchredux_naive,2662.201000,0
Ř,4a0b2a2f451a612bed4294611a49846010cf56c6,shootout,fannkuchredux_naive,2642.528000,0
Ř,4a0b2a2f451a612bed4294611a49846010cf56c6,shootout,fannkuchredux_naive,2926.598000,0
Ř,4a0b2a2f451a612bed4294611a49846010cf56c6,shootout,fannkuchredux_naive,210.816000,0
Ř,4a0b2a2f451a612bed4294611a49846010cf56c6,shootout,fannkuchredux_naive,204.564000,0
Ř,4a0b2a2f451a612bed4294611a49846010cf56c6,shootout,fannkuchredux_naive,205.190000,1
Ř,4a0b2a2f451a612bed4294611a49846010cf56c6,shootout,fannkuchredux_naive,210.359000,1
Ř,4a0b2a2f451a612bed4294611a49846010cf56c6,shootout,fannkuchredux_naive,204.965000,1
Ř,4a0b2a2f451a612bed4294611a49846010cf56c6,shootout,fannkuchredux_naive,218.560000,1
Ř,4a0b2a2f451a612bed4294611a49846010cf56c6,shootout,fannkuchredux_naive,206.293000,1
Ř,4a0b2a2f451a612bed4294611a49846010cf56c6,shootout,fannkuchredux_naive,205.388000,1
Ř,4a0b2a2f451a612bed4294611a49846010cf56c6,shootout,fannkuchredux_naive,209.271000,1
Ř,4a0b2a2f451a612bed4294611a49846010cf56c6,shootout,fannkuchredux_naive,205.572000,1
Ř,4a0b2a2f451a612bed4294611a49846010cf56c6,shootout,fannkuchredux_naive,204.305000,1
Ř,4a0b2a2f451a612bed4294611a49846010cf56c6,shootout,fannkuchredux_naive,209.881000,1
Ř,4a0b2a2f451a612bed4294611a49846010cf56c6,shootout,mandelbrot_ascii,395.472000,0
Ř,4a0b2a2f451a612bed4294611a49846010cf56c6,shootout,mandelbrot_ascii,82.411000,0
Ř,4a0b2a2f451a612bed4294611a49846010cf56c6,shootout,mandelbrot_ascii,967.505000,0
Ř,4a0b2a2f451a612bed4294611a49846010cf56c6,shootout,mandelbrot_ascii,65.499000,0
Ř,4a0b2a2f451a612bed4294611a49846010cf56c6,shootout,mandelbrot_ascii,62.824000,0
Ř,4a0b2a2f451a612bed4294611a49846010cf56c6,shootout,mandelbrot_ascii,63.396000,1
Ř,4a0b2a2f451a612bed4294611a49846010cf56c6,shootout,mandelbrot_ascii,63.382000,1
Ř,4a0b2a2f451a612bed4294611a49846010cf56c6,shootout,mandelbrot_ascii,64.493000,1
Ř,4a0b2a2f451a612bed4294611a49846010cf56c6,shootout,mandelbrot_ascii,62.922000,1
Ř,4a0b2a2f451a612bed4294611a49846010cf56c6,shootout,mandelbrot_ascii,63.322000,1
Ř,4a0b2a2f451a612bed4294611a49846010cf56c6,shootout,mandelbrot_ascii,63.142000,1
Ř,4a0b2a2f451a612bed4294611a49846010cf56c6,shootout,mandelbrot_ascii,65.092000,1
Ř,4a0b2a2f451a612bed4294611a49846010cf56c6,shootout,mandelbrot_ascii,63.459000,1
Ř,4a0b2a2f451a612bed4294611a49846010cf56c6,shootout,mandelbrot_ascii,63.128000,1
Ř,4a0b2a2f451a612bed4294611a49846010cf56c6,shootout,mandelbrot_ascii,64.894000,1
Ř,4a0b2a2f451a612bed4294611a49846010cf56c6,shootout,regexdna,1570.847000,0
Ř,4a0b2a2f451a612bed4294611a49846010cf56c6,shootout,regexdna,1548.728000,0
Ř,4a0b2a2f451a612bed4294611a49846010cf56c6,shootout,regexdna,3749.902000,0
Ř,4a0b2a2f451a612bed4294611a49846010cf56c6,shootout,regexdna,1493.540000,0
Ř,4a0b2a2f451a612bed4294611a49846010cf56c6,shootout,regexdna,1494.855000,0
Ř,4a0b2a2f451a612bed4294611a49846010cf56c6,shootout,regexdna,1504.582000,1
Ř,4a0b2a2f451a612bed4294611a49846010cf56c6,shootout,regexdna,1491.397000,1
Ř,4a0b2a2f451a612bed4294611a49846010cf56c6,shootout,regexdna,1500.054000,1
Ř,4a0b2a2f451a612bed4294611a49846010cf56c6,shootout,regexdna,1494.013000,1
Ř,4a0b2a2f451a612bed4294611a49846010cf56c6,shootout,regexdna,1505.461000,1
Ř,4a0b2a2f451a612bed4294611a49846010cf56c6,shootout,regexdna,1490.921000,1
Ř,4a0b2a2f451a612bed4294611a49846010cf56c6,shootout,regexdna,1490.880000,1
Ř,4a0b2a2f451a612bed4294611a49846010cf56c6,shootout,regexdna,1499.392000,1
Ř,4a0b2a2f451a612bed4294611a49846010cf56c6,shootout,regexdna,1505.009000,1
Ř,4a0b2a2f451a612bed4294611a49846010cf56c6,shootout,regexdna,1491.143000,1
Ř,4a0b2a2f451a612bed4294611a49846010cf56c6,shootout,fasta_naive,848.915000,0
Ř,4a0b2a2f451a612bed4294611a49846010cf56c6,shootout,fasta_naive,874.382000,0
Ř,4a0b2a2f451a612bed4294611a49846010cf56c6,shootout,fasta_naive,2015.388000,0
Ř,4a0b2a2f451a612bed4294611a49846010cf56c6,shootout,fasta_naive,450.649000,0
Ř,4a0b2a2f451a612bed4294611a49846010cf56c6,shootout,fasta_naive,462.758000,0
Ř,4a0b2a2f451a612bed4294611a49846010cf56c6,shootout,fasta_naive,422.905000,1
Ř,4a0b2a2f451a612bed4294611a49846010cf56c6,shootout,fasta_naive,434.797000,1
Ř,4a0b2a2f451a612bed4294611a49846010cf56c6,shootout,fasta_naive,479.643000,1
Ř,4a0b2a2f451a612bed4294611a49846010cf56c6,shootout,fasta_naive,487.303000,1
Ř,4a0b2a2f451a612bed4294611a49846010cf56c6,shootout,fasta_naive,491.482000,1
Ř,4a0b2a2f451a612bed4294611a49846010cf56c6,shootout,fasta_naive,485.259000,1
Ř,4a0b2a2f451a612bed4294611a49846010cf56c6,shootout,fasta_naive,466.125000,1
Ř,4a0b2a2f451a612bed4294611a49846010cf56c6,shootout,fasta_naive,470.860000,1
Ř,4a0b2a2f451a612bed4294611a49846010cf56c6,shootout,fasta_naive,447.118000,1
Ř,4a0b2a2f451a612bed4294611a49846010cf56c6,shootout,fasta_naive,465.797000,1
Ř,4a0b2a2f451a612bed4294611a49846010cf56c6,shootout,knucleotide,3123.608000,0
Ř,4a0b2a2f451a612bed4294611a49846010cf56c6,shootout,knucleotide,2203.451000,0
Ř,4a0b2a2f451a612bed4294611a49846010cf56c6,shootout,knucleotide,9195.695000,0
Ř,4a0b2a2f451a612bed4294611a49846010cf56c6,shootout,knucleotide,506.928000,0
Ř,4a0b2a2f451a612bed4294611a49846010cf56c6,shootout,knucleotide,527.785000,0
Ř,4a0b2a2f451a612bed4294611a49846010cf56c6,shootout,knucleotide,552.248000,1
Ř,4a0b2a2f451a612bed4294611a49846010cf56c6,shootout,knucleotide,496.222000,1
Ř,4a0b2a2f451a612bed4294611a49846010cf56c6,shootout,knucleotide,440.092000,1
Ř,4a0b2a2f451a612bed4294611a49846010cf56c6,shootout,knucleotide,473.294000,1
Ř,4a0b2a2f451a612bed4294611a49846010cf56c6,shootout,knucleotide,498.207000,1
Ř,4a0b2a2f451a612bed4294611a49846010cf56c6,shootout,knucleotide,520.964000,1
Ř,4a0b2a2f451a612bed4294611a49846010cf56c6,shootout,knucleotide,540.982000,1
Ř,4a0b2a2f451a612bed4294611a49846010cf56c6,shootout,knucleotide,497.880000,1
Ř,4a0b2a2f451a612bed4294611a49846010cf56c6,shootout,knucleotide,442.300000,1
Ř,4a0b2a2f451a612bed4294611a49846010cf56c6,shootout,knucleotide,476.874000,1
Ř,4a0b2a2f451a612bed4294611a49846010cf56c6,shootout,spectralnorm_math,3604.057000,0
Ř,4a0b2a2f451a612bed4294611a49846010cf56c6,shootout,spectralnorm_math,3400.367000,0
Ř,4a0b2a2f451a612bed4294611a49846010cf56c6,shootout,spectralnorm_math,3815.339000,0
Ř,4a0b2a2f451a612bed4294611a49846010cf56c6,shootout,spectralnorm_math,3213.336000,0
Ř,4a0b2a2f451a612bed4294611a49846010cf56c6,shootout,spectralnorm_math,3194.911000,0
Ř,4a0b2a2f451a612bed4294611a49846010cf56c6,shootout,spectralnorm_math,3165.997000,1
Ř,4a0b2a2f451a612bed4294611a49846010cf56c6,shootout,spectralnorm_math,3211.339000,1
Ř,4a0b2a2f451a612bed4294611a49846010cf56c6,shootout,spectralnorm_math,3225.801000,1
Ř,4a0b2a2f451a612bed4294611a49846010cf56c6,shootout,spectralnorm_math,3190.165000,1
Ř,4a0b2a2f451a612bed4294611a49846010cf56c6,shootout,spectralnorm_math,3221.200000,1
Ř,4a0b2a2f451a612bed4294611a49846010cf56c6,shootout,spectralnorm_math,3181.539000,1
Ř,4a0b2a2f451a612bed4294611a49846010cf56c6,shootout,spectralnorm_math,3188.570000,1
Ř,4a0b2a2f451a612bed4294611a49846010cf56c6,shootout,spectralnorm_math,3196.322000,1
Ř,4a0b2a2f451a612bed4294611a49846010cf56c6,shootout,spectralnorm_math,3226.746000,1
Ř,4a0b2a2f451a612bed4294611a49846010cf56c6,shootout,spectralnorm_math,3202.232000,1
Ř,4a0b2a2f451a612bed4294611a49846010cf56c6,shootout,fastaredux_naive,747.877000,0
Ř,4a0b2a2f451a612bed4294611a49846010cf56c6,shootout,fastaredux_naive,1378.483000,0
Ř,4a0b2a2f451a612bed4294611a49846010cf56c6,shootout,fastaredux_naive,2496.025000,0
Ř,4a0b2a2f451a612bed4294611a49846010cf56c6,shootout,fastaredux_naive,453.402000,0
Ř,4a0b2a2f451a612bed4294611a49846010cf56c6,shootout,fastaredux_naive,459.697000,0
Ř,4a0b2a2f451a612bed4294611a49846010cf56c6,shootout,fastaredux_naive,444.825000,1
Ř,4a0b2a2f451a612bed4294611a49846010cf56c6,shootout,fastaredux_naive,433.931000,1
Ř,4a0b2a2f451a612bed4294611a49846010cf56c6,shootout,fastaredux_naive,436.852000,1
Ř,4a0b2a2f451a612bed4294611a49846010cf56c6,shootout,fastaredux_naive,449.744000,1
Ř,4a0b2a2f451a612bed4294611a49846010cf56c6,shootout,fastaredux_naive,450.631000,1
Ř,4a0b2a2f451a612bed4294611a49846010cf56c6,shootout,fastaredux_naive,454.227000,1
Ř,4a0b2a2f451a612bed4294611a49846010cf56c6,shootout,fastaredux_naive,428.087000,1
Ř,4a0b2a2f451a612bed4294611a49846010cf56c6,shootout,fastaredux_naive,436.425000,1
Ř,4a0b2a2f451a612bed4294611a49846010cf56c6,shootout,fastaredux_naive,444.467000,1
Ř,4a0b2a2f451a612bed4294611a49846010cf56c6,shootout,fastaredux_naive,452.613000,1
Ř,4a0b2a2f451a612bed4294611a49846010cf56c6,shootout,mandelbrot_noout_naive,262.863000,0
Ř,4a0b2a2f451a612bed4294611a49846010cf56c6,shootout,mandelbrot_noout_naive,249.430000,0
Ř,4a0b2a2f451a612bed4294611a49846010cf56c6,shootout,mandelbrot_noout_naive,1194.481000,0
Ř,4a0b2a2f451a612bed4294611a49846010cf56c6,shootout,mandelbrot_noout_naive,224.584000,0
Ř,4a0b2a2f451a612bed4294611a49846010cf56c6,shootout,mandelbrot_noout_naive,225.362000,0
Ř,4a0b2a2f451a612bed4294611a49846010cf56c6,shootout,mandelbrot_noout_naive,225.292000,1
Ř,4a0b2a2f451a612bed4294611a49846010cf56c6,shootout,mandelbrot_noout_naive,235.162000,1
Ř,4a0b2a2f451a612bed4294611a49846010cf56c6,shootout,mandelbrot_noout_naive,226.195000,1
Ř,4a0b2a2f451a612bed4294611a49846010cf56c6,shootout,mandelbrot_noout_naive,234.568000,1
Ř,4a0b2a2f451a612bed4294611a49846010cf56c6,shootout,mandelbrot_noout_naive,233.642000,1
Ř,4a0b2a2f451a612bed4294611a49846010cf56c6,shootout,mandelbrot_noout_naive,243.206000,1
Ř,4a0b2a2f451a612bed4294611a49846010cf56c6,shootout,mandelbrot_noout_naive,229.853000,1
Ř,4a0b2a2f451a612bed4294611a49846010cf56c6,shootout,mandelbrot_noout_naive,231.796000,1
Ř,4a0b2a2f451a612bed4294611a49846010cf56c6,shootout,mandelbrot_noout_naive,233.667000,1
Ř,4a0b2a2f451a612bed4294611a49846010cf56c6,shootout,mandelbrot_noout_naive,244.853000,1
Ř,4a0b2a2f451a612bed4294611a49846010cf56c6,shootout,knucleotide_brute,4512.373000,0
Ř,4a0b2a2f451a612bed4294611a49846010cf56c6,shootout,knucleotide_brute,5438.941000,0
Ř,4a0b2a2f451a612bed4294611a49846010cf56c6,shootout,knucleotide_brute,14749.227000,0
Ř,4a0b2a2f451a612bed4294611a49846010cf56c6,shootout,knucleotide_brute,3852.930000,0
Ř,4a0b2a2f451a612bed4294611a49846010cf56c6,shootout,knucleotide_brute,3983.375000,0
Ř,4a0b2a2f451a612bed4294611a49846010cf56c6,shootout,knucleotide_brute,4069.293000,1
Ř,4a0b2a2f451a612bed4294611a49846010cf56c6,shootout,knucleotide_brute,4069.473000,1
Ř,4a0b2a2f451a612bed4294611a49846010cf56c6,shootout,knucleotide_brute,4146.426000,1
Ř,4a0b2a2f451a612bed4294611a49846010cf56c6,shootout,knucleotide_brute,4602.746000,1
Ř,4a0b2a2f451a612bed4294611a49846010cf56c6,shootout,knucleotide_brute,4205.471000,1
Ř,4a0b2a2f451a612bed4294611a49846010cf56c6,shootout,knucleotide_brute,3490.881000,1
Ř,4a0b2a2f451a612bed4294611a49846010cf56c6,shootout,knucleotide_brute,3497.398000,1
Ř,4a0b2a2f451a612bed4294611a49846010cf56c6,shootout,knucleotide_brute,3788.139000,1
Ř,4a0b2a2f451a612bed4294611a49846010cf56c6,shootout,knucleotide_brute,3820.193000,1
Ř,4a0b2a2f451a612bed4294611a49846010cf56c6,shootout,knucleotide_brute,3969.538000,1
Ř,4a0b2a2f451a612bed4294611a49846010cf56c6,shootout,spectralnorm_alt_3,1108.680000,0
Ř,4a0b2a2f451a612bed4294611a49846010cf56c6,shootout,spectralnorm_alt_3,890.653000,0
Ř,4a0b2a2f451a612bed4294611a49846010cf56c6,shootout,spectralnorm_alt_3,1495.065000,0
Ř,4a0b2a2f451a612bed4294611a49846010cf56c6,shootout,spectralnorm_alt_3,98.699000,0
Ř,4a0b2a2f451a612bed4294611a49846010cf56c6,shootout,spectralnorm_alt_3,98.459000,0
Ř,4a0b2a2f451a612bed4294611a49846010cf56c6,shootout,spectralnorm_alt_3,97.691000,1
Ř,4a0b2a2f451a612bed4294611a49846010cf56c6,shootout,spectralnorm_alt_3,98.512000,1
Ř,4a0b2a2f451a612bed4294611a49846010cf56c6,shootout,spectralnorm_alt_3,99.070000,1
Ř,4a0b2a2f451a612bed4294611a49846010cf56c6,shootout,spectralnorm_alt_3,98.973000,1
Ř,4a0b2a2f451a612bed4294611a49846010cf56c6,shootout,spectralnorm_alt_3,99.056000,1
Ř,4a0b2a2f451a612bed4294611a49846010cf56c6,shootout,spectralnorm_alt_3,99.985000,1
Ř,4a0b2a2f451a612bed4294611a49846010cf56c6,shootout,spectralnorm_alt_3,99.533000,1
Ř,4a0b2a2f451a612bed4294611a49846010cf56c6,shootout,spectralnorm_alt_3,99.848000,1
Ř,4a0b2a2f451a612bed4294611a49846010cf56c6,shootout,spectralnorm_alt_3,102.226000,1
Ř,4a0b2a2f451a612bed4294611a49846010cf56c6,shootout,spectralnorm_alt_3,98.076000,1
Ř,4a0b2a2f451a612bed4294611a49846010cf56c6,shootout,mandelbrot_noout,396.133000,0
Ř,4a0b2a2f451a612bed4294611a49846010cf56c6,shootout,mandelbrot_noout,71.156000,0
Ř,4a0b2a2f451a612bed4294611a49846010cf56c6,shootout,mandelbrot_noout,744.352000,0
Ř,4a0b2a2f451a612bed4294611a49846010cf56c6,shootout,mandelbrot_noout,66.997000,0
Ř,4a0b2a2f451a612bed4294611a49846010cf56c6,shootout,mandelbrot_noout,67.999000,0
Ř,4a0b2a2f451a612bed4294611a49846010cf56c6,shootout,mandelbrot_noout,66.797000,1
Ř,4a0b2a2f451a612bed4294611a49846010cf56c6,shootout,mandelbrot_noout,66.743000,1
Ř,4a0b2a2f451a612bed4294611a49846010cf56c6,shootout,mandelbrot_noout,66.762000,1
Ř,4a0b2a2f451a612bed4294611a49846010cf56c6,shootout,mandelbrot_noout,67.855000,1
Ř,4a0b2a2f451a612bed4294611a49846010cf56c6,shootout,mandelbrot_noout,76.760000,1
Ř,4a0b2a2f451a612bed4294611a49846010cf56c6,shootout,mandelbrot_noout,66.669000,1
Ř,4a0b2a2f451a612bed4294611a49846010cf56c6,shootout,mandelbrot_noout,66.568000,1
Ř,4a0b2a2f451a612bed4294611a49846010cf56c6,shootout,mandelbrot_noout,66.506000,1
Ř,4a0b2a2f451a612bed4294611a49846010cf56c6,shootout,mandelbrot_noout,67.648000,1
Ř,4a0b2a2f451a612bed4294611a49846010cf56c6,shootout,mandelbrot_noout,66.635000,1
Ř,4a0b2a2f451a612bed4294611a49846010cf56c6,shootout,fasta_3,1235.644000,0
Ř,4a0b2a2f451a612bed4294611a49846010cf56c6,shootout,fasta_3,3544.890000,0
Ř,4a0b2a2f451a612bed4294611a49846010cf56c6,shootout,fasta_3,4272.887000,0
Ř,4a0b2a2f451a612bed4294611a49846010cf56c6,shootout,fasta_3,912.218000,0
Ř,4a0b2a2f451a612bed4294611a49846010cf56c6,shootout,fasta_3,897.818000,0
Ř,4a0b2a2f451a612bed4294611a49846010cf56c6,shootout,fasta_3,903.339000,1
Ř,4a0b2a2f451a612bed4294611a49846010cf56c6,shootout,fasta_3,908.079000,1
Ř,4a0b2a2f451a612bed4294611a49846010cf56c6,shootout,fasta_3,908.619000,1
Ř,4a0b2a2f451a612bed4294611a49846010cf56c6,shootout,fasta_3,892.030000,1
Ř,4a0b2a2f451a612bed4294611a49846010cf56c6,shootout,fasta_3,899.926000,1
Ř,4a0b2a2f451a612bed4294611a49846010cf56c6,shootout,fasta_3,904.352000,1
Ř,4a0b2a2f451a612bed4294611a49846010cf56c6,shootout,fasta_3,903.750000,1
Ř,4a0b2a2f451a612bed4294611a49846010cf56c6,shootout,fasta_3,903.801000,1
Ř,4a0b2a2f451a612bed4294611a49846010cf56c6,shootout,fasta_3,905.050000,1
Ř,4a0b2a2f451a612bed4294611a49846010cf56c6,shootout,fasta_3,907.583000,1
Ř,4a0b2a2f451a612bed4294611a49846010cf56c6,shootout,binarytrees_naive,1021.855000,0
Ř,4a0b2a2f451a612bed4294611a49846010cf56c6,shootout,binarytrees_naive,275.155000,0
Ř,4a0b2a2f451a612bed4294611a49846010cf56c6,shootout,binarytrees_naive,3996.869000,0
Ř,4a0b2a2f451a612bed4294611a49846010cf56c6,shootout,binarytrees_naive,86.393000,0
Ř,4a0b2a2f451a612bed4294611a49846010cf56c6,shootout,binarytrees_naive,97.102000,0
Ř,4a0b2a2f451a612bed4294611a49846010cf56c6,shootout,binarytrees_naive,86.540000,1
Ř,4a0b2a2f451a612bed4294611a49846010cf56c6,shootout,binarytrees_naive,86.625000,1
Ř,4a0b2a2f451a612bed4294611a49846010cf56c6,shootout,binarytrees_naive,86.538000,1
Ř,4a0b2a2f451a612bed4294611a49846010cf56c6,shootout,binarytrees_naive,89.512000,1
Ř,4a0b2a2f451a612bed4294611a49846010cf56c6,shootout,binarytrees_naive,86.097000,1
Ř,4a0b2a2f451a612bed4294611a49846010cf56c6,shootout,binarytrees_naive,86.308000,1
Ř,4a0b2a2f451a612bed4294611a49846010cf56c6,shootout,binarytrees_naive,86.940000,1
Ř,4a0b2a2f451a612bed4294611a49846010cf56c6,shootout,binarytrees_naive,86.949000,1
Ř,4a0b2a2f451a612bed4294611a49846010cf56c6,shootout,binarytrees_naive,86.768000,1
Ř,4a0b2a2f451a612bed4294611a49846010cf56c6,shootout,binarytrees_naive,86.648000,1
Ř,4a0b2a2f451a612bed4294611a49846010cf56c6,shootout,spectralnorm_alt,404.815000,0
Ř,4a0b2a2f451a612bed4294611a49846010cf56c6,shootout,spectralnorm_alt,273.757000,0
Ř,4a0b2a2f451a612bed4294611a49846010cf56c6,shootout,spectralnorm_alt,1559.484000,0
Ř,4a0b2a2f451a612bed4294611a49846010cf56c6,shootout,spectralnorm_alt,214.334000,0
Ř,4a0b2a2f451a612bed4294611a49846010cf56c6,shootout,spectralnorm_alt,202.511000,0
Ř,4a0b2a2f451a612bed4294611a49846010cf56c6,shootout,spectralnorm_alt,219.105000,1
Ř,4a0b2a2f451a612bed4294611a49846010cf56c6,shootout,spectralnorm_alt,206.669000,1
Ř,4a0b2a2f451a612bed4294611a49846010cf56c6,shootout,spectralnorm_alt,191.513000,1
Ř,4a0b2a2f451a612bed4294611a49846010cf56c6,shootout,spectralnorm_alt,192.228000,1
Ř,4a0b2a2f451a612bed4294611a49846010cf56c6,shootout,spectralnorm_alt,203.235000,1
Ř,4a0b2a2f451a612bed4294611a49846010cf56c6,shootout,spectralnorm_alt,190.135000,1
Ř,4a0b2a2f451a612bed4294611a49846010cf56c6,shootout,spectralnorm_alt,199.961000,1
Ř,4a0b2a2f451a612bed4294611a49846010cf56c6,shootout,spectralnorm_alt,197.478000,1
Ř,4a0b2a2f451a612bed4294611a49846010cf56c6,shootout,spectralnorm_alt,206.509000,1
Ř,4a0b2a2f451a612bed4294611a49846010cf56c6,shootout,spectralnorm_alt,191.679000,1
Ř,4a0b2a2f451a612bed4294611a49846010cf56c6,shootout,nbody_2,1579.042000,0
Ř,4a0b2a2f451a612bed4294611a49846010cf56c6,shootout,nbody_2,1449.162000,0
Ř,4a0b2a2f451a612bed4294611a49846010cf56c6,shootout,nbody_2,1788.125000,0
Ř,4a0b2a2f451a612bed4294611a49846010cf56c6,shootout,nbody_2,668.825000,0
Ř,4a0b2a2f451a612bed4294611a49846010cf56c6,shootout,nbody_2,646.179000,0
Ř,4a0b2a2f451a612bed4294611a49846010cf56c6,shootout,nbody_2,645.224000,1
Ř,4a0b2a2f451a612bed4294611a49846010cf56c6,shootout,nbody_2,647.921000,1
Ř,4a0b2a2f451a612bed4294611a49846010cf56c6,shootout,nbody_2,657.752000,1
Ř,4a0b2a2f451a612bed4294611a49846010cf56c6,shootout,nbody_2,645.727000,1
Ř,4a0b2a2f451a612bed4294611a49846010cf56c6,shootout,nbody_2,645.795000,1
Ř,4a0b2a2f451a612bed4294611a49846010cf56c6,shootout,nbody_2,645.323000,1
Ř,4a0b2a2f451a612bed4294611a49846010cf56c6,shootout,nbody_2,658.733000,1
Ř,4a0b2a2f451a612bed4294611a49846010cf56c6,shootout,nbody_2,646.710000,1
Ř,4a0b2a2f451a612bed4294611a49846010cf56c6,shootout,nbody_2,646.415000,1
Ř,4a0b2a2f451a612bed4294611a49846010cf56c6,shootout,nbody_2,1230.601000,1
Ř,4a0b2a2f451a612bed4294611a49846010cf56c6,real_thing,flexclust_no_s4,17226.864000,0
Ř,4a0b2a2f451a612bed4294611a49846010cf56c6,real_thing,flexclust_no_s4,14300.480000,0
Ř,4a0b2a2f451a612bed4294611a49846010cf56c6,real_thing,flexclust_no_s4,27528.715000,0
Ř,4a0b2a2f451a612bed4294611a49846010cf56c6,real_thing,flexclust_no_s4,24942.073000,0
Ř,4a0b2a2f451a612bed4294611a49846010cf56c6,real_thing,flexclust_no_s4,18283.547000,0
Ř,4a0b2a2f451a612bed4294611a49846010cf56c6,real_thing,flexclust_no_s4,14372.122000,1
Ř,4a0b2a2f451a612bed4294611a49846010cf56c6,real_thing,flexclust_no_s4,13762.888000,1
Ř,4a0b2a2f451a612bed4294611a49846010cf56c6,real_thing,flexclust_no_s4,13343.684000,1
Ř,4a0b2a2f451a612bed4294611a49846010cf56c6,real_thing,flexclust_no_s4,13231.258000,1
Ř,4a0b2a2f451a612bed4294611a49846010cf56c6,real_thing,flexclust_no_s4,13694.008000,1
Ř,4a0b2a2f451a612bed4294611a49846010cf56c6,real_thing,flexclust_no_s4,13399.952000,1
Ř,4a0b2a2f451a612bed4294611a49846010cf56c6,real_thing,flexclust_no_s4,13306.885000,1
Ř,4a0b2a2f451a612bed4294611a49846010cf56c6,real_thing,flexclust_no_s4,13668.273000,1
Ř,4a0b2a2f451a612bed4294611a49846010cf56c6,real_thing,flexclust_no_s4,13687.531000,1
Ř,4a0b2a2f451a612bed4294611a49846010cf56c6,real_thing,flexclust_no_s4,13279.048000,1
Ř,4a0b2a2f451a612bed4294611a49846010cf56c6,real_thing,convolution,744.936000,0
Ř,4a0b2a2f451a612bed4294611a49846010cf56c6,real_thing,convolution,13.399000,0
Ř,4a0b2a2f451a612bed4294611a49846010cf56c6,real_thing,convolution,582.091000,0
Ř,4a0b2a2f451a612bed4294611a49846010cf56c6,real_thing,convolution,12.169000,0
Ř,4a0b2a2f451a612bed4294611a49846010cf56c6,real_thing,convolution,12.269000,0
Ř,4a0b2a2f451a612bed4294611a49846010cf56c6,real_thing,convolution,12.129000,1
Ř,4a0b2a2f451a612bed4294611a49846010cf56c6,real_thing,convolution,12.179000,1
Ř,4a0b2a2f451a612bed4294611a49846010cf56c6,real_thing,convolution,12.303000,1
Ř,4a0b2a2f451a612bed4294611a49846010cf56c6,real_thing,convolution,12.263000,1
Ř,4a0b2a2f451a612bed4294611a49846010cf56c6,real_thing,convolution,12.154000,1
Ř,4a0b2a2f451a612bed4294611a49846010cf56c6,real_thing,convolution,12.205000,1
Ř,4a0b2a2f451a612bed4294611a49846010cf56c6,real_thing,convolution,12.368000,1
Ř,4a0b2a2f451a612bed4294611a49846010cf56c6,real_thing,convolution,12.307000,1
Ř,4a0b2a2f451a612bed4294611a49846010cf56c6,real_thing,convolution,12.115000,1
Ř,4a0b2a2f451a612bed4294611a49846010cf56c6,real_thing,convolution,12.188000,1
Ř,4a0b2a2f451a612bed4294611a49846010cf56c6,real_thing,flexclust,45702.571000,0
Ř,4a0b2a2f451a612bed4294611a49846010cf56c6,real_thing,flexclust,28104.498000,0
Ř,4a0b2a2f451a612bed4294611a49846010cf56c6,real_thing,flexclust,37761.991000,0
Ř,4a0b2a2f451a612bed4294611a49846010cf56c6,real_thing,flexclust,44069.993000,0
Ř,4a0b2a2f451a612bed4294611a49846010cf56c6,real_thing,flexclust,31066.830000,0
Ř,4a0b2a2f451a612bed4294611a49846010cf56c6,real_thing,flexclust,21269.173000,1
Ř,4a0b2a2f451a612bed4294611a49846010cf56c6,real_thing,flexclust,15739.510000,1
Ř,4a0b2a2f451a612bed4294611a49846010cf56c6,real_thing,flexclust,16390.020000,1
Ř,4a0b2a2f451a612bed4294611a49846010cf56c6,real_thing,flexclust,15580.186000,1
Ř,4a0b2a2f451a612bed4294611a49846010cf56c6,real_thing,flexclust,15481.910000,1
Ř,4a0b2a2f451a612bed4294611a49846010cf56c6,real_thing,flexclust,15645.950000,1
Ř,4a0b2a2f451a612bed4294611a49846010cf56c6,real_thing,flexclust,16604.708000,1
Ř,4a0b2a2f451a612bed4294611a49846010cf56c6,real_thing,flexclust,15961.616000,1
Ř,4a0b2a2f451a612bed4294611a49846010cf56c6,real_thing,flexclust,15438.581000,1
Ř,4a0b2a2f451a612bed4294611a49846010cf56c6,real_thing,flexclust,15436.561000,1
Ř,4a0b2a2f451a612bed4294611a49846010cf56c6,real_thing,convolution_v,642.992000,0
Ř,4a0b2a2f451a612bed4294611a49846010cf56c6,real_thing,convolution_v,99.324000,0
Ř,4a0b2a2f451a612bed4294611a49846010cf56c6,real_thing,convolution_v,727.713000,0
Ř,4a0b2a2f451a612bed4294611a49846010cf56c6,real_thing,convolution_v,95.623000,0
Ř,4a0b2a2f451a612bed4294611a49846010cf56c6,real_thing,convolution_v,106.678000,0
Ř,4a0b2a2f451a612bed4294611a49846010cf56c6,real_thing,convolution_v,96.518000,1
Ř,4a0b2a2f451a612bed4294611a49846010cf56c6,real_thing,convolution_v,95.596000,1
Ř,4a0b2a2f451a612bed4294611a49846010cf56c6,real_thing,convolution_v,95.743000,1
Ř,4a0b2a2f451a612bed4294611a49846010cf56c6,real_thing,convolution_v,95.512000,1
Ř,4a0b2a2f451a612bed4294611a49846010cf56c6,real_thing,convolution_v,96.759000,1
Ř,4a0b2a2f451a612bed4294611a49846010cf56c6,real_thing,convolution_v,95.692000,1
Ř,4a0b2a2f451a612bed4294611a49846010cf56c6,real_thing,convolution_v,94.647000,1
Ř,4a0b2a2f451a612bed4294611a49846010cf56c6,real_thing,convolution_v,95.641000,1
Ř,4a0b2a2f451a612bed4294611a49846010cf56c6,real_thing,convolution_v,94.670000,1
Ř,4a0b2a2f451a612bed4294611a49846010cf56c6,real_thing,convolution_v,95.540000,1
Ř,4a0b2a2f451a612bed4294611a49846010cf56c6,real_thing,convolution_slow,640.851000,0
Ř,4a0b2a2f451a612bed4294611a49846010cf56c6,real_thing,convolution_slow,98.313000,0
Ř,4a0b2a2f451a612bed4294611a49846010cf56c6,real_thing,convolution_slow,725.420000,0
Ř,4a0b2a2f451a612bed4294611a49846010cf56c6,real_thing,convolution_slow,94.740000,0
Ř,4a0b2a2f451a612bed4294611a49846010cf56c6,real_thing,convolution_slow,105.671000,0
Ř,4a0b2a2f451a612bed4294611a49846010cf56c6,real_thing,convolution_slow,95.524000,1
Ř,4a0b2a2f451a612bed4294611a49846010cf56c6,real_thing,convolution_slow,94.636000,1
Ř,4a0b2a2f451a612bed4294611a49846010cf56c6,real_thing,convolution_slow,94.974000,1
Ř,4a0b2a2f451a612bed4294611a49846010cf56c6,real_thing,convolution_slow,94.585000,1
Ř,4a0b2a2f451a612bed4294611a49846010cf56c6,real_thing,convolution_slow,96.238000,1
Ř,4a0b2a2f451a612bed4294611a49846010cf56c6,real_thing,convolution_slow,96.460000,1
Ř,4a0b2a2f451a612bed4294611a49846010cf56c6,real_thing,convolution_slow,93.994000,1
Ř,4a0b2a2f451a612bed4294611a49846010cf56c6,real_thing,convolution_slow,96.224000,1
Ř,4a0b2a2f451a612bed4294611a49846010cf56c6,real_thing,convolution_slow,94.054000,1
Ř,4a0b2a2f451a612bed4294611a49846010cf56c6,real_thing,convolution_slow,94.636000,1
Ř,4a0b2a2f451a612bed4294611a49846010cf56c6,are-we-fast-r,Mandelbrot,3613.591000,0
Ř,4a0b2a2f451a612bed4294611a49846010cf56c6,are-we-fast-r,Mandelbrot,3526.803000,0
Ř,4a0b2a2f451a612bed4294611a49846010cf56c6,are-we-fast-r,Mandelbrot,779.426000,0
Ř,4a0b2a2f451a612bed4294611a49846010cf56c6,are-we-fast-r,Mandelbrot,1298.056000,0
Ř,4a0b2a2f451a612bed4294611a49846010cf56c6,are-we-fast-r,Mandelbrot,66.854000,0
Ř,4a0b2a2f451a612bed4294611a49846010cf56c6,are-we-fast-r,Mandelbrot,66.993000,1
Ř,4a0b2a2f451a612bed4294611a49846010cf56c6,are-we-fast-r,Mandelbrot,66.831000,1
Ř,4a0b2a2f451a612bed4294611a49846010cf56c6,are-we-fast-r,Mandelbrot,67.873000,1
Ř,4a0b2a2f451a612bed4294611a49846010cf56c6,are-we-fast-r,Mandelbrot,67.002000,1
Ř,4a0b2a2f451a612bed4294611a49846010cf56c6,are-we-fast-r,Mandelbrot,66.967000,1
Ř,4a0b2a2f451a612bed4294611a49846010cf56c6,are-we-fast-r,Mandelbrot,66.813000,1
Ř,4a0b2a2f451a612bed4294611a49846010cf56c6,are-we-fast-r,Mandelbrot,67.121000,1
Ř,4a0b2a2f451a612bed4294611a49846010cf56c6,are-we-fast-r,Mandelbrot,66.899000,1
Ř,4a0b2a2f451a612bed4294611a49846010cf56c6,are-we-fast-r,Mandelbrot,66.993000,1
Ř,4a0b2a2f451a612bed4294611a49846010cf56c6,are-we-fast-r,Mandelbrot,66.810000,1
Ř,4a0b2a2f451a612bed4294611a49846010cf56c6,are-we-fast-r,Bounce_nonames_simple,1971.571000,0
Ř,4a0b2a2f451a612bed4294611a49846010cf56c6,are-we-fast-r,Bounce_nonames_simple,135.030000,0
Ř,4a0b2a2f451a612bed4294611a49846010cf56c6,are-we-fast-r,Bounce_nonames_simple,145.227000,0
Ř,4a0b2a2f451a612bed4294611a49846010cf56c6,are-we-fast-r,Bounce_nonames_simple,134.186000,0
Ř,4a0b2a2f451a612bed4294611a49846010cf56c6,are-we-fast-r,Bounce_nonames_simple,133.912000,0
Ř,4a0b2a2f451a612bed4294611a49846010cf56c6,are-we-fast-r,Bounce_nonames_simple,137.225000,1
Ř,4a0b2a2f451a612bed4294611a49846010cf56c6,are-we-fast-r,Bounce_nonames_simple,134.342000,1
Ř,4a0b2a2f451a612bed4294611a49846010cf56c6,are-we-fast-r,Bounce_nonames_simple,133.797000,1
Ř,4a0b2a2f451a612bed4294611a49846010cf56c6,are-we-fast-r,Bounce_nonames_simple,133.872000,1
Ř,4a0b2a2f451a612bed4294611a49846010cf56c6,are-we-fast-r,Bounce_nonames_simple,133.190000,1
Ř,4a0b2a2f451a612bed4294611a49846010cf56c6,are-we-fast-r,Bounce_nonames_simple,133.815000,1
Ř,4a0b2a2f451a612bed4294611a49846010cf56c6,are-we-fast-r,Bounce_nonames_simple,136.722000,1
Ř,4a0b2a2f451a612bed4294611a49846010cf56c6,are-we-fast-r,Bounce_nonames_simple,133.275000,1
Ř,4a0b2a2f451a612bed4294611a49846010cf56c6,are-we-fast-r,Bounce_nonames_simple,134.236000,1
Ř,4a0b2a2f451a612bed4294611a49846010cf56c6,are-we-fast-r,Bounce_nonames_simple,134.898000,1
Ř,4a0b2a2f451a612bed4294611a49846010cf56c6,are-we-fast-r,Storage,1226.367000,0
Ř,4a0b2a2f451a612bed4294611a49846010cf56c6,are-we-fast-r,Storage,591.683000,0
Ř,4a0b2a2f451a612bed4294611a49846010cf56c6,are-we-fast-r,Storage,674.419000,0
Ř,4a0b2a2f451a612bed4294611a49846010cf56c6,are-we-fast-r,Storage,531.779000,0
Ř,4a0b2a2f451a612bed4294611a49846010cf56c6,are-we-fast-r,Storage,509.016000,0
Ř,4a0b2a2f451a612bed4294611a49846010cf56c6,are-we-fast-r,Storage,637.534000,1
Ř,4a0b2a2f451a612bed4294611a49846010cf56c6,are-we-fast-r,Storage,565.074000,1
Ř,4a0b2a2f451a612bed4294611a49846010cf56c6,are-we-fast-r,Storage,526.923000,1
Ř,4a0b2a2f451a612bed4294611a49846010cf56c6,are-we-fast-r,Storage,536.537000,1
Ř,4a0b2a2f451a612bed4294611a49846010cf56c6,are-we-fast-r,Storage,669.003000,1
Ř,4a0b2a2f451a612bed4294611a49846010cf56c6,are-we-fast-r,Storage,648.212000,1
Ř,4a0b2a2f451a612bed4294611a49846010cf56c6,are-we-fast-r,Storage,594.159000,1
Ř,4a0b2a2f451a612bed4294611a49846010cf56c6,are-we-fast-r,Storage,621.930000,1
Ř,4a0b2a2f451a612bed4294611a49846010cf56c6,are-we-fast-r,Storage,573.275000,1
Ř,4a0b2a2f451a612bed4294611a49846010cf56c6,are-we-fast-r,Storage,551.881000,1
Ř,4a0b2a2f451a612bed4294611a49846010cf56c6,are-we-fast-r,Bounce_nonames,1485.786000,0
Ř,4a0b2a2f451a612bed4294611a49846010cf56c6,are-we-fast-r,Bounce_nonames,149.032000,0
Ř,4a0b2a2f451a612bed4294611a49846010cf56c6,are-we-fast-r,Bounce_nonames,157.366000,0
Ř,4a0b2a2f451a612bed4294611a49846010cf56c6,are-we-fast-r,Bounce_nonames,147.448000,0
Ř,4a0b2a2f451a612bed4294611a49846010cf56c6,are-we-fast-r,Bounce_nonames,148.113000,0
Ř,4a0b2a2f451a612bed4294611a49846010cf56c6,are-we-fast-r,Bounce_nonames,149.586000,1
Ř,4a0b2a2f451a612bed4294611a49846010cf56c6,are-we-fast-r,Bounce_nonames,146.786000,1
Ř,4a0b2a2f451a612bed4294611a49846010cf56c6,are-we-fast-r,Bounce_nonames,146.540000,1
Ř,4a0b2a2f451a612bed4294611a49846010cf56c6,are-we-fast-r,Bounce_nonames,147.323000,1
Ř,4a0b2a2f451a612bed4294611a49846010cf56c6,are-we-fast-r,Bounce_nonames,146.392000,1
Ř,4a0b2a2f451a612bed4294611a49846010cf56c6,are-we-fast-r,Bounce_nonames,147.406000,1
Ř,4a0b2a2f451a612bed4294611a49846010cf56c6,are-we-fast-r,Bounce_nonames,149.357000,1
Ř,4a0b2a2f451a612bed4294611a49846010cf56c6,are-we-fast-r,Bounce_nonames,145.702000,1
Ř,4a0b2a2f451a612bed4294611a49846010cf56c6,are-we-fast-r,Bounce_nonames,147.747000,1
Ř,4a0b2a2f451a612bed4294611a49846010cf56c6,are-we-fast-r,Bounce_nonames,146.743000,1
Ř,4a0b2a2f451a612bed4294611a49846010cf56c6,are-we-fast-r,Bounce,2310.930000,0
Ř,4a0b2a2f451a612bed4294611a49846010cf56c6,are-we-fast-r,Bounce,851.020000,0
Ř,4a0b2a2f451a612bed4294611a49846010cf56c6,are-we-fast-r,Bounce,871.134000,0
Ř,4a0b2a2f451a612bed4294611a49846010cf56c6,are-we-fast-r,Bounce,849.144000,0
Ř,4a0b2a2f451a612bed4294611a49846010cf56c6,are-we-fast-r,Bounce,828.950000,0
Ř,4a0b2a2f451a612bed4294611a49846010cf56c6,are-we-fast-r,Bounce,849.345000,1
Ř,4a0b2a2f451a612bed4294611a49846010cf56c6,are-we-fast-r,Bounce,860.523000,1
Ř,4a0b2a2f451a612bed4294611a49846010cf56c6,are-we-fast-r,Bounce,819.642000,1
Ř,4a0b2a2f451a612bed4294611a49846010cf56c6,are-we-fast-r,Bounce,835.853000,1
Ř,4a0b2a2f451a612bed4294611a49846010cf56c6,are-we-fast-r,Bounce,858.729000,1
Ř,4a0b2a2f451a612bed4294611a49846010cf56c6,are-we-fast-r,Bounce,834.656000,1
Ř,4a0b2a2f451a612bed4294611a49846010cf56c6,are-we-fast-r,Bounce,828.658000,1
Ř,4a0b2a2f451a612bed4294611a49846010cf56c6,are-we-fast-r,Bounce,847.654000,1
Ř,4a0b2a2f451a612bed4294611a49846010cf56c6,are-we-fast-r,Bounce,854.267000,1
Ř,4a0b2a2f451a612bed4294611a49846010cf56c6,are-we-fast-r,Bounce,821.890000,1
