vm,commit,suite,benchmark,ms,warm
Ř,7fd9feb45e3b50e92b990a94eaf8de6a69cd76e0,simple,superWhile,2874.140000,0
Ř,7fd9feb45e3b50e92b990a94eaf8de6a69cd76e0,simple,superWhile,2859.663000,0
Ř,7fd9feb45e3b50e92b990a94eaf8de6a69cd76e0,simple,superWhile,54.560000,0
Ř,7fd9feb45e3b50e92b990a94eaf8de6a69cd76e0,simple,superWhile,20.286000,0
Ř,7fd9feb45e3b50e92b990a94eaf8de6a69cd76e0,simple,superWhile,20.199000,0
Ř,7fd9feb45e3b50e92b990a94eaf8de6a69cd76e0,simple,superWhile,20.199000,1
Ř,7fd9feb45e3b50e92b990a94eaf8de6a69cd76e0,simple,superWhile,20.197000,1
Ř,7fd9feb45e3b50e92b990a94eaf8de6a69cd76e0,simple,superWhile,20.196000,1
Ř,7fd9feb45e3b50e92b990a94eaf8de6a69cd76e0,simple,superWhile,20.198000,1
Ř,7fd9feb45e3b50e92b990a94eaf8de6a69cd76e0,simple,superWhile,20.247000,1
Ř,7fd9feb45e3b50e92b990a94eaf8de6a69cd76e0,simple,superWhile,20.198000,1
Ř,7fd9feb45e3b50e92b990a94eaf8de6a69cd76e0,simple,superWhile,20.197000,1
Ř,7fd9feb45e3b50e92b990a94eaf8de6a69cd76e0,simple,superWhile,20.196000,1
Ř,7fd9feb45e3b50e92b990a94eaf8de6a69cd76e0,simple,superWhile,20.199000,1
Ř,7fd9feb45e3b50e92b990a94eaf8de6a69cd76e0,simple,superWhile,20.241000,1
Ř,7fd9feb45e3b50e92b990a94eaf8de6a69cd76e0,simple,profiler-microbenchmark,1177.829000,0
Ř,7fd9feb45e3b50e92b990a94eaf8de6a69cd76e0,simple,profiler-microbenchmark,1122.128000,0
Ř,7fd9feb45e3b50e92b990a94eaf8de6a69cd76e0,simple,profiler-microbenchmark,1185.324000,0
Ř,7fd9feb45e3b50e92b990a94eaf8de6a69cd76e0,simple,profiler-microbenchmark,1174.475000,0
Ř,7fd9feb45e3b50e92b990a94eaf8de6a69cd76e0,simple,profiler-microbenchmark,1209.123000,0
Ř,7fd9feb45e3b50e92b990a94eaf8de6a69cd76e0,simple,profiler-microbenchmark,1279.059000,1
Ř,7fd9feb45e3b50e92b990a94eaf8de6a69cd76e0,simple,profiler-microbenchmark,1146.997000,1
Ř,7fd9feb45e3b50e92b990a94eaf8de6a69cd76e0,simple,profiler-microbenchmark,1150.449000,1
Ř,7fd9feb45e3b50e92b990a94eaf8de6a69cd76e0,simple,profiler-microbenchmark,1240.186000,1
Ř,7fd9feb45e3b50e92b990a94eaf8de6a69cd76e0,simple,profiler-microbenchmark,1158.588000,1
Ř,7fd9feb45e3b50e92b990a94eaf8de6a69cd76e0,simple,profiler-microbenchmark,1158.755000,1
Ř,7fd9feb45e3b50e92b990a94eaf8de6a69cd76e0,simple,profiler-microbenchmark,1155.887000,1
Ř,7fd9feb45e3b50e92b990a94eaf8de6a69cd76e0,simple,profiler-microbenchmark,1132.175000,1
Ř,7fd9feb45e3b50e92b990a94eaf8de6a69cd76e0,simple,profiler-microbenchmark,1304.082000,1
Ř,7fd9feb45e3b50e92b990a94eaf8de6a69cd76e0,simple,profiler-microbenchmark,1179.773000,1
Ř,7fd9feb45e3b50e92b990a94eaf8de6a69cd76e0,simple,matrixFor,384.858000,0
Ř,7fd9feb45e3b50e92b990a94eaf8de6a69cd76e0,simple,matrixFor,392.581000,0
Ř,7fd9feb45e3b50e92b990a94eaf8de6a69cd76e0,simple,matrixFor,162.884000,0
Ř,7fd9feb45e3b50e92b990a94eaf8de6a69cd76e0,simple,matrixFor,54.863000,0
Ř,7fd9feb45e3b50e92b990a94eaf8de6a69cd76e0,simple,matrixFor,54.484000,0
Ř,7fd9feb45e3b50e92b990a94eaf8de6a69cd76e0,simple,matrixFor,54.434000,1
Ř,7fd9feb45e3b50e92b990a94eaf8de6a69cd76e0,simple,matrixFor,54.489000,1
Ř,7fd9feb45e3b50e92b990a94eaf8de6a69cd76e0,simple,matrixFor,54.500000,1
Ř,7fd9feb45e3b50e92b990a94eaf8de6a69cd76e0,simple,matrixFor,54.494000,1
Ř,7fd9feb45e3b50e92b990a94eaf8de6a69cd76e0,simple,matrixFor,54.430000,1
Ř,7fd9feb45e3b50e92b990a94eaf8de6a69cd76e0,simple,matrixFor,54.497000,1
Ř,7fd9feb45e3b50e92b990a94eaf8de6a69cd76e0,simple,matrixFor,54.485000,1
Ř,7fd9feb45e3b50e92b990a94eaf8de6a69cd76e0,simple,matrixFor,54.469000,1
Ř,7fd9feb45e3b50e92b990a94eaf8de6a69cd76e0,simple,matrixFor,54.433000,1
Ř,7fd9feb45e3b50e92b990a94eaf8de6a69cd76e0,simple,matrixFor,54.471000,1
Ř,7fd9feb45e3b50e92b990a94eaf8de6a69cd76e0,simple,vectorWhile,2164.893000,0
Ř,7fd9feb45e3b50e92b990a94eaf8de6a69cd76e0,simple,vectorWhile,2147.321000,0
Ř,7fd9feb45e3b50e92b990a94eaf8de6a69cd76e0,simple,vectorWhile,182.134000,0
Ř,7fd9feb45e3b50e92b990a94eaf8de6a69cd76e0,simple,vectorWhile,126.296000,0
Ř,7fd9feb45e3b50e92b990a94eaf8de6a69cd76e0,simple,vectorWhile,141.653000,0
Ř,7fd9feb45e3b50e92b990a94eaf8de6a69cd76e0,simple,vectorWhile,128.072000,1
Ř,7fd9feb45e3b50e92b990a94eaf8de6a69cd76e0,simple,vectorWhile,128.008000,1
Ř,7fd9feb45e3b50e92b990a94eaf8de6a69cd76e0,simple,vectorWhile,128.228000,1
Ř,7fd9feb45e3b50e92b990a94eaf8de6a69cd76e0,simple,vectorWhile,128.078000,1
Ř,7fd9feb45e3b50e92b990a94eaf8de6a69cd76e0,simple,vectorWhile,128.042000,1
Ř,7fd9feb45e3b50e92b990a94eaf8de6a69cd76e0,simple,vectorWhile,128.019000,1
Ř,7fd9feb45e3b50e92b990a94eaf8de6a69cd76e0,simple,vectorWhile,128.027000,1
Ř,7fd9feb45e3b50e92b990a94eaf8de6a69cd76e0,simple,vectorWhile,128.089000,1
Ř,7fd9feb45e3b50e92b990a94eaf8de6a69cd76e0,simple,vectorWhile,128.031000,1
Ř,7fd9feb45e3b50e92b990a94eaf8de6a69cd76e0,simple,vectorWhile,128.041000,1
Ř,7fd9feb45e3b50e92b990a94eaf8de6a69cd76e0,simple,emptyFor,3142.395000,0
Ř,7fd9feb45e3b50e92b990a94eaf8de6a69cd76e0,simple,emptyFor,3159.787000,0
Ř,7fd9feb45e3b50e92b990a94eaf8de6a69cd76e0,simple,emptyFor,15.795000,0
Ř,7fd9feb45e3b50e92b990a94eaf8de6a69cd76e0,simple,emptyFor,0.028000,0
Ř,7fd9feb45e3b50e92b990a94eaf8de6a69cd76e0,simple,emptyFor,0.011000,0
Ř,7fd9feb45e3b50e92b990a94eaf8de6a69cd76e0,simple,emptyFor,0.009000,1
Ř,7fd9feb45e3b50e92b990a94eaf8de6a69cd76e0,simple,emptyFor,0.008000,1
Ř,7fd9feb45e3b50e92b990a94eaf8de6a69cd76e0,simple,emptyFor,0.008000,1
Ř,7fd9feb45e3b50e92b990a94eaf8de6a69cd76e0,simple,emptyFor,0.008000,1
Ř,7fd9feb45e3b50e92b990a94eaf8de6a69cd76e0,simple,emptyFor,0.008000,1
Ř,7fd9feb45e3b50e92b990a94eaf8de6a69cd76e0,simple,emptyFor,0.008000,1
Ř,7fd9feb45e3b50e92b990a94eaf8de6a69cd76e0,simple,emptyFor,0.008000,1
Ř,7fd9feb45e3b50e92b990a94eaf8de6a69cd76e0,simple,emptyFor,0.008000,1
Ř,7fd9feb45e3b50e92b990a94eaf8de6a69cd76e0,simple,emptyFor,0.007000,1
Ř,7fd9feb45e3b50e92b990a94eaf8de6a69cd76e0,simple,emptyFor,0.007000,1
Ř,7fd9feb45e3b50e92b990a94eaf8de6a69cd76e0,simple,lapplyDots,755.860000,0
Ř,7fd9feb45e3b50e92b990a94eaf8de6a69cd76e0,simple,lapplyDots,883.381000,0
Ř,7fd9feb45e3b50e92b990a94eaf8de6a69cd76e0,simple,lapplyDots,816.303000,0
Ř,7fd9feb45e3b50e92b990a94eaf8de6a69cd76e0,simple,lapplyDots,1070.366000,0
Ř,7fd9feb45e3b50e92b990a94eaf8de6a69cd76e0,simple,lapplyDots,1003.322000,0
Ř,7fd9feb45e3b50e92b990a94eaf8de6a69cd76e0,simple,lapplyDots,951.218000,1
Ř,7fd9feb45e3b50e92b990a94eaf8de6a69cd76e0,simple,lapplyDots,973.972000,1
Ř,7fd9feb45e3b50e92b990a94eaf8de6a69cd76e0,simple,lapplyDots,845.017000,1
Ř,7fd9feb45e3b50e92b990a94eaf8de6a69cd76e0,simple,lapplyDots,950.121000,1
Ř,7fd9feb45e3b50e92b990a94eaf8de6a69cd76e0,simple,lapplyDots,971.195000,1
Ř,7fd9feb45e3b50e92b990a94eaf8de6a69cd76e0,simple,lapplyDots,989.391000,1
Ř,7fd9feb45e3b50e92b990a94eaf8de6a69cd76e0,simple,lapplyDots,826.438000,1
Ř,7fd9feb45e3b50e92b990a94eaf8de6a69cd76e0,simple,lapplyDots,966.826000,1
Ř,7fd9feb45e3b50e92b990a94eaf8de6a69cd76e0,simple,lapplyDots,987.045000,1
Ř,7fd9feb45e3b50e92b990a94eaf8de6a69cd76e0,simple,lapplyDots,947.676000,1
Ř,7fd9feb45e3b50e92b990a94eaf8de6a69cd76e0,simple,scalarWhile,2111.296000,0
Ř,7fd9feb45e3b50e92b990a94eaf8de6a69cd76e0,simple,scalarWhile,2108.152000,0
Ř,7fd9feb45e3b50e92b990a94eaf8de6a69cd76e0,simple,scalarWhile,43.791000,0
Ř,7fd9feb45e3b50e92b990a94eaf8de6a69cd76e0,simple,scalarWhile,25.267000,0
Ř,7fd9feb45e3b50e92b990a94eaf8de6a69cd76e0,simple,scalarWhile,25.245000,0
Ř,7fd9feb45e3b50e92b990a94eaf8de6a69cd76e0,simple,scalarWhile,25.259000,1
Ř,7fd9feb45e3b50e92b990a94eaf8de6a69cd76e0,simple,scalarWhile,25.243000,1
Ř,7fd9feb45e3b50e92b990a94eaf8de6a69cd76e0,simple,scalarWhile,25.295000,1
Ř,7fd9feb45e3b50e92b990a94eaf8de6a69cd76e0,simple,scalarWhile,25.241000,1
Ř,7fd9feb45e3b50e92b990a94eaf8de6a69cd76e0,simple,scalarWhile,25.245000,1
Ř,7fd9feb45e3b50e92b990a94eaf8de6a69cd76e0,simple,scalarWhile,25.249000,1
Ř,7fd9feb45e3b50e92b990a94eaf8de6a69cd76e0,simple,scalarWhile,25.291000,1
Ř,7fd9feb45e3b50e92b990a94eaf8de6a69cd76e0,simple,scalarWhile,25.243000,1
Ř,7fd9feb45e3b50e92b990a94eaf8de6a69cd76e0,simple,scalarWhile,25.244000,1
Ř,7fd9feb45e3b50e92b990a94eaf8de6a69cd76e0,simple,scalarWhile,25.242000,1
Ř,7fd9feb45e3b50e92b990a94eaf8de6a69cd76e0,simple,listWhile,155.080000,0
Ř,7fd9feb45e3b50e92b990a94eaf8de6a69cd76e0,simple,listWhile,146.639000,0
Ř,7fd9feb45e3b50e92b990a94eaf8de6a69cd76e0,simple,listWhile,129.110000,0
Ř,7fd9feb45e3b50e92b990a94eaf8de6a69cd76e0,simple,listWhile,67.404000,0
Ř,7fd9feb45e3b50e92b990a94eaf8de6a69cd76e0,simple,listWhile,63.318000,0
Ř,7fd9feb45e3b50e92b990a94eaf8de6a69cd76e0,simple,listWhile,71.017000,1
Ř,7fd9feb45e3b50e92b990a94eaf8de6a69cd76e0,simple,listWhile,83.627000,1
Ř,7fd9feb45e3b50e92b990a94eaf8de6a69cd76e0,simple,listWhile,50.871000,1
Ř,7fd9feb45e3b50e92b990a94eaf8de6a69cd76e0,simple,listWhile,65.004000,1
Ř,7fd9feb45e3b50e92b990a94eaf8de6a69cd76e0,simple,listWhile,60.177000,1
Ř,7fd9feb45e3b50e92b990a94eaf8de6a69cd76e0,simple,listWhile,64.939000,1
Ř,7fd9feb45e3b50e92b990a94eaf8de6a69cd76e0,simple,listWhile,58.071000,1
Ř,7fd9feb45e3b50e92b990a94eaf8de6a69cd76e0,simple,listWhile,79.567000,1
Ř,7fd9feb45e3b50e92b990a94eaf8de6a69cd76e0,simple,listWhile,55.479000,1
Ř,7fd9feb45e3b50e92b990a94eaf8de6a69cd76e0,simple,listWhile,62.825000,1
Ř,7fd9feb45e3b50e92b990a94eaf8de6a69cd76e0,simple,profiler-shared,3755.718000,0
Ř,7fd9feb45e3b50e92b990a94eaf8de6a69cd76e0,simple,profiler-shared,3793.347000,0
Ř,7fd9feb45e3b50e92b990a94eaf8de6a69cd76e0,simple,profiler-shared,3794.515000,0
Ř,7fd9feb45e3b50e92b990a94eaf8de6a69cd76e0,simple,profiler-shared,3826.547000,0
Ř,7fd9feb45e3b50e92b990a94eaf8de6a69cd76e0,simple,profiler-shared,3762.496000,0
Ř,7fd9feb45e3b50e92b990a94eaf8de6a69cd76e0,simple,profiler-shared,3791.117000,1
Ř,7fd9feb45e3b50e92b990a94eaf8de6a69cd76e0,simple,profiler-shared,3800.325000,1
Ř,7fd9feb45e3b50e92b990a94eaf8de6a69cd76e0,simple,profiler-shared,3797.695000,1
Ř,7fd9feb45e3b50e92b990a94eaf8de6a69cd76e0,simple,profiler-shared,3817.950000,1
Ř,7fd9feb45e3b50e92b990a94eaf8de6a69cd76e0,simple,profiler-shared,3793.736000,1
Ř,7fd9feb45e3b50e92b990a94eaf8de6a69cd76e0,simple,profiler-shared,3833.251000,1
Ř,7fd9feb45e3b50e92b990a94eaf8de6a69cd76e0,simple,profiler-shared,3784.488000,1
Ř,7fd9feb45e3b50e92b990a94eaf8de6a69cd76e0,simple,profiler-shared,3802.760000,1
Ř,7fd9feb45e3b50e92b990a94eaf8de6a69cd76e0,simple,profiler-shared,3788.088000,1
Ř,7fd9feb45e3b50e92b990a94eaf8de6a69cd76e0,simple,profiler-shared,3821.424000,1
Ř,7fd9feb45e3b50e92b990a94eaf8de6a69cd76e0,simple,scalarFor,4471.144000,0
Ř,7fd9feb45e3b50e92b990a94eaf8de6a69cd76e0,simple,scalarFor,4494.614000,0
Ř,7fd9feb45e3b50e92b990a94eaf8de6a69cd76e0,simple,scalarFor,17.258000,0
Ř,7fd9feb45e3b50e92b990a94eaf8de6a69cd76e0,simple,scalarFor,0.028000,0
Ř,7fd9feb45e3b50e92b990a94eaf8de6a69cd76e0,simple,scalarFor,0.010000,0
Ř,7fd9feb45e3b50e92b990a94eaf8de6a69cd76e0,simple,scalarFor,0.009000,1
Ř,7fd9feb45e3b50e92b990a94eaf8de6a69cd76e0,simple,scalarFor,0.008000,1
Ř,7fd9feb45e3b50e92b990a94eaf8de6a69cd76e0,simple,scalarFor,0.008000,1
Ř,7fd9feb45e3b50e92b990a94eaf8de6a69cd76e0,simple,scalarFor,0.008000,1
Ř,7fd9feb45e3b50e92b990a94eaf8de6a69cd76e0,simple,scalarFor,0.008000,1
Ř,7fd9feb45e3b50e92b990a94eaf8de6a69cd76e0,simple,scalarFor,0.008000,1
Ř,7fd9feb45e3b50e92b990a94eaf8de6a69cd76e0,simple,scalarFor,0.008000,1
Ř,7fd9feb45e3b50e92b990a94eaf8de6a69cd76e0,simple,scalarFor,0.008000,1
Ř,7fd9feb45e3b50e92b990a94eaf8de6a69cd76e0,simple,scalarFor,0.008000,1
Ř,7fd9feb45e3b50e92b990a94eaf8de6a69cd76e0,simple,scalarFor,0.008000,1
Ř,7fd9feb45e3b50e92b990a94eaf8de6a69cd76e0,simple,lapply,638.333000,0
Ř,7fd9feb45e3b50e92b990a94eaf8de6a69cd76e0,simple,lapply,723.766000,0
Ř,7fd9feb45e3b50e92b990a94eaf8de6a69cd76e0,simple,lapply,786.565000,0
Ř,7fd9feb45e3b50e92b990a94eaf8de6a69cd76e0,simple,lapply,738.814000,0
Ř,7fd9feb45e3b50e92b990a94eaf8de6a69cd76e0,simple,lapply,859.132000,0
Ř,7fd9feb45e3b50e92b990a94eaf8de6a69cd76e0,simple,lapply,743.973000,1
Ř,7fd9feb45e3b50e92b990a94eaf8de6a69cd76e0,simple,lapply,754.767000,1
Ř,7fd9feb45e3b50e92b990a94eaf8de6a69cd76e0,simple,lapply,752.664000,1
Ř,7fd9feb45e3b50e92b990a94eaf8de6a69cd76e0,simple,lapply,556.464000,1
Ř,7fd9feb45e3b50e92b990a94eaf8de6a69cd76e0,simple,lapply,660.606000,1
Ř,7fd9feb45e3b50e92b990a94eaf8de6a69cd76e0,simple,lapply,671.203000,1
Ř,7fd9feb45e3b50e92b990a94eaf8de6a69cd76e0,simple,lapply,695.661000,1
Ř,7fd9feb45e3b50e92b990a94eaf8de6a69cd76e0,simple,lapply,642.482000,1
Ř,7fd9feb45e3b50e92b990a94eaf8de6a69cd76e0,simple,lapply,565.119000,1
Ř,7fd9feb45e3b50e92b990a94eaf8de6a69cd76e0,simple,lapply,669.634000,1
Ř,7fd9feb45e3b50e92b990a94eaf8de6a69cd76e0,simple,vectorFor,1011.452000,0
Ř,7fd9feb45e3b50e92b990a94eaf8de6a69cd76e0,simple,vectorFor,994.076000,0
Ř,7fd9feb45e3b50e92b990a94eaf8de6a69cd76e0,simple,vectorFor,74.693000,0
Ř,7fd9feb45e3b50e92b990a94eaf8de6a69cd76e0,simple,vectorFor,32.929000,0
Ř,7fd9feb45e3b50e92b990a94eaf8de6a69cd76e0,simple,vectorFor,32.815000,0
Ř,7fd9feb45e3b50e92b990a94eaf8de6a69cd76e0,simple,vectorFor,32.891000,1
Ř,7fd9feb45e3b50e92b990a94eaf8de6a69cd76e0,simple,vectorFor,32.884000,1
Ř,7fd9feb45e3b50e92b990a94eaf8de6a69cd76e0,simple,vectorFor,32.823000,1
Ř,7fd9feb45e3b50e92b990a94eaf8de6a69cd76e0,simple,vectorFor,33.007000,1
Ř,7fd9feb45e3b50e92b990a94eaf8de6a69cd76e0,simple,vectorFor,32.940000,1
Ř,7fd9feb45e3b50e92b990a94eaf8de6a69cd76e0,simple,vectorFor,32.865000,1
Ř,7fd9feb45e3b50e92b990a94eaf8de6a69cd76e0,simple,vectorFor,32.910000,1
Ř,7fd9feb45e3b50e92b990a94eaf8de6a69cd76e0,simple,vectorFor,32.845000,1
Ř,7fd9feb45e3b50e92b990a94eaf8de6a69cd76e0,simple,vectorFor,32.909000,1
Ř,7fd9feb45e3b50e92b990a94eaf8de6a69cd76e0,simple,vectorFor,32.911000,1
Ř,7fd9feb45e3b50e92b990a94eaf8de6a69cd76e0,simple,bytecodes,3906.896000,0
Ř,7fd9feb45e3b50e92b990a94eaf8de6a69cd76e0,simple,bytecodes,3901.555000,0
Ř,7fd9feb45e3b50e92b990a94eaf8de6a69cd76e0,simple,bytecodes,235.463000,0
Ř,7fd9feb45e3b50e92b990a94eaf8de6a69cd76e0,simple,bytecodes,9.173000,0
Ř,7fd9feb45e3b50e92b990a94eaf8de6a69cd76e0,simple,bytecodes,9.099000,0
Ř,7fd9feb45e3b50e92b990a94eaf8de6a69cd76e0,simple,bytecodes,9.098000,1
Ř,7fd9feb45e3b50e92b990a94eaf8de6a69cd76e0,simple,bytecodes,9.096000,1
Ř,7fd9feb45e3b50e92b990a94eaf8de6a69cd76e0,simple,bytecodes,9.108000,1
Ř,7fd9feb45e3b50e92b990a94eaf8de6a69cd76e0,simple,bytecodes,9.098000,1
Ř,7fd9feb45e3b50e92b990a94eaf8de6a69cd76e0,simple,bytecodes,9.094000,1
Ř,7fd9feb45e3b50e92b990a94eaf8de6a69cd76e0,simple,bytecodes,9.099000,1
Ř,7fd9feb45e3b50e92b990a94eaf8de6a69cd76e0,simple,bytecodes,9.095000,1
Ř,7fd9feb45e3b50e92b990a94eaf8de6a69cd76e0,simple,bytecodes,9.097000,1
Ř,7fd9feb45e3b50e92b990a94eaf8de6a69cd76e0,simple,bytecodes,9.094000,1
Ř,7fd9feb45e3b50e92b990a94eaf8de6a69cd76e0,simple,bytecodes,9.094000,1
Ř,7fd9feb45e3b50e92b990a94eaf8de6a69cd76e0,simple,profiler-rsa,1515.317000,0
Ř,7fd9feb45e3b50e92b990a94eaf8de6a69cd76e0,simple,profiler-rsa,1500.991000,0
Ř,7fd9feb45e3b50e92b990a94eaf8de6a69cd76e0,simple,profiler-rsa,1508.950000,0
Ř,7fd9feb45e3b50e92b990a94eaf8de6a69cd76e0,simple,profiler-rsa,1495.938000,0
Ř,7fd9feb45e3b50e92b990a94eaf8de6a69cd76e0,simple,profiler-rsa,1496.869000,0
Ř,7fd9feb45e3b50e92b990a94eaf8de6a69cd76e0,simple,profiler-rsa,1506.858000,1
Ř,7fd9feb45e3b50e92b990a94eaf8de6a69cd76e0,simple,profiler-rsa,1503.322000,1
Ř,7fd9feb45e3b50e92b990a94eaf8de6a69cd76e0,simple,profiler-rsa,1509.230000,1
Ř,7fd9feb45e3b50e92b990a94eaf8de6a69cd76e0,simple,profiler-rsa,1502.814000,1
Ř,7fd9feb45e3b50e92b990a94eaf8de6a69cd76e0,simple,profiler-rsa,1497.885000,1
Ř,7fd9feb45e3b50e92b990a94eaf8de6a69cd76e0,simple,profiler-rsa,1507.752000,1
Ř,7fd9feb45e3b50e92b990a94eaf8de6a69cd76e0,simple,profiler-rsa,1500.474000,1
Ř,7fd9feb45e3b50e92b990a94eaf8de6a69cd76e0,simple,profiler-rsa,1515.252000,1
Ř,7fd9feb45e3b50e92b990a94eaf8de6a69cd76e0,simple,profiler-rsa,1503.340000,1
Ř,7fd9feb45e3b50e92b990a94eaf8de6a69cd76e0,simple,profiler-rsa,1497.921000,1
Ř,7fd9feb45e3b50e92b990a94eaf8de6a69cd76e0,simple,emptyWhile,2098.222000,0
Ř,7fd9feb45e3b50e92b990a94eaf8de6a69cd76e0,simple,emptyWhile,2099.329000,0
Ř,7fd9feb45e3b50e92b990a94eaf8de6a69cd76e0,simple,emptyWhile,46.678000,0
Ř,7fd9feb45e3b50e92b990a94eaf8de6a69cd76e0,simple,emptyWhile,30.309000,0
Ř,7fd9feb45e3b50e92b990a94eaf8de6a69cd76e0,simple,emptyWhile,30.291000,0
Ř,7fd9feb45e3b50e92b990a94eaf8de6a69cd76e0,simple,emptyWhile,30.289000,1
Ř,7fd9feb45e3b50e92b990a94eaf8de6a69cd76e0,simple,emptyWhile,30.348000,1
Ř,7fd9feb45e3b50e92b990a94eaf8de6a69cd76e0,simple,emptyWhile,30.288000,1
Ř,7fd9feb45e3b50e92b990a94eaf8de6a69cd76e0,simple,emptyWhile,30.287000,1
Ř,7fd9feb45e3b50e92b990a94eaf8de6a69cd76e0,simple,emptyWhile,30.333000,1
Ř,7fd9feb45e3b50e92b990a94eaf8de6a69cd76e0,simple,emptyWhile,30.288000,1
Ř,7fd9feb45e3b50e92b990a94eaf8de6a69cd76e0,simple,emptyWhile,30.290000,1
Ř,7fd9feb45e3b50e92b990a94eaf8de6a69cd76e0,simple,emptyWhile,30.291000,1
Ř,7fd9feb45e3b50e92b990a94eaf8de6a69cd76e0,simple,emptyWhile,30.333000,1
Ř,7fd9feb45e3b50e92b990a94eaf8de6a69cd76e0,simple,emptyWhile,30.289000,1
Ř,7fd9feb45e3b50e92b990a94eaf8de6a69cd76e0,simple,listFor,198.682000,0
Ř,7fd9feb45e3b50e92b990a94eaf8de6a69cd76e0,simple,listFor,201.882000,0
Ř,7fd9feb45e3b50e92b990a94eaf8de6a69cd76e0,simple,listFor,87.423000,0
Ř,7fd9feb45e3b50e92b990a94eaf8de6a69cd76e0,simple,listFor,66.380000,0
Ř,7fd9feb45e3b50e92b990a94eaf8de6a69cd76e0,simple,listFor,76.687000,0
Ř,7fd9feb45e3b50e92b990a94eaf8de6a69cd76e0,simple,listFor,53.178000,1
Ř,7fd9feb45e3b50e92b990a94eaf8de6a69cd76e0,simple,listFor,64.741000,1
Ř,7fd9feb45e3b50e92b990a94eaf8de6a69cd76e0,simple,listFor,54.352000,1
Ř,7fd9feb45e3b50e92b990a94eaf8de6a69cd76e0,simple,listFor,66.389000,1
Ř,7fd9feb45e3b50e92b990a94eaf8de6a69cd76e0,simple,listFor,77.799000,1
Ř,7fd9feb45e3b50e92b990a94eaf8de6a69cd76e0,simple,listFor,58.231000,1
Ř,7fd9feb45e3b50e92b990a94eaf8de6a69cd76e0,simple,listFor,63.577000,1
Ř,7fd9feb45e3b50e92b990a94eaf8de6a69cd76e0,simple,listFor,67.425000,1
Ř,7fd9feb45e3b50e92b990a94eaf8de6a69cd76e0,simple,listFor,75.969000,1
Ř,7fd9feb45e3b50e92b990a94eaf8de6a69cd76e0,simple,listFor,52.066000,1
Ř,7fd9feb45e3b50e92b990a94eaf8de6a69cd76e0,shootout,spectralnorm_naive,938.208000,0
Ř,7fd9feb45e3b50e92b990a94eaf8de6a69cd76e0,shootout,spectralnorm_naive,1063.540000,0
Ř,7fd9feb45e3b50e92b990a94eaf8de6a69cd76e0,shootout,spectralnorm_naive,1166.845000,0
Ř,7fd9feb45e3b50e92b990a94eaf8de6a69cd76e0,shootout,spectralnorm_naive,38.105000,0
Ř,7fd9feb45e3b50e92b990a94eaf8de6a69cd76e0,shootout,spectralnorm_naive,38.089000,0
Ř,7fd9feb45e3b50e92b990a94eaf8de6a69cd76e0,shootout,spectralnorm_naive,38.180000,1
Ř,7fd9feb45e3b50e92b990a94eaf8de6a69cd76e0,shootout,spectralnorm_naive,38.084000,1
Ř,7fd9feb45e3b50e92b990a94eaf8de6a69cd76e0,shootout,spectralnorm_naive,38.069000,1
Ř,7fd9feb45e3b50e92b990a94eaf8de6a69cd76e0,shootout,spectralnorm_naive,38.220000,1
Ř,7fd9feb45e3b50e92b990a94eaf8de6a69cd76e0,shootout,spectralnorm_naive,38.192000,1
Ř,7fd9feb45e3b50e92b990a94eaf8de6a69cd76e0,shootout,spectralnorm_naive,38.105000,1
Ř,7fd9feb45e3b50e92b990a94eaf8de6a69cd76e0,shootout,spectralnorm_naive,38.152000,1
Ř,7fd9feb45e3b50e92b990a94eaf8de6a69cd76e0,shootout,spectralnorm_naive,38.182000,1
Ř,7fd9feb45e3b50e92b990a94eaf8de6a69cd76e0,shootout,spectralnorm_naive,38.224000,1
Ř,7fd9feb45e3b50e92b990a94eaf8de6a69cd76e0,shootout,spectralnorm_naive,39.679000,1
Ř,7fd9feb45e3b50e92b990a94eaf8de6a69cd76e0,shootout,fasta_2,1173.533000,0
Ř,7fd9feb45e3b50e92b990a94eaf8de6a69cd76e0,shootout,fasta_2,1584.568000,0
Ř,7fd9feb45e3b50e92b990a94eaf8de6a69cd76e0,shootout,fasta_2,2301.599000,0
Ř,7fd9feb45e3b50e92b990a94eaf8de6a69cd76e0,shootout,fasta_2,897.108000,0
Ř,7fd9feb45e3b50e92b990a94eaf8de6a69cd76e0,shootout,fasta_2,888.760000,0
Ř,7fd9feb45e3b50e92b990a94eaf8de6a69cd76e0,shootout,fasta_2,891.683000,1
Ř,7fd9feb45e3b50e92b990a94eaf8de6a69cd76e0,shootout,fasta_2,895.188000,1
Ř,7fd9feb45e3b50e92b990a94eaf8de6a69cd76e0,shootout,fasta_2,889.696000,1
Ř,7fd9feb45e3b50e92b990a94eaf8de6a69cd76e0,shootout,fasta_2,884.979000,1
Ř,7fd9feb45e3b50e92b990a94eaf8de6a69cd76e0,shootout,fasta_2,895.974000,1
Ř,7fd9feb45e3b50e92b990a94eaf8de6a69cd76e0,shootout,fasta_2,889.072000,1
Ř,7fd9feb45e3b50e92b990a94eaf8de6a69cd76e0,shootout,fasta_2,882.417000,1
Ř,7fd9feb45e3b50e92b990a94eaf8de6a69cd76e0,shootout,fasta_2,883.430000,1
Ř,7fd9feb45e3b50e92b990a94eaf8de6a69cd76e0,shootout,fasta_2,877.664000,1
Ř,7fd9feb45e3b50e92b990a94eaf8de6a69cd76e0,shootout,fasta_2,879.689000,1
Ř,7fd9feb45e3b50e92b990a94eaf8de6a69cd76e0,shootout,nbody_3,2007.883000,0
Ř,7fd9feb45e3b50e92b990a94eaf8de6a69cd76e0,shootout,nbody_3,2124.044000,0
Ř,7fd9feb45e3b50e92b990a94eaf8de6a69cd76e0,shootout,nbody_3,2192.449000,0
Ř,7fd9feb45e3b50e92b990a94eaf8de6a69cd76e0,shootout,nbody_3,1049.588000,0
Ř,7fd9feb45e3b50e92b990a94eaf8de6a69cd76e0,shootout,nbody_3,1062.538000,0
Ř,7fd9feb45e3b50e92b990a94eaf8de6a69cd76e0,shootout,nbody_3,1055.616000,1
Ř,7fd9feb45e3b50e92b990a94eaf8de6a69cd76e0,shootout,nbody_3,1065.941000,1
Ř,7fd9feb45e3b50e92b990a94eaf8de6a69cd76e0,shootout,nbody_3,1052.897000,1
Ř,7fd9feb45e3b50e92b990a94eaf8de6a69cd76e0,shootout,nbody_3,1068.315000,1
Ř,7fd9feb45e3b50e92b990a94eaf8de6a69cd76e0,shootout,nbody_3,1055.121000,1
Ř,7fd9feb45e3b50e92b990a94eaf8de6a69cd76e0,shootout,nbody_3,1055.833000,1
Ř,7fd9feb45e3b50e92b990a94eaf8de6a69cd76e0,shootout,nbody_3,1068.198000,1
Ř,7fd9feb45e3b50e92b990a94eaf8de6a69cd76e0,shootout,nbody_3,1054.662000,1
Ř,7fd9feb45e3b50e92b990a94eaf8de6a69cd76e0,shootout,nbody_3,1064.192000,1
Ř,7fd9feb45e3b50e92b990a94eaf8de6a69cd76e0,shootout,nbody_3,1056.988000,1
Ř,7fd9feb45e3b50e92b990a94eaf8de6a69cd76e0,shootout,reversecomplement,522.492000,0
Ř,7fd9feb45e3b50e92b990a94eaf8de6a69cd76e0,shootout,reversecomplement,569.377000,0
Ř,7fd9feb45e3b50e92b990a94eaf8de6a69cd76e0,shootout,reversecomplement,1277.525000,0
Ř,7fd9feb45e3b50e92b990a94eaf8de6a69cd76e0,shootout,reversecomplement,440.940000,0
Ř,7fd9feb45e3b50e92b990a94eaf8de6a69cd76e0,shootout,reversecomplement,447.372000,0
Ř,7fd9feb45e3b50e92b990a94eaf8de6a69cd76e0,shootout,reversecomplement,450.267000,1
Ř,7fd9feb45e3b50e92b990a94eaf8de6a69cd76e0,shootout,reversecomplement,454.611000,1
Ř,7fd9feb45e3b50e92b990a94eaf8de6a69cd76e0,shootout,reversecomplement,446.082000,1
Ř,7fd9feb45e3b50e92b990a94eaf8de6a69cd76e0,shootout,reversecomplement,451.529000,1
Ř,7fd9feb45e3b50e92b990a94eaf8de6a69cd76e0,shootout,reversecomplement,445.796000,1
Ř,7fd9feb45e3b50e92b990a94eaf8de6a69cd76e0,shootout,reversecomplement,450.214000,1
Ř,7fd9feb45e3b50e92b990a94eaf8de6a69cd76e0,shootout,reversecomplement,446.727000,1
Ř,7fd9feb45e3b50e92b990a94eaf8de6a69cd76e0,shootout,reversecomplement,448.551000,1
Ř,7fd9feb45e3b50e92b990a94eaf8de6a69cd76e0,shootout,reversecomplement,445.763000,1
Ř,7fd9feb45e3b50e92b990a94eaf8de6a69cd76e0,shootout,reversecomplement,451.444000,1
Ř,7fd9feb45e3b50e92b990a94eaf8de6a69cd76e0,shootout,mandelbrot_naive_ascii,610.442000,0
Ř,7fd9feb45e3b50e92b990a94eaf8de6a69cd76e0,shootout,mandelbrot_naive_ascii,611.316000,0
Ř,7fd9feb45e3b50e92b990a94eaf8de6a69cd76e0,shootout,mandelbrot_naive_ascii,1153.766000,0
Ř,7fd9feb45e3b50e92b990a94eaf8de6a69cd76e0,shootout,mandelbrot_naive_ascii,200.497000,0
Ř,7fd9feb45e3b50e92b990a94eaf8de6a69cd76e0,shootout,mandelbrot_naive_ascii,194.988000,0
Ř,7fd9feb45e3b50e92b990a94eaf8de6a69cd76e0,shootout,mandelbrot_naive_ascii,194.804000,1
Ř,7fd9feb45e3b50e92b990a94eaf8de6a69cd76e0,shootout,mandelbrot_naive_ascii,194.906000,1
Ř,7fd9feb45e3b50e92b990a94eaf8de6a69cd76e0,shootout,mandelbrot_naive_ascii,195.867000,1
Ř,7fd9feb45e3b50e92b990a94eaf8de6a69cd76e0,shootout,mandelbrot_naive_ascii,194.805000,1
Ř,7fd9feb45e3b50e92b990a94eaf8de6a69cd76e0,shootout,mandelbrot_naive_ascii,194.283000,1
Ř,7fd9feb45e3b50e92b990a94eaf8de6a69cd76e0,shootout,mandelbrot_naive_ascii,199.400000,1
Ř,7fd9feb45e3b50e92b990a94eaf8de6a69cd76e0,shootout,mandelbrot_naive_ascii,194.570000,1
Ř,7fd9feb45e3b50e92b990a94eaf8de6a69cd76e0,shootout,mandelbrot_naive_ascii,194.610000,1
Ř,7fd9feb45e3b50e92b990a94eaf8de6a69cd76e0,shootout,mandelbrot_naive_ascii,195.674000,1
Ř,7fd9feb45e3b50e92b990a94eaf8de6a69cd76e0,shootout,mandelbrot_naive_ascii,194.720000,1
Ř,7fd9feb45e3b50e92b990a94eaf8de6a69cd76e0,shootout,nbody,2374.880000,0
Ř,7fd9feb45e3b50e92b990a94eaf8de6a69cd76e0,shootout,nbody,2184.259000,0
Ř,7fd9feb45e3b50e92b990a94eaf8de6a69cd76e0,shootout,nbody,2268.197000,0
Ř,7fd9feb45e3b50e92b990a94eaf8de6a69cd76e0,shootout,nbody,762.719000,0
Ř,7fd9feb45e3b50e92b990a94eaf8de6a69cd76e0,shootout,nbody,757.069000,0
Ř,7fd9feb45e3b50e92b990a94eaf8de6a69cd76e0,shootout,nbody,748.087000,1
Ř,7fd9feb45e3b50e92b990a94eaf8de6a69cd76e0,shootout,nbody,748.034000,1
Ř,7fd9feb45e3b50e92b990a94eaf8de6a69cd76e0,shootout,nbody,746.837000,1
Ř,7fd9feb45e3b50e92b990a94eaf8de6a69cd76e0,shootout,nbody,766.127000,1
Ř,7fd9feb45e3b50e92b990a94eaf8de6a69cd76e0,shootout,nbody,745.776000,1
Ř,7fd9feb45e3b50e92b990a94eaf8de6a69cd76e0,shootout,nbody,746.091000,1
Ř,7fd9feb45e3b50e92b990a94eaf8de6a69cd76e0,shootout,nbody,747.272000,1
Ř,7fd9feb45e3b50e92b990a94eaf8de6a69cd76e0,shootout,nbody,760.348000,1
Ř,7fd9feb45e3b50e92b990a94eaf8de6a69cd76e0,shootout,nbody,747.539000,1
Ř,7fd9feb45e3b50e92b990a94eaf8de6a69cd76e0,shootout,nbody,750.872000,1
Ř,7fd9feb45e3b50e92b990a94eaf8de6a69cd76e0,shootout,fastaredux,650.776000,0
Ř,7fd9feb45e3b50e92b990a94eaf8de6a69cd76e0,shootout,fastaredux,1615.620000,0
Ř,7fd9feb45e3b50e92b990a94eaf8de6a69cd76e0,shootout,fastaredux,2344.346000,0
Ř,7fd9feb45e3b50e92b990a94eaf8de6a69cd76e0,shootout,fastaredux,376.793000,0
Ř,7fd9feb45e3b50e92b990a94eaf8de6a69cd76e0,shootout,fastaredux,386.538000,0
Ř,7fd9feb45e3b50e92b990a94eaf8de6a69cd76e0,shootout,fastaredux,373.020000,1
Ř,7fd9feb45e3b50e92b990a94eaf8de6a69cd76e0,shootout,fastaredux,374.447000,1
Ř,7fd9feb45e3b50e92b990a94eaf8de6a69cd76e0,shootout,fastaredux,378.281000,1
Ř,7fd9feb45e3b50e92b990a94eaf8de6a69cd76e0,shootout,fastaredux,380.214000,1
Ř,7fd9feb45e3b50e92b990a94eaf8de6a69cd76e0,shootout,fastaredux,376.573000,1
Ř,7fd9feb45e3b50e92b990a94eaf8de6a69cd76e0,shootout,fastaredux,384.388000,1
Ř,7fd9feb45e3b50e92b990a94eaf8de6a69cd76e0,shootout,fastaredux,376.972000,1
Ř,7fd9feb45e3b50e92b990a94eaf8de6a69cd76e0,shootout,fastaredux,377.188000,1
Ř,7fd9feb45e3b50e92b990a94eaf8de6a69cd76e0,shootout,fastaredux,382.294000,1
Ř,7fd9feb45e3b50e92b990a94eaf8de6a69cd76e0,shootout,fastaredux,384.322000,1
Ř,7fd9feb45e3b50e92b990a94eaf8de6a69cd76e0,shootout,knucleotide_brute_3,4348.035000,0
Ř,7fd9feb45e3b50e92b990a94eaf8de6a69cd76e0,shootout,knucleotide_brute_3,4418.323000,0
Ř,7fd9feb45e3b50e92b990a94eaf8de6a69cd76e0,shootout,knucleotide_brute_3,12178.666000,0
Ř,7fd9feb45e3b50e92b990a94eaf8de6a69cd76e0,shootout,knucleotide_brute_3,2755.672000,0
Ř,7fd9feb45e3b50e92b990a94eaf8de6a69cd76e0,shootout,knucleotide_brute_3,2765.763000,0
Ř,7fd9feb45e3b50e92b990a94eaf8de6a69cd76e0,shootout,knucleotide_brute_3,2759.929000,1
Ř,7fd9feb45e3b50e92b990a94eaf8de6a69cd76e0,shootout,knucleotide_brute_3,2764.275000,1
Ř,7fd9feb45e3b50e92b990a94eaf8de6a69cd76e0,shootout,knucleotide_brute_3,2745.548000,1
Ř,7fd9feb45e3b50e92b990a94eaf8de6a69cd76e0,shootout,knucleotide_brute_3,2765.912000,1
Ř,7fd9feb45e3b50e92b990a94eaf8de6a69cd76e0,shootout,knucleotide_brute_3,2744.067000,1
Ř,7fd9feb45e3b50e92b990a94eaf8de6a69cd76e0,shootout,knucleotide_brute_3,2754.673000,1
Ř,7fd9feb45e3b50e92b990a94eaf8de6a69cd76e0,shootout,knucleotide_brute_3,2749.436000,1
Ř,7fd9feb45e3b50e92b990a94eaf8de6a69cd76e0,shootout,knucleotide_brute_3,2749.063000,1
Ř,7fd9feb45e3b50e92b990a94eaf8de6a69cd76e0,shootout,knucleotide_brute_3,2748.467000,1
Ř,7fd9feb45e3b50e92b990a94eaf8de6a69cd76e0,shootout,knucleotide_brute_3,2750.868000,1
Ř,7fd9feb45e3b50e92b990a94eaf8de6a69cd76e0,shootout,fasta_naive_2,1036.555000,0
Ř,7fd9feb45e3b50e92b990a94eaf8de6a69cd76e0,shootout,fasta_naive_2,1223.546000,0
Ř,7fd9feb45e3b50e92b990a94eaf8de6a69cd76e0,shootout,fasta_naive_2,2342.380000,0
Ř,7fd9feb45e3b50e92b990a94eaf8de6a69cd76e0,shootout,fasta_naive_2,616.896000,0
Ř,7fd9feb45e3b50e92b990a94eaf8de6a69cd76e0,shootout,fasta_naive_2,613.791000,0
Ř,7fd9feb45e3b50e92b990a94eaf8de6a69cd76e0,shootout,fasta_naive_2,628.321000,1
Ř,7fd9feb45e3b50e92b990a94eaf8de6a69cd76e0,shootout,fasta_naive_2,616.269000,1
Ř,7fd9feb45e3b50e92b990a94eaf8de6a69cd76e0,shootout,fasta_naive_2,616.556000,1
Ř,7fd9feb45e3b50e92b990a94eaf8de6a69cd76e0,shootout,fasta_naive_2,640.394000,1
Ř,7fd9feb45e3b50e92b990a94eaf8de6a69cd76e0,shootout,fasta_naive_2,602.637000,1
Ř,7fd9feb45e3b50e92b990a94eaf8de6a69cd76e0,shootout,fasta_naive_2,614.012000,1
Ř,7fd9feb45e3b50e92b990a94eaf8de6a69cd76e0,shootout,fasta_naive_2,640.149000,1
Ř,7fd9feb45e3b50e92b990a94eaf8de6a69cd76e0,shootout,fasta_naive_2,605.648000,1
Ř,7fd9feb45e3b50e92b990a94eaf8de6a69cd76e0,shootout,fasta_naive_2,617.859000,1
Ř,7fd9feb45e3b50e92b990a94eaf8de6a69cd76e0,shootout,fasta_naive_2,636.023000,1
Ř,7fd9feb45e3b50e92b990a94eaf8de6a69cd76e0,shootout,fannkuchredux,2200.678000,0
Ř,7fd9feb45e3b50e92b990a94eaf8de6a69cd76e0,shootout,fannkuchredux,2151.263000,0
Ř,7fd9feb45e3b50e92b990a94eaf8de6a69cd76e0,shootout,fannkuchredux,3557.244000,0
Ř,7fd9feb45e3b50e92b990a94eaf8de6a69cd76e0,shootout,fannkuchredux,770.230000,0
Ř,7fd9feb45e3b50e92b990a94eaf8de6a69cd76e0,shootout,fannkuchredux,766.581000,0
Ř,7fd9feb45e3b50e92b990a94eaf8de6a69cd76e0,shootout,fannkuchredux,777.800000,1
Ř,7fd9feb45e3b50e92b990a94eaf8de6a69cd76e0,shootout,fannkuchredux,767.546000,1
Ř,7fd9feb45e3b50e92b990a94eaf8de6a69cd76e0,shootout,fannkuchredux,767.500000,1
Ř,7fd9feb45e3b50e92b990a94eaf8de6a69cd76e0,shootout,fannkuchredux,779.580000,1
Ř,7fd9feb45e3b50e92b990a94eaf8de6a69cd76e0,shootout,fannkuchredux,766.966000,1
Ř,7fd9feb45e3b50e92b990a94eaf8de6a69cd76e0,shootout,fannkuchredux,781.239000,1
Ř,7fd9feb45e3b50e92b990a94eaf8de6a69cd76e0,shootout,fannkuchredux,768.217000,1
Ř,7fd9feb45e3b50e92b990a94eaf8de6a69cd76e0,shootout,fannkuchredux,768.882000,1
Ř,7fd9feb45e3b50e92b990a94eaf8de6a69cd76e0,shootout,fannkuchredux,778.435000,1
Ř,7fd9feb45e3b50e92b990a94eaf8de6a69cd76e0,shootout,fannkuchredux,766.829000,1
Ř,7fd9feb45e3b50e92b990a94eaf8de6a69cd76e0,shootout,spectralnorm,2648.371000,0
Ř,7fd9feb45e3b50e92b990a94eaf8de6a69cd76e0,shootout,spectralnorm,2844.888000,0
Ř,7fd9feb45e3b50e92b990a94eaf8de6a69cd76e0,shootout,spectralnorm,2485.415000,0
Ř,7fd9feb45e3b50e92b990a94eaf8de6a69cd76e0,shootout,spectralnorm,72.066000,0
Ř,7fd9feb45e3b50e92b990a94eaf8de6a69cd76e0,shootout,spectralnorm,58.088000,0
Ř,7fd9feb45e3b50e92b990a94eaf8de6a69cd76e0,shootout,spectralnorm,59.262000,1
Ř,7fd9feb45e3b50e92b990a94eaf8de6a69cd76e0,shootout,spectralnorm,59.307000,1
Ř,7fd9feb45e3b50e92b990a94eaf8de6a69cd76e0,shootout,spectralnorm,57.911000,1
Ř,7fd9feb45e3b50e92b990a94eaf8de6a69cd76e0,shootout,spectralnorm,59.176000,1
Ř,7fd9feb45e3b50e92b990a94eaf8de6a69cd76e0,shootout,spectralnorm,59.453000,1
Ř,7fd9feb45e3b50e92b990a94eaf8de6a69cd76e0,shootout,spectralnorm,59.405000,1
Ř,7fd9feb45e3b50e92b990a94eaf8de6a69cd76e0,shootout,spectralnorm,57.986000,1
Ř,7fd9feb45e3b50e92b990a94eaf8de6a69cd76e0,shootout,spectralnorm,59.299000,1
Ř,7fd9feb45e3b50e92b990a94eaf8de6a69cd76e0,shootout,spectralnorm,59.412000,1
Ř,7fd9feb45e3b50e92b990a94eaf8de6a69cd76e0,shootout,spectralnorm,59.331000,1
Ř,7fd9feb45e3b50e92b990a94eaf8de6a69cd76e0,shootout,pidigits,38332.951000,0
Ř,7fd9feb45e3b50e92b990a94eaf8de6a69cd76e0,shootout,pidigits,792.499000,0
Ř,7fd9feb45e3b50e92b990a94eaf8de6a69cd76e0,shootout,pidigits,131246.734000,0
Ř,7fd9feb45e3b50e92b990a94eaf8de6a69cd76e0,shootout,pidigits,56507.313000,0
Ř,7fd9feb45e3b50e92b990a94eaf8de6a69cd76e0,shootout,pidigits,114.390000,0
Ř,7fd9feb45e3b50e92b990a94eaf8de6a69cd76e0,shootout,pidigits,101.703000,1
Ř,7fd9feb45e3b50e92b990a94eaf8de6a69cd76e0,shootout,pidigits,6882.229000,1
Ř,7fd9feb45e3b50e92b990a94eaf8de6a69cd76e0,shootout,pidigits,105.094000,1
Ř,7fd9feb45e3b50e92b990a94eaf8de6a69cd76e0,shootout,pidigits,101.432000,1
Ř,7fd9feb45e3b50e92b990a94eaf8de6a69cd76e0,shootout,pidigits,104.887000,1
Ř,7fd9feb45e3b50e92b990a94eaf8de6a69cd76e0,shootout,pidigits,101.366000,1
Ř,7fd9feb45e3b50e92b990a94eaf8de6a69cd76e0,shootout,pidigits,102.350000,1
Ř,7fd9feb45e3b50e92b990a94eaf8de6a69cd76e0,shootout,pidigits,101.483000,1
Ř,7fd9feb45e3b50e92b990a94eaf8de6a69cd76e0,shootout,pidigits,102.796000,1
Ř,7fd9feb45e3b50e92b990a94eaf8de6a69cd76e0,shootout,pidigits,101.814000,1
Ř,7fd9feb45e3b50e92b990a94eaf8de6a69cd76e0,shootout,nbody_naive,20966.889000,0
Ř,7fd9feb45e3b50e92b990a94eaf8de6a69cd76e0,shootout,nbody_naive,2133.785000,0
Ř,7fd9feb45e3b50e92b990a94eaf8de6a69cd76e0,shootout,nbody_naive,42044.455000,0
Ř,7fd9feb45e3b50e92b990a94eaf8de6a69cd76e0,shootout,nbody_naive,148.020000,0
Ř,7fd9feb45e3b50e92b990a94eaf8de6a69cd76e0,shootout,nbody_naive,152.502000,0
Ř,7fd9feb45e3b50e92b990a94eaf8de6a69cd76e0,shootout,nbody_naive,149.164000,1
Ř,7fd9feb45e3b50e92b990a94eaf8de6a69cd76e0,shootout,nbody_naive,147.938000,1
Ř,7fd9feb45e3b50e92b990a94eaf8de6a69cd76e0,shootout,nbody_naive,144.147000,1
Ř,7fd9feb45e3b50e92b990a94eaf8de6a69cd76e0,shootout,nbody_naive,144.381000,1
Ř,7fd9feb45e3b50e92b990a94eaf8de6a69cd76e0,shootout,nbody_naive,150.746000,1
Ř,7fd9feb45e3b50e92b990a94eaf8de6a69cd76e0,shootout,nbody_naive,148.286000,1
Ř,7fd9feb45e3b50e92b990a94eaf8de6a69cd76e0,shootout,nbody_naive,146.980000,1
Ř,7fd9feb45e3b50e92b990a94eaf8de6a69cd76e0,shootout,nbody_naive,144.443000,1
Ř,7fd9feb45e3b50e92b990a94eaf8de6a69cd76e0,shootout,nbody_naive,157.977000,1
Ř,7fd9feb45e3b50e92b990a94eaf8de6a69cd76e0,shootout,nbody_naive,148.555000,1
Ř,7fd9feb45e3b50e92b990a94eaf8de6a69cd76e0,shootout,binarytrees,1004.197000,0
Ř,7fd9feb45e3b50e92b990a94eaf8de6a69cd76e0,shootout,binarytrees,192.665000,0
Ř,7fd9feb45e3b50e92b990a94eaf8de6a69cd76e0,shootout,binarytrees,1373.521000,0
Ř,7fd9feb45e3b50e92b990a94eaf8de6a69cd76e0,shootout,binarytrees,70.185000,0
Ř,7fd9feb45e3b50e92b990a94eaf8de6a69cd76e0,shootout,binarytrees,70.151000,0
Ř,7fd9feb45e3b50e92b990a94eaf8de6a69cd76e0,shootout,binarytrees,81.304000,1
Ř,7fd9feb45e3b50e92b990a94eaf8de6a69cd76e0,shootout,binarytrees,70.853000,1
Ř,7fd9feb45e3b50e92b990a94eaf8de6a69cd76e0,shootout,binarytrees,70.638000,1
Ř,7fd9feb45e3b50e92b990a94eaf8de6a69cd76e0,shootout,binarytrees,70.968000,1
Ř,7fd9feb45e3b50e92b990a94eaf8de6a69cd76e0,shootout,binarytrees,71.122000,1
Ř,7fd9feb45e3b50e92b990a94eaf8de6a69cd76e0,shootout,binarytrees,73.374000,1
Ř,7fd9feb45e3b50e92b990a94eaf8de6a69cd76e0,shootout,binarytrees,70.598000,1
Ř,7fd9feb45e3b50e92b990a94eaf8de6a69cd76e0,shootout,binarytrees,70.664000,1
Ř,7fd9feb45e3b50e92b990a94eaf8de6a69cd76e0,shootout,binarytrees,70.798000,1
Ř,7fd9feb45e3b50e92b990a94eaf8de6a69cd76e0,shootout,binarytrees,70.627000,1
Ř,7fd9feb45e3b50e92b990a94eaf8de6a69cd76e0,shootout,knucleotide_brute_2,3456.452000,0
Ř,7fd9feb45e3b50e92b990a94eaf8de6a69cd76e0,shootout,knucleotide_brute_2,4685.511000,0
Ř,7fd9feb45e3b50e92b990a94eaf8de6a69cd76e0,shootout,knucleotide_brute_2,13151.433000,0
Ř,7fd9feb45e3b50e92b990a94eaf8de6a69cd76e0,shootout,knucleotide_brute_2,2454.853000,0
Ř,7fd9feb45e3b50e92b990a94eaf8de6a69cd76e0,shootout,knucleotide_brute_2,2674.828000,0
Ř,7fd9feb45e3b50e92b990a94eaf8de6a69cd76e0,shootout,knucleotide_brute_2,3083.781000,1
Ř,7fd9feb45e3b50e92b990a94eaf8de6a69cd76e0,shootout,knucleotide_brute_2,3874.582000,1
Ř,7fd9feb45e3b50e92b990a94eaf8de6a69cd76e0,shootout,knucleotide_brute_2,3086.807000,1
Ř,7fd9feb45e3b50e92b990a94eaf8de6a69cd76e0,shootout,knucleotide_brute_2,3654.618000,1
Ř,7fd9feb45e3b50e92b990a94eaf8de6a69cd76e0,shootout,knucleotide_brute_2,4002.297000,1
Ř,7fd9feb45e3b50e92b990a94eaf8de6a69cd76e0,shootout,knucleotide_brute_2,2042.626000,1
Ř,7fd9feb45e3b50e92b990a94eaf8de6a69cd76e0,shootout,knucleotide_brute_2,2065.838000,1
Ř,7fd9feb45e3b50e92b990a94eaf8de6a69cd76e0,shootout,knucleotide_brute_2,2176.221000,1
Ř,7fd9feb45e3b50e92b990a94eaf8de6a69cd76e0,shootout,knucleotide_brute_2,2729.707000,1
Ř,7fd9feb45e3b50e92b990a94eaf8de6a69cd76e0,shootout,knucleotide_brute_2,2928.486000,1
Ř,7fd9feb45e3b50e92b990a94eaf8de6a69cd76e0,shootout,binarytrees_2,1137.588000,0
Ř,7fd9feb45e3b50e92b990a94eaf8de6a69cd76e0,shootout,binarytrees_2,130.159000,0
Ř,7fd9feb45e3b50e92b990a94eaf8de6a69cd76e0,shootout,binarytrees_2,1398.530000,0
Ř,7fd9feb45e3b50e92b990a94eaf8de6a69cd76e0,shootout,binarytrees_2,85.223000,0
Ř,7fd9feb45e3b50e92b990a94eaf8de6a69cd76e0,shootout,binarytrees_2,95.364000,0
Ř,7fd9feb45e3b50e92b990a94eaf8de6a69cd76e0,shootout,binarytrees_2,84.852000,1
Ř,7fd9feb45e3b50e92b990a94eaf8de6a69cd76e0,shootout,binarytrees_2,84.565000,1
Ř,7fd9feb45e3b50e92b990a94eaf8de6a69cd76e0,shootout,binarytrees_2,84.813000,1
Ř,7fd9feb45e3b50e92b990a94eaf8de6a69cd76e0,shootout,binarytrees_2,87.601000,1
Ř,7fd9feb45e3b50e92b990a94eaf8de6a69cd76e0,shootout,binarytrees_2,84.943000,1
Ř,7fd9feb45e3b50e92b990a94eaf8de6a69cd76e0,shootout,binarytrees_2,85.073000,1
Ř,7fd9feb45e3b50e92b990a94eaf8de6a69cd76e0,shootout,binarytrees_2,85.281000,1
Ř,7fd9feb45e3b50e92b990a94eaf8de6a69cd76e0,shootout,binarytrees_2,85.398000,1
Ř,7fd9feb45e3b50e92b990a94eaf8de6a69cd76e0,shootout,binarytrees_2,85.736000,1
Ř,7fd9feb45e3b50e92b990a94eaf8de6a69cd76e0,shootout,binarytrees_2,85.738000,1
Ř,7fd9feb45e3b50e92b990a94eaf8de6a69cd76e0,shootout,nbody_naive_2,3088.419000,0
Ř,7fd9feb45e3b50e92b990a94eaf8de6a69cd76e0,shootout,nbody_naive_2,1790.689000,0
Ř,7fd9feb45e3b50e92b990a94eaf8de6a69cd76e0,shootout,nbody_naive_2,4705.062000,0
Ř,7fd9feb45e3b50e92b990a94eaf8de6a69cd76e0,shootout,nbody_naive_2,978.762000,0
Ř,7fd9feb45e3b50e92b990a94eaf8de6a69cd76e0,shootout,nbody_naive_2,974.796000,0
Ř,7fd9feb45e3b50e92b990a94eaf8de6a69cd76e0,shootout,nbody_naive_2,964.328000,1
Ř,7fd9feb45e3b50e92b990a94eaf8de6a69cd76e0,shootout,nbody_naive_2,976.075000,1
Ř,7fd9feb45e3b50e92b990a94eaf8de6a69cd76e0,shootout,nbody_naive_2,966.133000,1
Ř,7fd9feb45e3b50e92b990a94eaf8de6a69cd76e0,shootout,nbody_naive_2,977.113000,1
Ř,7fd9feb45e3b50e92b990a94eaf8de6a69cd76e0,shootout,nbody_naive_2,976.733000,1
Ř,7fd9feb45e3b50e92b990a94eaf8de6a69cd76e0,shootout,nbody_naive_2,967.233000,1
Ř,7fd9feb45e3b50e92b990a94eaf8de6a69cd76e0,shootout,nbody_naive_2,973.625000,1
Ř,7fd9feb45e3b50e92b990a94eaf8de6a69cd76e0,shootout,nbody_naive_2,965.234000,1
Ř,7fd9feb45e3b50e92b990a94eaf8de6a69cd76e0,shootout,nbody_naive_2,975.223000,1
Ř,7fd9feb45e3b50e92b990a94eaf8de6a69cd76e0,shootout,nbody_naive_2,975.707000,1
Ř,7fd9feb45e3b50e92b990a94eaf8de6a69cd76e0,shootout,reversecomplement_naive,501.911000,0
Ř,7fd9feb45e3b50e92b990a94eaf8de6a69cd76e0,shootout,reversecomplement_naive,552.828000,0
Ř,7fd9feb45e3b50e92b990a94eaf8de6a69cd76e0,shootout,reversecomplement_naive,1173.688000,0
Ř,7fd9feb45e3b50e92b990a94eaf8de6a69cd76e0,shootout,reversecomplement_naive,323.617000,0
Ř,7fd9feb45e3b50e92b990a94eaf8de6a69cd76e0,shootout,reversecomplement_naive,327.896000,0
Ř,7fd9feb45e3b50e92b990a94eaf8de6a69cd76e0,shootout,reversecomplement_naive,326.857000,1
Ř,7fd9feb45e3b50e92b990a94eaf8de6a69cd76e0,shootout,reversecomplement_naive,324.798000,1
Ř,7fd9feb45e3b50e92b990a94eaf8de6a69cd76e0,shootout,reversecomplement_naive,335.972000,1
Ř,7fd9feb45e3b50e92b990a94eaf8de6a69cd76e0,shootout,reversecomplement_naive,321.596000,1
Ř,7fd9feb45e3b50e92b990a94eaf8de6a69cd76e0,shootout,reversecomplement_naive,324.478000,1
Ř,7fd9feb45e3b50e92b990a94eaf8de6a69cd76e0,shootout,reversecomplement_naive,322.146000,1
Ř,7fd9feb45e3b50e92b990a94eaf8de6a69cd76e0,shootout,reversecomplement_naive,321.445000,1
Ř,7fd9feb45e3b50e92b990a94eaf8de6a69cd76e0,shootout,reversecomplement_naive,324.278000,1
Ř,7fd9feb45e3b50e92b990a94eaf8de6a69cd76e0,shootout,reversecomplement_naive,322.550000,1
Ř,7fd9feb45e3b50e92b990a94eaf8de6a69cd76e0,shootout,reversecomplement_naive,354.381000,1
Ř,7fd9feb45e3b50e92b990a94eaf8de6a69cd76e0,shootout,spectralnorm_alt_2,1687.857000,0
Ř,7fd9feb45e3b50e92b990a94eaf8de6a69cd76e0,shootout,spectralnorm_alt_2,1389.822000,0
Ř,7fd9feb45e3b50e92b990a94eaf8de6a69cd76e0,shootout,spectralnorm_alt_2,2570.785000,0
Ř,7fd9feb45e3b50e92b990a94eaf8de6a69cd76e0,shootout,spectralnorm_alt_2,1150.905000,0
Ř,7fd9feb45e3b50e92b990a94eaf8de6a69cd76e0,shootout,spectralnorm_alt_2,1221.277000,0
Ř,7fd9feb45e3b50e92b990a94eaf8de6a69cd76e0,shootout,spectralnorm_alt_2,1192.294000,1
Ř,7fd9feb45e3b50e92b990a94eaf8de6a69cd76e0,shootout,spectralnorm_alt_2,1186.704000,1
Ř,7fd9feb45e3b50e92b990a94eaf8de6a69cd76e0,shootout,spectralnorm_alt_2,1178.666000,1
Ř,7fd9feb45e3b50e92b990a94eaf8de6a69cd76e0,shootout,spectralnorm_alt_2,1190.578000,1
Ř,7fd9feb45e3b50e92b990a94eaf8de6a69cd76e0,shootout,spectralnorm_alt_2,1209.688000,1
Ř,7fd9feb45e3b50e92b990a94eaf8de6a69cd76e0,shootout,spectralnorm_alt_2,1176.391000,1
Ř,7fd9feb45e3b50e92b990a94eaf8de6a69cd76e0,shootout,spectralnorm_alt_2,1185.942000,1
Ř,7fd9feb45e3b50e92b990a94eaf8de6a69cd76e0,shootout,spectralnorm_alt_2,1201.900000,1
Ř,7fd9feb45e3b50e92b990a94eaf8de6a69cd76e0,shootout,spectralnorm_alt_2,1179.633000,1
Ř,7fd9feb45e3b50e92b990a94eaf8de6a69cd76e0,shootout,spectralnorm_alt_2,1177.006000,1
Ř,7fd9feb45e3b50e92b990a94eaf8de6a69cd76e0,shootout,reversecomplement_2,501.719000,0
Ř,7fd9feb45e3b50e92b990a94eaf8de6a69cd76e0,shootout,reversecomplement_2,581.640000,0
Ř,7fd9feb45e3b50e92b990a94eaf8de6a69cd76e0,shootout,reversecomplement_2,1589.672000,0
Ř,7fd9feb45e3b50e92b990a94eaf8de6a69cd76e0,shootout,reversecomplement_2,497.986000,0
Ř,7fd9feb45e3b50e92b990a94eaf8de6a69cd76e0,shootout,reversecomplement_2,478.121000,0
Ř,7fd9feb45e3b50e92b990a94eaf8de6a69cd76e0,shootout,reversecomplement_2,480.268000,1
Ř,7fd9feb45e3b50e92b990a94eaf8de6a69cd76e0,shootout,reversecomplement_2,480.186000,1
Ř,7fd9feb45e3b50e92b990a94eaf8de6a69cd76e0,shootout,reversecomplement_2,484.361000,1
Ř,7fd9feb45e3b50e92b990a94eaf8de6a69cd76e0,shootout,reversecomplement_2,482.381000,1
Ř,7fd9feb45e3b50e92b990a94eaf8de6a69cd76e0,shootout,reversecomplement_2,479.868000,1
Ř,7fd9feb45e3b50e92b990a94eaf8de6a69cd76e0,shootout,reversecomplement_2,440.561000,1
Ř,7fd9feb45e3b50e92b990a94eaf8de6a69cd76e0,shootout,reversecomplement_2,465.884000,1
Ř,7fd9feb45e3b50e92b990a94eaf8de6a69cd76e0,shootout,reversecomplement_2,419.268000,1
Ř,7fd9feb45e3b50e92b990a94eaf8de6a69cd76e0,shootout,reversecomplement_2,407.586000,1
Ř,7fd9feb45e3b50e92b990a94eaf8de6a69cd76e0,shootout,reversecomplement_2,403.344000,1
Ř,7fd9feb45e3b50e92b990a94eaf8de6a69cd76e0,shootout,fasta,1503.152000,0
Ř,7fd9feb45e3b50e92b990a94eaf8de6a69cd76e0,shootout,fasta,1256.190000,0
Ř,7fd9feb45e3b50e92b990a94eaf8de6a69cd76e0,shootout,fasta,1979.382000,0
Ř,7fd9feb45e3b50e92b990a94eaf8de6a69cd76e0,shootout,fasta,913.558000,0
Ř,7fd9feb45e3b50e92b990a94eaf8de6a69cd76e0,shootout,fasta,918.453000,0
Ř,7fd9feb45e3b50e92b990a94eaf8de6a69cd76e0,shootout,fasta,918.411000,1
Ř,7fd9feb45e3b50e92b990a94eaf8de6a69cd76e0,shootout,fasta,923.257000,1
Ř,7fd9feb45e3b50e92b990a94eaf8de6a69cd76e0,shootout,fasta,919.013000,1
Ř,7fd9feb45e3b50e92b990a94eaf8de6a69cd76e0,shootout,fasta,925.672000,1
Ř,7fd9feb45e3b50e92b990a94eaf8de6a69cd76e0,shootout,fasta,934.576000,1
Ř,7fd9feb45e3b50e92b990a94eaf8de6a69cd76e0,shootout,fasta,927.099000,1
Ř,7fd9feb45e3b50e92b990a94eaf8de6a69cd76e0,shootout,fasta,916.040000,1
Ř,7fd9feb45e3b50e92b990a94eaf8de6a69cd76e0,shootout,fasta,923.897000,1
Ř,7fd9feb45e3b50e92b990a94eaf8de6a69cd76e0,shootout,fasta,929.622000,1
Ř,7fd9feb45e3b50e92b990a94eaf8de6a69cd76e0,shootout,fasta,920.242000,1
Ř,7fd9feb45e3b50e92b990a94eaf8de6a69cd76e0,shootout,fannkuchredux_naive,2526.279000,0
Ř,7fd9feb45e3b50e92b990a94eaf8de6a69cd76e0,shootout,fannkuchredux_naive,2495.913000,0
Ř,7fd9feb45e3b50e92b990a94eaf8de6a69cd76e0,shootout,fannkuchredux_naive,2878.458000,0
Ř,7fd9feb45e3b50e92b990a94eaf8de6a69cd76e0,shootout,fannkuchredux_naive,205.274000,0
Ř,7fd9feb45e3b50e92b990a94eaf8de6a69cd76e0,shootout,fannkuchredux_naive,199.377000,0
Ř,7fd9feb45e3b50e92b990a94eaf8de6a69cd76e0,shootout,fannkuchredux_naive,200.277000,1
Ř,7fd9feb45e3b50e92b990a94eaf8de6a69cd76e0,shootout,fannkuchredux_naive,205.206000,1
Ř,7fd9feb45e3b50e92b990a94eaf8de6a69cd76e0,shootout,fannkuchredux_naive,200.648000,1
Ř,7fd9feb45e3b50e92b990a94eaf8de6a69cd76e0,shootout,fannkuchredux_naive,213.598000,1
Ř,7fd9feb45e3b50e92b990a94eaf8de6a69cd76e0,shootout,fannkuchredux_naive,201.872000,1
Ř,7fd9feb45e3b50e92b990a94eaf8de6a69cd76e0,shootout,fannkuchredux_naive,199.509000,1
Ř,7fd9feb45e3b50e92b990a94eaf8de6a69cd76e0,shootout,fannkuchredux_naive,204.917000,1
Ř,7fd9feb45e3b50e92b990a94eaf8de6a69cd76e0,shootout,fannkuchredux_naive,200.064000,1
Ř,7fd9feb45e3b50e92b990a94eaf8de6a69cd76e0,shootout,fannkuchredux_naive,199.474000,1
Ř,7fd9feb45e3b50e92b990a94eaf8de6a69cd76e0,shootout,fannkuchredux_naive,204.023000,1
Ř,7fd9feb45e3b50e92b990a94eaf8de6a69cd76e0,shootout,mandelbrot_ascii,387.812000,0
Ř,7fd9feb45e3b50e92b990a94eaf8de6a69cd76e0,shootout,mandelbrot_ascii,80.467000,0
Ř,7fd9feb45e3b50e92b990a94eaf8de6a69cd76e0,shootout,mandelbrot_ascii,944.052000,0
Ř,7fd9feb45e3b50e92b990a94eaf8de6a69cd76e0,shootout,mandelbrot_ascii,63.961000,0
Ř,7fd9feb45e3b50e92b990a94eaf8de6a69cd76e0,shootout,mandelbrot_ascii,61.592000,0
Ř,7fd9feb45e3b50e92b990a94eaf8de6a69cd76e0,shootout,mandelbrot_ascii,62.315000,1
Ř,7fd9feb45e3b50e92b990a94eaf8de6a69cd76e0,shootout,mandelbrot_ascii,62.547000,1
Ř,7fd9feb45e3b50e92b990a94eaf8de6a69cd76e0,shootout,mandelbrot_ascii,64.189000,1
Ř,7fd9feb45e3b50e92b990a94eaf8de6a69cd76e0,shootout,mandelbrot_ascii,62.711000,1
Ř,7fd9feb45e3b50e92b990a94eaf8de6a69cd76e0,shootout,mandelbrot_ascii,62.686000,1
Ř,7fd9feb45e3b50e92b990a94eaf8de6a69cd76e0,shootout,mandelbrot_ascii,62.603000,1
Ř,7fd9feb45e3b50e92b990a94eaf8de6a69cd76e0,shootout,mandelbrot_ascii,64.244000,1
Ř,7fd9feb45e3b50e92b990a94eaf8de6a69cd76e0,shootout,mandelbrot_ascii,62.681000,1
Ř,7fd9feb45e3b50e92b990a94eaf8de6a69cd76e0,shootout,mandelbrot_ascii,62.569000,1
Ř,7fd9feb45e3b50e92b990a94eaf8de6a69cd76e0,shootout,mandelbrot_ascii,64.143000,1
Ř,7fd9feb45e3b50e92b990a94eaf8de6a69cd76e0,shootout,regexdna,1523.590000,0
Ř,7fd9feb45e3b50e92b990a94eaf8de6a69cd76e0,shootout,regexdna,1500.120000,0
Ř,7fd9feb45e3b50e92b990a94eaf8de6a69cd76e0,shootout,regexdna,3669.805000,0
Ř,7fd9feb45e3b50e92b990a94eaf8de6a69cd76e0,shootout,regexdna,1437.172000,0
Ř,7fd9feb45e3b50e92b990a94eaf8de6a69cd76e0,shootout,regexdna,1439.630000,0
Ř,7fd9feb45e3b50e92b990a94eaf8de6a69cd76e0,shootout,regexdna,1453.878000,1
Ř,7fd9feb45e3b50e92b990a94eaf8de6a69cd76e0,shootout,regexdna,1434.396000,1
Ř,7fd9feb45e3b50e92b990a94eaf8de6a69cd76e0,shootout,regexdna,1444.447000,1
Ř,7fd9feb45e3b50e92b990a94eaf8de6a69cd76e0,shootout,regexdna,1436.946000,1
Ř,7fd9feb45e3b50e92b990a94eaf8de6a69cd76e0,shootout,regexdna,1450.645000,1
Ř,7fd9feb45e3b50e92b990a94eaf8de6a69cd76e0,shootout,regexdna,1436.487000,1
Ř,7fd9feb45e3b50e92b990a94eaf8de6a69cd76e0,shootout,regexdna,1437.687000,1
Ř,7fd9feb45e3b50e92b990a94eaf8de6a69cd76e0,shootout,regexdna,1441.140000,1
Ř,7fd9feb45e3b50e92b990a94eaf8de6a69cd76e0,shootout,regexdna,1449.494000,1
Ř,7fd9feb45e3b50e92b990a94eaf8de6a69cd76e0,shootout,regexdna,1432.911000,1
Ř,7fd9feb45e3b50e92b990a94eaf8de6a69cd76e0,shootout,fasta_naive,867.655000,0
Ř,7fd9feb45e3b50e92b990a94eaf8de6a69cd76e0,shootout,fasta_naive,859.053000,0
Ř,7fd9feb45e3b50e92b990a94eaf8de6a69cd76e0,shootout,fasta_naive,1966.922000,0
Ř,7fd9feb45e3b50e92b990a94eaf8de6a69cd76e0,shootout,fasta_naive,435.406000,0
Ř,7fd9feb45e3b50e92b990a94eaf8de6a69cd76e0,shootout,fasta_naive,452.208000,0
Ř,7fd9feb45e3b50e92b990a94eaf8de6a69cd76e0,shootout,fasta_naive,410.158000,1
Ř,7fd9feb45e3b50e92b990a94eaf8de6a69cd76e0,shootout,fasta_naive,420.950000,1
Ř,7fd9feb45e3b50e92b990a94eaf8de6a69cd76e0,shootout,fasta_naive,426.822000,1
Ř,7fd9feb45e3b50e92b990a94eaf8de6a69cd76e0,shootout,fasta_naive,434.916000,1
Ř,7fd9feb45e3b50e92b990a94eaf8de6a69cd76e0,shootout,fasta_naive,438.806000,1
Ř,7fd9feb45e3b50e92b990a94eaf8de6a69cd76e0,shootout,fasta_naive,433.975000,1
Ř,7fd9feb45e3b50e92b990a94eaf8de6a69cd76e0,shootout,fasta_naive,413.651000,1
Ř,7fd9feb45e3b50e92b990a94eaf8de6a69cd76e0,shootout,fasta_naive,427.915000,1
Ř,7fd9feb45e3b50e92b990a94eaf8de6a69cd76e0,shootout,fasta_naive,435.129000,1
Ř,7fd9feb45e3b50e92b990a94eaf8de6a69cd76e0,shootout,fasta_naive,436.634000,1
Ř,7fd9feb45e3b50e92b990a94eaf8de6a69cd76e0,shootout,knucleotide,3070.716000,0
Ř,7fd9feb45e3b50e92b990a94eaf8de6a69cd76e0,shootout,knucleotide,2169.020000,0
Ř,7fd9feb45e3b50e92b990a94eaf8de6a69cd76e0,shootout,knucleotide,8987.650000,0
Ř,7fd9feb45e3b50e92b990a94eaf8de6a69cd76e0,shootout,knucleotide,500.258000,0
Ř,7fd9feb45e3b50e92b990a94eaf8de6a69cd76e0,shootout,knucleotide,520.064000,0
Ř,7fd9feb45e3b50e92b990a94eaf8de6a69cd76e0,shootout,knucleotide,543.426000,1
Ř,7fd9feb45e3b50e92b990a94eaf8de6a69cd76e0,shootout,knucleotide,487.015000,1
Ř,7fd9feb45e3b50e92b990a94eaf8de6a69cd76e0,shootout,knucleotide,434.814000,1
Ř,7fd9feb45e3b50e92b990a94eaf8de6a69cd76e0,shootout,knucleotide,466.127000,1
Ř,7fd9feb45e3b50e92b990a94eaf8de6a69cd76e0,shootout,knucleotide,492.248000,1
Ř,7fd9feb45e3b50e92b990a94eaf8de6a69cd76e0,shootout,knucleotide,512.370000,1
Ř,7fd9feb45e3b50e92b990a94eaf8de6a69cd76e0,shootout,knucleotide,533.294000,1
Ř,7fd9feb45e3b50e92b990a94eaf8de6a69cd76e0,shootout,knucleotide,488.938000,1
Ř,7fd9feb45e3b50e92b990a94eaf8de6a69cd76e0,shootout,knucleotide,435.501000,1
Ř,7fd9feb45e3b50e92b990a94eaf8de6a69cd76e0,shootout,knucleotide,466.499000,1
Ř,7fd9feb45e3b50e92b990a94eaf8de6a69cd76e0,shootout,spectralnorm_math,3540.751000,0
Ř,7fd9feb45e3b50e92b990a94eaf8de6a69cd76e0,shootout,spectralnorm_math,3373.929000,0
Ř,7fd9feb45e3b50e92b990a94eaf8de6a69cd76e0,shootout,spectralnorm_math,3817.058000,0
Ř,7fd9feb45e3b50e92b990a94eaf8de6a69cd76e0,shootout,spectralnorm_math,3208.016000,0
Ř,7fd9feb45e3b50e92b990a94eaf8de6a69cd76e0,shootout,spectralnorm_math,3218.116000,0
Ř,7fd9feb45e3b50e92b990a94eaf8de6a69cd76e0,shootout,spectralnorm_math,3197.960000,1
Ř,7fd9feb45e3b50e92b990a94eaf8de6a69cd76e0,shootout,spectralnorm_math,3228.697000,1
Ř,7fd9feb45e3b50e92b990a94eaf8de6a69cd76e0,shootout,spectralnorm_math,3199.216000,1
Ř,7fd9feb45e3b50e92b990a94eaf8de6a69cd76e0,shootout,spectralnorm_math,3206.307000,1
Ř,7fd9feb45e3b50e92b990a94eaf8de6a69cd76e0,shootout,spectralnorm_math,3210.670000,1
Ř,7fd9feb45e3b50e92b990a94eaf8de6a69cd76e0,shootout,spectralnorm_math,3213.721000,1
Ř,7fd9feb45e3b50e92b990a94eaf8de6a69cd76e0,shootout,spectralnorm_math,3206.156000,1
Ř,7fd9feb45e3b50e92b990a94eaf8de6a69cd76e0,shootout,spectralnorm_math,3213.607000,1
Ř,7fd9feb45e3b50e92b990a94eaf8de6a69cd76e0,shootout,spectralnorm_math,3206.958000,1
Ř,7fd9feb45e3b50e92b990a94eaf8de6a69cd76e0,shootout,spectralnorm_math,3217.107000,1
Ř,7fd9feb45e3b50e92b990a94eaf8de6a69cd76e0,shootout,fastaredux_naive,694.798000,0
Ř,7fd9feb45e3b50e92b990a94eaf8de6a69cd76e0,shootout,fastaredux_naive,1362.564000,0
Ř,7fd9feb45e3b50e92b990a94eaf8de6a69cd76e0,shootout,fastaredux_naive,2445.035000,0
Ř,7fd9feb45e3b50e92b990a94eaf8de6a69cd76e0,shootout,fastaredux_naive,440.898000,0
Ř,7fd9feb45e3b50e92b990a94eaf8de6a69cd76e0,shootout,fastaredux_naive,445.604000,0
Ř,7fd9feb45e3b50e92b990a94eaf8de6a69cd76e0,shootout,fastaredux_naive,432.712000,1
Ř,7fd9feb45e3b50e92b990a94eaf8de6a69cd76e0,shootout,fastaredux_naive,417.923000,1
Ř,7fd9feb45e3b50e92b990a94eaf8de6a69cd76e0,shootout,fastaredux_naive,422.833000,1
Ř,7fd9feb45e3b50e92b990a94eaf8de6a69cd76e0,shootout,fastaredux_naive,434.428000,1
Ř,7fd9feb45e3b50e92b990a94eaf8de6a69cd76e0,shootout,fastaredux_naive,436.619000,1
Ř,7fd9feb45e3b50e92b990a94eaf8de6a69cd76e0,shootout,fastaredux_naive,440.978000,1
Ř,7fd9feb45e3b50e92b990a94eaf8de6a69cd76e0,shootout,fastaredux_naive,412.787000,1
Ř,7fd9feb45e3b50e92b990a94eaf8de6a69cd76e0,shootout,fastaredux_naive,424.069000,1
Ř,7fd9feb45e3b50e92b990a94eaf8de6a69cd76e0,shootout,fastaredux_naive,427.965000,1
Ř,7fd9feb45e3b50e92b990a94eaf8de6a69cd76e0,shootout,fastaredux_naive,438.207000,1
Ř,7fd9feb45e3b50e92b990a94eaf8de6a69cd76e0,shootout,mandelbrot_noout_naive,260.626000,0
Ř,7fd9feb45e3b50e92b990a94eaf8de6a69cd76e0,shootout,mandelbrot_noout_naive,244.541000,0
Ř,7fd9feb45e3b50e92b990a94eaf8de6a69cd76e0,shootout,mandelbrot_noout_naive,1169.815000,0
Ř,7fd9feb45e3b50e92b990a94eaf8de6a69cd76e0,shootout,mandelbrot_noout_naive,218.049000,0
Ř,7fd9feb45e3b50e92b990a94eaf8de6a69cd76e0,shootout,mandelbrot_noout_naive,218.907000,0
Ř,7fd9feb45e3b50e92b990a94eaf8de6a69cd76e0,shootout,mandelbrot_noout_naive,218.939000,1
Ř,7fd9feb45e3b50e92b990a94eaf8de6a69cd76e0,shootout,mandelbrot_noout_naive,228.909000,1
Ř,7fd9feb45e3b50e92b990a94eaf8de6a69cd76e0,shootout,mandelbrot_noout_naive,220.101000,1
Ř,7fd9feb45e3b50e92b990a94eaf8de6a69cd76e0,shootout,mandelbrot_noout_naive,228.357000,1
Ř,7fd9feb45e3b50e92b990a94eaf8de6a69cd76e0,shootout,mandelbrot_noout_naive,227.301000,1
Ř,7fd9feb45e3b50e92b990a94eaf8de6a69cd76e0,shootout,mandelbrot_noout_naive,237.176000,1
Ř,7fd9feb45e3b50e92b990a94eaf8de6a69cd76e0,shootout,mandelbrot_noout_naive,223.259000,1
Ř,7fd9feb45e3b50e92b990a94eaf8de6a69cd76e0,shootout,mandelbrot_noout_naive,225.497000,1
Ř,7fd9feb45e3b50e92b990a94eaf8de6a69cd76e0,shootout,mandelbrot_noout_naive,227.474000,1
Ř,7fd9feb45e3b50e92b990a94eaf8de6a69cd76e0,shootout,mandelbrot_noout_naive,238.897000,1
Ř,7fd9feb45e3b50e92b990a94eaf8de6a69cd76e0,shootout,knucleotide_brute,4427.231000,0
Ř,7fd9feb45e3b50e92b990a94eaf8de6a69cd76e0,shootout,knucleotide_brute,5319.307000,0
Ř,7fd9feb45e3b50e92b990a94eaf8de6a69cd76e0,shootout,knucleotide_brute,14335.202000,0
Ř,7fd9feb45e3b50e92b990a94eaf8de6a69cd76e0,shootout,knucleotide_brute,3754.515000,0
Ř,7fd9feb45e3b50e92b990a94eaf8de6a69cd76e0,shootout,knucleotide_brute,3882.688000,0
Ř,7fd9feb45e3b50e92b990a94eaf8de6a69cd76e0,shootout,knucleotide_brute,3974.516000,1
Ř,7fd9feb45e3b50e92b990a94eaf8de6a69cd76e0,shootout,knucleotide_brute,3967.817000,1
Ř,7fd9feb45e3b50e92b990a94eaf8de6a69cd76e0,shootout,knucleotide_brute,4052.909000,1
Ř,7fd9feb45e3b50e92b990a94eaf8de6a69cd76e0,shootout,knucleotide_brute,4064.035000,1
Ř,7fd9feb45e3b50e92b990a94eaf8de6a69cd76e0,shootout,knucleotide_brute,4112.639000,1
Ř,7fd9feb45e3b50e92b990a94eaf8de6a69cd76e0,shootout,knucleotide_brute,3408.992000,1
Ř,7fd9feb45e3b50e92b990a94eaf8de6a69cd76e0,shootout,knucleotide_brute,3413.573000,1
Ř,7fd9feb45e3b50e92b990a94eaf8de6a69cd76e0,shootout,knucleotide_brute,3689.897000,1
Ř,7fd9feb45e3b50e92b990a94eaf8de6a69cd76e0,shootout,knucleotide_brute,3726.109000,1
Ř,7fd9feb45e3b50e92b990a94eaf8de6a69cd76e0,shootout,knucleotide_brute,3869.343000,1
Ř,7fd9feb45e3b50e92b990a94eaf8de6a69cd76e0,shootout,spectralnorm_alt_3,1074.815000,0
Ř,7fd9feb45e3b50e92b990a94eaf8de6a69cd76e0,shootout,spectralnorm_alt_3,866.665000,0
Ř,7fd9feb45e3b50e92b990a94eaf8de6a69cd76e0,shootout,spectralnorm_alt_3,1464.486000,0
Ř,7fd9feb45e3b50e92b990a94eaf8de6a69cd76e0,shootout,spectralnorm_alt_3,95.853000,0
Ř,7fd9feb45e3b50e92b990a94eaf8de6a69cd76e0,shootout,spectralnorm_alt_3,95.986000,0
Ř,7fd9feb45e3b50e92b990a94eaf8de6a69cd76e0,shootout,spectralnorm_alt_3,96.660000,1
Ř,7fd9feb45e3b50e92b990a94eaf8de6a69cd76e0,shootout,spectralnorm_alt_3,95.928000,1
Ř,7fd9feb45e3b50e92b990a94eaf8de6a69cd76e0,shootout,spectralnorm_alt_3,95.639000,1
Ř,7fd9feb45e3b50e92b990a94eaf8de6a69cd76e0,shootout,spectralnorm_alt_3,94.778000,1
Ř,7fd9feb45e3b50e92b990a94eaf8de6a69cd76e0,shootout,spectralnorm_alt_3,95.676000,1
Ř,7fd9feb45e3b50e92b990a94eaf8de6a69cd76e0,shootout,spectralnorm_alt_3,95.854000,1
Ř,7fd9feb45e3b50e92b990a94eaf8de6a69cd76e0,shootout,spectralnorm_alt_3,96.014000,1
Ř,7fd9feb45e3b50e92b990a94eaf8de6a69cd76e0,shootout,spectralnorm_alt_3,96.162000,1
Ř,7fd9feb45e3b50e92b990a94eaf8de6a69cd76e0,shootout,spectralnorm_alt_3,98.283000,1
Ř,7fd9feb45e3b50e92b990a94eaf8de6a69cd76e0,shootout,spectralnorm_alt_3,95.634000,1
Ř,7fd9feb45e3b50e92b990a94eaf8de6a69cd76e0,shootout,mandelbrot_noout,388.128000,0
Ř,7fd9feb45e3b50e92b990a94eaf8de6a69cd76e0,shootout,mandelbrot_noout,68.550000,0
Ř,7fd9feb45e3b50e92b990a94eaf8de6a69cd76e0,shootout,mandelbrot_noout,726.704000,0
Ř,7fd9feb45e3b50e92b990a94eaf8de6a69cd76e0,shootout,mandelbrot_noout,64.525000,0
Ř,7fd9feb45e3b50e92b990a94eaf8de6a69cd76e0,shootout,mandelbrot_noout,65.592000,0
Ř,7fd9feb45e3b50e92b990a94eaf8de6a69cd76e0,shootout,mandelbrot_noout,64.252000,1
Ř,7fd9feb45e3b50e92b990a94eaf8de6a69cd76e0,shootout,mandelbrot_noout,64.300000,1
Ř,7fd9feb45e3b50e92b990a94eaf8de6a69cd76e0,shootout,mandelbrot_noout,64.290000,1
Ř,7fd9feb45e3b50e92b990a94eaf8de6a69cd76e0,shootout,mandelbrot_noout,65.710000,1
Ř,7fd9feb45e3b50e92b990a94eaf8de6a69cd76e0,shootout,mandelbrot_noout,74.273000,1
Ř,7fd9feb45e3b50e92b990a94eaf8de6a69cd76e0,shootout,mandelbrot_noout,64.341000,1
Ř,7fd9feb45e3b50e92b990a94eaf8de6a69cd76e0,shootout,mandelbrot_noout,64.101000,1
Ř,7fd9feb45e3b50e92b990a94eaf8de6a69cd76e0,shootout,mandelbrot_noout,64.136000,1
Ř,7fd9feb45e3b50e92b990a94eaf8de6a69cd76e0,shootout,mandelbrot_noout,65.150000,1
Ř,7fd9feb45e3b50e92b990a94eaf8de6a69cd76e0,shootout,mandelbrot_noout,64.121000,1
Ř,7fd9feb45e3b50e92b990a94eaf8de6a69cd76e0,shootout,fasta_3,1216.588000,0
Ř,7fd9feb45e3b50e92b990a94eaf8de6a69cd76e0,shootout,fasta_3,3477.629000,0
Ř,7fd9feb45e3b50e92b990a94eaf8de6a69cd76e0,shootout,fasta_3,4174.209000,0
Ř,7fd9feb45e3b50e92b990a94eaf8de6a69cd76e0,shootout,fasta_3,908.543000,0
Ř,7fd9feb45e3b50e92b990a94eaf8de6a69cd76e0,shootout,fasta_3,896.505000,0
Ř,7fd9feb45e3b50e92b990a94eaf8de6a69cd76e0,shootout,fasta_3,888.513000,1
Ř,7fd9feb45e3b50e92b990a94eaf8de6a69cd76e0,shootout,fasta_3,895.344000,1
Ř,7fd9feb45e3b50e92b990a94eaf8de6a69cd76e0,shootout,fasta_3,910.301000,1
Ř,7fd9feb45e3b50e92b990a94eaf8de6a69cd76e0,shootout,fasta_3,901.741000,1
Ř,7fd9feb45e3b50e92b990a94eaf8de6a69cd76e0,shootout,fasta_3,903.287000,1
Ř,7fd9feb45e3b50e92b990a94eaf8de6a69cd76e0,shootout,fasta_3,901.234000,1
Ř,7fd9feb45e3b50e92b990a94eaf8de6a69cd76e0,shootout,fasta_3,895.224000,1
Ř,7fd9feb45e3b50e92b990a94eaf8de6a69cd76e0,shootout,fasta_3,900.810000,1
Ř,7fd9feb45e3b50e92b990a94eaf8de6a69cd76e0,shootout,fasta_3,900.532000,1
Ř,7fd9feb45e3b50e92b990a94eaf8de6a69cd76e0,shootout,fasta_3,899.406000,1
Ř,7fd9feb45e3b50e92b990a94eaf8de6a69cd76e0,shootout,binarytrees_naive,895.154000,0
Ř,7fd9feb45e3b50e92b990a94eaf8de6a69cd76e0,shootout,binarytrees_naive,129.662000,0
Ř,7fd9feb45e3b50e92b990a94eaf8de6a69cd76e0,shootout,binarytrees_naive,3946.198000,0
Ř,7fd9feb45e3b50e92b990a94eaf8de6a69cd76e0,shootout,binarytrees_naive,83.610000,0
Ř,7fd9feb45e3b50e92b990a94eaf8de6a69cd76e0,shootout,binarytrees_naive,94.130000,0
Ř,7fd9feb45e3b50e92b990a94eaf8de6a69cd76e0,shootout,binarytrees_naive,83.320000,1
Ř,7fd9feb45e3b50e92b990a94eaf8de6a69cd76e0,shootout,binarytrees_naive,83.257000,1
Ř,7fd9feb45e3b50e92b990a94eaf8de6a69cd76e0,shootout,binarytrees_naive,83.245000,1
Ř,7fd9feb45e3b50e92b990a94eaf8de6a69cd76e0,shootout,binarytrees_naive,86.410000,1
Ř,7fd9feb45e3b50e92b990a94eaf8de6a69cd76e0,shootout,binarytrees_naive,82.615000,1
Ř,7fd9feb45e3b50e92b990a94eaf8de6a69cd76e0,shootout,binarytrees_naive,82.988000,1
Ř,7fd9feb45e3b50e92b990a94eaf8de6a69cd76e0,shootout,binarytrees_naive,82.976000,1
Ř,7fd9feb45e3b50e92b990a94eaf8de6a69cd76e0,shootout,binarytrees_naive,84.461000,1
Ř,7fd9feb45e3b50e92b990a94eaf8de6a69cd76e0,shootout,binarytrees_naive,84.178000,1
Ř,7fd9feb45e3b50e92b990a94eaf8de6a69cd76e0,shootout,binarytrees_naive,83.986000,1
Ř,7fd9feb45e3b50e92b990a94eaf8de6a69cd76e0,shootout,spectralnorm_alt,400.121000,0
Ř,7fd9feb45e3b50e92b990a94eaf8de6a69cd76e0,shootout,spectralnorm_alt,269.193000,0
Ř,7fd9feb45e3b50e92b990a94eaf8de6a69cd76e0,shootout,spectralnorm_alt,1535.107000,0
Ř,7fd9feb45e3b50e92b990a94eaf8de6a69cd76e0,shootout,spectralnorm_alt,211.103000,0
Ř,7fd9feb45e3b50e92b990a94eaf8de6a69cd76e0,shootout,spectralnorm_alt,198.454000,0
Ř,7fd9feb45e3b50e92b990a94eaf8de6a69cd76e0,shootout,spectralnorm_alt,215.298000,1
Ř,7fd9feb45e3b50e92b990a94eaf8de6a69cd76e0,shootout,spectralnorm_alt,203.017000,1
Ř,7fd9feb45e3b50e92b990a94eaf8de6a69cd76e0,shootout,spectralnorm_alt,188.097000,1
Ř,7fd9feb45e3b50e92b990a94eaf8de6a69cd76e0,shootout,spectralnorm_alt,188.929000,1
Ř,7fd9feb45e3b50e92b990a94eaf8de6a69cd76e0,shootout,spectralnorm_alt,198.955000,1
Ř,7fd9feb45e3b50e92b990a94eaf8de6a69cd76e0,shootout,spectralnorm_alt,186.018000,1
Ř,7fd9feb45e3b50e92b990a94eaf8de6a69cd76e0,shootout,spectralnorm_alt,195.692000,1
Ř,7fd9feb45e3b50e92b990a94eaf8de6a69cd76e0,shootout,spectralnorm_alt,193.685000,1
Ř,7fd9feb45e3b50e92b990a94eaf8de6a69cd76e0,shootout,spectralnorm_alt,203.180000,1
Ř,7fd9feb45e3b50e92b990a94eaf8de6a69cd76e0,shootout,spectralnorm_alt,188.125000,1
Ř,7fd9feb45e3b50e92b990a94eaf8de6a69cd76e0,shootout,nbody_2,1556.790000,0
Ř,7fd9feb45e3b50e92b990a94eaf8de6a69cd76e0,shootout,nbody_2,1430.697000,0
Ř,7fd9feb45e3b50e92b990a94eaf8de6a69cd76e0,shootout,nbody_2,1754.616000,0
Ř,7fd9feb45e3b50e92b990a94eaf8de6a69cd76e0,shootout,nbody_2,654.305000,0
Ř,7fd9feb45e3b50e92b990a94eaf8de6a69cd76e0,shootout,nbody_2,634.152000,0
Ř,7fd9feb45e3b50e92b990a94eaf8de6a69cd76e0,shootout,nbody_2,630.854000,1
Ř,7fd9feb45e3b50e92b990a94eaf8de6a69cd76e0,shootout,nbody_2,633.104000,1
Ř,7fd9feb45e3b50e92b990a94eaf8de6a69cd76e0,shootout,nbody_2,643.607000,1
Ř,7fd9feb45e3b50e92b990a94eaf8de6a69cd76e0,shootout,nbody_2,634.498000,1
Ř,7fd9feb45e3b50e92b990a94eaf8de6a69cd76e0,shootout,nbody_2,633.100000,1
Ř,7fd9feb45e3b50e92b990a94eaf8de6a69cd76e0,shootout,nbody_2,630.233000,1
Ř,7fd9feb45e3b50e92b990a94eaf8de6a69cd76e0,shootout,nbody_2,642.320000,1
Ř,7fd9feb45e3b50e92b990a94eaf8de6a69cd76e0,shootout,nbody_2,632.256000,1
Ř,7fd9feb45e3b50e92b990a94eaf8de6a69cd76e0,shootout,nbody_2,633.198000,1
Ř,7fd9feb45e3b50e92b990a94eaf8de6a69cd76e0,shootout,nbody_2,643.191000,1
Ř,7fd9feb45e3b50e92b990a94eaf8de6a69cd76e0,are-we-fast-r,Bounce,2245.333000,0
Ř,7fd9feb45e3b50e92b990a94eaf8de6a69cd76e0,are-we-fast-r,Bounce,828.432000,0
Ř,7fd9feb45e3b50e92b990a94eaf8de6a69cd76e0,are-we-fast-r,Bounce,846.536000,0
Ř,7fd9feb45e3b50e92b990a94eaf8de6a69cd76e0,are-we-fast-r,Bounce,824.563000,0
Ř,7fd9feb45e3b50e92b990a94eaf8de6a69cd76e0,are-we-fast-r,Bounce,804.217000,0
Ř,7fd9feb45e3b50e92b990a94eaf8de6a69cd76e0,are-we-fast-r,Bounce,822.099000,1
Ř,7fd9feb45e3b50e92b990a94eaf8de6a69cd76e0,are-we-fast-r,Bounce,837.755000,1
Ř,7fd9feb45e3b50e92b990a94eaf8de6a69cd76e0,are-we-fast-r,Bounce,794.940000,1
Ř,7fd9feb45e3b50e92b990a94eaf8de6a69cd76e0,are-we-fast-r,Bounce,810.026000,1
Ř,7fd9feb45e3b50e92b990a94eaf8de6a69cd76e0,are-we-fast-r,Bounce,828.668000,1
Ř,7fd9feb45e3b50e92b990a94eaf8de6a69cd76e0,are-we-fast-r,Bounce,807.274000,1
Ř,7fd9feb45e3b50e92b990a94eaf8de6a69cd76e0,are-we-fast-r,Bounce,804.711000,1
Ř,7fd9feb45e3b50e92b990a94eaf8de6a69cd76e0,are-we-fast-r,Bounce,821.185000,1
Ř,7fd9feb45e3b50e92b990a94eaf8de6a69cd76e0,are-we-fast-r,Bounce,829.701000,1
Ř,7fd9feb45e3b50e92b990a94eaf8de6a69cd76e0,are-we-fast-r,Bounce,798.680000,1
Ř,7fd9feb45e3b50e92b990a94eaf8de6a69cd76e0,are-we-fast-r,Mandelbrot,3423.458000,0
Ř,7fd9feb45e3b50e92b990a94eaf8de6a69cd76e0,are-we-fast-r,Mandelbrot,3363.626000,0
Ř,7fd9feb45e3b50e92b990a94eaf8de6a69cd76e0,are-we-fast-r,Mandelbrot,766.495000,0
Ř,7fd9feb45e3b50e92b990a94eaf8de6a69cd76e0,are-we-fast-r,Mandelbrot,1264.713000,0
Ř,7fd9feb45e3b50e92b990a94eaf8de6a69cd76e0,are-we-fast-r,Mandelbrot,65.003000,0
Ř,7fd9feb45e3b50e92b990a94eaf8de6a69cd76e0,are-we-fast-r,Mandelbrot,65.284000,1
Ř,7fd9feb45e3b50e92b990a94eaf8de6a69cd76e0,are-we-fast-r,Mandelbrot,65.203000,1
Ř,7fd9feb45e3b50e92b990a94eaf8de6a69cd76e0,are-we-fast-r,Mandelbrot,66.061000,1
Ř,7fd9feb45e3b50e92b990a94eaf8de6a69cd76e0,are-we-fast-r,Mandelbrot,65.212000,1
Ř,7fd9feb45e3b50e92b990a94eaf8de6a69cd76e0,are-we-fast-r,Mandelbrot,65.186000,1
Ř,7fd9feb45e3b50e92b990a94eaf8de6a69cd76e0,are-we-fast-r,Mandelbrot,65.011000,1
Ř,7fd9feb45e3b50e92b990a94eaf8de6a69cd76e0,are-we-fast-r,Mandelbrot,65.701000,1
Ř,7fd9feb45e3b50e92b990a94eaf8de6a69cd76e0,are-we-fast-r,Mandelbrot,65.053000,1
Ř,7fd9feb45e3b50e92b990a94eaf8de6a69cd76e0,are-we-fast-r,Mandelbrot,65.117000,1
Ř,7fd9feb45e3b50e92b990a94eaf8de6a69cd76e0,are-we-fast-r,Mandelbrot,64.994000,1
Ř,7fd9feb45e3b50e92b990a94eaf8de6a69cd76e0,are-we-fast-r,Bounce_nonames_simple,1938.417000,0
Ř,7fd9feb45e3b50e92b990a94eaf8de6a69cd76e0,are-we-fast-r,Bounce_nonames_simple,127.698000,0
Ř,7fd9feb45e3b50e92b990a94eaf8de6a69cd76e0,are-we-fast-r,Bounce_nonames_simple,135.636000,0
Ř,7fd9feb45e3b50e92b990a94eaf8de6a69cd76e0,are-we-fast-r,Bounce_nonames_simple,127.529000,0
Ř,7fd9feb45e3b50e92b990a94eaf8de6a69cd76e0,are-we-fast-r,Bounce_nonames_simple,128.408000,0
Ř,7fd9feb45e3b50e92b990a94eaf8de6a69cd76e0,are-we-fast-r,Bounce_nonames_simple,129.754000,1
Ř,7fd9feb45e3b50e92b990a94eaf8de6a69cd76e0,are-we-fast-r,Bounce_nonames_simple,125.262000,1
Ř,7fd9feb45e3b50e92b990a94eaf8de6a69cd76e0,are-we-fast-r,Bounce_nonames_simple,127.856000,1
Ř,7fd9feb45e3b50e92b990a94eaf8de6a69cd76e0,are-we-fast-r,Bounce_nonames_simple,126.736000,1
Ř,7fd9feb45e3b50e92b990a94eaf8de6a69cd76e0,are-we-fast-r,Bounce_nonames_simple,126.998000,1
Ř,7fd9feb45e3b50e92b990a94eaf8de6a69cd76e0,are-we-fast-r,Bounce_nonames_simple,128.102000,1
Ř,7fd9feb45e3b50e92b990a94eaf8de6a69cd76e0,are-we-fast-r,Bounce_nonames_simple,131.675000,1
Ř,7fd9feb45e3b50e92b990a94eaf8de6a69cd76e0,are-we-fast-r,Bounce_nonames_simple,128.079000,1
Ř,7fd9feb45e3b50e92b990a94eaf8de6a69cd76e0,are-we-fast-r,Bounce_nonames_simple,128.471000,1
Ř,7fd9feb45e3b50e92b990a94eaf8de6a69cd76e0,are-we-fast-r,Bounce_nonames_simple,129.142000,1
Ř,7fd9feb45e3b50e92b990a94eaf8de6a69cd76e0,are-we-fast-r,Storage,1197.527000,0
Ř,7fd9feb45e3b50e92b990a94eaf8de6a69cd76e0,are-we-fast-r,Storage,567.049000,0
Ř,7fd9feb45e3b50e92b990a94eaf8de6a69cd76e0,are-we-fast-r,Storage,534.572000,0
Ř,7fd9feb45e3b50e92b990a94eaf8de6a69cd76e0,are-we-fast-r,Storage,523.355000,0
Ř,7fd9feb45e3b50e92b990a94eaf8de6a69cd76e0,are-we-fast-r,Storage,502.759000,0
Ř,7fd9feb45e3b50e92b990a94eaf8de6a69cd76e0,are-we-fast-r,Storage,516.226000,1
Ř,7fd9feb45e3b50e92b990a94eaf8de6a69cd76e0,are-we-fast-r,Storage,580.474000,1
Ř,7fd9feb45e3b50e92b990a94eaf8de6a69cd76e0,are-we-fast-r,Storage,524.420000,1
Ř,7fd9feb45e3b50e92b990a94eaf8de6a69cd76e0,are-we-fast-r,Storage,530.830000,1
Ř,7fd9feb45e3b50e92b990a94eaf8de6a69cd76e0,are-we-fast-r,Storage,581.851000,1
Ř,7fd9feb45e3b50e92b990a94eaf8de6a69cd76e0,are-we-fast-r,Storage,587.290000,1
Ř,7fd9feb45e3b50e92b990a94eaf8de6a69cd76e0,are-we-fast-r,Storage,485.447000,1
Ř,7fd9feb45e3b50e92b990a94eaf8de6a69cd76e0,are-we-fast-r,Storage,518.369000,1
Ř,7fd9feb45e3b50e92b990a94eaf8de6a69cd76e0,are-we-fast-r,Storage,602.611000,1
Ř,7fd9feb45e3b50e92b990a94eaf8de6a69cd76e0,are-we-fast-r,Storage,595.733000,1
Ř,7fd9feb45e3b50e92b990a94eaf8de6a69cd76e0,are-we-fast-r,Bounce_nonames,1461.905000,0
Ř,7fd9feb45e3b50e92b990a94eaf8de6a69cd76e0,are-we-fast-r,Bounce_nonames,144.881000,0
Ř,7fd9feb45e3b50e92b990a94eaf8de6a69cd76e0,are-we-fast-r,Bounce_nonames,154.087000,0
Ř,7fd9feb45e3b50e92b990a94eaf8de6a69cd76e0,are-we-fast-r,Bounce_nonames,143.086000,0
Ř,7fd9feb45e3b50e92b990a94eaf8de6a69cd76e0,are-we-fast-r,Bounce_nonames,142.533000,0
Ř,7fd9feb45e3b50e92b990a94eaf8de6a69cd76e0,are-we-fast-r,Bounce_nonames,145.766000,1
Ř,7fd9feb45e3b50e92b990a94eaf8de6a69cd76e0,are-we-fast-r,Bounce_nonames,143.100000,1
Ř,7fd9feb45e3b50e92b990a94eaf8de6a69cd76e0,are-we-fast-r,Bounce_nonames,143.306000,1
Ř,7fd9feb45e3b50e92b990a94eaf8de6a69cd76e0,are-we-fast-r,Bounce_nonames,141.995000,1
Ř,7fd9feb45e3b50e92b990a94eaf8de6a69cd76e0,are-we-fast-r,Bounce_nonames,142.048000,1
Ř,7fd9feb45e3b50e92b990a94eaf8de6a69cd76e0,are-we-fast-r,Bounce_nonames,143.577000,1
Ř,7fd9feb45e3b50e92b990a94eaf8de6a69cd76e0,are-we-fast-r,Bounce_nonames,146.026000,1
Ř,7fd9feb45e3b50e92b990a94eaf8de6a69cd76e0,are-we-fast-r,Bounce_nonames,143.534000,1
Ř,7fd9feb45e3b50e92b990a94eaf8de6a69cd76e0,are-we-fast-r,Bounce_nonames,141.701000,1
Ř,7fd9feb45e3b50e92b990a94eaf8de6a69cd76e0,are-we-fast-r,Bounce_nonames,142.435000,1
Ř,7fd9feb45e3b50e92b990a94eaf8de6a69cd76e0,real_thing,flexclust_no_s4,17117.009000,0
Ř,7fd9feb45e3b50e92b990a94eaf8de6a69cd76e0,real_thing,flexclust_no_s4,13911.623000,0
Ř,7fd9feb45e3b50e92b990a94eaf8de6a69cd76e0,real_thing,flexclust_no_s4,26661.448000,0
Ř,7fd9feb45e3b50e92b990a94eaf8de6a69cd76e0,real_thing,flexclust_no_s4,24354.456000,0
Ř,7fd9feb45e3b50e92b990a94eaf8de6a69cd76e0,real_thing,flexclust_no_s4,17935.327000,0
Ř,7fd9feb45e3b50e92b990a94eaf8de6a69cd76e0,real_thing,flexclust_no_s4,13488.379000,1
Ř,7fd9feb45e3b50e92b990a94eaf8de6a69cd76e0,real_thing,flexclust_no_s4,13081.593000,1
Ř,7fd9feb45e3b50e92b990a94eaf8de6a69cd76e0,real_thing,flexclust_no_s4,12916.548000,1
Ř,7fd9feb45e3b50e92b990a94eaf8de6a69cd76e0,real_thing,flexclust_no_s4,12741.948000,1
Ř,7fd9feb45e3b50e92b990a94eaf8de6a69cd76e0,real_thing,flexclust_no_s4,12942.646000,1
Ř,7fd9feb45e3b50e92b990a94eaf8de6a69cd76e0,real_thing,flexclust_no_s4,12690.159000,1
Ř,7fd9feb45e3b50e92b990a94eaf8de6a69cd76e0,real_thing,flexclust_no_s4,12782.227000,1
Ř,7fd9feb45e3b50e92b990a94eaf8de6a69cd76e0,real_thing,flexclust_no_s4,12972.332000,1
Ř,7fd9feb45e3b50e92b990a94eaf8de6a69cd76e0,real_thing,flexclust_no_s4,12866.789000,1
Ř,7fd9feb45e3b50e92b990a94eaf8de6a69cd76e0,real_thing,flexclust_no_s4,13012.734000,1
Ř,7fd9feb45e3b50e92b990a94eaf8de6a69cd76e0,real_thing,convolution,717.782000,0
Ř,7fd9feb45e3b50e92b990a94eaf8de6a69cd76e0,real_thing,convolution,12.522000,0
Ř,7fd9feb45e3b50e92b990a94eaf8de6a69cd76e0,real_thing,convolution,576.203000,0
Ř,7fd9feb45e3b50e92b990a94eaf8de6a69cd76e0,real_thing,convolution,11.667000,0
Ř,7fd9feb45e3b50e92b990a94eaf8de6a69cd76e0,real_thing,convolution,11.602000,0
Ř,7fd9feb45e3b50e92b990a94eaf8de6a69cd76e0,real_thing,convolution,11.593000,1
Ř,7fd9feb45e3b50e92b990a94eaf8de6a69cd76e0,real_thing,convolution,11.727000,1
Ř,7fd9feb45e3b50e92b990a94eaf8de6a69cd76e0,real_thing,convolution,11.622000,1
Ř,7fd9feb45e3b50e92b990a94eaf8de6a69cd76e0,real_thing,convolution,11.550000,1
Ř,7fd9feb45e3b50e92b990a94eaf8de6a69cd76e0,real_thing,convolution,11.807000,1
Ř,7fd9feb45e3b50e92b990a94eaf8de6a69cd76e0,real_thing,convolution,11.751000,1
Ř,7fd9feb45e3b50e92b990a94eaf8de6a69cd76e0,real_thing,convolution,11.563000,1
Ř,7fd9feb45e3b50e92b990a94eaf8de6a69cd76e0,real_thing,convolution,11.691000,1
Ř,7fd9feb45e3b50e92b990a94eaf8de6a69cd76e0,real_thing,convolution,11.598000,1
Ř,7fd9feb45e3b50e92b990a94eaf8de6a69cd76e0,real_thing,convolution,11.920000,1
Ř,7fd9feb45e3b50e92b990a94eaf8de6a69cd76e0,real_thing,flexclust,44725.403000,0
Ř,7fd9feb45e3b50e92b990a94eaf8de6a69cd76e0,real_thing,flexclust,28372.533000,0
Ř,7fd9feb45e3b50e92b990a94eaf8de6a69cd76e0,real_thing,flexclust,31579.470000,0
Ř,7fd9feb45e3b50e92b990a94eaf8de6a69cd76e0,real_thing,flexclust,38081.426000,0
Ř,7fd9feb45e3b50e92b990a94eaf8de6a69cd76e0,real_thing,flexclust,25857.290000,0
Ř,7fd9feb45e3b50e92b990a94eaf8de6a69cd76e0,real_thing,flexclust,22155.989000,1
Ř,7fd9feb45e3b50e92b990a94eaf8de6a69cd76e0,real_thing,flexclust,15509.424000,1
Ř,7fd9feb45e3b50e92b990a94eaf8de6a69cd76e0,real_thing,flexclust,15528.105000,1
Ř,7fd9feb45e3b50e92b990a94eaf8de6a69cd76e0,real_thing,flexclust,15291.541000,1
Ř,7fd9feb45e3b50e92b990a94eaf8de6a69cd76e0,real_thing,flexclust,15164.915000,1
Ř,7fd9feb45e3b50e92b990a94eaf8de6a69cd76e0,real_thing,flexclust,15231.682000,1
Ř,7fd9feb45e3b50e92b990a94eaf8de6a69cd76e0,real_thing,flexclust,15386.700000,1
Ř,7fd9feb45e3b50e92b990a94eaf8de6a69cd76e0,real_thing,flexclust,15230.177000,1
Ř,7fd9feb45e3b50e92b990a94eaf8de6a69cd76e0,real_thing,flexclust,15305.709000,1
Ř,7fd9feb45e3b50e92b990a94eaf8de6a69cd76e0,real_thing,flexclust,15351.986000,1
Ř,7fd9feb45e3b50e92b990a94eaf8de6a69cd76e0,real_thing,convolution_v,630.589000,0
Ř,7fd9feb45e3b50e92b990a94eaf8de6a69cd76e0,real_thing,convolution_v,96.324000,0
Ř,7fd9feb45e3b50e92b990a94eaf8de6a69cd76e0,real_thing,convolution_v,715.418000,0
Ř,7fd9feb45e3b50e92b990a94eaf8de6a69cd76e0,real_thing,convolution_v,92.699000,0
Ř,7fd9feb45e3b50e92b990a94eaf8de6a69cd76e0,real_thing,convolution_v,103.563000,0
Ř,7fd9feb45e3b50e92b990a94eaf8de6a69cd76e0,real_thing,convolution_v,93.563000,1
Ř,7fd9feb45e3b50e92b990a94eaf8de6a69cd76e0,real_thing,convolution_v,92.608000,1
Ř,7fd9feb45e3b50e92b990a94eaf8de6a69cd76e0,real_thing,convolution_v,93.090000,1
Ř,7fd9feb45e3b50e92b990a94eaf8de6a69cd76e0,real_thing,convolution_v,92.617000,1
Ř,7fd9feb45e3b50e92b990a94eaf8de6a69cd76e0,real_thing,convolution_v,94.092000,1
Ř,7fd9feb45e3b50e92b990a94eaf8de6a69cd76e0,real_thing,convolution_v,93.389000,1
Ř,7fd9feb45e3b50e92b990a94eaf8de6a69cd76e0,real_thing,convolution_v,92.103000,1
Ř,7fd9feb45e3b50e92b990a94eaf8de6a69cd76e0,real_thing,convolution_v,92.736000,1
Ř,7fd9feb45e3b50e92b990a94eaf8de6a69cd76e0,real_thing,convolution_v,91.781000,1
Ř,7fd9feb45e3b50e92b990a94eaf8de6a69cd76e0,real_thing,convolution_v,92.910000,1
Ř,7fd9feb45e3b50e92b990a94eaf8de6a69cd76e0,real_thing,convolution_slow,629.207000,0
Ř,7fd9feb45e3b50e92b990a94eaf8de6a69cd76e0,real_thing,convolution_slow,95.126000,0
Ř,7fd9feb45e3b50e92b990a94eaf8de6a69cd76e0,real_thing,convolution_slow,713.182000,0
Ř,7fd9feb45e3b50e92b990a94eaf8de6a69cd76e0,real_thing,convolution_slow,91.754000,0
Ř,7fd9feb45e3b50e92b990a94eaf8de6a69cd76e0,real_thing,convolution_slow,102.715000,0
Ř,7fd9feb45e3b50e92b990a94eaf8de6a69cd76e0,real_thing,convolution_slow,94.265000,1
Ř,7fd9feb45e3b50e92b990a94eaf8de6a69cd76e0,real_thing,convolution_slow,91.638000,1
Ř,7fd9feb45e3b50e92b990a94eaf8de6a69cd76e0,real_thing,convolution_slow,91.822000,1
Ř,7fd9feb45e3b50e92b990a94eaf8de6a69cd76e0,real_thing,convolution_slow,91.517000,1
Ř,7fd9feb45e3b50e92b990a94eaf8de6a69cd76e0,real_thing,convolution_slow,93.212000,1
Ř,7fd9feb45e3b50e92b990a94eaf8de6a69cd76e0,real_thing,convolution_slow,95.178000,1
Ř,7fd9feb45e3b50e92b990a94eaf8de6a69cd76e0,real_thing,convolution_slow,91.144000,1
Ř,7fd9feb45e3b50e92b990a94eaf8de6a69cd76e0,real_thing,convolution_slow,95.494000,1
Ř,7fd9feb45e3b50e92b990a94eaf8de6a69cd76e0,real_thing,convolution_slow,91.229000,1
Ř,7fd9feb45e3b50e92b990a94eaf8de6a69cd76e0,real_thing,convolution_slow,91.673000,1
