vm,commit,suite,benchmark,ms,warm
Ř,237ec22fa26c5cf981c1260e63b0f8f0f4c44534,simple,superWhile,2941.476000,0
Ř,237ec22fa26c5cf981c1260e63b0f8f0f4c44534,simple,superWhile,2930.809000,0
Ř,237ec22fa26c5cf981c1260e63b0f8f0f4c44534,simple,superWhile,55.147000,0
Ř,237ec22fa26c5cf981c1260e63b0f8f0f4c44534,simple,superWhile,20.420000,0
Ř,237ec22fa26c5cf981c1260e63b0f8f0f4c44534,simple,superWhile,20.378000,0
Ř,237ec22fa26c5cf981c1260e63b0f8f0f4c44534,simple,superWhile,20.375000,1
Ř,237ec22fa26c5cf981c1260e63b0f8f0f4c44534,simple,superWhile,20.376000,1
Ř,237ec22fa26c5cf981c1260e63b0f8f0f4c44534,simple,superWhile,20.375000,1
Ř,237ec22fa26c5cf981c1260e63b0f8f0f4c44534,simple,superWhile,20.332000,1
Ř,237ec22fa26c5cf981c1260e63b0f8f0f4c44534,simple,superWhile,20.378000,1
Ř,237ec22fa26c5cf981c1260e63b0f8f0f4c44534,simple,superWhile,20.375000,1
Ř,237ec22fa26c5cf981c1260e63b0f8f0f4c44534,simple,superWhile,20.374000,1
Ř,237ec22fa26c5cf981c1260e63b0f8f0f4c44534,simple,superWhile,20.375000,1
Ř,237ec22fa26c5cf981c1260e63b0f8f0f4c44534,simple,superWhile,20.379000,1
Ř,237ec22fa26c5cf981c1260e63b0f8f0f4c44534,simple,superWhile,20.375000,1
Ř,237ec22fa26c5cf981c1260e63b0f8f0f4c44534,simple,profiler-microbenchmark,979.868000,0
Ř,237ec22fa26c5cf981c1260e63b0f8f0f4c44534,simple,profiler-microbenchmark,960.267000,0
Ř,237ec22fa26c5cf981c1260e63b0f8f0f4c44534,simple,profiler-microbenchmark,921.928000,0
Ř,237ec22fa26c5cf981c1260e63b0f8f0f4c44534,simple,profiler-microbenchmark,953.449000,0
Ř,237ec22fa26c5cf981c1260e63b0f8f0f4c44534,simple,profiler-microbenchmark,964.534000,0
Ř,237ec22fa26c5cf981c1260e63b0f8f0f4c44534,simple,profiler-microbenchmark,915.567000,1
Ř,237ec22fa26c5cf981c1260e63b0f8f0f4c44534,simple,profiler-microbenchmark,1014.310000,1
Ř,237ec22fa26c5cf981c1260e63b0f8f0f4c44534,simple,profiler-microbenchmark,892.655000,1
Ř,237ec22fa26c5cf981c1260e63b0f8f0f4c44534,simple,profiler-microbenchmark,914.514000,1
Ř,237ec22fa26c5cf981c1260e63b0f8f0f4c44534,simple,profiler-microbenchmark,942.862000,1
Ř,237ec22fa26c5cf981c1260e63b0f8f0f4c44534,simple,profiler-microbenchmark,890.829000,1
Ř,237ec22fa26c5cf981c1260e63b0f8f0f4c44534,simple,profiler-microbenchmark,949.911000,1
Ř,237ec22fa26c5cf981c1260e63b0f8f0f4c44534,simple,profiler-microbenchmark,1011.389000,1
Ř,237ec22fa26c5cf981c1260e63b0f8f0f4c44534,simple,profiler-microbenchmark,905.808000,1
Ř,237ec22fa26c5cf981c1260e63b0f8f0f4c44534,simple,profiler-microbenchmark,903.520000,1
Ř,237ec22fa26c5cf981c1260e63b0f8f0f4c44534,simple,matrixFor,400.131000,0
Ř,237ec22fa26c5cf981c1260e63b0f8f0f4c44534,simple,matrixFor,405.805000,0
Ř,237ec22fa26c5cf981c1260e63b0f8f0f4c44534,simple,matrixFor,162.477000,0
Ř,237ec22fa26c5cf981c1260e63b0f8f0f4c44534,simple,matrixFor,53.436000,0
Ř,237ec22fa26c5cf981c1260e63b0f8f0f4c44534,simple,matrixFor,459.004000,0
Ř,237ec22fa26c5cf981c1260e63b0f8f0f4c44534,simple,matrixFor,387.862000,1
Ř,237ec22fa26c5cf981c1260e63b0f8f0f4c44534,simple,matrixFor,167.845000,1
Ř,237ec22fa26c5cf981c1260e63b0f8f0f4c44534,simple,matrixFor,58.842000,1
Ř,237ec22fa26c5cf981c1260e63b0f8f0f4c44534,simple,matrixFor,476.332000,1
Ř,237ec22fa26c5cf981c1260e63b0f8f0f4c44534,simple,matrixFor,393.140000,1
Ř,237ec22fa26c5cf981c1260e63b0f8f0f4c44534,simple,matrixFor,164.756000,1
Ř,237ec22fa26c5cf981c1260e63b0f8f0f4c44534,simple,matrixFor,55.044000,1
Ř,237ec22fa26c5cf981c1260e63b0f8f0f4c44534,simple,matrixFor,476.532000,1
Ř,237ec22fa26c5cf981c1260e63b0f8f0f4c44534,simple,matrixFor,393.048000,1
Ř,237ec22fa26c5cf981c1260e63b0f8f0f4c44534,simple,matrixFor,164.594000,1
Ř,237ec22fa26c5cf981c1260e63b0f8f0f4c44534,simple,vectorWhile,2235.529000,0
Ř,237ec22fa26c5cf981c1260e63b0f8f0f4c44534,simple,vectorWhile,2222.172000,0
Ř,237ec22fa26c5cf981c1260e63b0f8f0f4c44534,simple,vectorWhile,184.470000,0
Ř,237ec22fa26c5cf981c1260e63b0f8f0f4c44534,simple,vectorWhile,127.953000,0
Ř,237ec22fa26c5cf981c1260e63b0f8f0f4c44534,simple,vectorWhile,143.224000,0
Ř,237ec22fa26c5cf981c1260e63b0f8f0f4c44534,simple,vectorWhile,129.850000,1
Ř,237ec22fa26c5cf981c1260e63b0f8f0f4c44534,simple,vectorWhile,129.659000,1
Ř,237ec22fa26c5cf981c1260e63b0f8f0f4c44534,simple,vectorWhile,129.681000,1
Ř,237ec22fa26c5cf981c1260e63b0f8f0f4c44534,simple,vectorWhile,129.590000,1
Ř,237ec22fa26c5cf981c1260e63b0f8f0f4c44534,simple,vectorWhile,129.641000,1
Ř,237ec22fa26c5cf981c1260e63b0f8f0f4c44534,simple,vectorWhile,129.689000,1
Ř,237ec22fa26c5cf981c1260e63b0f8f0f4c44534,simple,vectorWhile,129.660000,1
Ř,237ec22fa26c5cf981c1260e63b0f8f0f4c44534,simple,vectorWhile,129.724000,1
Ř,237ec22fa26c5cf981c1260e63b0f8f0f4c44534,simple,vectorWhile,129.620000,1
Ř,237ec22fa26c5cf981c1260e63b0f8f0f4c44534,simple,vectorWhile,129.694000,1
Ř,237ec22fa26c5cf981c1260e63b0f8f0f4c44534,simple,emptyFor,3255.069000,0
Ř,237ec22fa26c5cf981c1260e63b0f8f0f4c44534,simple,emptyFor,3262.930000,0
Ř,237ec22fa26c5cf981c1260e63b0f8f0f4c44534,simple,emptyFor,15.651000,0
Ř,237ec22fa26c5cf981c1260e63b0f8f0f4c44534,simple,emptyFor,0.029000,0
Ř,237ec22fa26c5cf981c1260e63b0f8f0f4c44534,simple,emptyFor,0.010000,0
Ř,237ec22fa26c5cf981c1260e63b0f8f0f4c44534,simple,emptyFor,0.008000,1
Ř,237ec22fa26c5cf981c1260e63b0f8f0f4c44534,simple,emptyFor,0.008000,1
Ř,237ec22fa26c5cf981c1260e63b0f8f0f4c44534,simple,emptyFor,0.008000,1
Ř,237ec22fa26c5cf981c1260e63b0f8f0f4c44534,simple,emptyFor,0.007000,1
Ř,237ec22fa26c5cf981c1260e63b0f8f0f4c44534,simple,emptyFor,0.008000,1
Ř,237ec22fa26c5cf981c1260e63b0f8f0f4c44534,simple,emptyFor,0.008000,1
Ř,237ec22fa26c5cf981c1260e63b0f8f0f4c44534,simple,emptyFor,0.008000,1
Ř,237ec22fa26c5cf981c1260e63b0f8f0f4c44534,simple,emptyFor,0.008000,1
Ř,237ec22fa26c5cf981c1260e63b0f8f0f4c44534,simple,emptyFor,0.007000,1
Ř,237ec22fa26c5cf981c1260e63b0f8f0f4c44534,simple,emptyFor,0.008000,1
Ř,237ec22fa26c5cf981c1260e63b0f8f0f4c44534,simple,lapplyDots,771.533000,0
Ř,237ec22fa26c5cf981c1260e63b0f8f0f4c44534,simple,lapplyDots,969.265000,0
Ř,237ec22fa26c5cf981c1260e63b0f8f0f4c44534,simple,lapplyDots,887.295000,0
Ř,237ec22fa26c5cf981c1260e63b0f8f0f4c44534,simple,lapplyDots,1094.558000,0
Ř,237ec22fa26c5cf981c1260e63b0f8f0f4c44534,simple,lapplyDots,1023.426000,0
Ř,237ec22fa26c5cf981c1260e63b0f8f0f4c44534,simple,lapplyDots,977.048000,1
Ř,237ec22fa26c5cf981c1260e63b0f8f0f4c44534,simple,lapplyDots,985.565000,1
Ř,237ec22fa26c5cf981c1260e63b0f8f0f4c44534,simple,lapplyDots,861.512000,1
Ř,237ec22fa26c5cf981c1260e63b0f8f0f4c44534,simple,lapplyDots,971.232000,1
Ř,237ec22fa26c5cf981c1260e63b0f8f0f4c44534,simple,lapplyDots,991.159000,1
Ř,237ec22fa26c5cf981c1260e63b0f8f0f4c44534,simple,lapplyDots,1004.267000,1
Ř,237ec22fa26c5cf981c1260e63b0f8f0f4c44534,simple,lapplyDots,851.361000,1
Ř,237ec22fa26c5cf981c1260e63b0f8f0f4c44534,simple,lapplyDots,985.183000,1
Ř,237ec22fa26c5cf981c1260e63b0f8f0f4c44534,simple,lapplyDots,1003.987000,1
Ř,237ec22fa26c5cf981c1260e63b0f8f0f4c44534,simple,lapplyDots,966.003000,1
Ř,237ec22fa26c5cf981c1260e63b0f8f0f4c44534,simple,scalarWhile,2217.622000,0
Ř,237ec22fa26c5cf981c1260e63b0f8f0f4c44534,simple,scalarWhile,2206.479000,0
Ř,237ec22fa26c5cf981c1260e63b0f8f0f4c44534,simple,scalarWhile,43.988000,0
Ř,237ec22fa26c5cf981c1260e63b0f8f0f4c44534,simple,scalarWhile,25.470000,0
Ř,237ec22fa26c5cf981c1260e63b0f8f0f4c44534,simple,scalarWhile,25.449000,0
Ř,237ec22fa26c5cf981c1260e63b0f8f0f4c44534,simple,scalarWhile,25.488000,1
Ř,237ec22fa26c5cf981c1260e63b0f8f0f4c44534,simple,scalarWhile,25.477000,1
Ř,237ec22fa26c5cf981c1260e63b0f8f0f4c44534,simple,scalarWhile,25.453000,1
Ř,237ec22fa26c5cf981c1260e63b0f8f0f4c44534,simple,scalarWhile,25.444000,1
Ř,237ec22fa26c5cf981c1260e63b0f8f0f4c44534,simple,scalarWhile,25.486000,1
Ř,237ec22fa26c5cf981c1260e63b0f8f0f4c44534,simple,scalarWhile,25.445000,1
Ř,237ec22fa26c5cf981c1260e63b0f8f0f4c44534,simple,scalarWhile,25.443000,1
Ř,237ec22fa26c5cf981c1260e63b0f8f0f4c44534,simple,scalarWhile,25.448000,1
Ř,237ec22fa26c5cf981c1260e63b0f8f0f4c44534,simple,scalarWhile,25.486000,1
Ř,237ec22fa26c5cf981c1260e63b0f8f0f4c44534,simple,scalarWhile,25.443000,1
Ř,237ec22fa26c5cf981c1260e63b0f8f0f4c44534,simple,listWhile,160.198000,0
Ř,237ec22fa26c5cf981c1260e63b0f8f0f4c44534,simple,listWhile,154.148000,0
Ř,237ec22fa26c5cf981c1260e63b0f8f0f4c44534,simple,listWhile,134.233000,0
Ř,237ec22fa26c5cf981c1260e63b0f8f0f4c44534,simple,listWhile,69.274000,0
Ř,237ec22fa26c5cf981c1260e63b0f8f0f4c44534,simple,listWhile,65.738000,0
Ř,237ec22fa26c5cf981c1260e63b0f8f0f4c44534,simple,listWhile,72.959000,1
Ř,237ec22fa26c5cf981c1260e63b0f8f0f4c44534,simple,listWhile,86.436000,1
Ř,237ec22fa26c5cf981c1260e63b0f8f0f4c44534,simple,listWhile,54.225000,1
Ř,237ec22fa26c5cf981c1260e63b0f8f0f4c44534,simple,listWhile,66.891000,1
Ř,237ec22fa26c5cf981c1260e63b0f8f0f4c44534,simple,listWhile,61.965000,1
Ř,237ec22fa26c5cf981c1260e63b0f8f0f4c44534,simple,listWhile,67.493000,1
Ř,237ec22fa26c5cf981c1260e63b0f8f0f4c44534,simple,listWhile,60.471000,1
Ř,237ec22fa26c5cf981c1260e63b0f8f0f4c44534,simple,listWhile,81.556000,1
Ř,237ec22fa26c5cf981c1260e63b0f8f0f4c44534,simple,listWhile,57.275000,1
Ř,237ec22fa26c5cf981c1260e63b0f8f0f4c44534,simple,listWhile,64.530000,1
Ř,237ec22fa26c5cf981c1260e63b0f8f0f4c44534,simple,profiler-shared,1965.616000,0
Ř,237ec22fa26c5cf981c1260e63b0f8f0f4c44534,simple,profiler-shared,2003.065000,0
Ř,237ec22fa26c5cf981c1260e63b0f8f0f4c44534,simple,profiler-shared,1992.072000,0
Ř,237ec22fa26c5cf981c1260e63b0f8f0f4c44534,simple,profiler-shared,1981.342000,0
Ř,237ec22fa26c5cf981c1260e63b0f8f0f4c44534,simple,profiler-shared,1976.652000,0
Ř,237ec22fa26c5cf981c1260e63b0f8f0f4c44534,simple,profiler-shared,1961.645000,1
Ř,237ec22fa26c5cf981c1260e63b0f8f0f4c44534,simple,profiler-shared,1957.026000,1
Ř,237ec22fa26c5cf981c1260e63b0f8f0f4c44534,simple,profiler-shared,1949.625000,1
Ř,237ec22fa26c5cf981c1260e63b0f8f0f4c44534,simple,profiler-shared,1938.672000,1
Ř,237ec22fa26c5cf981c1260e63b0f8f0f4c44534,simple,profiler-shared,1945.756000,1
Ř,237ec22fa26c5cf981c1260e63b0f8f0f4c44534,simple,profiler-shared,1949.399000,1
Ř,237ec22fa26c5cf981c1260e63b0f8f0f4c44534,simple,profiler-shared,1936.946000,1
Ř,237ec22fa26c5cf981c1260e63b0f8f0f4c44534,simple,profiler-shared,1965.280000,1
Ř,237ec22fa26c5cf981c1260e63b0f8f0f4c44534,simple,profiler-shared,1969.439000,1
Ř,237ec22fa26c5cf981c1260e63b0f8f0f4c44534,simple,profiler-shared,1975.416000,1
Ř,237ec22fa26c5cf981c1260e63b0f8f0f4c44534,simple,scalarFor,4740.202000,0
Ř,237ec22fa26c5cf981c1260e63b0f8f0f4c44534,simple,scalarFor,4700.699000,0
Ř,237ec22fa26c5cf981c1260e63b0f8f0f4c44534,simple,scalarFor,17.767000,0
Ř,237ec22fa26c5cf981c1260e63b0f8f0f4c44534,simple,scalarFor,0.029000,0
Ř,237ec22fa26c5cf981c1260e63b0f8f0f4c44534,simple,scalarFor,0.010000,0
Ř,237ec22fa26c5cf981c1260e63b0f8f0f4c44534,simple,scalarFor,0.008000,1
Ř,237ec22fa26c5cf981c1260e63b0f8f0f4c44534,simple,scalarFor,0.009000,1
Ř,237ec22fa26c5cf981c1260e63b0f8f0f4c44534,simple,scalarFor,0.008000,1
Ř,237ec22fa26c5cf981c1260e63b0f8f0f4c44534,simple,scalarFor,0.008000,1
Ř,237ec22fa26c5cf981c1260e63b0f8f0f4c44534,simple,scalarFor,0.008000,1
Ř,237ec22fa26c5cf981c1260e63b0f8f0f4c44534,simple,scalarFor,0.008000,1
Ř,237ec22fa26c5cf981c1260e63b0f8f0f4c44534,simple,scalarFor,0.008000,1
Ř,237ec22fa26c5cf981c1260e63b0f8f0f4c44534,simple,scalarFor,0.009000,1
Ř,237ec22fa26c5cf981c1260e63b0f8f0f4c44534,simple,scalarFor,0.008000,1
Ř,237ec22fa26c5cf981c1260e63b0f8f0f4c44534,simple,scalarFor,0.008000,1
Ř,237ec22fa26c5cf981c1260e63b0f8f0f4c44534,simple,lapply,649.762000,0
Ř,237ec22fa26c5cf981c1260e63b0f8f0f4c44534,simple,lapply,765.916000,0
Ř,237ec22fa26c5cf981c1260e63b0f8f0f4c44534,simple,lapply,820.247000,0
Ř,237ec22fa26c5cf981c1260e63b0f8f0f4c44534,simple,lapply,753.813000,0
Ř,237ec22fa26c5cf981c1260e63b0f8f0f4c44534,simple,lapply,907.590000,0
Ř,237ec22fa26c5cf981c1260e63b0f8f0f4c44534,simple,lapply,785.803000,1
Ř,237ec22fa26c5cf981c1260e63b0f8f0f4c44534,simple,lapply,799.700000,1
Ř,237ec22fa26c5cf981c1260e63b0f8f0f4c44534,simple,lapply,795.564000,1
Ř,237ec22fa26c5cf981c1260e63b0f8f0f4c44534,simple,lapply,600.255000,1
Ř,237ec22fa26c5cf981c1260e63b0f8f0f4c44534,simple,lapply,703.758000,1
Ř,237ec22fa26c5cf981c1260e63b0f8f0f4c44534,simple,lapply,711.665000,1
Ř,237ec22fa26c5cf981c1260e63b0f8f0f4c44534,simple,lapply,736.228000,1
Ř,237ec22fa26c5cf981c1260e63b0f8f0f4c44534,simple,lapply,688.263000,1
Ř,237ec22fa26c5cf981c1260e63b0f8f0f4c44534,simple,lapply,610.258000,1
Ř,237ec22fa26c5cf981c1260e63b0f8f0f4c44534,simple,lapply,711.089000,1
Ř,237ec22fa26c5cf981c1260e63b0f8f0f4c44534,simple,vectorFor,1044.429000,0
Ř,237ec22fa26c5cf981c1260e63b0f8f0f4c44534,simple,vectorFor,1021.053000,0
Ř,237ec22fa26c5cf981c1260e63b0f8f0f4c44534,simple,vectorFor,76.320000,0
Ř,237ec22fa26c5cf981c1260e63b0f8f0f4c44534,simple,vectorFor,34.047000,0
Ř,237ec22fa26c5cf981c1260e63b0f8f0f4c44534,simple,vectorFor,33.930000,0
Ř,237ec22fa26c5cf981c1260e63b0f8f0f4c44534,simple,vectorFor,33.989000,1
Ř,237ec22fa26c5cf981c1260e63b0f8f0f4c44534,simple,vectorFor,33.936000,1
Ř,237ec22fa26c5cf981c1260e63b0f8f0f4c44534,simple,vectorFor,33.929000,1
Ř,237ec22fa26c5cf981c1260e63b0f8f0f4c44534,simple,vectorFor,33.958000,1
Ř,237ec22fa26c5cf981c1260e63b0f8f0f4c44534,simple,vectorFor,33.968000,1
Ř,237ec22fa26c5cf981c1260e63b0f8f0f4c44534,simple,vectorFor,33.971000,1
Ř,237ec22fa26c5cf981c1260e63b0f8f0f4c44534,simple,vectorFor,33.934000,1
Ř,237ec22fa26c5cf981c1260e63b0f8f0f4c44534,simple,vectorFor,33.996000,1
Ř,237ec22fa26c5cf981c1260e63b0f8f0f4c44534,simple,vectorFor,33.966000,1
Ř,237ec22fa26c5cf981c1260e63b0f8f0f4c44534,simple,vectorFor,33.964000,1
Ř,237ec22fa26c5cf981c1260e63b0f8f0f4c44534,simple,bytecodes,4062.319000,0
Ř,237ec22fa26c5cf981c1260e63b0f8f0f4c44534,simple,bytecodes,4060.716000,0
Ř,237ec22fa26c5cf981c1260e63b0f8f0f4c44534,simple,bytecodes,237.537000,0
Ř,237ec22fa26c5cf981c1260e63b0f8f0f4c44534,simple,bytecodes,9.157000,0
Ř,237ec22fa26c5cf981c1260e63b0f8f0f4c44534,simple,bytecodes,9.183000,0
Ř,237ec22fa26c5cf981c1260e63b0f8f0f4c44534,simple,bytecodes,9.182000,1
Ř,237ec22fa26c5cf981c1260e63b0f8f0f4c44534,simple,bytecodes,9.179000,1
Ř,237ec22fa26c5cf981c1260e63b0f8f0f4c44534,simple,bytecodes,9.178000,1
Ř,237ec22fa26c5cf981c1260e63b0f8f0f4c44534,simple,bytecodes,9.179000,1
Ř,237ec22fa26c5cf981c1260e63b0f8f0f4c44534,simple,bytecodes,9.135000,1
Ř,237ec22fa26c5cf981c1260e63b0f8f0f4c44534,simple,bytecodes,9.183000,1
Ř,237ec22fa26c5cf981c1260e63b0f8f0f4c44534,simple,bytecodes,9.183000,1
Ř,237ec22fa26c5cf981c1260e63b0f8f0f4c44534,simple,bytecodes,9.181000,1
Ř,237ec22fa26c5cf981c1260e63b0f8f0f4c44534,simple,bytecodes,9.179000,1
Ř,237ec22fa26c5cf981c1260e63b0f8f0f4c44534,simple,bytecodes,9.178000,1
Ř,237ec22fa26c5cf981c1260e63b0f8f0f4c44534,simple,profiler-rsa,987.663000,0
Ř,237ec22fa26c5cf981c1260e63b0f8f0f4c44534,simple,profiler-rsa,956.645000,0
Ř,237ec22fa26c5cf981c1260e63b0f8f0f4c44534,simple,profiler-rsa,955.724000,0
Ř,237ec22fa26c5cf981c1260e63b0f8f0f4c44534,simple,profiler-rsa,949.839000,0
Ř,237ec22fa26c5cf981c1260e63b0f8f0f4c44534,simple,profiler-rsa,972.059000,0
Ř,237ec22fa26c5cf981c1260e63b0f8f0f4c44534,simple,profiler-rsa,951.002000,1
Ř,237ec22fa26c5cf981c1260e63b0f8f0f4c44534,simple,profiler-rsa,965.429000,1
Ř,237ec22fa26c5cf981c1260e63b0f8f0f4c44534,simple,profiler-rsa,959.075000,1
Ř,237ec22fa26c5cf981c1260e63b0f8f0f4c44534,simple,profiler-rsa,961.987000,1
Ř,237ec22fa26c5cf981c1260e63b0f8f0f4c44534,simple,profiler-rsa,954.448000,1
Ř,237ec22fa26c5cf981c1260e63b0f8f0f4c44534,simple,profiler-rsa,959.505000,1
Ř,237ec22fa26c5cf981c1260e63b0f8f0f4c44534,simple,profiler-rsa,958.324000,1
Ř,237ec22fa26c5cf981c1260e63b0f8f0f4c44534,simple,profiler-rsa,963.480000,1
Ř,237ec22fa26c5cf981c1260e63b0f8f0f4c44534,simple,profiler-rsa,950.512000,1
Ř,237ec22fa26c5cf981c1260e63b0f8f0f4c44534,simple,profiler-rsa,956.486000,1
Ř,237ec22fa26c5cf981c1260e63b0f8f0f4c44534,simple,emptyWhile,2163.863000,0
Ř,237ec22fa26c5cf981c1260e63b0f8f0f4c44534,simple,emptyWhile,2165.092000,0
Ř,237ec22fa26c5cf981c1260e63b0f8f0f4c44534,simple,emptyWhile,47.044000,0
Ř,237ec22fa26c5cf981c1260e63b0f8f0f4c44534,simple,emptyWhile,30.590000,0
Ř,237ec22fa26c5cf981c1260e63b0f8f0f4c44534,simple,emptyWhile,30.562000,0
Ř,237ec22fa26c5cf981c1260e63b0f8f0f4c44534,simple,emptyWhile,30.573000,1
Ř,237ec22fa26c5cf981c1260e63b0f8f0f4c44534,simple,emptyWhile,30.560000,1
Ř,237ec22fa26c5cf981c1260e63b0f8f0f4c44534,simple,emptyWhile,30.516000,1
Ř,237ec22fa26c5cf981c1260e63b0f8f0f4c44534,simple,emptyWhile,30.560000,1
Ř,237ec22fa26c5cf981c1260e63b0f8f0f4c44534,simple,emptyWhile,30.563000,1
Ř,237ec22fa26c5cf981c1260e63b0f8f0f4c44534,simple,emptyWhile,30.559000,1
Ř,237ec22fa26c5cf981c1260e63b0f8f0f4c44534,simple,emptyWhile,30.560000,1
Ř,237ec22fa26c5cf981c1260e63b0f8f0f4c44534,simple,emptyWhile,30.515000,1
Ř,237ec22fa26c5cf981c1260e63b0f8f0f4c44534,simple,emptyWhile,30.558000,1
Ř,237ec22fa26c5cf981c1260e63b0f8f0f4c44534,simple,emptyWhile,30.563000,1
Ř,237ec22fa26c5cf981c1260e63b0f8f0f4c44534,simple,listFor,203.273000,0
Ř,237ec22fa26c5cf981c1260e63b0f8f0f4c44534,simple,listFor,209.202000,0
Ř,237ec22fa26c5cf981c1260e63b0f8f0f4c44534,simple,listFor,89.196000,0
Ř,237ec22fa26c5cf981c1260e63b0f8f0f4c44534,simple,listFor,68.058000,0
Ř,237ec22fa26c5cf981c1260e63b0f8f0f4c44534,simple,listFor,78.423000,0
Ř,237ec22fa26c5cf981c1260e63b0f8f0f4c44534,simple,listFor,54.784000,1
Ř,237ec22fa26c5cf981c1260e63b0f8f0f4c44534,simple,listFor,66.536000,1
Ř,237ec22fa26c5cf981c1260e63b0f8f0f4c44534,simple,listFor,56.261000,1
Ř,237ec22fa26c5cf981c1260e63b0f8f0f4c44534,simple,listFor,68.220000,1
Ř,237ec22fa26c5cf981c1260e63b0f8f0f4c44534,simple,listFor,79.256000,1
Ř,237ec22fa26c5cf981c1260e63b0f8f0f4c44534,simple,listFor,60.182000,1
Ř,237ec22fa26c5cf981c1260e63b0f8f0f4c44534,simple,listFor,63.654000,1
Ř,237ec22fa26c5cf981c1260e63b0f8f0f4c44534,simple,listFor,71.128000,1
Ř,237ec22fa26c5cf981c1260e63b0f8f0f4c44534,simple,listFor,76.154000,1
Ř,237ec22fa26c5cf981c1260e63b0f8f0f4c44534,simple,listFor,54.813000,1
Ř,237ec22fa26c5cf981c1260e63b0f8f0f4c44534,shootout,spectralnorm_naive,949.817000,0
Ř,237ec22fa26c5cf981c1260e63b0f8f0f4c44534,shootout,spectralnorm_naive,1073.759000,0
Ř,237ec22fa26c5cf981c1260e63b0f8f0f4c44534,shootout,spectralnorm_naive,1188.389000,0
Ř,237ec22fa26c5cf981c1260e63b0f8f0f4c44534,shootout,spectralnorm_naive,40.655000,0
Ř,237ec22fa26c5cf981c1260e63b0f8f0f4c44534,shootout,spectralnorm_naive,40.900000,0
Ř,237ec22fa26c5cf981c1260e63b0f8f0f4c44534,shootout,spectralnorm_naive,40.879000,1
Ř,237ec22fa26c5cf981c1260e63b0f8f0f4c44534,shootout,spectralnorm_naive,40.686000,1
Ř,237ec22fa26c5cf981c1260e63b0f8f0f4c44534,shootout,spectralnorm_naive,40.895000,1
Ř,237ec22fa26c5cf981c1260e63b0f8f0f4c44534,shootout,spectralnorm_naive,41.079000,1
Ř,237ec22fa26c5cf981c1260e63b0f8f0f4c44534,shootout,spectralnorm_naive,40.808000,1
Ř,237ec22fa26c5cf981c1260e63b0f8f0f4c44534,shootout,spectralnorm_naive,40.751000,1
Ř,237ec22fa26c5cf981c1260e63b0f8f0f4c44534,shootout,spectralnorm_naive,40.844000,1
Ř,237ec22fa26c5cf981c1260e63b0f8f0f4c44534,shootout,spectralnorm_naive,40.802000,1
Ř,237ec22fa26c5cf981c1260e63b0f8f0f4c44534,shootout,spectralnorm_naive,40.838000,1
Ř,237ec22fa26c5cf981c1260e63b0f8f0f4c44534,shootout,spectralnorm_naive,42.263000,1
Ř,237ec22fa26c5cf981c1260e63b0f8f0f4c44534,shootout,fasta_2,1143.077000,0
Ř,237ec22fa26c5cf981c1260e63b0f8f0f4c44534,shootout,fasta_2,1560.026000,0
Ř,237ec22fa26c5cf981c1260e63b0f8f0f4c44534,shootout,fasta_2,2299.379000,0
Ř,237ec22fa26c5cf981c1260e63b0f8f0f4c44534,shootout,fasta_2,875.849000,0
Ř,237ec22fa26c5cf981c1260e63b0f8f0f4c44534,shootout,fasta_2,869.325000,0
Ř,237ec22fa26c5cf981c1260e63b0f8f0f4c44534,shootout,fasta_2,867.084000,1
Ř,237ec22fa26c5cf981c1260e63b0f8f0f4c44534,shootout,fasta_2,864.794000,1
Ř,237ec22fa26c5cf981c1260e63b0f8f0f4c44534,shootout,fasta_2,868.017000,1
Ř,237ec22fa26c5cf981c1260e63b0f8f0f4c44534,shootout,fasta_2,868.449000,1
Ř,237ec22fa26c5cf981c1260e63b0f8f0f4c44534,shootout,fasta_2,866.437000,1
Ř,237ec22fa26c5cf981c1260e63b0f8f0f4c44534,shootout,fasta_2,863.368000,1
Ř,237ec22fa26c5cf981c1260e63b0f8f0f4c44534,shootout,fasta_2,863.057000,1
Ř,237ec22fa26c5cf981c1260e63b0f8f0f4c44534,shootout,fasta_2,869.369000,1
Ř,237ec22fa26c5cf981c1260e63b0f8f0f4c44534,shootout,fasta_2,869.705000,1
Ř,237ec22fa26c5cf981c1260e63b0f8f0f4c44534,shootout,fasta_2,870.026000,1
Ř,237ec22fa26c5cf981c1260e63b0f8f0f4c44534,shootout,nbody_3,3192.836000,0
Ř,237ec22fa26c5cf981c1260e63b0f8f0f4c44534,shootout,nbody_3,2174.459000,0
Ř,237ec22fa26c5cf981c1260e63b0f8f0f4c44534,shootout,nbody_3,2842.506000,0
Ř,237ec22fa26c5cf981c1260e63b0f8f0f4c44534,shootout,nbody_3,73549.739000,0
Ř,237ec22fa26c5cf981c1260e63b0f8f0f4c44534,shootout,nbody_3,1122.769000,0
Ř,237ec22fa26c5cf981c1260e63b0f8f0f4c44534,shootout,nbody_3,2856.063000,1
Ř,237ec22fa26c5cf981c1260e63b0f8f0f4c44534,shootout,nbody_3,3416.156000,1
Ř,237ec22fa26c5cf981c1260e63b0f8f0f4c44534,shootout,nbody_3,3451.719000,1
Ř,237ec22fa26c5cf981c1260e63b0f8f0f4c44534,shootout,nbody_3,4603.993000,1
Ř,237ec22fa26c5cf981c1260e63b0f8f0f4c44534,shootout,nbody_3,5184.513000,1
Ř,237ec22fa26c5cf981c1260e63b0f8f0f4c44534,shootout,nbody_3,3440.108000,1
Ř,237ec22fa26c5cf981c1260e63b0f8f0f4c44534,shootout,nbody_3,2853.938000,1
Ř,237ec22fa26c5cf981c1260e63b0f8f0f4c44534,shootout,nbody_3,5765.329000,1
Ř,237ec22fa26c5cf981c1260e63b0f8f0f4c44534,shootout,nbody_3,6328.799000,1
Ř,237ec22fa26c5cf981c1260e63b0f8f0f4c44534,shootout,nbody_3,6319.932000,1
Ř,237ec22fa26c5cf981c1260e63b0f8f0f4c44534,shootout,reversecomplement,536.862000,0
Ř,237ec22fa26c5cf981c1260e63b0f8f0f4c44534,shootout,reversecomplement,584.353000,0
Ř,237ec22fa26c5cf981c1260e63b0f8f0f4c44534,shootout,reversecomplement,1296.673000,0
Ř,237ec22fa26c5cf981c1260e63b0f8f0f4c44534,shootout,reversecomplement,1012.371000,0
Ř,237ec22fa26c5cf981c1260e63b0f8f0f4c44534,shootout,reversecomplement,462.161000,0
Ř,237ec22fa26c5cf981c1260e63b0f8f0f4c44534,shootout,reversecomplement,460.432000,1
Ř,237ec22fa26c5cf981c1260e63b0f8f0f4c44534,shootout,reversecomplement,460.673000,1
Ř,237ec22fa26c5cf981c1260e63b0f8f0f4c44534,shootout,reversecomplement,456.134000,1
Ř,237ec22fa26c5cf981c1260e63b0f8f0f4c44534,shootout,reversecomplement,459.047000,1
Ř,237ec22fa26c5cf981c1260e63b0f8f0f4c44534,shootout,reversecomplement,453.681000,1
Ř,237ec22fa26c5cf981c1260e63b0f8f0f4c44534,shootout,reversecomplement,501.983000,1
Ř,237ec22fa26c5cf981c1260e63b0f8f0f4c44534,shootout,reversecomplement,455.216000,1
Ř,237ec22fa26c5cf981c1260e63b0f8f0f4c44534,shootout,reversecomplement,458.045000,1
Ř,237ec22fa26c5cf981c1260e63b0f8f0f4c44534,shootout,reversecomplement,455.890000,1
Ř,237ec22fa26c5cf981c1260e63b0f8f0f4c44534,shootout,reversecomplement,461.134000,1
Ř,237ec22fa26c5cf981c1260e63b0f8f0f4c44534,shootout,mandelbrot_naive_ascii,647.349000,0
Ř,237ec22fa26c5cf981c1260e63b0f8f0f4c44534,shootout,mandelbrot_naive_ascii,648.314000,0
Ř,237ec22fa26c5cf981c1260e63b0f8f0f4c44534,shootout,mandelbrot_naive_ascii,1178.882000,0
Ř,237ec22fa26c5cf981c1260e63b0f8f0f4c44534,shootout,mandelbrot_naive_ascii,210.045000,0
Ř,237ec22fa26c5cf981c1260e63b0f8f0f4c44534,shootout,mandelbrot_naive_ascii,203.965000,0
Ř,237ec22fa26c5cf981c1260e63b0f8f0f4c44534,shootout,mandelbrot_naive_ascii,203.838000,1
Ř,237ec22fa26c5cf981c1260e63b0f8f0f4c44534,shootout,mandelbrot_naive_ascii,203.740000,1
Ř,237ec22fa26c5cf981c1260e63b0f8f0f4c44534,shootout,mandelbrot_naive_ascii,205.112000,1
Ř,237ec22fa26c5cf981c1260e63b0f8f0f4c44534,shootout,mandelbrot_naive_ascii,204.242000,1
Ř,237ec22fa26c5cf981c1260e63b0f8f0f4c44534,shootout,mandelbrot_naive_ascii,204.186000,1
Ř,237ec22fa26c5cf981c1260e63b0f8f0f4c44534,shootout,mandelbrot_naive_ascii,209.101000,1
Ř,237ec22fa26c5cf981c1260e63b0f8f0f4c44534,shootout,mandelbrot_naive_ascii,203.561000,1
Ř,237ec22fa26c5cf981c1260e63b0f8f0f4c44534,shootout,mandelbrot_naive_ascii,203.971000,1
Ř,237ec22fa26c5cf981c1260e63b0f8f0f4c44534,shootout,mandelbrot_naive_ascii,205.134000,1
Ř,237ec22fa26c5cf981c1260e63b0f8f0f4c44534,shootout,mandelbrot_naive_ascii,204.048000,1
Ř,237ec22fa26c5cf981c1260e63b0f8f0f4c44534,shootout,nbody,2402.442000,0
Ř,237ec22fa26c5cf981c1260e63b0f8f0f4c44534,shootout,nbody,2215.532000,0
Ř,237ec22fa26c5cf981c1260e63b0f8f0f4c44534,shootout,nbody,2297.195000,0
Ř,237ec22fa26c5cf981c1260e63b0f8f0f4c44534,shootout,nbody,784.990000,0
Ř,237ec22fa26c5cf981c1260e63b0f8f0f4c44534,shootout,nbody,783.461000,0
Ř,237ec22fa26c5cf981c1260e63b0f8f0f4c44534,shootout,nbody,771.200000,1
Ř,237ec22fa26c5cf981c1260e63b0f8f0f4c44534,shootout,nbody,771.638000,1
Ř,237ec22fa26c5cf981c1260e63b0f8f0f4c44534,shootout,nbody,768.907000,1
Ř,237ec22fa26c5cf981c1260e63b0f8f0f4c44534,shootout,nbody,779.281000,1
Ř,237ec22fa26c5cf981c1260e63b0f8f0f4c44534,shootout,nbody,773.556000,1
Ř,237ec22fa26c5cf981c1260e63b0f8f0f4c44534,shootout,nbody,772.760000,1
Ř,237ec22fa26c5cf981c1260e63b0f8f0f4c44534,shootout,nbody,771.595000,1
Ř,237ec22fa26c5cf981c1260e63b0f8f0f4c44534,shootout,nbody,781.508000,1
Ř,237ec22fa26c5cf981c1260e63b0f8f0f4c44534,shootout,nbody,770.175000,1
Ř,237ec22fa26c5cf981c1260e63b0f8f0f4c44534,shootout,nbody,772.655000,1
Ř,237ec22fa26c5cf981c1260e63b0f8f0f4c44534,shootout,fastaredux,656.488000,0
Ř,237ec22fa26c5cf981c1260e63b0f8f0f4c44534,shootout,fastaredux,1671.833000,0
Ř,237ec22fa26c5cf981c1260e63b0f8f0f4c44534,shootout,fastaredux,2356.604000,0
Ř,237ec22fa26c5cf981c1260e63b0f8f0f4c44534,shootout,fastaredux,3016.176000,0
Ř,237ec22fa26c5cf981c1260e63b0f8f0f4c44534,shootout,fastaredux,2345.843000,0
Ř,237ec22fa26c5cf981c1260e63b0f8f0f4c44534,shootout,fastaredux,2971.584000,1
Ř,237ec22fa26c5cf981c1260e63b0f8f0f4c44534,shootout,fastaredux,387.072000,1
Ř,237ec22fa26c5cf981c1260e63b0f8f0f4c44534,shootout,fastaredux,1669.734000,1
Ř,237ec22fa26c5cf981c1260e63b0f8f0f4c44534,shootout,fastaredux,387.207000,1
Ř,237ec22fa26c5cf981c1260e63b0f8f0f4c44534,shootout,fastaredux,1768.206000,1
Ř,237ec22fa26c5cf981c1260e63b0f8f0f4c44534,shootout,fastaredux,1659.631000,1
Ř,237ec22fa26c5cf981c1260e63b0f8f0f4c44534,shootout,fastaredux,387.590000,1
Ř,237ec22fa26c5cf981c1260e63b0f8f0f4c44534,shootout,fastaredux,1761.846000,1
Ř,237ec22fa26c5cf981c1260e63b0f8f0f4c44534,shootout,fastaredux,392.711000,1
Ř,237ec22fa26c5cf981c1260e63b0f8f0f4c44534,shootout,fastaredux,392.221000,1
Ř,237ec22fa26c5cf981c1260e63b0f8f0f4c44534,shootout,knucleotide_brute_3,4418.908000,0
Ř,237ec22fa26c5cf981c1260e63b0f8f0f4c44534,shootout,knucleotide_brute_3,5165.267000,0
Ř,237ec22fa26c5cf981c1260e63b0f8f0f4c44534,shootout,knucleotide_brute_3,12927.680000,0
Ř,237ec22fa26c5cf981c1260e63b0f8f0f4c44534,shootout,knucleotide_brute_3,4206.989000,0
Ř,237ec22fa26c5cf981c1260e63b0f8f0f4c44534,shootout,knucleotide_brute_3,3826.061000,0
Ř,237ec22fa26c5cf981c1260e63b0f8f0f4c44534,shootout,knucleotide_brute_3,3790.118000,1
Ř,237ec22fa26c5cf981c1260e63b0f8f0f4c44534,shootout,knucleotide_brute_3,2832.438000,1
Ř,237ec22fa26c5cf981c1260e63b0f8f0f4c44534,shootout,knucleotide_brute_3,3768.654000,1
Ř,237ec22fa26c5cf981c1260e63b0f8f0f4c44534,shootout,knucleotide_brute_3,2832.485000,1
Ř,237ec22fa26c5cf981c1260e63b0f8f0f4c44534,shootout,knucleotide_brute_3,3289.423000,1
Ř,237ec22fa26c5cf981c1260e63b0f8f0f4c44534,shootout,knucleotide_brute_3,3783.351000,1
Ř,237ec22fa26c5cf981c1260e63b0f8f0f4c44534,shootout,knucleotide_brute_3,2817.151000,1
Ř,237ec22fa26c5cf981c1260e63b0f8f0f4c44534,shootout,knucleotide_brute_3,3300.446000,1
Ř,237ec22fa26c5cf981c1260e63b0f8f0f4c44534,shootout,knucleotide_brute_3,3778.335000,1
Ř,237ec22fa26c5cf981c1260e63b0f8f0f4c44534,shootout,knucleotide_brute_3,2819.736000,1
Ř,237ec22fa26c5cf981c1260e63b0f8f0f4c44534,shootout,fasta_naive_2,1075.500000,0
Ř,237ec22fa26c5cf981c1260e63b0f8f0f4c44534,shootout,fasta_naive_2,1256.521000,0
Ř,237ec22fa26c5cf981c1260e63b0f8f0f4c44534,shootout,fasta_naive_2,3019.211000,0
Ř,237ec22fa26c5cf981c1260e63b0f8f0f4c44534,shootout,fasta_naive_2,2949.183000,0
Ř,237ec22fa26c5cf981c1260e63b0f8f0f4c44534,shootout,fasta_naive_2,1464.911000,0
Ř,237ec22fa26c5cf981c1260e63b0f8f0f4c44534,shootout,fasta_naive_2,1264.756000,1
Ř,237ec22fa26c5cf981c1260e63b0f8f0f4c44534,shootout,fasta_naive_2,1271.559000,1
Ř,237ec22fa26c5cf981c1260e63b0f8f0f4c44534,shootout,fasta_naive_2,644.182000,1
Ř,237ec22fa26c5cf981c1260e63b0f8f0f4c44534,shootout,fasta_naive_2,673.249000,1
Ř,237ec22fa26c5cf981c1260e63b0f8f0f4c44534,shootout,fasta_naive_2,631.079000,1
Ř,237ec22fa26c5cf981c1260e63b0f8f0f4c44534,shootout,fasta_naive_2,1467.570000,1
Ř,237ec22fa26c5cf981c1260e63b0f8f0f4c44534,shootout,fasta_naive_2,1293.842000,1
Ř,237ec22fa26c5cf981c1260e63b0f8f0f4c44534,shootout,fasta_naive_2,633.007000,1
Ř,237ec22fa26c5cf981c1260e63b0f8f0f4c44534,shootout,fasta_naive_2,1245.740000,1
Ř,237ec22fa26c5cf981c1260e63b0f8f0f4c44534,shootout,fasta_naive_2,661.636000,1
Ř,237ec22fa26c5cf981c1260e63b0f8f0f4c44534,shootout,fannkuchredux,2290.025000,0
Ř,237ec22fa26c5cf981c1260e63b0f8f0f4c44534,shootout,fannkuchredux,2214.560000,0
Ř,237ec22fa26c5cf981c1260e63b0f8f0f4c44534,shootout,fannkuchredux,3608.228000,0
Ř,237ec22fa26c5cf981c1260e63b0f8f0f4c44534,shootout,fannkuchredux,797.163000,0
Ř,237ec22fa26c5cf981c1260e63b0f8f0f4c44534,shootout,fannkuchredux,793.512000,0
Ř,237ec22fa26c5cf981c1260e63b0f8f0f4c44534,shootout,fannkuchredux,804.585000,1
Ř,237ec22fa26c5cf981c1260e63b0f8f0f4c44534,shootout,fannkuchredux,794.708000,1
Ř,237ec22fa26c5cf981c1260e63b0f8f0f4c44534,shootout,fannkuchredux,794.195000,1
Ř,237ec22fa26c5cf981c1260e63b0f8f0f4c44534,shootout,fannkuchredux,804.597000,1
Ř,237ec22fa26c5cf981c1260e63b0f8f0f4c44534,shootout,fannkuchredux,796.808000,1
Ř,237ec22fa26c5cf981c1260e63b0f8f0f4c44534,shootout,fannkuchredux,806.139000,1
Ř,237ec22fa26c5cf981c1260e63b0f8f0f4c44534,shootout,fannkuchredux,793.664000,1
Ř,237ec22fa26c5cf981c1260e63b0f8f0f4c44534,shootout,fannkuchredux,793.588000,1
Ř,237ec22fa26c5cf981c1260e63b0f8f0f4c44534,shootout,fannkuchredux,804.941000,1
Ř,237ec22fa26c5cf981c1260e63b0f8f0f4c44534,shootout,fannkuchredux,793.636000,1
Ř,237ec22fa26c5cf981c1260e63b0f8f0f4c44534,shootout,spectralnorm,2503.308000,0
Ř,237ec22fa26c5cf981c1260e63b0f8f0f4c44534,shootout,spectralnorm,2710.053000,0
Ř,237ec22fa26c5cf981c1260e63b0f8f0f4c44534,shootout,spectralnorm,2434.582000,0
Ř,237ec22fa26c5cf981c1260e63b0f8f0f4c44534,shootout,spectralnorm,71.235000,0
Ř,237ec22fa26c5cf981c1260e63b0f8f0f4c44534,shootout,spectralnorm,57.516000,0
Ř,237ec22fa26c5cf981c1260e63b0f8f0f4c44534,shootout,spectralnorm,58.802000,1
Ř,237ec22fa26c5cf981c1260e63b0f8f0f4c44534,shootout,spectralnorm,59.008000,1
Ř,237ec22fa26c5cf981c1260e63b0f8f0f4c44534,shootout,spectralnorm,57.537000,1
Ř,237ec22fa26c5cf981c1260e63b0f8f0f4c44534,shootout,spectralnorm,58.852000,1
Ř,237ec22fa26c5cf981c1260e63b0f8f0f4c44534,shootout,spectralnorm,58.895000,1
Ř,237ec22fa26c5cf981c1260e63b0f8f0f4c44534,shootout,spectralnorm,58.952000,1
Ř,237ec22fa26c5cf981c1260e63b0f8f0f4c44534,shootout,spectralnorm,57.465000,1
Ř,237ec22fa26c5cf981c1260e63b0f8f0f4c44534,shootout,spectralnorm,58.834000,1
Ř,237ec22fa26c5cf981c1260e63b0f8f0f4c44534,shootout,spectralnorm,58.745000,1
Ř,237ec22fa26c5cf981c1260e63b0f8f0f4c44534,shootout,spectralnorm,58.820000,1
Ř,237ec22fa26c5cf981c1260e63b0f8f0f4c44534,shootout,pidigits,60961.093000,0
Ř,237ec22fa26c5cf981c1260e63b0f8f0f4c44534,shootout,pidigits,775.211000,0
Ř,237ec22fa26c5cf981c1260e63b0f8f0f4c44534,shootout,pidigits,34292.274000,0
Ř,237ec22fa26c5cf981c1260e63b0f8f0f4c44534,shootout,pidigits,20855.018000,0
Ř,237ec22fa26c5cf981c1260e63b0f8f0f4c44534,shootout,pidigits,118.611000,0
Ř,237ec22fa26c5cf981c1260e63b0f8f0f4c44534,shootout,pidigits,105.723000,1
Ř,237ec22fa26c5cf981c1260e63b0f8f0f4c44534,shootout,pidigits,6932.361000,1
Ř,237ec22fa26c5cf981c1260e63b0f8f0f4c44534,shootout,pidigits,105.724000,1
Ř,237ec22fa26c5cf981c1260e63b0f8f0f4c44534,shootout,pidigits,106.554000,1
Ř,237ec22fa26c5cf981c1260e63b0f8f0f4c44534,shootout,pidigits,109.474000,1
Ř,237ec22fa26c5cf981c1260e63b0f8f0f4c44534,shootout,pidigits,2937.081000,1
Ř,237ec22fa26c5cf981c1260e63b0f8f0f4c44534,shootout,pidigits,107.221000,1
Ř,237ec22fa26c5cf981c1260e63b0f8f0f4c44534,shootout,pidigits,106.292000,1
Ř,237ec22fa26c5cf981c1260e63b0f8f0f4c44534,shootout,pidigits,107.343000,1
Ř,237ec22fa26c5cf981c1260e63b0f8f0f4c44534,shootout,pidigits,106.507000,1
Ř,237ec22fa26c5cf981c1260e63b0f8f0f4c44534,shootout,nbody_naive,21435.776000,0
Ř,237ec22fa26c5cf981c1260e63b0f8f0f4c44534,shootout,nbody_naive,2151.343000,0
Ř,237ec22fa26c5cf981c1260e63b0f8f0f4c44534,shootout,nbody_naive,42738.801000,0
Ř,237ec22fa26c5cf981c1260e63b0f8f0f4c44534,shootout,nbody_naive,156.896000,0
Ř,237ec22fa26c5cf981c1260e63b0f8f0f4c44534,shootout,nbody_naive,161.363000,0
Ř,237ec22fa26c5cf981c1260e63b0f8f0f4c44534,shootout,nbody_naive,157.822000,1
Ř,237ec22fa26c5cf981c1260e63b0f8f0f4c44534,shootout,nbody_naive,157.363000,1
Ř,237ec22fa26c5cf981c1260e63b0f8f0f4c44534,shootout,nbody_naive,153.940000,1
Ř,237ec22fa26c5cf981c1260e63b0f8f0f4c44534,shootout,nbody_naive,154.029000,1
Ř,237ec22fa26c5cf981c1260e63b0f8f0f4c44534,shootout,nbody_naive,160.711000,1
Ř,237ec22fa26c5cf981c1260e63b0f8f0f4c44534,shootout,nbody_naive,157.851000,1
Ř,237ec22fa26c5cf981c1260e63b0f8f0f4c44534,shootout,nbody_naive,157.222000,1
Ř,237ec22fa26c5cf981c1260e63b0f8f0f4c44534,shootout,nbody_naive,153.705000,1
Ř,237ec22fa26c5cf981c1260e63b0f8f0f4c44534,shootout,nbody_naive,168.515000,1
Ř,237ec22fa26c5cf981c1260e63b0f8f0f4c44534,shootout,nbody_naive,157.195000,1
Ř,237ec22fa26c5cf981c1260e63b0f8f0f4c44534,shootout,binarytrees,1002.160000,0
Ř,237ec22fa26c5cf981c1260e63b0f8f0f4c44534,shootout,binarytrees,197.006000,0
Ř,237ec22fa26c5cf981c1260e63b0f8f0f4c44534,shootout,binarytrees,1380.088000,0
Ř,237ec22fa26c5cf981c1260e63b0f8f0f4c44534,shootout,binarytrees,74.159000,0
Ř,237ec22fa26c5cf981c1260e63b0f8f0f4c44534,shootout,binarytrees,74.322000,0
Ř,237ec22fa26c5cf981c1260e63b0f8f0f4c44534,shootout,binarytrees,86.075000,1
Ř,237ec22fa26c5cf981c1260e63b0f8f0f4c44534,shootout,binarytrees,74.383000,1
Ř,237ec22fa26c5cf981c1260e63b0f8f0f4c44534,shootout,binarytrees,74.625000,1
Ř,237ec22fa26c5cf981c1260e63b0f8f0f4c44534,shootout,binarytrees,75.277000,1
Ř,237ec22fa26c5cf981c1260e63b0f8f0f4c44534,shootout,binarytrees,74.465000,1
Ř,237ec22fa26c5cf981c1260e63b0f8f0f4c44534,shootout,binarytrees,78.089000,1
Ř,237ec22fa26c5cf981c1260e63b0f8f0f4c44534,shootout,binarytrees,74.596000,1
Ř,237ec22fa26c5cf981c1260e63b0f8f0f4c44534,shootout,binarytrees,74.719000,1
Ř,237ec22fa26c5cf981c1260e63b0f8f0f4c44534,shootout,binarytrees,74.974000,1
Ř,237ec22fa26c5cf981c1260e63b0f8f0f4c44534,shootout,binarytrees,74.826000,1
Ř,237ec22fa26c5cf981c1260e63b0f8f0f4c44534,shootout,knucleotide_brute_2,3546.518000,0
Ř,237ec22fa26c5cf981c1260e63b0f8f0f4c44534,shootout,knucleotide_brute_2,4610.314000,0
Ř,237ec22fa26c5cf981c1260e63b0f8f0f4c44534,shootout,knucleotide_brute_2,14105.504000,0
Ř,237ec22fa26c5cf981c1260e63b0f8f0f4c44534,shootout,knucleotide_brute_2,3401.994000,0
Ř,237ec22fa26c5cf981c1260e63b0f8f0f4c44534,shootout,knucleotide_brute_2,2737.664000,0
Ř,237ec22fa26c5cf981c1260e63b0f8f0f4c44534,shootout,knucleotide_brute_2,3563.513000,1
Ř,237ec22fa26c5cf981c1260e63b0f8f0f4c44534,shootout,knucleotide_brute_2,3661.237000,1
Ř,237ec22fa26c5cf981c1260e63b0f8f0f4c44534,shootout,knucleotide_brute_2,3270.541000,1
Ř,237ec22fa26c5cf981c1260e63b0f8f0f4c44534,shootout,knucleotide_brute_2,3679.550000,1
Ř,237ec22fa26c5cf981c1260e63b0f8f0f4c44534,shootout,knucleotide_brute_2,3736.901000,1
Ř,237ec22fa26c5cf981c1260e63b0f8f0f4c44534,shootout,knucleotide_brute_2,2123.681000,1
Ř,237ec22fa26c5cf981c1260e63b0f8f0f4c44534,shootout,knucleotide_brute_2,2158.678000,1
Ř,237ec22fa26c5cf981c1260e63b0f8f0f4c44534,shootout,knucleotide_brute_2,2237.437000,1
Ř,237ec22fa26c5cf981c1260e63b0f8f0f4c44534,shootout,knucleotide_brute_2,2879.397000,1
Ř,237ec22fa26c5cf981c1260e63b0f8f0f4c44534,shootout,knucleotide_brute_2,3445.211000,1
Ř,237ec22fa26c5cf981c1260e63b0f8f0f4c44534,shootout,binarytrees_2,1252.188000,0
Ř,237ec22fa26c5cf981c1260e63b0f8f0f4c44534,shootout,binarytrees_2,387.821000,0
Ř,237ec22fa26c5cf981c1260e63b0f8f0f4c44534,shootout,binarytrees_2,1275.358000,0
Ř,237ec22fa26c5cf981c1260e63b0f8f0f4c44534,shootout,binarytrees_2,268.169000,0
Ř,237ec22fa26c5cf981c1260e63b0f8f0f4c44534,shootout,binarytrees_2,163.611000,0
Ř,237ec22fa26c5cf981c1260e63b0f8f0f4c44534,shootout,binarytrees_2,271.461000,1
Ř,237ec22fa26c5cf981c1260e63b0f8f0f4c44534,shootout,binarytrees_2,153.486000,1
Ř,237ec22fa26c5cf981c1260e63b0f8f0f4c44534,shootout,binarytrees_2,209.367000,1
Ř,237ec22fa26c5cf981c1260e63b0f8f0f4c44534,shootout,binarytrees_2,221.711000,1
Ř,237ec22fa26c5cf981c1260e63b0f8f0f4c44534,shootout,binarytrees_2,270.447000,1
Ř,237ec22fa26c5cf981c1260e63b0f8f0f4c44534,shootout,binarytrees_2,276.808000,1
Ř,237ec22fa26c5cf981c1260e63b0f8f0f4c44534,shootout,binarytrees_2,212.847000,1
Ř,237ec22fa26c5cf981c1260e63b0f8f0f4c44534,shootout,binarytrees_2,277.831000,1
Ř,237ec22fa26c5cf981c1260e63b0f8f0f4c44534,shootout,binarytrees_2,92.142000,1
Ř,237ec22fa26c5cf981c1260e63b0f8f0f4c44534,shootout,binarytrees_2,271.578000,1
Ř,237ec22fa26c5cf981c1260e63b0f8f0f4c44534,shootout,nbody_naive_2,10425.915000,0
Ř,237ec22fa26c5cf981c1260e63b0f8f0f4c44534,shootout,nbody_naive_2,5450.701000,0
Ř,237ec22fa26c5cf981c1260e63b0f8f0f4c44534,shootout,nbody_naive_2,134121.969000,0
Ř,237ec22fa26c5cf981c1260e63b0f8f0f4c44534,shootout,nbody_naive_2,28521.863000,0
Ř,237ec22fa26c5cf981c1260e63b0f8f0f4c44534,shootout,nbody_naive_2,26684.761000,0
Ř,237ec22fa26c5cf981c1260e63b0f8f0f4c44534,shootout,nbody_naive_2,33923.582000,1
Ř,237ec22fa26c5cf981c1260e63b0f8f0f4c44534,shootout,nbody_naive_2,26642.106000,1
Ř,237ec22fa26c5cf981c1260e63b0f8f0f4c44534,shootout,nbody_naive_2,12062.232000,1
Ř,237ec22fa26c5cf981c1260e63b0f8f0f4c44534,shootout,nbody_naive_2,37764.867000,1
Ř,237ec22fa26c5cf981c1260e63b0f8f0f4c44534,shootout,nbody_naive_2,28558.013000,1
Ř,237ec22fa26c5cf981c1260e63b0f8f0f4c44534,shootout,nbody_naive_2,43187.504000,1
Ř,237ec22fa26c5cf981c1260e63b0f8f0f4c44534,shootout,nbody_naive_2,30413.722000,1
Ř,237ec22fa26c5cf981c1260e63b0f8f0f4c44534,shootout,nbody_naive_2,19392.183000,1
Ř,237ec22fa26c5cf981c1260e63b0f8f0f4c44534,shootout,nbody_naive_2,37993.850000,1
Ř,237ec22fa26c5cf981c1260e63b0f8f0f4c44534,shootout,nbody_naive_2,47084.862000,1
Ř,237ec22fa26c5cf981c1260e63b0f8f0f4c44534,shootout,reversecomplement_naive,515.738000,0
Ř,237ec22fa26c5cf981c1260e63b0f8f0f4c44534,shootout,reversecomplement_naive,562.843000,0
Ř,237ec22fa26c5cf981c1260e63b0f8f0f4c44534,shootout,reversecomplement_naive,1207.737000,0
Ř,237ec22fa26c5cf981c1260e63b0f8f0f4c44534,shootout,reversecomplement_naive,954.546000,0
Ř,237ec22fa26c5cf981c1260e63b0f8f0f4c44534,shootout,reversecomplement_naive,346.869000,0
Ř,237ec22fa26c5cf981c1260e63b0f8f0f4c44534,shootout,reversecomplement_naive,364.407000,1
Ř,237ec22fa26c5cf981c1260e63b0f8f0f4c44534,shootout,reversecomplement_naive,335.393000,1
Ř,237ec22fa26c5cf981c1260e63b0f8f0f4c44534,shootout,reversecomplement_naive,344.246000,1
Ř,237ec22fa26c5cf981c1260e63b0f8f0f4c44534,shootout,reversecomplement_naive,332.001000,1
Ř,237ec22fa26c5cf981c1260e63b0f8f0f4c44534,shootout,reversecomplement_naive,335.049000,1
Ř,237ec22fa26c5cf981c1260e63b0f8f0f4c44534,shootout,reversecomplement_naive,332.311000,1
Ř,237ec22fa26c5cf981c1260e63b0f8f0f4c44534,shootout,reversecomplement_naive,331.926000,1
Ř,237ec22fa26c5cf981c1260e63b0f8f0f4c44534,shootout,reversecomplement_naive,335.854000,1
Ř,237ec22fa26c5cf981c1260e63b0f8f0f4c44534,shootout,reversecomplement_naive,335.067000,1
Ř,237ec22fa26c5cf981c1260e63b0f8f0f4c44534,shootout,reversecomplement_naive,374.261000,1
Ř,237ec22fa26c5cf981c1260e63b0f8f0f4c44534,shootout,spectralnorm_alt_2,1713.672000,0
Ř,237ec22fa26c5cf981c1260e63b0f8f0f4c44534,shootout,spectralnorm_alt_2,1417.319000,0
Ř,237ec22fa26c5cf981c1260e63b0f8f0f4c44534,shootout,spectralnorm_alt_2,2619.314000,0
Ř,237ec22fa26c5cf981c1260e63b0f8f0f4c44534,shootout,spectralnorm_alt_2,1219.052000,0
Ř,237ec22fa26c5cf981c1260e63b0f8f0f4c44534,shootout,spectralnorm_alt_2,1226.689000,0
Ř,237ec22fa26c5cf981c1260e63b0f8f0f4c44534,shootout,spectralnorm_alt_2,1250.802000,1
Ř,237ec22fa26c5cf981c1260e63b0f8f0f4c44534,shootout,spectralnorm_alt_2,1215.097000,1
Ř,237ec22fa26c5cf981c1260e63b0f8f0f4c44534,shootout,spectralnorm_alt_2,1218.282000,1
Ř,237ec22fa26c5cf981c1260e63b0f8f0f4c44534,shootout,spectralnorm_alt_2,1233.291000,1
Ř,237ec22fa26c5cf981c1260e63b0f8f0f4c44534,shootout,spectralnorm_alt_2,1264.365000,1
Ř,237ec22fa26c5cf981c1260e63b0f8f0f4c44534,shootout,spectralnorm_alt_2,1210.254000,1
Ř,237ec22fa26c5cf981c1260e63b0f8f0f4c44534,shootout,spectralnorm_alt_2,1237.438000,1
Ř,237ec22fa26c5cf981c1260e63b0f8f0f4c44534,shootout,spectralnorm_alt_2,1232.451000,1
Ř,237ec22fa26c5cf981c1260e63b0f8f0f4c44534,shootout,spectralnorm_alt_2,1240.284000,1
Ř,237ec22fa26c5cf981c1260e63b0f8f0f4c44534,shootout,spectralnorm_alt_2,1196.869000,1
Ř,237ec22fa26c5cf981c1260e63b0f8f0f4c44534,shootout,reversecomplement_2,593.658000,0
Ř,237ec22fa26c5cf981c1260e63b0f8f0f4c44534,shootout,reversecomplement_2,569.980000,0
Ř,237ec22fa26c5cf981c1260e63b0f8f0f4c44534,shootout,reversecomplement_2,1538.888000,0
Ř,237ec22fa26c5cf981c1260e63b0f8f0f4c44534,shootout,reversecomplement_2,436.551000,0
Ř,237ec22fa26c5cf981c1260e63b0f8f0f4c44534,shootout,reversecomplement_2,416.868000,0
Ř,237ec22fa26c5cf981c1260e63b0f8f0f4c44534,shootout,reversecomplement_2,421.640000,1
Ř,237ec22fa26c5cf981c1260e63b0f8f0f4c44534,shootout,reversecomplement_2,420.744000,1
Ř,237ec22fa26c5cf981c1260e63b0f8f0f4c44534,shootout,reversecomplement_2,422.891000,1
Ř,237ec22fa26c5cf981c1260e63b0f8f0f4c44534,shootout,reversecomplement_2,422.248000,1
Ř,237ec22fa26c5cf981c1260e63b0f8f0f4c44534,shootout,reversecomplement_2,419.855000,1
Ř,237ec22fa26c5cf981c1260e63b0f8f0f4c44534,shootout,reversecomplement_2,424.756000,1
Ř,237ec22fa26c5cf981c1260e63b0f8f0f4c44534,shootout,reversecomplement_2,420.400000,1
Ř,237ec22fa26c5cf981c1260e63b0f8f0f4c44534,shootout,reversecomplement_2,422.142000,1
Ř,237ec22fa26c5cf981c1260e63b0f8f0f4c44534,shootout,reversecomplement_2,423.979000,1
Ř,237ec22fa26c5cf981c1260e63b0f8f0f4c44534,shootout,reversecomplement_2,423.371000,1
Ř,237ec22fa26c5cf981c1260e63b0f8f0f4c44534,shootout,fasta,1512.995000,0
Ř,237ec22fa26c5cf981c1260e63b0f8f0f4c44534,shootout,fasta,1276.348000,0
Ř,237ec22fa26c5cf981c1260e63b0f8f0f4c44534,shootout,fasta,2002.459000,0
Ř,237ec22fa26c5cf981c1260e63b0f8f0f4c44534,shootout,fasta,926.469000,0
Ř,237ec22fa26c5cf981c1260e63b0f8f0f4c44534,shootout,fasta,925.461000,0
Ř,237ec22fa26c5cf981c1260e63b0f8f0f4c44534,shootout,fasta,920.999000,1
Ř,237ec22fa26c5cf981c1260e63b0f8f0f4c44534,shootout,fasta,922.977000,1
Ř,237ec22fa26c5cf981c1260e63b0f8f0f4c44534,shootout,fasta,920.048000,1
Ř,237ec22fa26c5cf981c1260e63b0f8f0f4c44534,shootout,fasta,917.779000,1
Ř,237ec22fa26c5cf981c1260e63b0f8f0f4c44534,shootout,fasta,917.466000,1
Ř,237ec22fa26c5cf981c1260e63b0f8f0f4c44534,shootout,fasta,917.430000,1
Ř,237ec22fa26c5cf981c1260e63b0f8f0f4c44534,shootout,fasta,917.887000,1
Ř,237ec22fa26c5cf981c1260e63b0f8f0f4c44534,shootout,fasta,926.026000,1
Ř,237ec22fa26c5cf981c1260e63b0f8f0f4c44534,shootout,fasta,919.478000,1
Ř,237ec22fa26c5cf981c1260e63b0f8f0f4c44534,shootout,fasta,917.198000,1
Ř,237ec22fa26c5cf981c1260e63b0f8f0f4c44534,shootout,fannkuchredux_naive,2618.163000,0
Ř,237ec22fa26c5cf981c1260e63b0f8f0f4c44534,shootout,fannkuchredux_naive,2591.643000,0
Ř,237ec22fa26c5cf981c1260e63b0f8f0f4c44534,shootout,fannkuchredux_naive,2871.300000,0
Ř,237ec22fa26c5cf981c1260e63b0f8f0f4c44534,shootout,fannkuchredux_naive,216.145000,0
Ř,237ec22fa26c5cf981c1260e63b0f8f0f4c44534,shootout,fannkuchredux_naive,209.845000,0
Ř,237ec22fa26c5cf981c1260e63b0f8f0f4c44534,shootout,fannkuchredux_naive,210.006000,1
Ř,237ec22fa26c5cf981c1260e63b0f8f0f4c44534,shootout,fannkuchredux_naive,215.517000,1
Ř,237ec22fa26c5cf981c1260e63b0f8f0f4c44534,shootout,fannkuchredux_naive,210.276000,1
Ř,237ec22fa26c5cf981c1260e63b0f8f0f4c44534,shootout,fannkuchredux_naive,225.372000,1
Ř,237ec22fa26c5cf981c1260e63b0f8f0f4c44534,shootout,fannkuchredux_naive,211.971000,1
Ř,237ec22fa26c5cf981c1260e63b0f8f0f4c44534,shootout,fannkuchredux_naive,209.912000,1
Ř,237ec22fa26c5cf981c1260e63b0f8f0f4c44534,shootout,fannkuchredux_naive,214.812000,1
Ř,237ec22fa26c5cf981c1260e63b0f8f0f4c44534,shootout,fannkuchredux_naive,210.635000,1
Ř,237ec22fa26c5cf981c1260e63b0f8f0f4c44534,shootout,fannkuchredux_naive,209.933000,1
Ř,237ec22fa26c5cf981c1260e63b0f8f0f4c44534,shootout,fannkuchredux_naive,214.770000,1
Ř,237ec22fa26c5cf981c1260e63b0f8f0f4c44534,shootout,mandelbrot_ascii,390.559000,0
Ř,237ec22fa26c5cf981c1260e63b0f8f0f4c44534,shootout,mandelbrot_ascii,81.654000,0
Ř,237ec22fa26c5cf981c1260e63b0f8f0f4c44534,shootout,mandelbrot_ascii,956.196000,0
Ř,237ec22fa26c5cf981c1260e63b0f8f0f4c44534,shootout,mandelbrot_ascii,64.808000,0
Ř,237ec22fa26c5cf981c1260e63b0f8f0f4c44534,shootout,mandelbrot_ascii,62.659000,0
Ř,237ec22fa26c5cf981c1260e63b0f8f0f4c44534,shootout,mandelbrot_ascii,63.277000,1
Ř,237ec22fa26c5cf981c1260e63b0f8f0f4c44534,shootout,mandelbrot_ascii,63.362000,1
Ř,237ec22fa26c5cf981c1260e63b0f8f0f4c44534,shootout,mandelbrot_ascii,64.948000,1
Ř,237ec22fa26c5cf981c1260e63b0f8f0f4c44534,shootout,mandelbrot_ascii,63.346000,1
Ř,237ec22fa26c5cf981c1260e63b0f8f0f4c44534,shootout,mandelbrot_ascii,63.229000,1
Ř,237ec22fa26c5cf981c1260e63b0f8f0f4c44534,shootout,mandelbrot_ascii,63.275000,1
Ř,237ec22fa26c5cf981c1260e63b0f8f0f4c44534,shootout,mandelbrot_ascii,64.881000,1
Ř,237ec22fa26c5cf981c1260e63b0f8f0f4c44534,shootout,mandelbrot_ascii,63.293000,1
Ř,237ec22fa26c5cf981c1260e63b0f8f0f4c44534,shootout,mandelbrot_ascii,63.253000,1
Ř,237ec22fa26c5cf981c1260e63b0f8f0f4c44534,shootout,mandelbrot_ascii,65.563000,1
Ř,237ec22fa26c5cf981c1260e63b0f8f0f4c44534,shootout,regexdna,1573.414000,0
Ř,237ec22fa26c5cf981c1260e63b0f8f0f4c44534,shootout,regexdna,1559.655000,0
Ř,237ec22fa26c5cf981c1260e63b0f8f0f4c44534,shootout,regexdna,3740.162000,0
Ř,237ec22fa26c5cf981c1260e63b0f8f0f4c44534,shootout,regexdna,1485.572000,0
Ř,237ec22fa26c5cf981c1260e63b0f8f0f4c44534,shootout,regexdna,2997.346000,0
Ř,237ec22fa26c5cf981c1260e63b0f8f0f4c44534,shootout,regexdna,1505.222000,1
Ř,237ec22fa26c5cf981c1260e63b0f8f0f4c44534,shootout,regexdna,1483.174000,1
Ř,237ec22fa26c5cf981c1260e63b0f8f0f4c44534,shootout,regexdna,1484.262000,1
Ř,237ec22fa26c5cf981c1260e63b0f8f0f4c44534,shootout,regexdna,1484.804000,1
Ř,237ec22fa26c5cf981c1260e63b0f8f0f4c44534,shootout,regexdna,1498.636000,1
Ř,237ec22fa26c5cf981c1260e63b0f8f0f4c44534,shootout,regexdna,1480.762000,1
Ř,237ec22fa26c5cf981c1260e63b0f8f0f4c44534,shootout,regexdna,1485.906000,1
Ř,237ec22fa26c5cf981c1260e63b0f8f0f4c44534,shootout,regexdna,1486.866000,1
Ř,237ec22fa26c5cf981c1260e63b0f8f0f4c44534,shootout,regexdna,1503.513000,1
Ř,237ec22fa26c5cf981c1260e63b0f8f0f4c44534,shootout,regexdna,1481.237000,1
Ř,237ec22fa26c5cf981c1260e63b0f8f0f4c44534,shootout,fasta_naive,837.419000,0
Ř,237ec22fa26c5cf981c1260e63b0f8f0f4c44534,shootout,fasta_naive,871.376000,0
Ř,237ec22fa26c5cf981c1260e63b0f8f0f4c44534,shootout,fasta_naive,2000.202000,0
Ř,237ec22fa26c5cf981c1260e63b0f8f0f4c44534,shootout,fasta_naive,446.989000,0
Ř,237ec22fa26c5cf981c1260e63b0f8f0f4c44534,shootout,fasta_naive,463.964000,0
Ř,237ec22fa26c5cf981c1260e63b0f8f0f4c44534,shootout,fasta_naive,418.075000,1
Ř,237ec22fa26c5cf981c1260e63b0f8f0f4c44534,shootout,fasta_naive,428.699000,1
Ř,237ec22fa26c5cf981c1260e63b0f8f0f4c44534,shootout,fasta_naive,433.193000,1
Ř,237ec22fa26c5cf981c1260e63b0f8f0f4c44534,shootout,fasta_naive,442.657000,1
Ř,237ec22fa26c5cf981c1260e63b0f8f0f4c44534,shootout,fasta_naive,444.052000,1
Ř,237ec22fa26c5cf981c1260e63b0f8f0f4c44534,shootout,fasta_naive,440.364000,1
Ř,237ec22fa26c5cf981c1260e63b0f8f0f4c44534,shootout,fasta_naive,423.122000,1
Ř,237ec22fa26c5cf981c1260e63b0f8f0f4c44534,shootout,fasta_naive,436.512000,1
Ř,237ec22fa26c5cf981c1260e63b0f8f0f4c44534,shootout,fasta_naive,442.718000,1
Ř,237ec22fa26c5cf981c1260e63b0f8f0f4c44534,shootout,fasta_naive,444.284000,1
Ř,237ec22fa26c5cf981c1260e63b0f8f0f4c44534,shootout,knucleotide,3080.362000,0
Ř,237ec22fa26c5cf981c1260e63b0f8f0f4c44534,shootout,knucleotide,2184.146000,0
Ř,237ec22fa26c5cf981c1260e63b0f8f0f4c44534,shootout,knucleotide,9128.633000,0
Ř,237ec22fa26c5cf981c1260e63b0f8f0f4c44534,shootout,knucleotide,511.824000,0
Ř,237ec22fa26c5cf981c1260e63b0f8f0f4c44534,shootout,knucleotide,530.729000,0
Ř,237ec22fa26c5cf981c1260e63b0f8f0f4c44534,shootout,knucleotide,556.740000,1
Ř,237ec22fa26c5cf981c1260e63b0f8f0f4c44534,shootout,knucleotide,1332.144000,1
Ř,237ec22fa26c5cf981c1260e63b0f8f0f4c44534,shootout,knucleotide,438.802000,1
Ř,237ec22fa26c5cf981c1260e63b0f8f0f4c44534,shootout,knucleotide,472.425000,1
Ř,237ec22fa26c5cf981c1260e63b0f8f0f4c44534,shootout,knucleotide,497.954000,1
Ř,237ec22fa26c5cf981c1260e63b0f8f0f4c44534,shootout,knucleotide,521.526000,1
Ř,237ec22fa26c5cf981c1260e63b0f8f0f4c44534,shootout,knucleotide,540.175000,1
Ř,237ec22fa26c5cf981c1260e63b0f8f0f4c44534,shootout,knucleotide,495.448000,1
Ř,237ec22fa26c5cf981c1260e63b0f8f0f4c44534,shootout,knucleotide,439.621000,1
Ř,237ec22fa26c5cf981c1260e63b0f8f0f4c44534,shootout,knucleotide,470.914000,1
Ř,237ec22fa26c5cf981c1260e63b0f8f0f4c44534,shootout,spectralnorm_math,3590.761000,0
Ř,237ec22fa26c5cf981c1260e63b0f8f0f4c44534,shootout,spectralnorm_math,3385.825000,0
Ř,237ec22fa26c5cf981c1260e63b0f8f0f4c44534,shootout,spectralnorm_math,3804.946000,0
Ř,237ec22fa26c5cf981c1260e63b0f8f0f4c44534,shootout,spectralnorm_math,3215.793000,0
Ř,237ec22fa26c5cf981c1260e63b0f8f0f4c44534,shootout,spectralnorm_math,3197.634000,0
Ř,237ec22fa26c5cf981c1260e63b0f8f0f4c44534,shootout,spectralnorm_math,3185.303000,1
Ř,237ec22fa26c5cf981c1260e63b0f8f0f4c44534,shootout,spectralnorm_math,3205.324000,1
Ř,237ec22fa26c5cf981c1260e63b0f8f0f4c44534,shootout,spectralnorm_math,3220.614000,1
Ř,237ec22fa26c5cf981c1260e63b0f8f0f4c44534,shootout,spectralnorm_math,3198.001000,1
Ř,237ec22fa26c5cf981c1260e63b0f8f0f4c44534,shootout,spectralnorm_math,3244.659000,1
Ř,237ec22fa26c5cf981c1260e63b0f8f0f4c44534,shootout,spectralnorm_math,3199.126000,1
Ř,237ec22fa26c5cf981c1260e63b0f8f0f4c44534,shootout,spectralnorm_math,3200.000000,1
Ř,237ec22fa26c5cf981c1260e63b0f8f0f4c44534,shootout,spectralnorm_math,3196.499000,1
Ř,237ec22fa26c5cf981c1260e63b0f8f0f4c44534,shootout,spectralnorm_math,3229.516000,1
Ř,237ec22fa26c5cf981c1260e63b0f8f0f4c44534,shootout,spectralnorm_math,3192.963000,1
Ř,237ec22fa26c5cf981c1260e63b0f8f0f4c44534,shootout,fastaredux_naive,768.685000,0
Ř,237ec22fa26c5cf981c1260e63b0f8f0f4c44534,shootout,fastaredux_naive,1381.176000,0
Ř,237ec22fa26c5cf981c1260e63b0f8f0f4c44534,shootout,fastaredux_naive,2502.353000,0
Ř,237ec22fa26c5cf981c1260e63b0f8f0f4c44534,shootout,fastaredux_naive,452.291000,0
Ř,237ec22fa26c5cf981c1260e63b0f8f0f4c44534,shootout,fastaredux_naive,457.165000,0
Ř,237ec22fa26c5cf981c1260e63b0f8f0f4c44534,shootout,fastaredux_naive,444.944000,1
Ř,237ec22fa26c5cf981c1260e63b0f8f0f4c44534,shootout,fastaredux_naive,432.755000,1
Ř,237ec22fa26c5cf981c1260e63b0f8f0f4c44534,shootout,fastaredux_naive,449.622000,1
Ř,237ec22fa26c5cf981c1260e63b0f8f0f4c44534,shootout,fastaredux_naive,451.396000,1
Ř,237ec22fa26c5cf981c1260e63b0f8f0f4c44534,shootout,fastaredux_naive,450.166000,1
Ř,237ec22fa26c5cf981c1260e63b0f8f0f4c44534,shootout,fastaredux_naive,455.040000,1
Ř,237ec22fa26c5cf981c1260e63b0f8f0f4c44534,shootout,fastaredux_naive,428.515000,1
Ř,237ec22fa26c5cf981c1260e63b0f8f0f4c44534,shootout,fastaredux_naive,437.693000,1
Ř,237ec22fa26c5cf981c1260e63b0f8f0f4c44534,shootout,fastaredux_naive,444.157000,1
Ř,237ec22fa26c5cf981c1260e63b0f8f0f4c44534,shootout,fastaredux_naive,453.319000,1
Ř,237ec22fa26c5cf981c1260e63b0f8f0f4c44534,shootout,mandelbrot_noout_naive,263.079000,0
Ř,237ec22fa26c5cf981c1260e63b0f8f0f4c44534,shootout,mandelbrot_noout_naive,249.264000,0
Ř,237ec22fa26c5cf981c1260e63b0f8f0f4c44534,shootout,mandelbrot_noout_naive,1177.666000,0
Ř,237ec22fa26c5cf981c1260e63b0f8f0f4c44534,shootout,mandelbrot_noout_naive,224.616000,0
Ř,237ec22fa26c5cf981c1260e63b0f8f0f4c44534,shootout,mandelbrot_noout_naive,224.969000,0
Ř,237ec22fa26c5cf981c1260e63b0f8f0f4c44534,shootout,mandelbrot_noout_naive,225.490000,1
Ř,237ec22fa26c5cf981c1260e63b0f8f0f4c44534,shootout,mandelbrot_noout_naive,235.389000,1
Ř,237ec22fa26c5cf981c1260e63b0f8f0f4c44534,shootout,mandelbrot_noout_naive,226.345000,1
Ř,237ec22fa26c5cf981c1260e63b0f8f0f4c44534,shootout,mandelbrot_noout_naive,234.722000,1
Ř,237ec22fa26c5cf981c1260e63b0f8f0f4c44534,shootout,mandelbrot_noout_naive,233.562000,1
Ř,237ec22fa26c5cf981c1260e63b0f8f0f4c44534,shootout,mandelbrot_noout_naive,243.180000,1
Ř,237ec22fa26c5cf981c1260e63b0f8f0f4c44534,shootout,mandelbrot_noout_naive,229.795000,1
Ř,237ec22fa26c5cf981c1260e63b0f8f0f4c44534,shootout,mandelbrot_noout_naive,231.738000,1
Ř,237ec22fa26c5cf981c1260e63b0f8f0f4c44534,shootout,mandelbrot_noout_naive,233.915000,1
Ř,237ec22fa26c5cf981c1260e63b0f8f0f4c44534,shootout,mandelbrot_noout_naive,244.986000,1
Ř,237ec22fa26c5cf981c1260e63b0f8f0f4c44534,shootout,knucleotide_brute,4509.703000,0
Ř,237ec22fa26c5cf981c1260e63b0f8f0f4c44534,shootout,knucleotide_brute,5423.106000,0
Ř,237ec22fa26c5cf981c1260e63b0f8f0f4c44534,shootout,knucleotide_brute,15110.660000,0
Ř,237ec22fa26c5cf981c1260e63b0f8f0f4c44534,shootout,knucleotide_brute,4284.115000,0
Ř,237ec22fa26c5cf981c1260e63b0f8f0f4c44534,shootout,knucleotide_brute,3985.875000,0
Ř,237ec22fa26c5cf981c1260e63b0f8f0f4c44534,shootout,knucleotide_brute,4082.772000,1
Ř,237ec22fa26c5cf981c1260e63b0f8f0f4c44534,shootout,knucleotide_brute,4801.035000,1
Ř,237ec22fa26c5cf981c1260e63b0f8f0f4c44534,shootout,knucleotide_brute,4183.298000,1
Ř,237ec22fa26c5cf981c1260e63b0f8f0f4c44534,shootout,knucleotide_brute,4120.030000,1
Ř,237ec22fa26c5cf981c1260e63b0f8f0f4c44534,shootout,knucleotide_brute,4203.965000,1
Ř,237ec22fa26c5cf981c1260e63b0f8f0f4c44534,shootout,knucleotide_brute,3476.737000,1
Ř,237ec22fa26c5cf981c1260e63b0f8f0f4c44534,shootout,knucleotide_brute,3925.087000,1
Ř,237ec22fa26c5cf981c1260e63b0f8f0f4c44534,shootout,knucleotide_brute,3764.055000,1
Ř,237ec22fa26c5cf981c1260e63b0f8f0f4c44534,shootout,knucleotide_brute,4151.495000,1
Ř,237ec22fa26c5cf981c1260e63b0f8f0f4c44534,shootout,knucleotide_brute,3952.490000,1
Ř,237ec22fa26c5cf981c1260e63b0f8f0f4c44534,shootout,spectralnorm_alt_3,1110.424000,0
Ř,237ec22fa26c5cf981c1260e63b0f8f0f4c44534,shootout,spectralnorm_alt_3,880.234000,0
Ř,237ec22fa26c5cf981c1260e63b0f8f0f4c44534,shootout,spectralnorm_alt_3,1490.435000,0
Ř,237ec22fa26c5cf981c1260e63b0f8f0f4c44534,shootout,spectralnorm_alt_3,100.730000,0
Ř,237ec22fa26c5cf981c1260e63b0f8f0f4c44534,shootout,spectralnorm_alt_3,104.214000,0
Ř,237ec22fa26c5cf981c1260e63b0f8f0f4c44534,shootout,spectralnorm_alt_3,99.950000,1
Ř,237ec22fa26c5cf981c1260e63b0f8f0f4c44534,shootout,spectralnorm_alt_3,100.732000,1
Ř,237ec22fa26c5cf981c1260e63b0f8f0f4c44534,shootout,spectralnorm_alt_3,100.353000,1
Ř,237ec22fa26c5cf981c1260e63b0f8f0f4c44534,shootout,spectralnorm_alt_3,103.504000,1
Ř,237ec22fa26c5cf981c1260e63b0f8f0f4c44534,shootout,spectralnorm_alt_3,100.101000,1
Ř,237ec22fa26c5cf981c1260e63b0f8f0f4c44534,shootout,spectralnorm_alt_3,100.828000,1
Ř,237ec22fa26c5cf981c1260e63b0f8f0f4c44534,shootout,spectralnorm_alt_3,100.486000,1
Ř,237ec22fa26c5cf981c1260e63b0f8f0f4c44534,shootout,spectralnorm_alt_3,100.822000,1
Ř,237ec22fa26c5cf981c1260e63b0f8f0f4c44534,shootout,spectralnorm_alt_3,104.618000,1
Ř,237ec22fa26c5cf981c1260e63b0f8f0f4c44534,shootout,spectralnorm_alt_3,99.420000,1
Ř,237ec22fa26c5cf981c1260e63b0f8f0f4c44534,shootout,mandelbrot_noout,393.641000,0
Ř,237ec22fa26c5cf981c1260e63b0f8f0f4c44534,shootout,mandelbrot_noout,71.919000,0
Ř,237ec22fa26c5cf981c1260e63b0f8f0f4c44534,shootout,mandelbrot_noout,737.541000,0
Ř,237ec22fa26c5cf981c1260e63b0f8f0f4c44534,shootout,mandelbrot_noout,66.905000,0
Ř,237ec22fa26c5cf981c1260e63b0f8f0f4c44534,shootout,mandelbrot_noout,68.041000,0
Ř,237ec22fa26c5cf981c1260e63b0f8f0f4c44534,shootout,mandelbrot_noout,66.708000,1
Ř,237ec22fa26c5cf981c1260e63b0f8f0f4c44534,shootout,mandelbrot_noout,66.978000,1
Ř,237ec22fa26c5cf981c1260e63b0f8f0f4c44534,shootout,mandelbrot_noout,66.705000,1
Ř,237ec22fa26c5cf981c1260e63b0f8f0f4c44534,shootout,mandelbrot_noout,67.938000,1
Ř,237ec22fa26c5cf981c1260e63b0f8f0f4c44534,shootout,mandelbrot_noout,76.708000,1
Ř,237ec22fa26c5cf981c1260e63b0f8f0f4c44534,shootout,mandelbrot_noout,66.637000,1
Ř,237ec22fa26c5cf981c1260e63b0f8f0f4c44534,shootout,mandelbrot_noout,66.566000,1
Ř,237ec22fa26c5cf981c1260e63b0f8f0f4c44534,shootout,mandelbrot_noout,66.507000,1
Ř,237ec22fa26c5cf981c1260e63b0f8f0f4c44534,shootout,mandelbrot_noout,67.675000,1
Ř,237ec22fa26c5cf981c1260e63b0f8f0f4c44534,shootout,mandelbrot_noout,66.515000,1
Ř,237ec22fa26c5cf981c1260e63b0f8f0f4c44534,shootout,fasta_3,1228.697000,0
Ř,237ec22fa26c5cf981c1260e63b0f8f0f4c44534,shootout,fasta_3,3516.117000,0
Ř,237ec22fa26c5cf981c1260e63b0f8f0f4c44534,shootout,fasta_3,4259.785000,0
Ř,237ec22fa26c5cf981c1260e63b0f8f0f4c44534,shootout,fasta_3,916.043000,0
Ř,237ec22fa26c5cf981c1260e63b0f8f0f4c44534,shootout,fasta_3,901.020000,0
Ř,237ec22fa26c5cf981c1260e63b0f8f0f4c44534,shootout,fasta_3,896.772000,1
Ř,237ec22fa26c5cf981c1260e63b0f8f0f4c44534,shootout,fasta_3,907.708000,1
Ř,237ec22fa26c5cf981c1260e63b0f8f0f4c44534,shootout,fasta_3,907.552000,1
Ř,237ec22fa26c5cf981c1260e63b0f8f0f4c44534,shootout,fasta_3,902.373000,1
Ř,237ec22fa26c5cf981c1260e63b0f8f0f4c44534,shootout,fasta_3,901.520000,1
Ř,237ec22fa26c5cf981c1260e63b0f8f0f4c44534,shootout,fasta_3,909.041000,1
Ř,237ec22fa26c5cf981c1260e63b0f8f0f4c44534,shootout,fasta_3,891.671000,1
Ř,237ec22fa26c5cf981c1260e63b0f8f0f4c44534,shootout,fasta_3,894.096000,1
Ř,237ec22fa26c5cf981c1260e63b0f8f0f4c44534,shootout,fasta_3,905.446000,1
Ř,237ec22fa26c5cf981c1260e63b0f8f0f4c44534,shootout,fasta_3,914.334000,1
Ř,237ec22fa26c5cf981c1260e63b0f8f0f4c44534,shootout,binarytrees_naive,948.714000,0
Ř,237ec22fa26c5cf981c1260e63b0f8f0f4c44534,shootout,binarytrees_naive,254.753000,0
Ř,237ec22fa26c5cf981c1260e63b0f8f0f4c44534,shootout,binarytrees_naive,4042.525000,0
Ř,237ec22fa26c5cf981c1260e63b0f8f0f4c44534,shootout,binarytrees_naive,269.394000,0
Ř,237ec22fa26c5cf981c1260e63b0f8f0f4c44534,shootout,binarytrees_naive,101.075000,0
Ř,237ec22fa26c5cf981c1260e63b0f8f0f4c44534,shootout,binarytrees_naive,210.670000,1
Ř,237ec22fa26c5cf981c1260e63b0f8f0f4c44534,shootout,binarytrees_naive,85.418000,1
Ř,237ec22fa26c5cf981c1260e63b0f8f0f4c44534,shootout,binarytrees_naive,85.249000,1
Ř,237ec22fa26c5cf981c1260e63b0f8f0f4c44534,shootout,binarytrees_naive,148.470000,1
Ř,237ec22fa26c5cf981c1260e63b0f8f0f4c44534,shootout,binarytrees_naive,146.897000,1
Ř,237ec22fa26c5cf981c1260e63b0f8f0f4c44534,shootout,binarytrees_naive,145.749000,1
Ř,237ec22fa26c5cf981c1260e63b0f8f0f4c44534,shootout,binarytrees_naive,84.810000,1
Ř,237ec22fa26c5cf981c1260e63b0f8f0f4c44534,shootout,binarytrees_naive,145.668000,1
Ř,237ec22fa26c5cf981c1260e63b0f8f0f4c44534,shootout,binarytrees_naive,147.683000,1
Ř,237ec22fa26c5cf981c1260e63b0f8f0f4c44534,shootout,binarytrees_naive,84.830000,1
Ř,237ec22fa26c5cf981c1260e63b0f8f0f4c44534,shootout,spectralnorm_alt,400.139000,0
Ř,237ec22fa26c5cf981c1260e63b0f8f0f4c44534,shootout,spectralnorm_alt,272.320000,0
Ř,237ec22fa26c5cf981c1260e63b0f8f0f4c44534,shootout,spectralnorm_alt,1546.839000,0
Ř,237ec22fa26c5cf981c1260e63b0f8f0f4c44534,shootout,spectralnorm_alt,214.301000,0
Ř,237ec22fa26c5cf981c1260e63b0f8f0f4c44534,shootout,spectralnorm_alt,201.888000,0
Ř,237ec22fa26c5cf981c1260e63b0f8f0f4c44534,shootout,spectralnorm_alt,218.651000,1
Ř,237ec22fa26c5cf981c1260e63b0f8f0f4c44534,shootout,spectralnorm_alt,207.054000,1
Ř,237ec22fa26c5cf981c1260e63b0f8f0f4c44534,shootout,spectralnorm_alt,191.574000,1
Ř,237ec22fa26c5cf981c1260e63b0f8f0f4c44534,shootout,spectralnorm_alt,192.272000,1
Ř,237ec22fa26c5cf981c1260e63b0f8f0f4c44534,shootout,spectralnorm_alt,203.274000,1
Ř,237ec22fa26c5cf981c1260e63b0f8f0f4c44534,shootout,spectralnorm_alt,189.994000,1
Ř,237ec22fa26c5cf981c1260e63b0f8f0f4c44534,shootout,spectralnorm_alt,200.035000,1
Ř,237ec22fa26c5cf981c1260e63b0f8f0f4c44534,shootout,spectralnorm_alt,197.532000,1
Ř,237ec22fa26c5cf981c1260e63b0f8f0f4c44534,shootout,spectralnorm_alt,206.877000,1
Ř,237ec22fa26c5cf981c1260e63b0f8f0f4c44534,shootout,spectralnorm_alt,191.519000,1
Ř,237ec22fa26c5cf981c1260e63b0f8f0f4c44534,shootout,nbody_2,1567.220000,0
Ř,237ec22fa26c5cf981c1260e63b0f8f0f4c44534,shootout,nbody_2,1436.827000,0
Ř,237ec22fa26c5cf981c1260e63b0f8f0f4c44534,shootout,nbody_2,1775.764000,0
Ř,237ec22fa26c5cf981c1260e63b0f8f0f4c44534,shootout,nbody_2,665.116000,0
Ř,237ec22fa26c5cf981c1260e63b0f8f0f4c44534,shootout,nbody_2,642.259000,0
Ř,237ec22fa26c5cf981c1260e63b0f8f0f4c44534,shootout,nbody_2,640.239000,1
Ř,237ec22fa26c5cf981c1260e63b0f8f0f4c44534,shootout,nbody_2,642.527000,1
Ř,237ec22fa26c5cf981c1260e63b0f8f0f4c44534,shootout,nbody_2,652.498000,1
Ř,237ec22fa26c5cf981c1260e63b0f8f0f4c44534,shootout,nbody_2,32105.161000,1
Ř,237ec22fa26c5cf981c1260e63b0f8f0f4c44534,shootout,nbody_2,4111.901000,1
Ř,237ec22fa26c5cf981c1260e63b0f8f0f4c44534,shootout,nbody_2,1224.782000,1
Ř,237ec22fa26c5cf981c1260e63b0f8f0f4c44534,shootout,nbody_2,1816.790000,1
Ř,237ec22fa26c5cf981c1260e63b0f8f0f4c44534,shootout,nbody_2,2399.351000,1
Ř,237ec22fa26c5cf981c1260e63b0f8f0f4c44534,shootout,nbody_2,2376.706000,1
Ř,237ec22fa26c5cf981c1260e63b0f8f0f4c44534,shootout,nbody_2,3547.823000,1
Ř,237ec22fa26c5cf981c1260e63b0f8f0f4c44534,are-we-fast-r,Bounce,2264.572000,0
Ř,237ec22fa26c5cf981c1260e63b0f8f0f4c44534,are-we-fast-r,Bounce,824.754000,0
Ř,237ec22fa26c5cf981c1260e63b0f8f0f4c44534,are-we-fast-r,Bounce,842.204000,0
Ř,237ec22fa26c5cf981c1260e63b0f8f0f4c44534,are-we-fast-r,Bounce,820.726000,0
Ř,237ec22fa26c5cf981c1260e63b0f8f0f4c44534,are-we-fast-r,Bounce,799.327000,0
Ř,237ec22fa26c5cf981c1260e63b0f8f0f4c44534,are-we-fast-r,Bounce,819.335000,1
Ř,237ec22fa26c5cf981c1260e63b0f8f0f4c44534,are-we-fast-r,Bounce,833.792000,1
Ř,237ec22fa26c5cf981c1260e63b0f8f0f4c44534,are-we-fast-r,Bounce,791.952000,1
Ř,237ec22fa26c5cf981c1260e63b0f8f0f4c44534,are-we-fast-r,Bounce,805.374000,1
Ř,237ec22fa26c5cf981c1260e63b0f8f0f4c44534,are-we-fast-r,Bounce,824.182000,1
Ř,237ec22fa26c5cf981c1260e63b0f8f0f4c44534,are-we-fast-r,Bounce,803.981000,1
Ř,237ec22fa26c5cf981c1260e63b0f8f0f4c44534,are-we-fast-r,Bounce,800.821000,1
Ř,237ec22fa26c5cf981c1260e63b0f8f0f4c44534,are-we-fast-r,Bounce,820.462000,1
Ř,237ec22fa26c5cf981c1260e63b0f8f0f4c44534,are-we-fast-r,Bounce,826.793000,1
Ř,237ec22fa26c5cf981c1260e63b0f8f0f4c44534,are-we-fast-r,Bounce,795.647000,1
Ř,237ec22fa26c5cf981c1260e63b0f8f0f4c44534,are-we-fast-r,Mandelbrot,3668.893000,0
Ř,237ec22fa26c5cf981c1260e63b0f8f0f4c44534,are-we-fast-r,Mandelbrot,3613.406000,0
Ř,237ec22fa26c5cf981c1260e63b0f8f0f4c44534,are-we-fast-r,Mandelbrot,774.074000,0
Ř,237ec22fa26c5cf981c1260e63b0f8f0f4c44534,are-we-fast-r,Mandelbrot,1289.866000,0
Ř,237ec22fa26c5cf981c1260e63b0f8f0f4c44534,are-we-fast-r,Mandelbrot,66.785000,0
Ř,237ec22fa26c5cf981c1260e63b0f8f0f4c44534,are-we-fast-r,Mandelbrot,67.019000,1
Ř,237ec22fa26c5cf981c1260e63b0f8f0f4c44534,are-we-fast-r,Mandelbrot,67.036000,1
Ř,237ec22fa26c5cf981c1260e63b0f8f0f4c44534,are-we-fast-r,Mandelbrot,67.883000,1
Ř,237ec22fa26c5cf981c1260e63b0f8f0f4c44534,are-we-fast-r,Mandelbrot,66.956000,1
Ř,237ec22fa26c5cf981c1260e63b0f8f0f4c44534,are-we-fast-r,Mandelbrot,66.804000,1
Ř,237ec22fa26c5cf981c1260e63b0f8f0f4c44534,are-we-fast-r,Mandelbrot,66.814000,1
Ř,237ec22fa26c5cf981c1260e63b0f8f0f4c44534,are-we-fast-r,Mandelbrot,66.828000,1
Ř,237ec22fa26c5cf981c1260e63b0f8f0f4c44534,are-we-fast-r,Mandelbrot,66.947000,1
Ř,237ec22fa26c5cf981c1260e63b0f8f0f4c44534,are-we-fast-r,Mandelbrot,67.088000,1
Ř,237ec22fa26c5cf981c1260e63b0f8f0f4c44534,are-we-fast-r,Mandelbrot,66.974000,1
Ř,237ec22fa26c5cf981c1260e63b0f8f0f4c44534,are-we-fast-r,Bounce_nonames_simple,1970.476000,0
Ř,237ec22fa26c5cf981c1260e63b0f8f0f4c44534,are-we-fast-r,Bounce_nonames_simple,128.614000,0
Ř,237ec22fa26c5cf981c1260e63b0f8f0f4c44534,are-we-fast-r,Bounce_nonames_simple,138.181000,0
Ř,237ec22fa26c5cf981c1260e63b0f8f0f4c44534,are-we-fast-r,Bounce_nonames_simple,127.954000,0
Ř,237ec22fa26c5cf981c1260e63b0f8f0f4c44534,are-we-fast-r,Bounce_nonames_simple,127.669000,0
Ř,237ec22fa26c5cf981c1260e63b0f8f0f4c44534,are-we-fast-r,Bounce_nonames_simple,130.826000,1
Ř,237ec22fa26c5cf981c1260e63b0f8f0f4c44534,are-we-fast-r,Bounce_nonames_simple,128.925000,1
Ř,237ec22fa26c5cf981c1260e63b0f8f0f4c44534,are-we-fast-r,Bounce_nonames_simple,127.581000,1
Ř,237ec22fa26c5cf981c1260e63b0f8f0f4c44534,are-we-fast-r,Bounce_nonames_simple,127.323000,1
Ř,237ec22fa26c5cf981c1260e63b0f8f0f4c44534,are-we-fast-r,Bounce_nonames_simple,127.003000,1
Ř,237ec22fa26c5cf981c1260e63b0f8f0f4c44534,are-we-fast-r,Bounce_nonames_simple,127.596000,1
Ř,237ec22fa26c5cf981c1260e63b0f8f0f4c44534,are-we-fast-r,Bounce_nonames_simple,129.972000,1
Ř,237ec22fa26c5cf981c1260e63b0f8f0f4c44534,are-we-fast-r,Bounce_nonames_simple,127.764000,1
Ř,237ec22fa26c5cf981c1260e63b0f8f0f4c44534,are-we-fast-r,Bounce_nonames_simple,128.056000,1
Ř,237ec22fa26c5cf981c1260e63b0f8f0f4c44534,are-we-fast-r,Bounce_nonames_simple,127.864000,1
Ř,237ec22fa26c5cf981c1260e63b0f8f0f4c44534,are-we-fast-r,Storage,1242.519000,0
Ř,237ec22fa26c5cf981c1260e63b0f8f0f4c44534,are-we-fast-r,Storage,596.730000,0
Ř,237ec22fa26c5cf981c1260e63b0f8f0f4c44534,are-we-fast-r,Storage,959.233000,0
Ř,237ec22fa26c5cf981c1260e63b0f8f0f4c44534,are-we-fast-r,Storage,585.081000,0
Ř,237ec22fa26c5cf981c1260e63b0f8f0f4c44534,are-we-fast-r,Storage,845.000000,0
Ř,237ec22fa26c5cf981c1260e63b0f8f0f4c44534,are-we-fast-r,Storage,657.305000,1
Ř,237ec22fa26c5cf981c1260e63b0f8f0f4c44534,are-we-fast-r,Storage,847.941000,1
Ř,237ec22fa26c5cf981c1260e63b0f8f0f4c44534,are-we-fast-r,Storage,654.667000,1
Ř,237ec22fa26c5cf981c1260e63b0f8f0f4c44534,are-we-fast-r,Storage,592.100000,1
Ř,237ec22fa26c5cf981c1260e63b0f8f0f4c44534,are-we-fast-r,Storage,578.426000,1
Ř,237ec22fa26c5cf981c1260e63b0f8f0f4c44534,are-we-fast-r,Storage,851.856000,1
Ř,237ec22fa26c5cf981c1260e63b0f8f0f4c44534,are-we-fast-r,Storage,658.064000,1
Ř,237ec22fa26c5cf981c1260e63b0f8f0f4c44534,are-we-fast-r,Storage,572.588000,1
Ř,237ec22fa26c5cf981c1260e63b0f8f0f4c44534,are-we-fast-r,Storage,870.776000,1
Ř,237ec22fa26c5cf981c1260e63b0f8f0f4c44534,are-we-fast-r,Storage,713.654000,1
Ř,237ec22fa26c5cf981c1260e63b0f8f0f4c44534,are-we-fast-r,Bounce_nonames,1491.514000,0
Ř,237ec22fa26c5cf981c1260e63b0f8f0f4c44534,are-we-fast-r,Bounce_nonames,155.196000,0
Ř,237ec22fa26c5cf981c1260e63b0f8f0f4c44534,are-we-fast-r,Bounce_nonames,162.857000,0
Ř,237ec22fa26c5cf981c1260e63b0f8f0f4c44534,are-we-fast-r,Bounce_nonames,150.285000,0
Ř,237ec22fa26c5cf981c1260e63b0f8f0f4c44534,are-we-fast-r,Bounce_nonames,152.922000,0
Ř,237ec22fa26c5cf981c1260e63b0f8f0f4c44534,are-we-fast-r,Bounce_nonames,154.859000,1
Ř,237ec22fa26c5cf981c1260e63b0f8f0f4c44534,are-we-fast-r,Bounce_nonames,152.496000,1
Ř,237ec22fa26c5cf981c1260e63b0f8f0f4c44534,are-we-fast-r,Bounce_nonames,151.881000,1
Ř,237ec22fa26c5cf981c1260e63b0f8f0f4c44534,are-we-fast-r,Bounce_nonames,151.730000,1
Ř,237ec22fa26c5cf981c1260e63b0f8f0f4c44534,are-we-fast-r,Bounce_nonames,150.156000,1
Ř,237ec22fa26c5cf981c1260e63b0f8f0f4c44534,are-we-fast-r,Bounce_nonames,152.380000,1
Ř,237ec22fa26c5cf981c1260e63b0f8f0f4c44534,are-we-fast-r,Bounce_nonames,153.190000,1
Ř,237ec22fa26c5cf981c1260e63b0f8f0f4c44534,are-we-fast-r,Bounce_nonames,151.643000,1
Ř,237ec22fa26c5cf981c1260e63b0f8f0f4c44534,are-we-fast-r,Bounce_nonames,150.693000,1
Ř,237ec22fa26c5cf981c1260e63b0f8f0f4c44534,are-we-fast-r,Bounce_nonames,150.065000,1
Ř,237ec22fa26c5cf981c1260e63b0f8f0f4c44534,real_thing,flexclust_no_s4,17449.700000,0
Ř,237ec22fa26c5cf981c1260e63b0f8f0f4c44534,real_thing,flexclust_no_s4,15061.795000,0
Ř,237ec22fa26c5cf981c1260e63b0f8f0f4c44534,real_thing,flexclust_no_s4,27740.530000,0
Ř,237ec22fa26c5cf981c1260e63b0f8f0f4c44534,real_thing,flexclust_no_s4,24972.801000,0
Ř,237ec22fa26c5cf981c1260e63b0f8f0f4c44534,real_thing,flexclust_no_s4,18973.758000,0
Ř,237ec22fa26c5cf981c1260e63b0f8f0f4c44534,real_thing,flexclust_no_s4,14579.918000,1
Ř,237ec22fa26c5cf981c1260e63b0f8f0f4c44534,real_thing,flexclust_no_s4,17879.754000,1
Ř,237ec22fa26c5cf981c1260e63b0f8f0f4c44534,real_thing,flexclust_no_s4,13233.123000,1
Ř,237ec22fa26c5cf981c1260e63b0f8f0f4c44534,real_thing,flexclust_no_s4,12774.781000,1
Ř,237ec22fa26c5cf981c1260e63b0f8f0f4c44534,real_thing,flexclust_no_s4,13018.907000,1
Ř,237ec22fa26c5cf981c1260e63b0f8f0f4c44534,real_thing,flexclust_no_s4,12798.896000,1
Ř,237ec22fa26c5cf981c1260e63b0f8f0f4c44534,real_thing,flexclust_no_s4,22706.093000,1
Ř,237ec22fa26c5cf981c1260e63b0f8f0f4c44534,real_thing,flexclust_no_s4,16474.497000,1
Ř,237ec22fa26c5cf981c1260e63b0f8f0f4c44534,real_thing,flexclust_no_s4,12951.265000,1
Ř,237ec22fa26c5cf981c1260e63b0f8f0f4c44534,real_thing,flexclust_no_s4,12901.848000,1
Ř,237ec22fa26c5cf981c1260e63b0f8f0f4c44534,real_thing,convolution,725.163000,0
Ř,237ec22fa26c5cf981c1260e63b0f8f0f4c44534,real_thing,convolution,12.582000,0
Ř,237ec22fa26c5cf981c1260e63b0f8f0f4c44534,real_thing,convolution,583.594000,0
Ř,237ec22fa26c5cf981c1260e63b0f8f0f4c44534,real_thing,convolution,12.257000,0
Ř,237ec22fa26c5cf981c1260e63b0f8f0f4c44534,real_thing,convolution,12.283000,0
Ř,237ec22fa26c5cf981c1260e63b0f8f0f4c44534,real_thing,convolution,11.997000,1
Ř,237ec22fa26c5cf981c1260e63b0f8f0f4c44534,real_thing,convolution,12.088000,1
Ř,237ec22fa26c5cf981c1260e63b0f8f0f4c44534,real_thing,convolution,12.275000,1
Ř,237ec22fa26c5cf981c1260e63b0f8f0f4c44534,real_thing,convolution,12.124000,1
Ř,237ec22fa26c5cf981c1260e63b0f8f0f4c44534,real_thing,convolution,12.029000,1
Ř,237ec22fa26c5cf981c1260e63b0f8f0f4c44534,real_thing,convolution,12.250000,1
Ř,237ec22fa26c5cf981c1260e63b0f8f0f4c44534,real_thing,convolution,12.013000,1
Ř,237ec22fa26c5cf981c1260e63b0f8f0f4c44534,real_thing,convolution,12.028000,1
Ř,237ec22fa26c5cf981c1260e63b0f8f0f4c44534,real_thing,convolution,12.007000,1
Ř,237ec22fa26c5cf981c1260e63b0f8f0f4c44534,real_thing,convolution,12.306000,1
Ř,237ec22fa26c5cf981c1260e63b0f8f0f4c44534,real_thing,flexclust,46648.227000,0
Ř,237ec22fa26c5cf981c1260e63b0f8f0f4c44534,real_thing,flexclust,29392.281000,0
Ř,237ec22fa26c5cf981c1260e63b0f8f0f4c44534,real_thing,flexclust,43564.629000,0
Ř,237ec22fa26c5cf981c1260e63b0f8f0f4c44534,real_thing,flexclust,55629.062000,0
Ř,237ec22fa26c5cf981c1260e63b0f8f0f4c44534,real_thing,flexclust,26847.713000,0
Ř,237ec22fa26c5cf981c1260e63b0f8f0f4c44534,real_thing,flexclust,27061.895000,1
Ř,237ec22fa26c5cf981c1260e63b0f8f0f4c44534,real_thing,flexclust,16128.919000,1
Ř,237ec22fa26c5cf981c1260e63b0f8f0f4c44534,real_thing,flexclust,16042.627000,1
Ř,237ec22fa26c5cf981c1260e63b0f8f0f4c44534,real_thing,flexclust,16046.168000,1
Ř,237ec22fa26c5cf981c1260e63b0f8f0f4c44534,real_thing,flexclust,15865.855000,1
Ř,237ec22fa26c5cf981c1260e63b0f8f0f4c44534,real_thing,flexclust,15981.538000,1
Ř,237ec22fa26c5cf981c1260e63b0f8f0f4c44534,real_thing,flexclust,16244.495000,1
Ř,237ec22fa26c5cf981c1260e63b0f8f0f4c44534,real_thing,flexclust,15927.017000,1
Ř,237ec22fa26c5cf981c1260e63b0f8f0f4c44534,real_thing,flexclust,16086.025000,1
Ř,237ec22fa26c5cf981c1260e63b0f8f0f4c44534,real_thing,flexclust,17221.164000,1
Ř,237ec22fa26c5cf981c1260e63b0f8f0f4c44534,real_thing,convolution_v,633.782000,0
Ř,237ec22fa26c5cf981c1260e63b0f8f0f4c44534,real_thing,convolution_v,97.727000,0
Ř,237ec22fa26c5cf981c1260e63b0f8f0f4c44534,real_thing,convolution_v,718.431000,0
Ř,237ec22fa26c5cf981c1260e63b0f8f0f4c44534,real_thing,convolution_v,94.420000,0
Ř,237ec22fa26c5cf981c1260e63b0f8f0f4c44534,real_thing,convolution_v,105.247000,0
Ř,237ec22fa26c5cf981c1260e63b0f8f0f4c44534,real_thing,convolution_v,95.164000,1
Ř,237ec22fa26c5cf981c1260e63b0f8f0f4c44534,real_thing,convolution_v,94.341000,1
Ř,237ec22fa26c5cf981c1260e63b0f8f0f4c44534,real_thing,convolution_v,94.420000,1
Ř,237ec22fa26c5cf981c1260e63b0f8f0f4c44534,real_thing,convolution_v,94.675000,1
Ř,237ec22fa26c5cf981c1260e63b0f8f0f4c44534,real_thing,convolution_v,97.352000,1
Ř,237ec22fa26c5cf981c1260e63b0f8f0f4c44534,real_thing,convolution_v,348.961000,1
Ř,237ec22fa26c5cf981c1260e63b0f8f0f4c44534,real_thing,convolution_v,93.905000,1
Ř,237ec22fa26c5cf981c1260e63b0f8f0f4c44534,real_thing,convolution_v,99.210000,1
Ř,237ec22fa26c5cf981c1260e63b0f8f0f4c44534,real_thing,convolution_v,93.518000,1
Ř,237ec22fa26c5cf981c1260e63b0f8f0f4c44534,real_thing,convolution_v,94.818000,1
Ř,237ec22fa26c5cf981c1260e63b0f8f0f4c44534,real_thing,convolution_slow,631.510000,0
Ř,237ec22fa26c5cf981c1260e63b0f8f0f4c44534,real_thing,convolution_slow,95.472000,0
Ř,237ec22fa26c5cf981c1260e63b0f8f0f4c44534,real_thing,convolution_slow,717.451000,0
Ř,237ec22fa26c5cf981c1260e63b0f8f0f4c44534,real_thing,convolution_slow,95.003000,0
Ř,237ec22fa26c5cf981c1260e63b0f8f0f4c44534,real_thing,convolution_slow,105.532000,0
Ř,237ec22fa26c5cf981c1260e63b0f8f0f4c44534,real_thing,convolution_slow,95.318000,1
Ř,237ec22fa26c5cf981c1260e63b0f8f0f4c44534,real_thing,convolution_slow,94.481000,1
Ř,237ec22fa26c5cf981c1260e63b0f8f0f4c44534,real_thing,convolution_slow,94.518000,1
Ř,237ec22fa26c5cf981c1260e63b0f8f0f4c44534,real_thing,convolution_slow,94.869000,1
Ř,237ec22fa26c5cf981c1260e63b0f8f0f4c44534,real_thing,convolution_slow,95.910000,1
Ř,237ec22fa26c5cf981c1260e63b0f8f0f4c44534,real_thing,convolution_slow,96.659000,1
Ř,237ec22fa26c5cf981c1260e63b0f8f0f4c44534,real_thing,convolution_slow,93.886000,1
Ř,237ec22fa26c5cf981c1260e63b0f8f0f4c44534,real_thing,convolution_slow,97.637000,1
Ř,237ec22fa26c5cf981c1260e63b0f8f0f4c44534,real_thing,convolution_slow,93.594000,1
Ř,237ec22fa26c5cf981c1260e63b0f8f0f4c44534,real_thing,convolution_slow,94.543000,1
