vm,commit,suite,benchmark,ms,warm
Ř,2e1f62dd4a4dc9b8e569991bf47f0716fcde0a19,simple,superWhile,2965.414000,0
Ř,2e1f62dd4a4dc9b8e569991bf47f0716fcde0a19,simple,superWhile,2944.810000,0
Ř,2e1f62dd4a4dc9b8e569991bf47f0716fcde0a19,simple,superWhile,54.946000,0
Ř,2e1f62dd4a4dc9b8e569991bf47f0716fcde0a19,simple,superWhile,20.406000,0
Ř,2e1f62dd4a4dc9b8e569991bf47f0716fcde0a19,simple,superWhile,20.398000,0
Ř,2e1f62dd4a4dc9b8e569991bf47f0716fcde0a19,simple,superWhile,20.381000,1
Ř,2e1f62dd4a4dc9b8e569991bf47f0716fcde0a19,simple,superWhile,20.379000,1
Ř,2e1f62dd4a4dc9b8e569991bf47f0716fcde0a19,simple,superWhile,20.334000,1
Ř,2e1f62dd4a4dc9b8e569991bf47f0716fcde0a19,simple,superWhile,20.378000,1
Ř,2e1f62dd4a4dc9b8e569991bf47f0716fcde0a19,simple,superWhile,20.381000,1
Ř,2e1f62dd4a4dc9b8e569991bf47f0716fcde0a19,simple,superWhile,20.382000,1
Ř,2e1f62dd4a4dc9b8e569991bf47f0716fcde0a19,simple,superWhile,20.375000,1
Ř,2e1f62dd4a4dc9b8e569991bf47f0716fcde0a19,simple,superWhile,20.376000,1
Ř,2e1f62dd4a4dc9b8e569991bf47f0716fcde0a19,simple,superWhile,20.376000,1
Ř,2e1f62dd4a4dc9b8e569991bf47f0716fcde0a19,simple,superWhile,20.375000,1
Ř,2e1f62dd4a4dc9b8e569991bf47f0716fcde0a19,simple,profiler-microbenchmark,984.766000,0
Ř,2e1f62dd4a4dc9b8e569991bf47f0716fcde0a19,simple,profiler-microbenchmark,974.825000,0
Ř,2e1f62dd4a4dc9b8e569991bf47f0716fcde0a19,simple,profiler-microbenchmark,934.318000,0
Ř,2e1f62dd4a4dc9b8e569991bf47f0716fcde0a19,simple,profiler-microbenchmark,994.796000,0
Ř,2e1f62dd4a4dc9b8e569991bf47f0716fcde0a19,simple,profiler-microbenchmark,1011.319000,0
Ř,2e1f62dd4a4dc9b8e569991bf47f0716fcde0a19,simple,profiler-microbenchmark,967.672000,1
Ř,2e1f62dd4a4dc9b8e569991bf47f0716fcde0a19,simple,profiler-microbenchmark,973.093000,1
Ř,2e1f62dd4a4dc9b8e569991bf47f0716fcde0a19,simple,profiler-microbenchmark,963.528000,1
Ř,2e1f62dd4a4dc9b8e569991bf47f0716fcde0a19,simple,profiler-microbenchmark,968.023000,1
Ř,2e1f62dd4a4dc9b8e569991bf47f0716fcde0a19,simple,profiler-microbenchmark,987.965000,1
Ř,2e1f62dd4a4dc9b8e569991bf47f0716fcde0a19,simple,profiler-microbenchmark,990.702000,1
Ř,2e1f62dd4a4dc9b8e569991bf47f0716fcde0a19,simple,profiler-microbenchmark,978.455000,1
Ř,2e1f62dd4a4dc9b8e569991bf47f0716fcde0a19,simple,profiler-microbenchmark,1000.050000,1
Ř,2e1f62dd4a4dc9b8e569991bf47f0716fcde0a19,simple,profiler-microbenchmark,1007.199000,1
Ř,2e1f62dd4a4dc9b8e569991bf47f0716fcde0a19,simple,profiler-microbenchmark,979.945000,1
Ř,2e1f62dd4a4dc9b8e569991bf47f0716fcde0a19,simple,matrixFor,402.618000,0
Ř,2e1f62dd4a4dc9b8e569991bf47f0716fcde0a19,simple,matrixFor,409.050000,0
Ř,2e1f62dd4a4dc9b8e569991bf47f0716fcde0a19,simple,matrixFor,166.334000,0
Ř,2e1f62dd4a4dc9b8e569991bf47f0716fcde0a19,simple,matrixFor,56.060000,0
Ř,2e1f62dd4a4dc9b8e569991bf47f0716fcde0a19,simple,matrixFor,55.964000,0
Ř,2e1f62dd4a4dc9b8e569991bf47f0716fcde0a19,simple,matrixFor,55.923000,1
Ř,2e1f62dd4a4dc9b8e569991bf47f0716fcde0a19,simple,matrixFor,55.930000,1
Ř,2e1f62dd4a4dc9b8e569991bf47f0716fcde0a19,simple,matrixFor,55.974000,1
Ř,2e1f62dd4a4dc9b8e569991bf47f0716fcde0a19,simple,matrixFor,55.932000,1
Ř,2e1f62dd4a4dc9b8e569991bf47f0716fcde0a19,simple,matrixFor,55.942000,1
Ř,2e1f62dd4a4dc9b8e569991bf47f0716fcde0a19,simple,matrixFor,55.915000,1
Ř,2e1f62dd4a4dc9b8e569991bf47f0716fcde0a19,simple,matrixFor,462.975000,1
Ř,2e1f62dd4a4dc9b8e569991bf47f0716fcde0a19,simple,matrixFor,389.224000,1
Ř,2e1f62dd4a4dc9b8e569991bf47f0716fcde0a19,simple,matrixFor,165.749000,1
Ř,2e1f62dd4a4dc9b8e569991bf47f0716fcde0a19,simple,matrixFor,60.053000,1
Ř,2e1f62dd4a4dc9b8e569991bf47f0716fcde0a19,simple,vectorWhile,2245.026000,0
Ř,2e1f62dd4a4dc9b8e569991bf47f0716fcde0a19,simple,vectorWhile,2231.548000,0
Ř,2e1f62dd4a4dc9b8e569991bf47f0716fcde0a19,simple,vectorWhile,187.614000,0
Ř,2e1f62dd4a4dc9b8e569991bf47f0716fcde0a19,simple,vectorWhile,130.181000,0
Ř,2e1f62dd4a4dc9b8e569991bf47f0716fcde0a19,simple,vectorWhile,147.468000,0
Ř,2e1f62dd4a4dc9b8e569991bf47f0716fcde0a19,simple,vectorWhile,133.451000,1
Ř,2e1f62dd4a4dc9b8e569991bf47f0716fcde0a19,simple,vectorWhile,133.456000,1
Ř,2e1f62dd4a4dc9b8e569991bf47f0716fcde0a19,simple,vectorWhile,133.487000,1
Ř,2e1f62dd4a4dc9b8e569991bf47f0716fcde0a19,simple,vectorWhile,133.443000,1
Ř,2e1f62dd4a4dc9b8e569991bf47f0716fcde0a19,simple,vectorWhile,133.430000,1
Ř,2e1f62dd4a4dc9b8e569991bf47f0716fcde0a19,simple,vectorWhile,133.368000,1
Ř,2e1f62dd4a4dc9b8e569991bf47f0716fcde0a19,simple,vectorWhile,133.482000,1
Ř,2e1f62dd4a4dc9b8e569991bf47f0716fcde0a19,simple,vectorWhile,133.372000,1
Ř,2e1f62dd4a4dc9b8e569991bf47f0716fcde0a19,simple,vectorWhile,133.495000,1
Ř,2e1f62dd4a4dc9b8e569991bf47f0716fcde0a19,simple,vectorWhile,133.441000,1
Ř,2e1f62dd4a4dc9b8e569991bf47f0716fcde0a19,simple,emptyFor,3255.214000,0
Ř,2e1f62dd4a4dc9b8e569991bf47f0716fcde0a19,simple,emptyFor,3298.171000,0
Ř,2e1f62dd4a4dc9b8e569991bf47f0716fcde0a19,simple,emptyFor,15.696000,0
Ř,2e1f62dd4a4dc9b8e569991bf47f0716fcde0a19,simple,emptyFor,0.028000,0
Ř,2e1f62dd4a4dc9b8e569991bf47f0716fcde0a19,simple,emptyFor,0.010000,0
Ř,2e1f62dd4a4dc9b8e569991bf47f0716fcde0a19,simple,emptyFor,0.009000,1
Ř,2e1f62dd4a4dc9b8e569991bf47f0716fcde0a19,simple,emptyFor,0.008000,1
Ř,2e1f62dd4a4dc9b8e569991bf47f0716fcde0a19,simple,emptyFor,0.008000,1
Ř,2e1f62dd4a4dc9b8e569991bf47f0716fcde0a19,simple,emptyFor,0.008000,1
Ř,2e1f62dd4a4dc9b8e569991bf47f0716fcde0a19,simple,emptyFor,0.008000,1
Ř,2e1f62dd4a4dc9b8e569991bf47f0716fcde0a19,simple,emptyFor,0.008000,1
Ř,2e1f62dd4a4dc9b8e569991bf47f0716fcde0a19,simple,emptyFor,0.008000,1
Ř,2e1f62dd4a4dc9b8e569991bf47f0716fcde0a19,simple,emptyFor,0.008000,1
Ř,2e1f62dd4a4dc9b8e569991bf47f0716fcde0a19,simple,emptyFor,0.007000,1
Ř,2e1f62dd4a4dc9b8e569991bf47f0716fcde0a19,simple,emptyFor,0.008000,1
Ř,2e1f62dd4a4dc9b8e569991bf47f0716fcde0a19,simple,lapplyDots,785.979000,0
Ř,2e1f62dd4a4dc9b8e569991bf47f0716fcde0a19,simple,lapplyDots,936.424000,0
Ř,2e1f62dd4a4dc9b8e569991bf47f0716fcde0a19,simple,lapplyDots,860.092000,0
Ř,2e1f62dd4a4dc9b8e569991bf47f0716fcde0a19,simple,lapplyDots,1111.666000,0
Ř,2e1f62dd4a4dc9b8e569991bf47f0716fcde0a19,simple,lapplyDots,1046.679000,0
Ř,2e1f62dd4a4dc9b8e569991bf47f0716fcde0a19,simple,lapplyDots,993.735000,1
Ř,2e1f62dd4a4dc9b8e569991bf47f0716fcde0a19,simple,lapplyDots,1012.081000,1
Ř,2e1f62dd4a4dc9b8e569991bf47f0716fcde0a19,simple,lapplyDots,885.810000,1
Ř,2e1f62dd4a4dc9b8e569991bf47f0716fcde0a19,simple,lapplyDots,991.047000,1
Ř,2e1f62dd4a4dc9b8e569991bf47f0716fcde0a19,simple,lapplyDots,1013.712000,1
Ř,2e1f62dd4a4dc9b8e569991bf47f0716fcde0a19,simple,lapplyDots,1031.689000,1
Ř,2e1f62dd4a4dc9b8e569991bf47f0716fcde0a19,simple,lapplyDots,863.945000,1
Ř,2e1f62dd4a4dc9b8e569991bf47f0716fcde0a19,simple,lapplyDots,1012.664000,1
Ř,2e1f62dd4a4dc9b8e569991bf47f0716fcde0a19,simple,lapplyDots,1030.597000,1
Ř,2e1f62dd4a4dc9b8e569991bf47f0716fcde0a19,simple,lapplyDots,990.845000,1
Ř,2e1f62dd4a4dc9b8e569991bf47f0716fcde0a19,simple,scalarWhile,2277.118000,0
Ř,2e1f62dd4a4dc9b8e569991bf47f0716fcde0a19,simple,scalarWhile,2271.990000,0
Ř,2e1f62dd4a4dc9b8e569991bf47f0716fcde0a19,simple,scalarWhile,44.062000,0
Ř,2e1f62dd4a4dc9b8e569991bf47f0716fcde0a19,simple,scalarWhile,25.473000,0
Ř,2e1f62dd4a4dc9b8e569991bf47f0716fcde0a19,simple,scalarWhile,25.461000,0
Ř,2e1f62dd4a4dc9b8e569991bf47f0716fcde0a19,simple,scalarWhile,25.492000,1
Ř,2e1f62dd4a4dc9b8e569991bf47f0716fcde0a19,simple,scalarWhile,25.450000,1
Ř,2e1f62dd4a4dc9b8e569991bf47f0716fcde0a19,simple,scalarWhile,25.444000,1
Ř,2e1f62dd4a4dc9b8e569991bf47f0716fcde0a19,simple,scalarWhile,25.493000,1
Ř,2e1f62dd4a4dc9b8e569991bf47f0716fcde0a19,simple,scalarWhile,25.449000,1
Ř,2e1f62dd4a4dc9b8e569991bf47f0716fcde0a19,simple,scalarWhile,25.446000,1
Ř,2e1f62dd4a4dc9b8e569991bf47f0716fcde0a19,simple,scalarWhile,25.490000,1
Ř,2e1f62dd4a4dc9b8e569991bf47f0716fcde0a19,simple,scalarWhile,25.446000,1
Ř,2e1f62dd4a4dc9b8e569991bf47f0716fcde0a19,simple,scalarWhile,25.446000,1
Ř,2e1f62dd4a4dc9b8e569991bf47f0716fcde0a19,simple,scalarWhile,25.495000,1
Ř,2e1f62dd4a4dc9b8e569991bf47f0716fcde0a19,simple,listWhile,158.877000,0
Ř,2e1f62dd4a4dc9b8e569991bf47f0716fcde0a19,simple,listWhile,152.112000,0
Ř,2e1f62dd4a4dc9b8e569991bf47f0716fcde0a19,simple,listWhile,132.913000,0
Ř,2e1f62dd4a4dc9b8e569991bf47f0716fcde0a19,simple,listWhile,69.982000,0
Ř,2e1f62dd4a4dc9b8e569991bf47f0716fcde0a19,simple,listWhile,65.313000,0
Ř,2e1f62dd4a4dc9b8e569991bf47f0716fcde0a19,simple,listWhile,73.564000,1
Ř,2e1f62dd4a4dc9b8e569991bf47f0716fcde0a19,simple,listWhile,86.442000,1
Ř,2e1f62dd4a4dc9b8e569991bf47f0716fcde0a19,simple,listWhile,52.684000,1
Ř,2e1f62dd4a4dc9b8e569991bf47f0716fcde0a19,simple,listWhile,67.663000,1
Ř,2e1f62dd4a4dc9b8e569991bf47f0716fcde0a19,simple,listWhile,61.132000,1
Ř,2e1f62dd4a4dc9b8e569991bf47f0716fcde0a19,simple,listWhile,67.578000,1
Ř,2e1f62dd4a4dc9b8e569991bf47f0716fcde0a19,simple,listWhile,60.439000,1
Ř,2e1f62dd4a4dc9b8e569991bf47f0716fcde0a19,simple,listWhile,81.678000,1
Ř,2e1f62dd4a4dc9b8e569991bf47f0716fcde0a19,simple,listWhile,57.489000,1
Ř,2e1f62dd4a4dc9b8e569991bf47f0716fcde0a19,simple,listWhile,64.577000,1
Ř,2e1f62dd4a4dc9b8e569991bf47f0716fcde0a19,simple,profiler-shared,2473.421000,0
Ř,2e1f62dd4a4dc9b8e569991bf47f0716fcde0a19,simple,profiler-shared,2853.526000,0
Ř,2e1f62dd4a4dc9b8e569991bf47f0716fcde0a19,simple,profiler-shared,2845.880000,0
Ř,2e1f62dd4a4dc9b8e569991bf47f0716fcde0a19,simple,profiler-shared,2809.470000,0
Ř,2e1f62dd4a4dc9b8e569991bf47f0716fcde0a19,simple,profiler-shared,2456.074000,0
Ř,2e1f62dd4a4dc9b8e569991bf47f0716fcde0a19,simple,profiler-shared,2474.046000,1
Ř,2e1f62dd4a4dc9b8e569991bf47f0716fcde0a19,simple,profiler-shared,2841.271000,1
Ř,2e1f62dd4a4dc9b8e569991bf47f0716fcde0a19,simple,profiler-shared,2449.345000,1
Ř,2e1f62dd4a4dc9b8e569991bf47f0716fcde0a19,simple,profiler-shared,2439.349000,1
Ř,2e1f62dd4a4dc9b8e569991bf47f0716fcde0a19,simple,profiler-shared,2843.149000,1
Ř,2e1f62dd4a4dc9b8e569991bf47f0716fcde0a19,simple,profiler-shared,2448.092000,1
Ř,2e1f62dd4a4dc9b8e569991bf47f0716fcde0a19,simple,profiler-shared,2461.587000,1
Ř,2e1f62dd4a4dc9b8e569991bf47f0716fcde0a19,simple,profiler-shared,2859.154000,1
Ř,2e1f62dd4a4dc9b8e569991bf47f0716fcde0a19,simple,profiler-shared,2444.695000,1
Ř,2e1f62dd4a4dc9b8e569991bf47f0716fcde0a19,simple,profiler-shared,2819.545000,1
Ř,2e1f62dd4a4dc9b8e569991bf47f0716fcde0a19,simple,scalarFor,4685.417000,0
Ř,2e1f62dd4a4dc9b8e569991bf47f0716fcde0a19,simple,scalarFor,4934.616000,0
Ř,2e1f62dd4a4dc9b8e569991bf47f0716fcde0a19,simple,scalarFor,17.302000,0
Ř,2e1f62dd4a4dc9b8e569991bf47f0716fcde0a19,simple,scalarFor,0.030000,0
Ř,2e1f62dd4a4dc9b8e569991bf47f0716fcde0a19,simple,scalarFor,0.010000,0
Ř,2e1f62dd4a4dc9b8e569991bf47f0716fcde0a19,simple,scalarFor,0.009000,1
Ř,2e1f62dd4a4dc9b8e569991bf47f0716fcde0a19,simple,scalarFor,0.008000,1
Ř,2e1f62dd4a4dc9b8e569991bf47f0716fcde0a19,simple,scalarFor,0.007000,1
Ř,2e1f62dd4a4dc9b8e569991bf47f0716fcde0a19,simple,scalarFor,0.008000,1
Ř,2e1f62dd4a4dc9b8e569991bf47f0716fcde0a19,simple,scalarFor,0.008000,1
Ř,2e1f62dd4a4dc9b8e569991bf47f0716fcde0a19,simple,scalarFor,0.008000,1
Ř,2e1f62dd4a4dc9b8e569991bf47f0716fcde0a19,simple,scalarFor,0.008000,1
Ř,2e1f62dd4a4dc9b8e569991bf47f0716fcde0a19,simple,scalarFor,0.008000,1
Ř,2e1f62dd4a4dc9b8e569991bf47f0716fcde0a19,simple,scalarFor,0.008000,1
Ř,2e1f62dd4a4dc9b8e569991bf47f0716fcde0a19,simple,scalarFor,0.008000,1
Ř,2e1f62dd4a4dc9b8e569991bf47f0716fcde0a19,simple,lapply,666.527000,0
Ř,2e1f62dd4a4dc9b8e569991bf47f0716fcde0a19,simple,lapply,735.363000,0
Ř,2e1f62dd4a4dc9b8e569991bf47f0716fcde0a19,simple,lapply,795.732000,0
Ř,2e1f62dd4a4dc9b8e569991bf47f0716fcde0a19,simple,lapply,758.166000,0
Ř,2e1f62dd4a4dc9b8e569991bf47f0716fcde0a19,simple,lapply,883.416000,0
Ř,2e1f62dd4a4dc9b8e569991bf47f0716fcde0a19,simple,lapply,764.423000,1
Ř,2e1f62dd4a4dc9b8e569991bf47f0716fcde0a19,simple,lapply,776.482000,1
Ř,2e1f62dd4a4dc9b8e569991bf47f0716fcde0a19,simple,lapply,773.373000,1
Ř,2e1f62dd4a4dc9b8e569991bf47f0716fcde0a19,simple,lapply,570.378000,1
Ř,2e1f62dd4a4dc9b8e569991bf47f0716fcde0a19,simple,lapply,677.245000,1
Ř,2e1f62dd4a4dc9b8e569991bf47f0716fcde0a19,simple,lapply,688.352000,1
Ř,2e1f62dd4a4dc9b8e569991bf47f0716fcde0a19,simple,lapply,712.293000,1
Ř,2e1f62dd4a4dc9b8e569991bf47f0716fcde0a19,simple,lapply,658.675000,1
Ř,2e1f62dd4a4dc9b8e569991bf47f0716fcde0a19,simple,lapply,579.394000,1
Ř,2e1f62dd4a4dc9b8e569991bf47f0716fcde0a19,simple,lapply,686.287000,1
Ř,2e1f62dd4a4dc9b8e569991bf47f0716fcde0a19,simple,vectorFor,1052.237000,0
Ř,2e1f62dd4a4dc9b8e569991bf47f0716fcde0a19,simple,vectorFor,1027.876000,0
Ř,2e1f62dd4a4dc9b8e569991bf47f0716fcde0a19,simple,vectorFor,77.112000,0
Ř,2e1f62dd4a4dc9b8e569991bf47f0716fcde0a19,simple,vectorFor,35.708000,0
Ř,2e1f62dd4a4dc9b8e569991bf47f0716fcde0a19,simple,vectorFor,35.694000,0
Ř,2e1f62dd4a4dc9b8e569991bf47f0716fcde0a19,simple,vectorFor,35.642000,1
Ř,2e1f62dd4a4dc9b8e569991bf47f0716fcde0a19,simple,vectorFor,35.648000,1
Ř,2e1f62dd4a4dc9b8e569991bf47f0716fcde0a19,simple,vectorFor,35.640000,1
Ř,2e1f62dd4a4dc9b8e569991bf47f0716fcde0a19,simple,vectorFor,35.658000,1
Ř,2e1f62dd4a4dc9b8e569991bf47f0716fcde0a19,simple,vectorFor,35.710000,1
Ř,2e1f62dd4a4dc9b8e569991bf47f0716fcde0a19,simple,vectorFor,35.637000,1
Ř,2e1f62dd4a4dc9b8e569991bf47f0716fcde0a19,simple,vectorFor,35.624000,1
Ř,2e1f62dd4a4dc9b8e569991bf47f0716fcde0a19,simple,vectorFor,35.636000,1
Ř,2e1f62dd4a4dc9b8e569991bf47f0716fcde0a19,simple,vectorFor,35.660000,1
Ř,2e1f62dd4a4dc9b8e569991bf47f0716fcde0a19,simple,vectorFor,35.648000,1
Ř,2e1f62dd4a4dc9b8e569991bf47f0716fcde0a19,simple,bytecodes,4265.027000,0
Ř,2e1f62dd4a4dc9b8e569991bf47f0716fcde0a19,simple,bytecodes,4045.580000,0
Ř,2e1f62dd4a4dc9b8e569991bf47f0716fcde0a19,simple,bytecodes,239.556000,0
Ř,2e1f62dd4a4dc9b8e569991bf47f0716fcde0a19,simple,bytecodes,9.209000,0
Ř,2e1f62dd4a4dc9b8e569991bf47f0716fcde0a19,simple,bytecodes,9.182000,0
Ř,2e1f62dd4a4dc9b8e569991bf47f0716fcde0a19,simple,bytecodes,9.181000,1
Ř,2e1f62dd4a4dc9b8e569991bf47f0716fcde0a19,simple,bytecodes,9.136000,1
Ř,2e1f62dd4a4dc9b8e569991bf47f0716fcde0a19,simple,bytecodes,9.179000,1
Ř,2e1f62dd4a4dc9b8e569991bf47f0716fcde0a19,simple,bytecodes,9.179000,1
Ř,2e1f62dd4a4dc9b8e569991bf47f0716fcde0a19,simple,bytecodes,9.193000,1
Ř,2e1f62dd4a4dc9b8e569991bf47f0716fcde0a19,simple,bytecodes,9.178000,1
Ř,2e1f62dd4a4dc9b8e569991bf47f0716fcde0a19,simple,bytecodes,9.178000,1
Ř,2e1f62dd4a4dc9b8e569991bf47f0716fcde0a19,simple,bytecodes,9.135000,1
Ř,2e1f62dd4a4dc9b8e569991bf47f0716fcde0a19,simple,bytecodes,9.180000,1
Ř,2e1f62dd4a4dc9b8e569991bf47f0716fcde0a19,simple,bytecodes,9.178000,1
Ř,2e1f62dd4a4dc9b8e569991bf47f0716fcde0a19,simple,profiler-rsa,1192.744000,0
Ř,2e1f62dd4a4dc9b8e569991bf47f0716fcde0a19,simple,profiler-rsa,1196.301000,0
Ř,2e1f62dd4a4dc9b8e569991bf47f0716fcde0a19,simple,profiler-rsa,1208.636000,0
Ř,2e1f62dd4a4dc9b8e569991bf47f0716fcde0a19,simple,profiler-rsa,1191.578000,0
Ř,2e1f62dd4a4dc9b8e569991bf47f0716fcde0a19,simple,profiler-rsa,1216.469000,0
Ř,2e1f62dd4a4dc9b8e569991bf47f0716fcde0a19,simple,profiler-rsa,1193.148000,1
Ř,2e1f62dd4a4dc9b8e569991bf47f0716fcde0a19,simple,profiler-rsa,1177.045000,1
Ř,2e1f62dd4a4dc9b8e569991bf47f0716fcde0a19,simple,profiler-rsa,1216.331000,1
Ř,2e1f62dd4a4dc9b8e569991bf47f0716fcde0a19,simple,profiler-rsa,1200.526000,1
Ř,2e1f62dd4a4dc9b8e569991bf47f0716fcde0a19,simple,profiler-rsa,1188.625000,1
Ř,2e1f62dd4a4dc9b8e569991bf47f0716fcde0a19,simple,profiler-rsa,1173.715000,1
Ř,2e1f62dd4a4dc9b8e569991bf47f0716fcde0a19,simple,profiler-rsa,1188.179000,1
Ř,2e1f62dd4a4dc9b8e569991bf47f0716fcde0a19,simple,profiler-rsa,1235.718000,1
Ř,2e1f62dd4a4dc9b8e569991bf47f0716fcde0a19,simple,profiler-rsa,1289.911000,1
Ř,2e1f62dd4a4dc9b8e569991bf47f0716fcde0a19,simple,profiler-rsa,1258.341000,1
Ř,2e1f62dd4a4dc9b8e569991bf47f0716fcde0a19,simple,emptyWhile,2186.342000,0
Ř,2e1f62dd4a4dc9b8e569991bf47f0716fcde0a19,simple,emptyWhile,2173.260000,0
Ř,2e1f62dd4a4dc9b8e569991bf47f0716fcde0a19,simple,emptyWhile,47.062000,0
Ř,2e1f62dd4a4dc9b8e569991bf47f0716fcde0a19,simple,emptyWhile,30.540000,0
Ř,2e1f62dd4a4dc9b8e569991bf47f0716fcde0a19,simple,emptyWhile,30.596000,0
Ř,2e1f62dd4a4dc9b8e569991bf47f0716fcde0a19,simple,emptyWhile,30.560000,1
Ř,2e1f62dd4a4dc9b8e569991bf47f0716fcde0a19,simple,emptyWhile,30.514000,1
Ř,2e1f62dd4a4dc9b8e569991bf47f0716fcde0a19,simple,emptyWhile,30.566000,1
Ř,2e1f62dd4a4dc9b8e569991bf47f0716fcde0a19,simple,emptyWhile,30.562000,1
Ř,2e1f62dd4a4dc9b8e569991bf47f0716fcde0a19,simple,emptyWhile,30.557000,1
Ř,2e1f62dd4a4dc9b8e569991bf47f0716fcde0a19,simple,emptyWhile,30.558000,1
Ř,2e1f62dd4a4dc9b8e569991bf47f0716fcde0a19,simple,emptyWhile,30.516000,1
Ř,2e1f62dd4a4dc9b8e569991bf47f0716fcde0a19,simple,emptyWhile,30.559000,1
Ř,2e1f62dd4a4dc9b8e569991bf47f0716fcde0a19,simple,emptyWhile,30.569000,1
Ř,2e1f62dd4a4dc9b8e569991bf47f0716fcde0a19,simple,emptyWhile,30.559000,1
Ř,2e1f62dd4a4dc9b8e569991bf47f0716fcde0a19,simple,listFor,223.177000,0
Ř,2e1f62dd4a4dc9b8e569991bf47f0716fcde0a19,simple,listFor,210.765000,0
Ř,2e1f62dd4a4dc9b8e569991bf47f0716fcde0a19,simple,listFor,89.748000,0
Ř,2e1f62dd4a4dc9b8e569991bf47f0716fcde0a19,simple,listFor,68.771000,0
Ř,2e1f62dd4a4dc9b8e569991bf47f0716fcde0a19,simple,listFor,78.756000,0
Ř,2e1f62dd4a4dc9b8e569991bf47f0716fcde0a19,simple,listFor,54.220000,1
Ř,2e1f62dd4a4dc9b8e569991bf47f0716fcde0a19,simple,listFor,66.455000,1
Ř,2e1f62dd4a4dc9b8e569991bf47f0716fcde0a19,simple,listFor,56.414000,1
Ř,2e1f62dd4a4dc9b8e569991bf47f0716fcde0a19,simple,listFor,68.169000,1
Ř,2e1f62dd4a4dc9b8e569991bf47f0716fcde0a19,simple,listFor,78.576000,1
Ř,2e1f62dd4a4dc9b8e569991bf47f0716fcde0a19,simple,listFor,62.120000,1
Ř,2e1f62dd4a4dc9b8e569991bf47f0716fcde0a19,simple,listFor,63.238000,1
Ř,2e1f62dd4a4dc9b8e569991bf47f0716fcde0a19,simple,listFor,73.886000,1
Ř,2e1f62dd4a4dc9b8e569991bf47f0716fcde0a19,simple,listFor,80.114000,1
Ř,2e1f62dd4a4dc9b8e569991bf47f0716fcde0a19,simple,listFor,51.894000,1
Ř,2e1f62dd4a4dc9b8e569991bf47f0716fcde0a19,shootout,spectralnorm_naive,948.528000,0
Ř,2e1f62dd4a4dc9b8e569991bf47f0716fcde0a19,shootout,spectralnorm_naive,1070.902000,0
Ř,2e1f62dd4a4dc9b8e569991bf47f0716fcde0a19,shootout,spectralnorm_naive,1181.742000,0
Ř,2e1f62dd4a4dc9b8e569991bf47f0716fcde0a19,shootout,spectralnorm_naive,40.746000,0
Ř,2e1f62dd4a4dc9b8e569991bf47f0716fcde0a19,shootout,spectralnorm_naive,40.707000,0
Ř,2e1f62dd4a4dc9b8e569991bf47f0716fcde0a19,shootout,spectralnorm_naive,40.643000,1
Ř,2e1f62dd4a4dc9b8e569991bf47f0716fcde0a19,shootout,spectralnorm_naive,40.752000,1
Ř,2e1f62dd4a4dc9b8e569991bf47f0716fcde0a19,shootout,spectralnorm_naive,40.754000,1
Ř,2e1f62dd4a4dc9b8e569991bf47f0716fcde0a19,shootout,spectralnorm_naive,40.722000,1
Ř,2e1f62dd4a4dc9b8e569991bf47f0716fcde0a19,shootout,spectralnorm_naive,40.804000,1
Ř,2e1f62dd4a4dc9b8e569991bf47f0716fcde0a19,shootout,spectralnorm_naive,40.711000,1
Ř,2e1f62dd4a4dc9b8e569991bf47f0716fcde0a19,shootout,spectralnorm_naive,40.741000,1
Ř,2e1f62dd4a4dc9b8e569991bf47f0716fcde0a19,shootout,spectralnorm_naive,40.811000,1
Ř,2e1f62dd4a4dc9b8e569991bf47f0716fcde0a19,shootout,spectralnorm_naive,40.830000,1
Ř,2e1f62dd4a4dc9b8e569991bf47f0716fcde0a19,shootout,spectralnorm_naive,42.160000,1
Ř,2e1f62dd4a4dc9b8e569991bf47f0716fcde0a19,shootout,fasta_2,1124.607000,0
Ř,2e1f62dd4a4dc9b8e569991bf47f0716fcde0a19,shootout,fasta_2,1559.604000,0
Ř,2e1f62dd4a4dc9b8e569991bf47f0716fcde0a19,shootout,fasta_2,2293.644000,0
Ř,2e1f62dd4a4dc9b8e569991bf47f0716fcde0a19,shootout,fasta_2,876.050000,0
Ř,2e1f62dd4a4dc9b8e569991bf47f0716fcde0a19,shootout,fasta_2,872.415000,0
Ř,2e1f62dd4a4dc9b8e569991bf47f0716fcde0a19,shootout,fasta_2,878.338000,1
Ř,2e1f62dd4a4dc9b8e569991bf47f0716fcde0a19,shootout,fasta_2,872.204000,1
Ř,2e1f62dd4a4dc9b8e569991bf47f0716fcde0a19,shootout,fasta_2,871.893000,1
Ř,2e1f62dd4a4dc9b8e569991bf47f0716fcde0a19,shootout,fasta_2,870.120000,1
Ř,2e1f62dd4a4dc9b8e569991bf47f0716fcde0a19,shootout,fasta_2,880.709000,1
Ř,2e1f62dd4a4dc9b8e569991bf47f0716fcde0a19,shootout,fasta_2,890.748000,1
Ř,2e1f62dd4a4dc9b8e569991bf47f0716fcde0a19,shootout,fasta_2,887.466000,1
Ř,2e1f62dd4a4dc9b8e569991bf47f0716fcde0a19,shootout,fasta_2,893.301000,1
Ř,2e1f62dd4a4dc9b8e569991bf47f0716fcde0a19,shootout,fasta_2,886.248000,1
Ř,2e1f62dd4a4dc9b8e569991bf47f0716fcde0a19,shootout,fasta_2,882.898000,1
Ř,2e1f62dd4a4dc9b8e569991bf47f0716fcde0a19,shootout,nbody_3,2036.015000,0
Ř,2e1f62dd4a4dc9b8e569991bf47f0716fcde0a19,shootout,nbody_3,2155.396000,0
Ř,2e1f62dd4a4dc9b8e569991bf47f0716fcde0a19,shootout,nbody_3,2234.476000,0
Ř,2e1f62dd4a4dc9b8e569991bf47f0716fcde0a19,shootout,nbody_3,1098.850000,0
Ř,2e1f62dd4a4dc9b8e569991bf47f0716fcde0a19,shootout,nbody_3,1111.310000,0
Ř,2e1f62dd4a4dc9b8e569991bf47f0716fcde0a19,shootout,nbody_3,1100.433000,1
Ř,2e1f62dd4a4dc9b8e569991bf47f0716fcde0a19,shootout,nbody_3,1109.384000,1
Ř,2e1f62dd4a4dc9b8e569991bf47f0716fcde0a19,shootout,nbody_3,1096.945000,1
Ř,2e1f62dd4a4dc9b8e569991bf47f0716fcde0a19,shootout,nbody_3,1110.107000,1
Ř,2e1f62dd4a4dc9b8e569991bf47f0716fcde0a19,shootout,nbody_3,1096.588000,1
Ř,2e1f62dd4a4dc9b8e569991bf47f0716fcde0a19,shootout,nbody_3,1098.048000,1
Ř,2e1f62dd4a4dc9b8e569991bf47f0716fcde0a19,shootout,nbody_3,1110.948000,1
Ř,2e1f62dd4a4dc9b8e569991bf47f0716fcde0a19,shootout,nbody_3,1098.318000,1
Ř,2e1f62dd4a4dc9b8e569991bf47f0716fcde0a19,shootout,nbody_3,1108.844000,1
Ř,2e1f62dd4a4dc9b8e569991bf47f0716fcde0a19,shootout,nbody_3,1099.627000,1
Ř,2e1f62dd4a4dc9b8e569991bf47f0716fcde0a19,shootout,reversecomplement,543.760000,0
Ř,2e1f62dd4a4dc9b8e569991bf47f0716fcde0a19,shootout,reversecomplement,586.902000,0
Ř,2e1f62dd4a4dc9b8e569991bf47f0716fcde0a19,shootout,reversecomplement,1307.156000,0
Ř,2e1f62dd4a4dc9b8e569991bf47f0716fcde0a19,shootout,reversecomplement,455.067000,0
Ř,2e1f62dd4a4dc9b8e569991bf47f0716fcde0a19,shootout,reversecomplement,458.882000,0
Ř,2e1f62dd4a4dc9b8e569991bf47f0716fcde0a19,shootout,reversecomplement,463.717000,1
Ř,2e1f62dd4a4dc9b8e569991bf47f0716fcde0a19,shootout,reversecomplement,467.120000,1
Ř,2e1f62dd4a4dc9b8e569991bf47f0716fcde0a19,shootout,reversecomplement,460.840000,1
Ř,2e1f62dd4a4dc9b8e569991bf47f0716fcde0a19,shootout,reversecomplement,463.508000,1
Ř,2e1f62dd4a4dc9b8e569991bf47f0716fcde0a19,shootout,reversecomplement,459.171000,1
Ř,2e1f62dd4a4dc9b8e569991bf47f0716fcde0a19,shootout,reversecomplement,1022.771000,1
Ř,2e1f62dd4a4dc9b8e569991bf47f0716fcde0a19,shootout,reversecomplement,457.555000,1
Ř,2e1f62dd4a4dc9b8e569991bf47f0716fcde0a19,shootout,reversecomplement,461.367000,1
Ř,2e1f62dd4a4dc9b8e569991bf47f0716fcde0a19,shootout,reversecomplement,458.157000,1
Ř,2e1f62dd4a4dc9b8e569991bf47f0716fcde0a19,shootout,reversecomplement,463.554000,1
Ř,2e1f62dd4a4dc9b8e569991bf47f0716fcde0a19,shootout,mandelbrot_naive_ascii,647.429000,0
Ř,2e1f62dd4a4dc9b8e569991bf47f0716fcde0a19,shootout,mandelbrot_naive_ascii,647.817000,0
Ř,2e1f62dd4a4dc9b8e569991bf47f0716fcde0a19,shootout,mandelbrot_naive_ascii,1198.310000,0
Ř,2e1f62dd4a4dc9b8e569991bf47f0716fcde0a19,shootout,mandelbrot_naive_ascii,219.506000,0
Ř,2e1f62dd4a4dc9b8e569991bf47f0716fcde0a19,shootout,mandelbrot_naive_ascii,213.514000,0
Ř,2e1f62dd4a4dc9b8e569991bf47f0716fcde0a19,shootout,mandelbrot_naive_ascii,213.498000,1
Ř,2e1f62dd4a4dc9b8e569991bf47f0716fcde0a19,shootout,mandelbrot_naive_ascii,213.536000,1
Ř,2e1f62dd4a4dc9b8e569991bf47f0716fcde0a19,shootout,mandelbrot_naive_ascii,214.492000,1
Ř,2e1f62dd4a4dc9b8e569991bf47f0716fcde0a19,shootout,mandelbrot_naive_ascii,213.876000,1
Ř,2e1f62dd4a4dc9b8e569991bf47f0716fcde0a19,shootout,mandelbrot_naive_ascii,214.080000,1
Ř,2e1f62dd4a4dc9b8e569991bf47f0716fcde0a19,shootout,mandelbrot_naive_ascii,219.626000,1
Ř,2e1f62dd4a4dc9b8e569991bf47f0716fcde0a19,shootout,mandelbrot_naive_ascii,214.311000,1
Ř,2e1f62dd4a4dc9b8e569991bf47f0716fcde0a19,shootout,mandelbrot_naive_ascii,213.921000,1
Ř,2e1f62dd4a4dc9b8e569991bf47f0716fcde0a19,shootout,mandelbrot_naive_ascii,214.828000,1
Ř,2e1f62dd4a4dc9b8e569991bf47f0716fcde0a19,shootout,mandelbrot_naive_ascii,213.377000,1
Ř,2e1f62dd4a4dc9b8e569991bf47f0716fcde0a19,shootout,nbody,2371.359000,0
Ř,2e1f62dd4a4dc9b8e569991bf47f0716fcde0a19,shootout,nbody,2180.269000,0
Ř,2e1f62dd4a4dc9b8e569991bf47f0716fcde0a19,shootout,nbody,2279.467000,0
Ř,2e1f62dd4a4dc9b8e569991bf47f0716fcde0a19,shootout,nbody,763.559000,0
Ř,2e1f62dd4a4dc9b8e569991bf47f0716fcde0a19,shootout,nbody,762.171000,0
Ř,2e1f62dd4a4dc9b8e569991bf47f0716fcde0a19,shootout,nbody,752.776000,1
Ř,2e1f62dd4a4dc9b8e569991bf47f0716fcde0a19,shootout,nbody,753.460000,1
Ř,2e1f62dd4a4dc9b8e569991bf47f0716fcde0a19,shootout,nbody,754.538000,1
Ř,2e1f62dd4a4dc9b8e569991bf47f0716fcde0a19,shootout,nbody,766.132000,1
Ř,2e1f62dd4a4dc9b8e569991bf47f0716fcde0a19,shootout,nbody,752.475000,1
Ř,2e1f62dd4a4dc9b8e569991bf47f0716fcde0a19,shootout,nbody,753.611000,1
Ř,2e1f62dd4a4dc9b8e569991bf47f0716fcde0a19,shootout,nbody,749.917000,1
Ř,2e1f62dd4a4dc9b8e569991bf47f0716fcde0a19,shootout,nbody,761.742000,1
Ř,2e1f62dd4a4dc9b8e569991bf47f0716fcde0a19,shootout,nbody,753.520000,1
Ř,2e1f62dd4a4dc9b8e569991bf47f0716fcde0a19,shootout,nbody,751.285000,1
Ř,2e1f62dd4a4dc9b8e569991bf47f0716fcde0a19,shootout,fastaredux,658.832000,0
Ř,2e1f62dd4a4dc9b8e569991bf47f0716fcde0a19,shootout,fastaredux,1647.490000,0
Ř,2e1f62dd4a4dc9b8e569991bf47f0716fcde0a19,shootout,fastaredux,2372.501000,0
Ř,2e1f62dd4a4dc9b8e569991bf47f0716fcde0a19,shootout,fastaredux,392.910000,0
Ř,2e1f62dd4a4dc9b8e569991bf47f0716fcde0a19,shootout,fastaredux,401.954000,0
Ř,2e1f62dd4a4dc9b8e569991bf47f0716fcde0a19,shootout,fastaredux,386.905000,1
Ř,2e1f62dd4a4dc9b8e569991bf47f0716fcde0a19,shootout,fastaredux,390.653000,1
Ř,2e1f62dd4a4dc9b8e569991bf47f0716fcde0a19,shootout,fastaredux,394.859000,1
Ř,2e1f62dd4a4dc9b8e569991bf47f0716fcde0a19,shootout,fastaredux,391.253000,1
Ř,2e1f62dd4a4dc9b8e569991bf47f0716fcde0a19,shootout,fastaredux,393.354000,1
Ř,2e1f62dd4a4dc9b8e569991bf47f0716fcde0a19,shootout,fastaredux,403.887000,1
Ř,2e1f62dd4a4dc9b8e569991bf47f0716fcde0a19,shootout,fastaredux,393.494000,1
Ř,2e1f62dd4a4dc9b8e569991bf47f0716fcde0a19,shootout,fastaredux,390.709000,1
Ř,2e1f62dd4a4dc9b8e569991bf47f0716fcde0a19,shootout,fastaredux,394.177000,1
Ř,2e1f62dd4a4dc9b8e569991bf47f0716fcde0a19,shootout,fastaredux,396.075000,1
Ř,2e1f62dd4a4dc9b8e569991bf47f0716fcde0a19,shootout,knucleotide_brute_3,4446.381000,0
Ř,2e1f62dd4a4dc9b8e569991bf47f0716fcde0a19,shootout,knucleotide_brute_3,4508.432000,0
Ř,2e1f62dd4a4dc9b8e569991bf47f0716fcde0a19,shootout,knucleotide_brute_3,12402.637000,0
Ř,2e1f62dd4a4dc9b8e569991bf47f0716fcde0a19,shootout,knucleotide_brute_3,2838.027000,0
Ř,2e1f62dd4a4dc9b8e569991bf47f0716fcde0a19,shootout,knucleotide_brute_3,2846.436000,0
Ř,2e1f62dd4a4dc9b8e569991bf47f0716fcde0a19,shootout,knucleotide_brute_3,2841.196000,1
Ř,2e1f62dd4a4dc9b8e569991bf47f0716fcde0a19,shootout,knucleotide_brute_3,2846.340000,1
Ř,2e1f62dd4a4dc9b8e569991bf47f0716fcde0a19,shootout,knucleotide_brute_3,2827.882000,1
Ř,2e1f62dd4a4dc9b8e569991bf47f0716fcde0a19,shootout,knucleotide_brute_3,2852.055000,1
Ř,2e1f62dd4a4dc9b8e569991bf47f0716fcde0a19,shootout,knucleotide_brute_3,2827.168000,1
Ř,2e1f62dd4a4dc9b8e569991bf47f0716fcde0a19,shootout,knucleotide_brute_3,2837.726000,1
Ř,2e1f62dd4a4dc9b8e569991bf47f0716fcde0a19,shootout,knucleotide_brute_3,2830.843000,1
Ř,2e1f62dd4a4dc9b8e569991bf47f0716fcde0a19,shootout,knucleotide_brute_3,2829.952000,1
Ř,2e1f62dd4a4dc9b8e569991bf47f0716fcde0a19,shootout,knucleotide_brute_3,2830.544000,1
Ř,2e1f62dd4a4dc9b8e569991bf47f0716fcde0a19,shootout,knucleotide_brute_3,2833.673000,1
Ř,2e1f62dd4a4dc9b8e569991bf47f0716fcde0a19,shootout,fasta_naive_2,1044.476000,0
Ř,2e1f62dd4a4dc9b8e569991bf47f0716fcde0a19,shootout,fasta_naive_2,1294.883000,0
Ř,2e1f62dd4a4dc9b8e569991bf47f0716fcde0a19,shootout,fasta_naive_2,2423.505000,0
Ř,2e1f62dd4a4dc9b8e569991bf47f0716fcde0a19,shootout,fasta_naive_2,1254.888000,0
Ř,2e1f62dd4a4dc9b8e569991bf47f0716fcde0a19,shootout,fasta_naive_2,2328.246000,0
Ř,2e1f62dd4a4dc9b8e569991bf47f0716fcde0a19,shootout,fasta_naive_2,650.263000,1
Ř,2e1f62dd4a4dc9b8e569991bf47f0716fcde0a19,shootout,fasta_naive_2,636.040000,1
Ř,2e1f62dd4a4dc9b8e569991bf47f0716fcde0a19,shootout,fasta_naive_2,635.199000,1
Ř,2e1f62dd4a4dc9b8e569991bf47f0716fcde0a19,shootout,fasta_naive_2,659.552000,1
Ř,2e1f62dd4a4dc9b8e569991bf47f0716fcde0a19,shootout,fasta_naive_2,622.805000,1
Ř,2e1f62dd4a4dc9b8e569991bf47f0716fcde0a19,shootout,fasta_naive_2,634.198000,1
Ř,2e1f62dd4a4dc9b8e569991bf47f0716fcde0a19,shootout,fasta_naive_2,657.849000,1
Ř,2e1f62dd4a4dc9b8e569991bf47f0716fcde0a19,shootout,fasta_naive_2,626.522000,1
Ř,2e1f62dd4a4dc9b8e569991bf47f0716fcde0a19,shootout,fasta_naive_2,637.677000,1
Ř,2e1f62dd4a4dc9b8e569991bf47f0716fcde0a19,shootout,fasta_naive_2,656.216000,1
Ř,2e1f62dd4a4dc9b8e569991bf47f0716fcde0a19,shootout,fannkuchredux,2309.618000,0
Ř,2e1f62dd4a4dc9b8e569991bf47f0716fcde0a19,shootout,fannkuchredux,2241.287000,0
Ř,2e1f62dd4a4dc9b8e569991bf47f0716fcde0a19,shootout,fannkuchredux,3687.315000,0
Ř,2e1f62dd4a4dc9b8e569991bf47f0716fcde0a19,shootout,fannkuchredux,800.034000,0
Ř,2e1f62dd4a4dc9b8e569991bf47f0716fcde0a19,shootout,fannkuchredux,797.357000,0
Ř,2e1f62dd4a4dc9b8e569991bf47f0716fcde0a19,shootout,fannkuchredux,807.207000,1
Ř,2e1f62dd4a4dc9b8e569991bf47f0716fcde0a19,shootout,fannkuchredux,797.971000,1
Ř,2e1f62dd4a4dc9b8e569991bf47f0716fcde0a19,shootout,fannkuchredux,796.695000,1
Ř,2e1f62dd4a4dc9b8e569991bf47f0716fcde0a19,shootout,fannkuchredux,808.626000,1
Ř,2e1f62dd4a4dc9b8e569991bf47f0716fcde0a19,shootout,fannkuchredux,800.346000,1
Ř,2e1f62dd4a4dc9b8e569991bf47f0716fcde0a19,shootout,fannkuchredux,808.869000,1
Ř,2e1f62dd4a4dc9b8e569991bf47f0716fcde0a19,shootout,fannkuchredux,796.472000,1
Ř,2e1f62dd4a4dc9b8e569991bf47f0716fcde0a19,shootout,fannkuchredux,796.989000,1
Ř,2e1f62dd4a4dc9b8e569991bf47f0716fcde0a19,shootout,fannkuchredux,808.598000,1
Ř,2e1f62dd4a4dc9b8e569991bf47f0716fcde0a19,shootout,fannkuchredux,796.855000,1
Ř,2e1f62dd4a4dc9b8e569991bf47f0716fcde0a19,shootout,spectralnorm,2534.803000,0
Ř,2e1f62dd4a4dc9b8e569991bf47f0716fcde0a19,shootout,spectralnorm,2732.659000,0
Ř,2e1f62dd4a4dc9b8e569991bf47f0716fcde0a19,shootout,spectralnorm,2464.449000,0
Ř,2e1f62dd4a4dc9b8e569991bf47f0716fcde0a19,shootout,spectralnorm,73.615000,0
Ř,2e1f62dd4a4dc9b8e569991bf47f0716fcde0a19,shootout,spectralnorm,59.032000,0
Ř,2e1f62dd4a4dc9b8e569991bf47f0716fcde0a19,shootout,spectralnorm,60.300000,1
Ř,2e1f62dd4a4dc9b8e569991bf47f0716fcde0a19,shootout,spectralnorm,60.387000,1
Ř,2e1f62dd4a4dc9b8e569991bf47f0716fcde0a19,shootout,spectralnorm,59.104000,1
Ř,2e1f62dd4a4dc9b8e569991bf47f0716fcde0a19,shootout,spectralnorm,60.227000,1
Ř,2e1f62dd4a4dc9b8e569991bf47f0716fcde0a19,shootout,spectralnorm,61.230000,1
Ř,2e1f62dd4a4dc9b8e569991bf47f0716fcde0a19,shootout,spectralnorm,60.316000,1
Ř,2e1f62dd4a4dc9b8e569991bf47f0716fcde0a19,shootout,spectralnorm,58.845000,1
Ř,2e1f62dd4a4dc9b8e569991bf47f0716fcde0a19,shootout,spectralnorm,60.334000,1
Ř,2e1f62dd4a4dc9b8e569991bf47f0716fcde0a19,shootout,spectralnorm,60.330000,1
Ř,2e1f62dd4a4dc9b8e569991bf47f0716fcde0a19,shootout,spectralnorm,60.465000,1
Ř,2e1f62dd4a4dc9b8e569991bf47f0716fcde0a19,shootout,pidigits,55929.269000,0
Ř,2e1f62dd4a4dc9b8e569991bf47f0716fcde0a19,shootout,pidigits,775.651000,0
Ř,2e1f62dd4a4dc9b8e569991bf47f0716fcde0a19,shootout,pidigits,34304.666000,0
Ř,2e1f62dd4a4dc9b8e569991bf47f0716fcde0a19,shootout,pidigits,105.072000,0
Ř,2e1f62dd4a4dc9b8e569991bf47f0716fcde0a19,shootout,pidigits,116.084000,0
Ř,2e1f62dd4a4dc9b8e569991bf47f0716fcde0a19,shootout,pidigits,105.702000,1
Ř,2e1f62dd4a4dc9b8e569991bf47f0716fcde0a19,shootout,pidigits,105.110000,1
Ř,2e1f62dd4a4dc9b8e569991bf47f0716fcde0a19,shootout,pidigits,104.428000,1
Ř,2e1f62dd4a4dc9b8e569991bf47f0716fcde0a19,shootout,pidigits,105.399000,1
Ř,2e1f62dd4a4dc9b8e569991bf47f0716fcde0a19,shootout,pidigits,107.392000,1
Ř,2e1f62dd4a4dc9b8e569991bf47f0716fcde0a19,shootout,pidigits,105.623000,1
Ř,2e1f62dd4a4dc9b8e569991bf47f0716fcde0a19,shootout,pidigits,104.469000,1
Ř,2e1f62dd4a4dc9b8e569991bf47f0716fcde0a19,shootout,pidigits,104.311000,1
Ř,2e1f62dd4a4dc9b8e569991bf47f0716fcde0a19,shootout,pidigits,106.107000,1
Ř,2e1f62dd4a4dc9b8e569991bf47f0716fcde0a19,shootout,pidigits,104.839000,1
Ř,2e1f62dd4a4dc9b8e569991bf47f0716fcde0a19,shootout,nbody_naive,21422.338000,0
Ř,2e1f62dd4a4dc9b8e569991bf47f0716fcde0a19,shootout,nbody_naive,2147.017000,0
Ř,2e1f62dd4a4dc9b8e569991bf47f0716fcde0a19,shootout,nbody_naive,42925.110000,0
Ř,2e1f62dd4a4dc9b8e569991bf47f0716fcde0a19,shootout,nbody_naive,150.969000,0
Ř,2e1f62dd4a4dc9b8e569991bf47f0716fcde0a19,shootout,nbody_naive,155.387000,0
Ř,2e1f62dd4a4dc9b8e569991bf47f0716fcde0a19,shootout,nbody_naive,151.884000,1
Ř,2e1f62dd4a4dc9b8e569991bf47f0716fcde0a19,shootout,nbody_naive,151.387000,1
Ř,2e1f62dd4a4dc9b8e569991bf47f0716fcde0a19,shootout,nbody_naive,147.647000,1
Ř,2e1f62dd4a4dc9b8e569991bf47f0716fcde0a19,shootout,nbody_naive,147.986000,1
Ř,2e1f62dd4a4dc9b8e569991bf47f0716fcde0a19,shootout,nbody_naive,153.962000,1
Ř,2e1f62dd4a4dc9b8e569991bf47f0716fcde0a19,shootout,nbody_naive,152.025000,1
Ř,2e1f62dd4a4dc9b8e569991bf47f0716fcde0a19,shootout,nbody_naive,150.465000,1
Ř,2e1f62dd4a4dc9b8e569991bf47f0716fcde0a19,shootout,nbody_naive,147.932000,1
Ř,2e1f62dd4a4dc9b8e569991bf47f0716fcde0a19,shootout,nbody_naive,161.799000,1
Ř,2e1f62dd4a4dc9b8e569991bf47f0716fcde0a19,shootout,nbody_naive,151.308000,1
Ř,2e1f62dd4a4dc9b8e569991bf47f0716fcde0a19,shootout,binarytrees,1005.862000,0
Ř,2e1f62dd4a4dc9b8e569991bf47f0716fcde0a19,shootout,binarytrees,197.593000,0
Ř,2e1f62dd4a4dc9b8e569991bf47f0716fcde0a19,shootout,binarytrees,1387.062000,0
Ř,2e1f62dd4a4dc9b8e569991bf47f0716fcde0a19,shootout,binarytrees,76.681000,0
Ř,2e1f62dd4a4dc9b8e569991bf47f0716fcde0a19,shootout,binarytrees,76.047000,0
Ř,2e1f62dd4a4dc9b8e569991bf47f0716fcde0a19,shootout,binarytrees,87.514000,1
Ř,2e1f62dd4a4dc9b8e569991bf47f0716fcde0a19,shootout,binarytrees,76.625000,1
Ř,2e1f62dd4a4dc9b8e569991bf47f0716fcde0a19,shootout,binarytrees,77.034000,1
Ř,2e1f62dd4a4dc9b8e569991bf47f0716fcde0a19,shootout,binarytrees,76.874000,1
Ř,2e1f62dd4a4dc9b8e569991bf47f0716fcde0a19,shootout,binarytrees,76.740000,1
Ř,2e1f62dd4a4dc9b8e569991bf47f0716fcde0a19,shootout,binarytrees,79.588000,1
Ř,2e1f62dd4a4dc9b8e569991bf47f0716fcde0a19,shootout,binarytrees,76.950000,1
Ř,2e1f62dd4a4dc9b8e569991bf47f0716fcde0a19,shootout,binarytrees,76.792000,1
Ř,2e1f62dd4a4dc9b8e569991bf47f0716fcde0a19,shootout,binarytrees,76.810000,1
Ř,2e1f62dd4a4dc9b8e569991bf47f0716fcde0a19,shootout,binarytrees,76.868000,1
Ř,2e1f62dd4a4dc9b8e569991bf47f0716fcde0a19,shootout,knucleotide_brute_2,3551.671000,0
Ř,2e1f62dd4a4dc9b8e569991bf47f0716fcde0a19,shootout,knucleotide_brute_2,4619.550000,0
Ř,2e1f62dd4a4dc9b8e569991bf47f0716fcde0a19,shootout,knucleotide_brute_2,13441.362000,0
Ř,2e1f62dd4a4dc9b8e569991bf47f0716fcde0a19,shootout,knucleotide_brute_2,2541.646000,0
Ř,2e1f62dd4a4dc9b8e569991bf47f0716fcde0a19,shootout,knucleotide_brute_2,2753.581000,0
Ř,2e1f62dd4a4dc9b8e569991bf47f0716fcde0a19,shootout,knucleotide_brute_2,3143.370000,1
Ř,2e1f62dd4a4dc9b8e569991bf47f0716fcde0a19,shootout,knucleotide_brute_2,3784.929000,1
Ř,2e1f62dd4a4dc9b8e569991bf47f0716fcde0a19,shootout,knucleotide_brute_2,3187.043000,1
Ř,2e1f62dd4a4dc9b8e569991bf47f0716fcde0a19,shootout,knucleotide_brute_2,3715.088000,1
Ř,2e1f62dd4a4dc9b8e569991bf47f0716fcde0a19,shootout,knucleotide_brute_2,4089.309000,1
Ř,2e1f62dd4a4dc9b8e569991bf47f0716fcde0a19,shootout,knucleotide_brute_2,2119.468000,1
Ř,2e1f62dd4a4dc9b8e569991bf47f0716fcde0a19,shootout,knucleotide_brute_2,2144.659000,1
Ř,2e1f62dd4a4dc9b8e569991bf47f0716fcde0a19,shootout,knucleotide_brute_2,2252.413000,1
Ř,2e1f62dd4a4dc9b8e569991bf47f0716fcde0a19,shootout,knucleotide_brute_2,2800.205000,1
Ř,2e1f62dd4a4dc9b8e569991bf47f0716fcde0a19,shootout,knucleotide_brute_2,3091.789000,1
Ř,2e1f62dd4a4dc9b8e569991bf47f0716fcde0a19,shootout,binarytrees_2,1144.224000,0
Ř,2e1f62dd4a4dc9b8e569991bf47f0716fcde0a19,shootout,binarytrees_2,132.582000,0
Ř,2e1f62dd4a4dc9b8e569991bf47f0716fcde0a19,shootout,binarytrees_2,1417.738000,0
Ř,2e1f62dd4a4dc9b8e569991bf47f0716fcde0a19,shootout,binarytrees_2,87.329000,0
Ř,2e1f62dd4a4dc9b8e569991bf47f0716fcde0a19,shootout,binarytrees_2,98.148000,0
Ř,2e1f62dd4a4dc9b8e569991bf47f0716fcde0a19,shootout,binarytrees_2,87.038000,1
Ř,2e1f62dd4a4dc9b8e569991bf47f0716fcde0a19,shootout,binarytrees_2,87.236000,1
Ř,2e1f62dd4a4dc9b8e569991bf47f0716fcde0a19,shootout,binarytrees_2,87.508000,1
Ř,2e1f62dd4a4dc9b8e569991bf47f0716fcde0a19,shootout,binarytrees_2,90.080000,1
Ř,2e1f62dd4a4dc9b8e569991bf47f0716fcde0a19,shootout,binarytrees_2,87.040000,1
Ř,2e1f62dd4a4dc9b8e569991bf47f0716fcde0a19,shootout,binarytrees_2,86.908000,1
Ř,2e1f62dd4a4dc9b8e569991bf47f0716fcde0a19,shootout,binarytrees_2,87.076000,1
Ř,2e1f62dd4a4dc9b8e569991bf47f0716fcde0a19,shootout,binarytrees_2,87.783000,1
Ř,2e1f62dd4a4dc9b8e569991bf47f0716fcde0a19,shootout,binarytrees_2,88.055000,1
Ř,2e1f62dd4a4dc9b8e569991bf47f0716fcde0a19,shootout,binarytrees_2,87.857000,1
Ř,2e1f62dd4a4dc9b8e569991bf47f0716fcde0a19,shootout,nbody_naive_2,3130.258000,0
Ř,2e1f62dd4a4dc9b8e569991bf47f0716fcde0a19,shootout,nbody_naive_2,1806.851000,0
Ř,2e1f62dd4a4dc9b8e569991bf47f0716fcde0a19,shootout,nbody_naive_2,4774.152000,0
Ř,2e1f62dd4a4dc9b8e569991bf47f0716fcde0a19,shootout,nbody_naive_2,1011.309000,0
Ř,2e1f62dd4a4dc9b8e569991bf47f0716fcde0a19,shootout,nbody_naive_2,1007.924000,0
Ř,2e1f62dd4a4dc9b8e569991bf47f0716fcde0a19,shootout,nbody_naive_2,994.199000,1
Ř,2e1f62dd4a4dc9b8e569991bf47f0716fcde0a19,shootout,nbody_naive_2,1008.647000,1
Ř,2e1f62dd4a4dc9b8e569991bf47f0716fcde0a19,shootout,nbody_naive_2,997.227000,1
Ř,2e1f62dd4a4dc9b8e569991bf47f0716fcde0a19,shootout,nbody_naive_2,1008.685000,1
Ř,2e1f62dd4a4dc9b8e569991bf47f0716fcde0a19,shootout,nbody_naive_2,1007.203000,1
Ř,2e1f62dd4a4dc9b8e569991bf47f0716fcde0a19,shootout,nbody_naive_2,999.479000,1
Ř,2e1f62dd4a4dc9b8e569991bf47f0716fcde0a19,shootout,nbody_naive_2,1004.958000,1
Ř,2e1f62dd4a4dc9b8e569991bf47f0716fcde0a19,shootout,nbody_naive_2,996.663000,1
Ř,2e1f62dd4a4dc9b8e569991bf47f0716fcde0a19,shootout,nbody_naive_2,1008.110000,1
Ř,2e1f62dd4a4dc9b8e569991bf47f0716fcde0a19,shootout,nbody_naive_2,1007.895000,1
Ř,2e1f62dd4a4dc9b8e569991bf47f0716fcde0a19,shootout,reversecomplement_naive,512.604000,0
Ř,2e1f62dd4a4dc9b8e569991bf47f0716fcde0a19,shootout,reversecomplement_naive,564.724000,0
Ř,2e1f62dd4a4dc9b8e569991bf47f0716fcde0a19,shootout,reversecomplement_naive,1204.411000,0
Ř,2e1f62dd4a4dc9b8e569991bf47f0716fcde0a19,shootout,reversecomplement_naive,343.513000,0
Ř,2e1f62dd4a4dc9b8e569991bf47f0716fcde0a19,shootout,reversecomplement_naive,954.355000,0
Ř,2e1f62dd4a4dc9b8e569991bf47f0716fcde0a19,shootout,reversecomplement_naive,340.173000,1
Ř,2e1f62dd4a4dc9b8e569991bf47f0716fcde0a19,shootout,reversecomplement_naive,339.190000,1
Ř,2e1f62dd4a4dc9b8e569991bf47f0716fcde0a19,shootout,reversecomplement_naive,349.607000,1
Ř,2e1f62dd4a4dc9b8e569991bf47f0716fcde0a19,shootout,reversecomplement_naive,335.686000,1
Ř,2e1f62dd4a4dc9b8e569991bf47f0716fcde0a19,shootout,reversecomplement_naive,338.658000,1
Ř,2e1f62dd4a4dc9b8e569991bf47f0716fcde0a19,shootout,reversecomplement_naive,335.774000,1
Ř,2e1f62dd4a4dc9b8e569991bf47f0716fcde0a19,shootout,reversecomplement_naive,337.208000,1
Ř,2e1f62dd4a4dc9b8e569991bf47f0716fcde0a19,shootout,reversecomplement_naive,365.474000,1
Ř,2e1f62dd4a4dc9b8e569991bf47f0716fcde0a19,shootout,reversecomplement_naive,363.380000,1
Ř,2e1f62dd4a4dc9b8e569991bf47f0716fcde0a19,shootout,reversecomplement_naive,375.085000,1
Ř,2e1f62dd4a4dc9b8e569991bf47f0716fcde0a19,shootout,spectralnorm_alt_2,1729.660000,0
Ř,2e1f62dd4a4dc9b8e569991bf47f0716fcde0a19,shootout,spectralnorm_alt_2,1428.374000,0
Ř,2e1f62dd4a4dc9b8e569991bf47f0716fcde0a19,shootout,spectralnorm_alt_2,2622.129000,0
Ř,2e1f62dd4a4dc9b8e569991bf47f0716fcde0a19,shootout,spectralnorm_alt_2,1243.625000,0
Ř,2e1f62dd4a4dc9b8e569991bf47f0716fcde0a19,shootout,spectralnorm_alt_2,1220.955000,0
Ř,2e1f62dd4a4dc9b8e569991bf47f0716fcde0a19,shootout,spectralnorm_alt_2,1267.687000,1
Ř,2e1f62dd4a4dc9b8e569991bf47f0716fcde0a19,shootout,spectralnorm_alt_2,1203.082000,1
Ř,2e1f62dd4a4dc9b8e569991bf47f0716fcde0a19,shootout,spectralnorm_alt_2,1188.839000,1
Ř,2e1f62dd4a4dc9b8e569991bf47f0716fcde0a19,shootout,spectralnorm_alt_2,1210.878000,1
Ř,2e1f62dd4a4dc9b8e569991bf47f0716fcde0a19,shootout,spectralnorm_alt_2,1253.317000,1
Ř,2e1f62dd4a4dc9b8e569991bf47f0716fcde0a19,shootout,spectralnorm_alt_2,1191.825000,1
Ř,2e1f62dd4a4dc9b8e569991bf47f0716fcde0a19,shootout,spectralnorm_alt_2,1212.651000,1
Ř,2e1f62dd4a4dc9b8e569991bf47f0716fcde0a19,shootout,spectralnorm_alt_2,1222.065000,1
Ř,2e1f62dd4a4dc9b8e569991bf47f0716fcde0a19,shootout,spectralnorm_alt_2,1209.059000,1
Ř,2e1f62dd4a4dc9b8e569991bf47f0716fcde0a19,shootout,spectralnorm_alt_2,1193.065000,1
Ř,2e1f62dd4a4dc9b8e569991bf47f0716fcde0a19,shootout,reversecomplement_2,523.129000,0
Ř,2e1f62dd4a4dc9b8e569991bf47f0716fcde0a19,shootout,reversecomplement_2,549.832000,0
Ř,2e1f62dd4a4dc9b8e569991bf47f0716fcde0a19,shootout,reversecomplement_2,1535.489000,0
Ř,2e1f62dd4a4dc9b8e569991bf47f0716fcde0a19,shootout,reversecomplement_2,435.896000,0
Ř,2e1f62dd4a4dc9b8e569991bf47f0716fcde0a19,shootout,reversecomplement_2,414.750000,0
Ř,2e1f62dd4a4dc9b8e569991bf47f0716fcde0a19,shootout,reversecomplement_2,418.055000,1
Ř,2e1f62dd4a4dc9b8e569991bf47f0716fcde0a19,shootout,reversecomplement_2,420.737000,1
Ř,2e1f62dd4a4dc9b8e569991bf47f0716fcde0a19,shootout,reversecomplement_2,423.235000,1
Ř,2e1f62dd4a4dc9b8e569991bf47f0716fcde0a19,shootout,reversecomplement_2,421.549000,1
Ř,2e1f62dd4a4dc9b8e569991bf47f0716fcde0a19,shootout,reversecomplement_2,419.702000,1
Ř,2e1f62dd4a4dc9b8e569991bf47f0716fcde0a19,shootout,reversecomplement_2,422.816000,1
Ř,2e1f62dd4a4dc9b8e569991bf47f0716fcde0a19,shootout,reversecomplement_2,419.459000,1
Ř,2e1f62dd4a4dc9b8e569991bf47f0716fcde0a19,shootout,reversecomplement_2,419.333000,1
Ř,2e1f62dd4a4dc9b8e569991bf47f0716fcde0a19,shootout,reversecomplement_2,423.755000,1
Ř,2e1f62dd4a4dc9b8e569991bf47f0716fcde0a19,shootout,reversecomplement_2,419.858000,1
Ř,2e1f62dd4a4dc9b8e569991bf47f0716fcde0a19,shootout,fasta,1551.709000,0
Ř,2e1f62dd4a4dc9b8e569991bf47f0716fcde0a19,shootout,fasta,1295.707000,0
Ř,2e1f62dd4a4dc9b8e569991bf47f0716fcde0a19,shootout,fasta,2031.500000,0
Ř,2e1f62dd4a4dc9b8e569991bf47f0716fcde0a19,shootout,fasta,943.763000,0
Ř,2e1f62dd4a4dc9b8e569991bf47f0716fcde0a19,shootout,fasta,957.009000,0
Ř,2e1f62dd4a4dc9b8e569991bf47f0716fcde0a19,shootout,fasta,947.099000,1
Ř,2e1f62dd4a4dc9b8e569991bf47f0716fcde0a19,shootout,fasta,944.991000,1
Ř,2e1f62dd4a4dc9b8e569991bf47f0716fcde0a19,shootout,fasta,942.284000,1
Ř,2e1f62dd4a4dc9b8e569991bf47f0716fcde0a19,shootout,fasta,938.675000,1
Ř,2e1f62dd4a4dc9b8e569991bf47f0716fcde0a19,shootout,fasta,940.672000,1
Ř,2e1f62dd4a4dc9b8e569991bf47f0716fcde0a19,shootout,fasta,951.892000,1
Ř,2e1f62dd4a4dc9b8e569991bf47f0716fcde0a19,shootout,fasta,936.313000,1
Ř,2e1f62dd4a4dc9b8e569991bf47f0716fcde0a19,shootout,fasta,948.473000,1
Ř,2e1f62dd4a4dc9b8e569991bf47f0716fcde0a19,shootout,fasta,950.318000,1
Ř,2e1f62dd4a4dc9b8e569991bf47f0716fcde0a19,shootout,fasta,949.955000,1
Ř,2e1f62dd4a4dc9b8e569991bf47f0716fcde0a19,shootout,fannkuchredux_naive,2605.345000,0
Ř,2e1f62dd4a4dc9b8e569991bf47f0716fcde0a19,shootout,fannkuchredux_naive,2587.786000,0
Ř,2e1f62dd4a4dc9b8e569991bf47f0716fcde0a19,shootout,fannkuchredux_naive,2948.114000,0
Ř,2e1f62dd4a4dc9b8e569991bf47f0716fcde0a19,shootout,fannkuchredux_naive,212.776000,0
Ř,2e1f62dd4a4dc9b8e569991bf47f0716fcde0a19,shootout,fannkuchredux_naive,207.264000,0
Ř,2e1f62dd4a4dc9b8e569991bf47f0716fcde0a19,shootout,fannkuchredux_naive,206.930000,1
Ř,2e1f62dd4a4dc9b8e569991bf47f0716fcde0a19,shootout,fannkuchredux_naive,213.597000,1
Ř,2e1f62dd4a4dc9b8e569991bf47f0716fcde0a19,shootout,fannkuchredux_naive,207.634000,1
Ř,2e1f62dd4a4dc9b8e569991bf47f0716fcde0a19,shootout,fannkuchredux_naive,221.005000,1
Ř,2e1f62dd4a4dc9b8e569991bf47f0716fcde0a19,shootout,fannkuchredux_naive,208.544000,1
Ř,2e1f62dd4a4dc9b8e569991bf47f0716fcde0a19,shootout,fannkuchredux_naive,207.276000,1
Ř,2e1f62dd4a4dc9b8e569991bf47f0716fcde0a19,shootout,fannkuchredux_naive,212.013000,1
Ř,2e1f62dd4a4dc9b8e569991bf47f0716fcde0a19,shootout,fannkuchredux_naive,208.315000,1
Ř,2e1f62dd4a4dc9b8e569991bf47f0716fcde0a19,shootout,fannkuchredux_naive,207.259000,1
Ř,2e1f62dd4a4dc9b8e569991bf47f0716fcde0a19,shootout,fannkuchredux_naive,212.524000,1
Ř,2e1f62dd4a4dc9b8e569991bf47f0716fcde0a19,shootout,mandelbrot_ascii,392.381000,0
Ř,2e1f62dd4a4dc9b8e569991bf47f0716fcde0a19,shootout,mandelbrot_ascii,81.570000,0
Ř,2e1f62dd4a4dc9b8e569991bf47f0716fcde0a19,shootout,mandelbrot_ascii,956.247000,0
Ř,2e1f62dd4a4dc9b8e569991bf47f0716fcde0a19,shootout,mandelbrot_ascii,65.245000,0
Ř,2e1f62dd4a4dc9b8e569991bf47f0716fcde0a19,shootout,mandelbrot_ascii,63.814000,0
Ř,2e1f62dd4a4dc9b8e569991bf47f0716fcde0a19,shootout,mandelbrot_ascii,63.244000,1
Ř,2e1f62dd4a4dc9b8e569991bf47f0716fcde0a19,shootout,mandelbrot_ascii,64.310000,1
Ř,2e1f62dd4a4dc9b8e569991bf47f0716fcde0a19,shootout,mandelbrot_ascii,65.753000,1
Ř,2e1f62dd4a4dc9b8e569991bf47f0716fcde0a19,shootout,mandelbrot_ascii,64.364000,1
Ř,2e1f62dd4a4dc9b8e569991bf47f0716fcde0a19,shootout,mandelbrot_ascii,63.783000,1
Ř,2e1f62dd4a4dc9b8e569991bf47f0716fcde0a19,shootout,mandelbrot_ascii,64.096000,1
Ř,2e1f62dd4a4dc9b8e569991bf47f0716fcde0a19,shootout,mandelbrot_ascii,65.649000,1
Ř,2e1f62dd4a4dc9b8e569991bf47f0716fcde0a19,shootout,mandelbrot_ascii,63.591000,1
Ř,2e1f62dd4a4dc9b8e569991bf47f0716fcde0a19,shootout,mandelbrot_ascii,64.366000,1
Ř,2e1f62dd4a4dc9b8e569991bf47f0716fcde0a19,shootout,mandelbrot_ascii,65.547000,1
Ř,2e1f62dd4a4dc9b8e569991bf47f0716fcde0a19,shootout,regexdna,1577.100000,0
Ř,2e1f62dd4a4dc9b8e569991bf47f0716fcde0a19,shootout,regexdna,1551.514000,0
Ř,2e1f62dd4a4dc9b8e569991bf47f0716fcde0a19,shootout,regexdna,3741.487000,0
Ř,2e1f62dd4a4dc9b8e569991bf47f0716fcde0a19,shootout,regexdna,1483.728000,0
Ř,2e1f62dd4a4dc9b8e569991bf47f0716fcde0a19,shootout,regexdna,1487.393000,0
Ř,2e1f62dd4a4dc9b8e569991bf47f0716fcde0a19,shootout,regexdna,1502.035000,1
Ř,2e1f62dd4a4dc9b8e569991bf47f0716fcde0a19,shootout,regexdna,1482.990000,1
Ř,2e1f62dd4a4dc9b8e569991bf47f0716fcde0a19,shootout,regexdna,1486.102000,1
Ř,2e1f62dd4a4dc9b8e569991bf47f0716fcde0a19,shootout,regexdna,1488.358000,1
Ř,2e1f62dd4a4dc9b8e569991bf47f0716fcde0a19,shootout,regexdna,1496.603000,1
Ř,2e1f62dd4a4dc9b8e569991bf47f0716fcde0a19,shootout,regexdna,1486.282000,1
Ř,2e1f62dd4a4dc9b8e569991bf47f0716fcde0a19,shootout,regexdna,1485.415000,1
Ř,2e1f62dd4a4dc9b8e569991bf47f0716fcde0a19,shootout,regexdna,1489.630000,1
Ř,2e1f62dd4a4dc9b8e569991bf47f0716fcde0a19,shootout,regexdna,1505.302000,1
Ř,2e1f62dd4a4dc9b8e569991bf47f0716fcde0a19,shootout,regexdna,1492.217000,1
Ř,2e1f62dd4a4dc9b8e569991bf47f0716fcde0a19,shootout,fasta_naive,829.938000,0
Ř,2e1f62dd4a4dc9b8e569991bf47f0716fcde0a19,shootout,fasta_naive,875.000000,0
Ř,2e1f62dd4a4dc9b8e569991bf47f0716fcde0a19,shootout,fasta_naive,1999.607000,0
Ř,2e1f62dd4a4dc9b8e569991bf47f0716fcde0a19,shootout,fasta_naive,447.687000,0
Ř,2e1f62dd4a4dc9b8e569991bf47f0716fcde0a19,shootout,fasta_naive,480.547000,0
Ř,2e1f62dd4a4dc9b8e569991bf47f0716fcde0a19,shootout,fasta_naive,456.445000,1
Ř,2e1f62dd4a4dc9b8e569991bf47f0716fcde0a19,shootout,fasta_naive,467.331000,1
Ř,2e1f62dd4a4dc9b8e569991bf47f0716fcde0a19,shootout,fasta_naive,443.506000,1
Ř,2e1f62dd4a4dc9b8e569991bf47f0716fcde0a19,shootout,fasta_naive,444.456000,1
Ř,2e1f62dd4a4dc9b8e569991bf47f0716fcde0a19,shootout,fasta_naive,448.242000,1
Ř,2e1f62dd4a4dc9b8e569991bf47f0716fcde0a19,shootout,fasta_naive,442.282000,1
Ř,2e1f62dd4a4dc9b8e569991bf47f0716fcde0a19,shootout,fasta_naive,435.140000,1
Ř,2e1f62dd4a4dc9b8e569991bf47f0716fcde0a19,shootout,fasta_naive,475.287000,1
Ř,2e1f62dd4a4dc9b8e569991bf47f0716fcde0a19,shootout,fasta_naive,482.583000,1
Ř,2e1f62dd4a4dc9b8e569991bf47f0716fcde0a19,shootout,fasta_naive,485.152000,1
Ř,2e1f62dd4a4dc9b8e569991bf47f0716fcde0a19,shootout,knucleotide,3092.086000,0
Ř,2e1f62dd4a4dc9b8e569991bf47f0716fcde0a19,shootout,knucleotide,2184.136000,0
Ř,2e1f62dd4a4dc9b8e569991bf47f0716fcde0a19,shootout,knucleotide,9118.054000,0
Ř,2e1f62dd4a4dc9b8e569991bf47f0716fcde0a19,shootout,knucleotide,512.638000,0
Ř,2e1f62dd4a4dc9b8e569991bf47f0716fcde0a19,shootout,knucleotide,531.258000,0
Ř,2e1f62dd4a4dc9b8e569991bf47f0716fcde0a19,shootout,knucleotide,557.747000,1
Ř,2e1f62dd4a4dc9b8e569991bf47f0716fcde0a19,shootout,knucleotide,500.351000,1
Ř,2e1f62dd4a4dc9b8e569991bf47f0716fcde0a19,shootout,knucleotide,447.163000,1
Ř,2e1f62dd4a4dc9b8e569991bf47f0716fcde0a19,shootout,knucleotide,481.172000,1
Ř,2e1f62dd4a4dc9b8e569991bf47f0716fcde0a19,shootout,knucleotide,504.409000,1
Ř,2e1f62dd4a4dc9b8e569991bf47f0716fcde0a19,shootout,knucleotide,526.376000,1
Ř,2e1f62dd4a4dc9b8e569991bf47f0716fcde0a19,shootout,knucleotide,548.302000,1
Ř,2e1f62dd4a4dc9b8e569991bf47f0716fcde0a19,shootout,knucleotide,503.200000,1
Ř,2e1f62dd4a4dc9b8e569991bf47f0716fcde0a19,shootout,knucleotide,447.126000,1
Ř,2e1f62dd4a4dc9b8e569991bf47f0716fcde0a19,shootout,knucleotide,480.171000,1
Ř,2e1f62dd4a4dc9b8e569991bf47f0716fcde0a19,shootout,spectralnorm_math,3598.760000,0
Ř,2e1f62dd4a4dc9b8e569991bf47f0716fcde0a19,shootout,spectralnorm_math,3380.973000,0
Ř,2e1f62dd4a4dc9b8e569991bf47f0716fcde0a19,shootout,spectralnorm_math,3811.312000,0
Ř,2e1f62dd4a4dc9b8e569991bf47f0716fcde0a19,shootout,spectralnorm_math,3205.219000,0
Ř,2e1f62dd4a4dc9b8e569991bf47f0716fcde0a19,shootout,spectralnorm_math,3198.912000,0
Ř,2e1f62dd4a4dc9b8e569991bf47f0716fcde0a19,shootout,spectralnorm_math,3178.967000,1
Ř,2e1f62dd4a4dc9b8e569991bf47f0716fcde0a19,shootout,spectralnorm_math,3203.206000,1
Ř,2e1f62dd4a4dc9b8e569991bf47f0716fcde0a19,shootout,spectralnorm_math,3221.826000,1
Ř,2e1f62dd4a4dc9b8e569991bf47f0716fcde0a19,shootout,spectralnorm_math,3194.210000,1
Ř,2e1f62dd4a4dc9b8e569991bf47f0716fcde0a19,shootout,spectralnorm_math,3238.553000,1
Ř,2e1f62dd4a4dc9b8e569991bf47f0716fcde0a19,shootout,spectralnorm_math,3200.715000,1
Ř,2e1f62dd4a4dc9b8e569991bf47f0716fcde0a19,shootout,spectralnorm_math,3195.560000,1
Ř,2e1f62dd4a4dc9b8e569991bf47f0716fcde0a19,shootout,spectralnorm_math,3192.298000,1
Ř,2e1f62dd4a4dc9b8e569991bf47f0716fcde0a19,shootout,spectralnorm_math,3233.873000,1
Ř,2e1f62dd4a4dc9b8e569991bf47f0716fcde0a19,shootout,spectralnorm_math,3202.176000,1
Ř,2e1f62dd4a4dc9b8e569991bf47f0716fcde0a19,shootout,fastaredux_naive,711.726000,0
Ř,2e1f62dd4a4dc9b8e569991bf47f0716fcde0a19,shootout,fastaredux_naive,1373.896000,0
Ř,2e1f62dd4a4dc9b8e569991bf47f0716fcde0a19,shootout,fastaredux_naive,2480.766000,0
Ř,2e1f62dd4a4dc9b8e569991bf47f0716fcde0a19,shootout,fastaredux_naive,447.278000,0
Ř,2e1f62dd4a4dc9b8e569991bf47f0716fcde0a19,shootout,fastaredux_naive,453.279000,0
Ř,2e1f62dd4a4dc9b8e569991bf47f0716fcde0a19,shootout,fastaredux_naive,440.148000,1
Ř,2e1f62dd4a4dc9b8e569991bf47f0716fcde0a19,shootout,fastaredux_naive,427.458000,1
Ř,2e1f62dd4a4dc9b8e569991bf47f0716fcde0a19,shootout,fastaredux_naive,432.554000,1
Ř,2e1f62dd4a4dc9b8e569991bf47f0716fcde0a19,shootout,fastaredux_naive,444.049000,1
Ř,2e1f62dd4a4dc9b8e569991bf47f0716fcde0a19,shootout,fastaredux_naive,444.948000,1
Ř,2e1f62dd4a4dc9b8e569991bf47f0716fcde0a19,shootout,fastaredux_naive,448.672000,1
Ř,2e1f62dd4a4dc9b8e569991bf47f0716fcde0a19,shootout,fastaredux_naive,425.091000,1
Ř,2e1f62dd4a4dc9b8e569991bf47f0716fcde0a19,shootout,fastaredux_naive,465.336000,1
Ř,2e1f62dd4a4dc9b8e569991bf47f0716fcde0a19,shootout,fastaredux_naive,439.977000,1
Ř,2e1f62dd4a4dc9b8e569991bf47f0716fcde0a19,shootout,fastaredux_naive,447.867000,1
Ř,2e1f62dd4a4dc9b8e569991bf47f0716fcde0a19,shootout,mandelbrot_noout_naive,266.020000,0
Ř,2e1f62dd4a4dc9b8e569991bf47f0716fcde0a19,shootout,mandelbrot_noout_naive,251.477000,0
Ř,2e1f62dd4a4dc9b8e569991bf47f0716fcde0a19,shootout,mandelbrot_noout_naive,1198.593000,0
Ř,2e1f62dd4a4dc9b8e569991bf47f0716fcde0a19,shootout,mandelbrot_noout_naive,225.558000,0
Ř,2e1f62dd4a4dc9b8e569991bf47f0716fcde0a19,shootout,mandelbrot_noout_naive,226.890000,0
Ř,2e1f62dd4a4dc9b8e569991bf47f0716fcde0a19,shootout,mandelbrot_noout_naive,226.245000,1
Ř,2e1f62dd4a4dc9b8e569991bf47f0716fcde0a19,shootout,mandelbrot_noout_naive,236.990000,1
Ř,2e1f62dd4a4dc9b8e569991bf47f0716fcde0a19,shootout,mandelbrot_noout_naive,227.312000,1
Ř,2e1f62dd4a4dc9b8e569991bf47f0716fcde0a19,shootout,mandelbrot_noout_naive,236.958000,1
Ř,2e1f62dd4a4dc9b8e569991bf47f0716fcde0a19,shootout,mandelbrot_noout_naive,235.895000,1
Ř,2e1f62dd4a4dc9b8e569991bf47f0716fcde0a19,shootout,mandelbrot_noout_naive,246.200000,1
Ř,2e1f62dd4a4dc9b8e569991bf47f0716fcde0a19,shootout,mandelbrot_noout_naive,231.066000,1
Ř,2e1f62dd4a4dc9b8e569991bf47f0716fcde0a19,shootout,mandelbrot_noout_naive,234.233000,1
Ř,2e1f62dd4a4dc9b8e569991bf47f0716fcde0a19,shootout,mandelbrot_noout_naive,235.778000,1
Ř,2e1f62dd4a4dc9b8e569991bf47f0716fcde0a19,shootout,mandelbrot_noout_naive,247.289000,1
Ř,2e1f62dd4a4dc9b8e569991bf47f0716fcde0a19,shootout,knucleotide_brute,4507.689000,0
Ř,2e1f62dd4a4dc9b8e569991bf47f0716fcde0a19,shootout,knucleotide_brute,5432.765000,0
Ř,2e1f62dd4a4dc9b8e569991bf47f0716fcde0a19,shootout,knucleotide_brute,14651.460000,0
Ř,2e1f62dd4a4dc9b8e569991bf47f0716fcde0a19,shootout,knucleotide_brute,3841.532000,0
Ř,2e1f62dd4a4dc9b8e569991bf47f0716fcde0a19,shootout,knucleotide_brute,3979.304000,0
Ř,2e1f62dd4a4dc9b8e569991bf47f0716fcde0a19,shootout,knucleotide_brute,4072.848000,1
Ř,2e1f62dd4a4dc9b8e569991bf47f0716fcde0a19,shootout,knucleotide_brute,4065.631000,1
Ř,2e1f62dd4a4dc9b8e569991bf47f0716fcde0a19,shootout,knucleotide_brute,4138.939000,1
Ř,2e1f62dd4a4dc9b8e569991bf47f0716fcde0a19,shootout,knucleotide_brute,4160.133000,1
Ř,2e1f62dd4a4dc9b8e569991bf47f0716fcde0a19,shootout,knucleotide_brute,4199.514000,1
Ř,2e1f62dd4a4dc9b8e569991bf47f0716fcde0a19,shootout,knucleotide_brute,3498.407000,1
Ř,2e1f62dd4a4dc9b8e569991bf47f0716fcde0a19,shootout,knucleotide_brute,3499.482000,1
Ř,2e1f62dd4a4dc9b8e569991bf47f0716fcde0a19,shootout,knucleotide_brute,3783.112000,1
Ř,2e1f62dd4a4dc9b8e569991bf47f0716fcde0a19,shootout,knucleotide_brute,3816.338000,1
Ř,2e1f62dd4a4dc9b8e569991bf47f0716fcde0a19,shootout,knucleotide_brute,3973.756000,1
Ř,2e1f62dd4a4dc9b8e569991bf47f0716fcde0a19,shootout,spectralnorm_alt_3,1186.387000,0
Ř,2e1f62dd4a4dc9b8e569991bf47f0716fcde0a19,shootout,spectralnorm_alt_3,902.965000,0
Ř,2e1f62dd4a4dc9b8e569991bf47f0716fcde0a19,shootout,spectralnorm_alt_3,1489.129000,0
Ř,2e1f62dd4a4dc9b8e569991bf47f0716fcde0a19,shootout,spectralnorm_alt_3,99.337000,0
Ř,2e1f62dd4a4dc9b8e569991bf47f0716fcde0a19,shootout,spectralnorm_alt_3,99.784000,0
Ř,2e1f62dd4a4dc9b8e569991bf47f0716fcde0a19,shootout,spectralnorm_alt_3,98.992000,1
Ř,2e1f62dd4a4dc9b8e569991bf47f0716fcde0a19,shootout,spectralnorm_alt_3,100.654000,1
Ř,2e1f62dd4a4dc9b8e569991bf47f0716fcde0a19,shootout,spectralnorm_alt_3,99.768000,1
Ř,2e1f62dd4a4dc9b8e569991bf47f0716fcde0a19,shootout,spectralnorm_alt_3,100.471000,1
Ř,2e1f62dd4a4dc9b8e569991bf47f0716fcde0a19,shootout,spectralnorm_alt_3,100.459000,1
Ř,2e1f62dd4a4dc9b8e569991bf47f0716fcde0a19,shootout,spectralnorm_alt_3,100.698000,1
Ř,2e1f62dd4a4dc9b8e569991bf47f0716fcde0a19,shootout,spectralnorm_alt_3,99.559000,1
Ř,2e1f62dd4a4dc9b8e569991bf47f0716fcde0a19,shootout,spectralnorm_alt_3,100.180000,1
Ř,2e1f62dd4a4dc9b8e569991bf47f0716fcde0a19,shootout,spectralnorm_alt_3,103.113000,1
Ř,2e1f62dd4a4dc9b8e569991bf47f0716fcde0a19,shootout,spectralnorm_alt_3,99.642000,1
Ř,2e1f62dd4a4dc9b8e569991bf47f0716fcde0a19,shootout,mandelbrot_noout,393.511000,0
Ř,2e1f62dd4a4dc9b8e569991bf47f0716fcde0a19,shootout,mandelbrot_noout,71.117000,0
Ř,2e1f62dd4a4dc9b8e569991bf47f0716fcde0a19,shootout,mandelbrot_noout,736.456000,0
Ř,2e1f62dd4a4dc9b8e569991bf47f0716fcde0a19,shootout,mandelbrot_noout,66.992000,0
Ř,2e1f62dd4a4dc9b8e569991bf47f0716fcde0a19,shootout,mandelbrot_noout,68.224000,0
Ř,2e1f62dd4a4dc9b8e569991bf47f0716fcde0a19,shootout,mandelbrot_noout,66.871000,1
Ř,2e1f62dd4a4dc9b8e569991bf47f0716fcde0a19,shootout,mandelbrot_noout,66.909000,1
Ř,2e1f62dd4a4dc9b8e569991bf47f0716fcde0a19,shootout,mandelbrot_noout,66.852000,1
Ř,2e1f62dd4a4dc9b8e569991bf47f0716fcde0a19,shootout,mandelbrot_noout,68.074000,1
Ř,2e1f62dd4a4dc9b8e569991bf47f0716fcde0a19,shootout,mandelbrot_noout,77.130000,1
Ř,2e1f62dd4a4dc9b8e569991bf47f0716fcde0a19,shootout,mandelbrot_noout,66.905000,1
Ř,2e1f62dd4a4dc9b8e569991bf47f0716fcde0a19,shootout,mandelbrot_noout,66.755000,1
Ř,2e1f62dd4a4dc9b8e569991bf47f0716fcde0a19,shootout,mandelbrot_noout,66.665000,1
Ř,2e1f62dd4a4dc9b8e569991bf47f0716fcde0a19,shootout,mandelbrot_noout,69.053000,1
Ř,2e1f62dd4a4dc9b8e569991bf47f0716fcde0a19,shootout,mandelbrot_noout,66.951000,1
Ř,2e1f62dd4a4dc9b8e569991bf47f0716fcde0a19,shootout,fasta_3,1223.435000,0
Ř,2e1f62dd4a4dc9b8e569991bf47f0716fcde0a19,shootout,fasta_3,3572.260000,0
Ř,2e1f62dd4a4dc9b8e569991bf47f0716fcde0a19,shootout,fasta_3,4252.829000,0
Ř,2e1f62dd4a4dc9b8e569991bf47f0716fcde0a19,shootout,fasta_3,913.714000,0
Ř,2e1f62dd4a4dc9b8e569991bf47f0716fcde0a19,shootout,fasta_3,895.483000,0
Ř,2e1f62dd4a4dc9b8e569991bf47f0716fcde0a19,shootout,fasta_3,901.683000,1
Ř,2e1f62dd4a4dc9b8e569991bf47f0716fcde0a19,shootout,fasta_3,899.543000,1
Ř,2e1f62dd4a4dc9b8e569991bf47f0716fcde0a19,shootout,fasta_3,896.615000,1
Ř,2e1f62dd4a4dc9b8e569991bf47f0716fcde0a19,shootout,fasta_3,892.957000,1
Ř,2e1f62dd4a4dc9b8e569991bf47f0716fcde0a19,shootout,fasta_3,896.658000,1
Ř,2e1f62dd4a4dc9b8e569991bf47f0716fcde0a19,shootout,fasta_3,900.009000,1
Ř,2e1f62dd4a4dc9b8e569991bf47f0716fcde0a19,shootout,fasta_3,893.335000,1
Ř,2e1f62dd4a4dc9b8e569991bf47f0716fcde0a19,shootout,fasta_3,899.397000,1
Ř,2e1f62dd4a4dc9b8e569991bf47f0716fcde0a19,shootout,fasta_3,895.682000,1
Ř,2e1f62dd4a4dc9b8e569991bf47f0716fcde0a19,shootout,fasta_3,895.732000,1
Ř,2e1f62dd4a4dc9b8e569991bf47f0716fcde0a19,shootout,binarytrees_naive,897.127000,0
Ř,2e1f62dd4a4dc9b8e569991bf47f0716fcde0a19,shootout,binarytrees_naive,131.179000,0
Ř,2e1f62dd4a4dc9b8e569991bf47f0716fcde0a19,shootout,binarytrees_naive,3979.872000,0
Ř,2e1f62dd4a4dc9b8e569991bf47f0716fcde0a19,shootout,binarytrees_naive,84.915000,0
Ř,2e1f62dd4a4dc9b8e569991bf47f0716fcde0a19,shootout,binarytrees_naive,95.513000,0
Ř,2e1f62dd4a4dc9b8e569991bf47f0716fcde0a19,shootout,binarytrees_naive,84.779000,1
Ř,2e1f62dd4a4dc9b8e569991bf47f0716fcde0a19,shootout,binarytrees_naive,84.802000,1
Ř,2e1f62dd4a4dc9b8e569991bf47f0716fcde0a19,shootout,binarytrees_naive,84.921000,1
Ř,2e1f62dd4a4dc9b8e569991bf47f0716fcde0a19,shootout,binarytrees_naive,87.674000,1
Ř,2e1f62dd4a4dc9b8e569991bf47f0716fcde0a19,shootout,binarytrees_naive,84.719000,1
Ř,2e1f62dd4a4dc9b8e569991bf47f0716fcde0a19,shootout,binarytrees_naive,84.291000,1
Ř,2e1f62dd4a4dc9b8e569991bf47f0716fcde0a19,shootout,binarytrees_naive,84.307000,1
Ř,2e1f62dd4a4dc9b8e569991bf47f0716fcde0a19,shootout,binarytrees_naive,85.858000,1
Ř,2e1f62dd4a4dc9b8e569991bf47f0716fcde0a19,shootout,binarytrees_naive,85.114000,1
Ř,2e1f62dd4a4dc9b8e569991bf47f0716fcde0a19,shootout,binarytrees_naive,84.979000,1
Ř,2e1f62dd4a4dc9b8e569991bf47f0716fcde0a19,shootout,spectralnorm_alt,401.891000,0
Ř,2e1f62dd4a4dc9b8e569991bf47f0716fcde0a19,shootout,spectralnorm_alt,273.851000,0
Ř,2e1f62dd4a4dc9b8e569991bf47f0716fcde0a19,shootout,spectralnorm_alt,1542.550000,0
Ř,2e1f62dd4a4dc9b8e569991bf47f0716fcde0a19,shootout,spectralnorm_alt,215.309000,0
Ř,2e1f62dd4a4dc9b8e569991bf47f0716fcde0a19,shootout,spectralnorm_alt,202.272000,0
Ř,2e1f62dd4a4dc9b8e569991bf47f0716fcde0a19,shootout,spectralnorm_alt,219.803000,1
Ř,2e1f62dd4a4dc9b8e569991bf47f0716fcde0a19,shootout,spectralnorm_alt,206.880000,1
Ř,2e1f62dd4a4dc9b8e569991bf47f0716fcde0a19,shootout,spectralnorm_alt,191.821000,1
Ř,2e1f62dd4a4dc9b8e569991bf47f0716fcde0a19,shootout,spectralnorm_alt,192.141000,1
Ř,2e1f62dd4a4dc9b8e569991bf47f0716fcde0a19,shootout,spectralnorm_alt,203.000000,1
Ř,2e1f62dd4a4dc9b8e569991bf47f0716fcde0a19,shootout,spectralnorm_alt,189.861000,1
Ř,2e1f62dd4a4dc9b8e569991bf47f0716fcde0a19,shootout,spectralnorm_alt,199.507000,1
Ř,2e1f62dd4a4dc9b8e569991bf47f0716fcde0a19,shootout,spectralnorm_alt,198.176000,1
Ř,2e1f62dd4a4dc9b8e569991bf47f0716fcde0a19,shootout,spectralnorm_alt,206.677000,1
Ř,2e1f62dd4a4dc9b8e569991bf47f0716fcde0a19,shootout,spectralnorm_alt,191.594000,1
Ř,2e1f62dd4a4dc9b8e569991bf47f0716fcde0a19,shootout,nbody_2,1569.572000,0
Ř,2e1f62dd4a4dc9b8e569991bf47f0716fcde0a19,shootout,nbody_2,1454.399000,0
Ř,2e1f62dd4a4dc9b8e569991bf47f0716fcde0a19,shootout,nbody_2,1769.570000,0
Ř,2e1f62dd4a4dc9b8e569991bf47f0716fcde0a19,shootout,nbody_2,666.003000,0
Ř,2e1f62dd4a4dc9b8e569991bf47f0716fcde0a19,shootout,nbody_2,641.184000,0
Ř,2e1f62dd4a4dc9b8e569991bf47f0716fcde0a19,shootout,nbody_2,638.853000,1
Ř,2e1f62dd4a4dc9b8e569991bf47f0716fcde0a19,shootout,nbody_2,641.562000,1
Ř,2e1f62dd4a4dc9b8e569991bf47f0716fcde0a19,shootout,nbody_2,652.395000,1
Ř,2e1f62dd4a4dc9b8e569991bf47f0716fcde0a19,shootout,nbody_2,640.388000,1
Ř,2e1f62dd4a4dc9b8e569991bf47f0716fcde0a19,shootout,nbody_2,642.220000,1
Ř,2e1f62dd4a4dc9b8e569991bf47f0716fcde0a19,shootout,nbody_2,639.613000,1
Ř,2e1f62dd4a4dc9b8e569991bf47f0716fcde0a19,shootout,nbody_2,651.150000,1
Ř,2e1f62dd4a4dc9b8e569991bf47f0716fcde0a19,shootout,nbody_2,642.454000,1
Ř,2e1f62dd4a4dc9b8e569991bf47f0716fcde0a19,shootout,nbody_2,641.040000,1
Ř,2e1f62dd4a4dc9b8e569991bf47f0716fcde0a19,shootout,nbody_2,652.838000,1
Ř,2e1f62dd4a4dc9b8e569991bf47f0716fcde0a19,are-we-fast-r,Bounce,2287.969000,0
Ř,2e1f62dd4a4dc9b8e569991bf47f0716fcde0a19,are-we-fast-r,Bounce,850.253000,0
Ř,2e1f62dd4a4dc9b8e569991bf47f0716fcde0a19,are-we-fast-r,Bounce,869.756000,0
Ř,2e1f62dd4a4dc9b8e569991bf47f0716fcde0a19,are-we-fast-r,Bounce,846.970000,0
Ř,2e1f62dd4a4dc9b8e569991bf47f0716fcde0a19,are-we-fast-r,Bounce,824.886000,0
Ř,2e1f62dd4a4dc9b8e569991bf47f0716fcde0a19,are-we-fast-r,Bounce,846.133000,1
Ř,2e1f62dd4a4dc9b8e569991bf47f0716fcde0a19,are-we-fast-r,Bounce,857.590000,1
Ř,2e1f62dd4a4dc9b8e569991bf47f0716fcde0a19,are-we-fast-r,Bounce,815.330000,1
Ř,2e1f62dd4a4dc9b8e569991bf47f0716fcde0a19,are-we-fast-r,Bounce,832.199000,1
Ř,2e1f62dd4a4dc9b8e569991bf47f0716fcde0a19,are-we-fast-r,Bounce,851.105000,1
Ř,2e1f62dd4a4dc9b8e569991bf47f0716fcde0a19,are-we-fast-r,Bounce,829.175000,1
Ř,2e1f62dd4a4dc9b8e569991bf47f0716fcde0a19,are-we-fast-r,Bounce,825.563000,1
Ř,2e1f62dd4a4dc9b8e569991bf47f0716fcde0a19,are-we-fast-r,Bounce,846.578000,1
Ř,2e1f62dd4a4dc9b8e569991bf47f0716fcde0a19,are-we-fast-r,Bounce,853.719000,1
Ř,2e1f62dd4a4dc9b8e569991bf47f0716fcde0a19,are-we-fast-r,Bounce,819.165000,1
Ř,2e1f62dd4a4dc9b8e569991bf47f0716fcde0a19,are-we-fast-r,Mandelbrot,3867.870000,0
Ř,2e1f62dd4a4dc9b8e569991bf47f0716fcde0a19,are-we-fast-r,Mandelbrot,3795.207000,0
Ř,2e1f62dd4a4dc9b8e569991bf47f0716fcde0a19,are-we-fast-r,Mandelbrot,774.976000,0
Ř,2e1f62dd4a4dc9b8e569991bf47f0716fcde0a19,are-we-fast-r,Mandelbrot,1292.071000,0
Ř,2e1f62dd4a4dc9b8e569991bf47f0716fcde0a19,are-we-fast-r,Mandelbrot,66.958000,0
Ř,2e1f62dd4a4dc9b8e569991bf47f0716fcde0a19,are-we-fast-r,Mandelbrot,66.823000,1
Ř,2e1f62dd4a4dc9b8e569991bf47f0716fcde0a19,are-we-fast-r,Mandelbrot,66.827000,1
Ř,2e1f62dd4a4dc9b8e569991bf47f0716fcde0a19,are-we-fast-r,Mandelbrot,67.975000,1
Ř,2e1f62dd4a4dc9b8e569991bf47f0716fcde0a19,are-we-fast-r,Mandelbrot,66.886000,1
Ř,2e1f62dd4a4dc9b8e569991bf47f0716fcde0a19,are-we-fast-r,Mandelbrot,66.840000,1
Ř,2e1f62dd4a4dc9b8e569991bf47f0716fcde0a19,are-we-fast-r,Mandelbrot,66.911000,1
Ř,2e1f62dd4a4dc9b8e569991bf47f0716fcde0a19,are-we-fast-r,Mandelbrot,67.006000,1
Ř,2e1f62dd4a4dc9b8e569991bf47f0716fcde0a19,are-we-fast-r,Mandelbrot,66.825000,1
Ř,2e1f62dd4a4dc9b8e569991bf47f0716fcde0a19,are-we-fast-r,Mandelbrot,67.027000,1
Ř,2e1f62dd4a4dc9b8e569991bf47f0716fcde0a19,are-we-fast-r,Mandelbrot,66.887000,1
Ř,2e1f62dd4a4dc9b8e569991bf47f0716fcde0a19,are-we-fast-r,Bounce_nonames_simple,1986.078000,0
Ř,2e1f62dd4a4dc9b8e569991bf47f0716fcde0a19,are-we-fast-r,Bounce_nonames_simple,139.485000,0
Ř,2e1f62dd4a4dc9b8e569991bf47f0716fcde0a19,are-we-fast-r,Bounce_nonames_simple,149.136000,0
Ř,2e1f62dd4a4dc9b8e569991bf47f0716fcde0a19,are-we-fast-r,Bounce_nonames_simple,137.624000,0
Ř,2e1f62dd4a4dc9b8e569991bf47f0716fcde0a19,are-we-fast-r,Bounce_nonames_simple,137.133000,0
Ř,2e1f62dd4a4dc9b8e569991bf47f0716fcde0a19,are-we-fast-r,Bounce_nonames_simple,141.031000,1
Ř,2e1f62dd4a4dc9b8e569991bf47f0716fcde0a19,are-we-fast-r,Bounce_nonames_simple,137.699000,1
Ř,2e1f62dd4a4dc9b8e569991bf47f0716fcde0a19,are-we-fast-r,Bounce_nonames_simple,136.972000,1
Ř,2e1f62dd4a4dc9b8e569991bf47f0716fcde0a19,are-we-fast-r,Bounce_nonames_simple,137.007000,1
Ř,2e1f62dd4a4dc9b8e569991bf47f0716fcde0a19,are-we-fast-r,Bounce_nonames_simple,136.182000,1
Ř,2e1f62dd4a4dc9b8e569991bf47f0716fcde0a19,are-we-fast-r,Bounce_nonames_simple,137.220000,1
Ř,2e1f62dd4a4dc9b8e569991bf47f0716fcde0a19,are-we-fast-r,Bounce_nonames_simple,140.196000,1
Ř,2e1f62dd4a4dc9b8e569991bf47f0716fcde0a19,are-we-fast-r,Bounce_nonames_simple,138.740000,1
Ř,2e1f62dd4a4dc9b8e569991bf47f0716fcde0a19,are-we-fast-r,Bounce_nonames_simple,138.304000,1
Ř,2e1f62dd4a4dc9b8e569991bf47f0716fcde0a19,are-we-fast-r,Bounce_nonames_simple,138.562000,1
Ř,2e1f62dd4a4dc9b8e569991bf47f0716fcde0a19,are-we-fast-r,Storage,1220.462000,0
Ř,2e1f62dd4a4dc9b8e569991bf47f0716fcde0a19,are-we-fast-r,Storage,596.570000,0
Ř,2e1f62dd4a4dc9b8e569991bf47f0716fcde0a19,are-we-fast-r,Storage,562.793000,0
Ř,2e1f62dd4a4dc9b8e569991bf47f0716fcde0a19,are-we-fast-r,Storage,549.217000,0
Ř,2e1f62dd4a4dc9b8e569991bf47f0716fcde0a19,are-we-fast-r,Storage,527.830000,0
Ř,2e1f62dd4a4dc9b8e569991bf47f0716fcde0a19,are-we-fast-r,Storage,542.653000,1
Ř,2e1f62dd4a4dc9b8e569991bf47f0716fcde0a19,are-we-fast-r,Storage,607.832000,1
Ř,2e1f62dd4a4dc9b8e569991bf47f0716fcde0a19,are-we-fast-r,Storage,545.497000,1
Ř,2e1f62dd4a4dc9b8e569991bf47f0716fcde0a19,are-we-fast-r,Storage,552.161000,1
Ř,2e1f62dd4a4dc9b8e569991bf47f0716fcde0a19,are-we-fast-r,Storage,602.173000,1
Ř,2e1f62dd4a4dc9b8e569991bf47f0716fcde0a19,are-we-fast-r,Storage,609.295000,1
Ř,2e1f62dd4a4dc9b8e569991bf47f0716fcde0a19,are-we-fast-r,Storage,504.503000,1
Ř,2e1f62dd4a4dc9b8e569991bf47f0716fcde0a19,are-we-fast-r,Storage,542.357000,1
Ř,2e1f62dd4a4dc9b8e569991bf47f0716fcde0a19,are-we-fast-r,Storage,627.562000,1
Ř,2e1f62dd4a4dc9b8e569991bf47f0716fcde0a19,are-we-fast-r,Storage,620.524000,1
Ř,2e1f62dd4a4dc9b8e569991bf47f0716fcde0a19,are-we-fast-r,Bounce_nonames,1469.546000,0
Ř,2e1f62dd4a4dc9b8e569991bf47f0716fcde0a19,are-we-fast-r,Bounce_nonames,135.279000,0
Ř,2e1f62dd4a4dc9b8e569991bf47f0716fcde0a19,are-we-fast-r,Bounce_nonames,144.694000,0
Ř,2e1f62dd4a4dc9b8e569991bf47f0716fcde0a19,are-we-fast-r,Bounce_nonames,134.619000,0
Ř,2e1f62dd4a4dc9b8e569991bf47f0716fcde0a19,are-we-fast-r,Bounce_nonames,134.649000,0
Ř,2e1f62dd4a4dc9b8e569991bf47f0716fcde0a19,are-we-fast-r,Bounce_nonames,137.094000,1
Ř,2e1f62dd4a4dc9b8e569991bf47f0716fcde0a19,are-we-fast-r,Bounce_nonames,134.308000,1
Ř,2e1f62dd4a4dc9b8e569991bf47f0716fcde0a19,are-we-fast-r,Bounce_nonames,134.593000,1
Ř,2e1f62dd4a4dc9b8e569991bf47f0716fcde0a19,are-we-fast-r,Bounce_nonames,135.592000,1
Ř,2e1f62dd4a4dc9b8e569991bf47f0716fcde0a19,are-we-fast-r,Bounce_nonames,134.811000,1
Ř,2e1f62dd4a4dc9b8e569991bf47f0716fcde0a19,are-we-fast-r,Bounce_nonames,134.687000,1
Ř,2e1f62dd4a4dc9b8e569991bf47f0716fcde0a19,are-we-fast-r,Bounce_nonames,137.456000,1
Ř,2e1f62dd4a4dc9b8e569991bf47f0716fcde0a19,are-we-fast-r,Bounce_nonames,134.179000,1
Ř,2e1f62dd4a4dc9b8e569991bf47f0716fcde0a19,are-we-fast-r,Bounce_nonames,134.793000,1
Ř,2e1f62dd4a4dc9b8e569991bf47f0716fcde0a19,are-we-fast-r,Bounce_nonames,133.965000,1
Ř,2e1f62dd4a4dc9b8e569991bf47f0716fcde0a19,real_thing,flexclust_no_s4,17381.317000,0
Ř,2e1f62dd4a4dc9b8e569991bf47f0716fcde0a19,real_thing,flexclust_no_s4,14474.738000,0
Ř,2e1f62dd4a4dc9b8e569991bf47f0716fcde0a19,real_thing,flexclust_no_s4,27103.196000,0
Ř,2e1f62dd4a4dc9b8e569991bf47f0716fcde0a19,real_thing,flexclust_no_s4,24685.730000,0
Ř,2e1f62dd4a4dc9b8e569991bf47f0716fcde0a19,real_thing,flexclust_no_s4,18420.123000,0
Ř,2e1f62dd4a4dc9b8e569991bf47f0716fcde0a19,real_thing,flexclust_no_s4,16522.134000,1
Ř,2e1f62dd4a4dc9b8e569991bf47f0716fcde0a19,real_thing,flexclust_no_s4,13582.497000,1
Ř,2e1f62dd4a4dc9b8e569991bf47f0716fcde0a19,real_thing,flexclust_no_s4,13154.326000,1
Ř,2e1f62dd4a4dc9b8e569991bf47f0716fcde0a19,real_thing,flexclust_no_s4,13020.683000,1
Ř,2e1f62dd4a4dc9b8e569991bf47f0716fcde0a19,real_thing,flexclust_no_s4,12961.223000,1
Ř,2e1f62dd4a4dc9b8e569991bf47f0716fcde0a19,real_thing,flexclust_no_s4,13959.152000,1
Ř,2e1f62dd4a4dc9b8e569991bf47f0716fcde0a19,real_thing,flexclust_no_s4,12975.604000,1
Ř,2e1f62dd4a4dc9b8e569991bf47f0716fcde0a19,real_thing,flexclust_no_s4,13274.309000,1
Ř,2e1f62dd4a4dc9b8e569991bf47f0716fcde0a19,real_thing,flexclust_no_s4,13008.499000,1
Ř,2e1f62dd4a4dc9b8e569991bf47f0716fcde0a19,real_thing,flexclust_no_s4,13364.268000,1
Ř,2e1f62dd4a4dc9b8e569991bf47f0716fcde0a19,real_thing,convolution,735.903000,0
Ř,2e1f62dd4a4dc9b8e569991bf47f0716fcde0a19,real_thing,convolution,10.188000,0
Ř,2e1f62dd4a4dc9b8e569991bf47f0716fcde0a19,real_thing,convolution,581.308000,0
Ř,2e1f62dd4a4dc9b8e569991bf47f0716fcde0a19,real_thing,convolution,12.123000,0
Ř,2e1f62dd4a4dc9b8e569991bf47f0716fcde0a19,real_thing,convolution,12.200000,0
Ř,2e1f62dd4a4dc9b8e569991bf47f0716fcde0a19,real_thing,convolution,12.074000,1
Ř,2e1f62dd4a4dc9b8e569991bf47f0716fcde0a19,real_thing,convolution,12.227000,1
Ř,2e1f62dd4a4dc9b8e569991bf47f0716fcde0a19,real_thing,convolution,12.323000,1
Ř,2e1f62dd4a4dc9b8e569991bf47f0716fcde0a19,real_thing,convolution,12.187000,1
Ř,2e1f62dd4a4dc9b8e569991bf47f0716fcde0a19,real_thing,convolution,12.090000,1
Ř,2e1f62dd4a4dc9b8e569991bf47f0716fcde0a19,real_thing,convolution,12.183000,1
Ř,2e1f62dd4a4dc9b8e569991bf47f0716fcde0a19,real_thing,convolution,12.085000,1
Ř,2e1f62dd4a4dc9b8e569991bf47f0716fcde0a19,real_thing,convolution,12.126000,1
Ř,2e1f62dd4a4dc9b8e569991bf47f0716fcde0a19,real_thing,convolution,12.117000,1
Ř,2e1f62dd4a4dc9b8e569991bf47f0716fcde0a19,real_thing,convolution,12.102000,1
Ř,2e1f62dd4a4dc9b8e569991bf47f0716fcde0a19,real_thing,flexclust,45375.220000,0
Ř,2e1f62dd4a4dc9b8e569991bf47f0716fcde0a19,real_thing,flexclust,28137.777000,0
Ř,2e1f62dd4a4dc9b8e569991bf47f0716fcde0a19,real_thing,flexclust,37207.756000,0
Ř,2e1f62dd4a4dc9b8e569991bf47f0716fcde0a19,real_thing,flexclust,43840.349000,0
Ř,2e1f62dd4a4dc9b8e569991bf47f0716fcde0a19,real_thing,flexclust,31284.969000,0
Ř,2e1f62dd4a4dc9b8e569991bf47f0716fcde0a19,real_thing,flexclust,21338.738000,1
Ř,2e1f62dd4a4dc9b8e569991bf47f0716fcde0a19,real_thing,flexclust,16047.721000,1
Ř,2e1f62dd4a4dc9b8e569991bf47f0716fcde0a19,real_thing,flexclust,15851.617000,1
Ř,2e1f62dd4a4dc9b8e569991bf47f0716fcde0a19,real_thing,flexclust,15730.609000,1
Ř,2e1f62dd4a4dc9b8e569991bf47f0716fcde0a19,real_thing,flexclust,16011.427000,1
Ř,2e1f62dd4a4dc9b8e569991bf47f0716fcde0a19,real_thing,flexclust,15642.900000,1
Ř,2e1f62dd4a4dc9b8e569991bf47f0716fcde0a19,real_thing,flexclust,16364.959000,1
Ř,2e1f62dd4a4dc9b8e569991bf47f0716fcde0a19,real_thing,flexclust,16009.765000,1
Ř,2e1f62dd4a4dc9b8e569991bf47f0716fcde0a19,real_thing,flexclust,15652.834000,1
Ř,2e1f62dd4a4dc9b8e569991bf47f0716fcde0a19,real_thing,flexclust,16020.759000,1
Ř,2e1f62dd4a4dc9b8e569991bf47f0716fcde0a19,real_thing,convolution_v,634.663000,0
Ř,2e1f62dd4a4dc9b8e569991bf47f0716fcde0a19,real_thing,convolution_v,98.762000,0
Ř,2e1f62dd4a4dc9b8e569991bf47f0716fcde0a19,real_thing,convolution_v,718.325000,0
Ř,2e1f62dd4a4dc9b8e569991bf47f0716fcde0a19,real_thing,convolution_v,94.806000,0
Ř,2e1f62dd4a4dc9b8e569991bf47f0716fcde0a19,real_thing,convolution_v,105.934000,0
Ř,2e1f62dd4a4dc9b8e569991bf47f0716fcde0a19,real_thing,convolution_v,95.438000,1
Ř,2e1f62dd4a4dc9b8e569991bf47f0716fcde0a19,real_thing,convolution_v,94.758000,1
Ř,2e1f62dd4a4dc9b8e569991bf47f0716fcde0a19,real_thing,convolution_v,95.246000,1
Ř,2e1f62dd4a4dc9b8e569991bf47f0716fcde0a19,real_thing,convolution_v,94.773000,1
Ř,2e1f62dd4a4dc9b8e569991bf47f0716fcde0a19,real_thing,convolution_v,96.442000,1
Ř,2e1f62dd4a4dc9b8e569991bf47f0716fcde0a19,real_thing,convolution_v,96.234000,1
Ř,2e1f62dd4a4dc9b8e569991bf47f0716fcde0a19,real_thing,convolution_v,94.518000,1
Ř,2e1f62dd4a4dc9b8e569991bf47f0716fcde0a19,real_thing,convolution_v,96.565000,1
Ř,2e1f62dd4a4dc9b8e569991bf47f0716fcde0a19,real_thing,convolution_v,94.398000,1
Ř,2e1f62dd4a4dc9b8e569991bf47f0716fcde0a19,real_thing,convolution_v,95.220000,1
Ř,2e1f62dd4a4dc9b8e569991bf47f0716fcde0a19,real_thing,convolution_slow,634.223000,0
Ř,2e1f62dd4a4dc9b8e569991bf47f0716fcde0a19,real_thing,convolution_slow,98.161000,0
Ř,2e1f62dd4a4dc9b8e569991bf47f0716fcde0a19,real_thing,convolution_slow,718.915000,0
Ř,2e1f62dd4a4dc9b8e569991bf47f0716fcde0a19,real_thing,convolution_slow,95.316000,0
Ř,2e1f62dd4a4dc9b8e569991bf47f0716fcde0a19,real_thing,convolution_slow,103.574000,0
Ř,2e1f62dd4a4dc9b8e569991bf47f0716fcde0a19,real_thing,convolution_slow,95.993000,1
Ř,2e1f62dd4a4dc9b8e569991bf47f0716fcde0a19,real_thing,convolution_slow,94.774000,1
Ř,2e1f62dd4a4dc9b8e569991bf47f0716fcde0a19,real_thing,convolution_slow,95.072000,1
Ř,2e1f62dd4a4dc9b8e569991bf47f0716fcde0a19,real_thing,convolution_slow,94.770000,1
Ř,2e1f62dd4a4dc9b8e569991bf47f0716fcde0a19,real_thing,convolution_slow,96.499000,1
Ř,2e1f62dd4a4dc9b8e569991bf47f0716fcde0a19,real_thing,convolution_slow,98.403000,1
Ř,2e1f62dd4a4dc9b8e569991bf47f0716fcde0a19,real_thing,convolution_slow,93.897000,1
Ř,2e1f62dd4a4dc9b8e569991bf47f0716fcde0a19,real_thing,convolution_slow,95.965000,1
Ř,2e1f62dd4a4dc9b8e569991bf47f0716fcde0a19,real_thing,convolution_slow,95.275000,1
Ř,2e1f62dd4a4dc9b8e569991bf47f0716fcde0a19,real_thing,convolution_slow,95.264000,1
