vm,commit,suite,benchmark,ms,warm
Ř,f0a6750aaaf45f929fd513d06762527fa30c5dd6,simple,superWhile,2890.508000,0
Ř,f0a6750aaaf45f929fd513d06762527fa30c5dd6,simple,superWhile,2873.375000,0
Ř,f0a6750aaaf45f929fd513d06762527fa30c5dd6,simple,superWhile,54.395000,0
Ř,f0a6750aaaf45f929fd513d06762527fa30c5dd6,simple,superWhile,20.287000,0
Ř,f0a6750aaaf45f929fd513d06762527fa30c5dd6,simple,superWhile,20.209000,0
Ř,f0a6750aaaf45f929fd513d06762527fa30c5dd6,simple,superWhile,20.252000,1
Ř,f0a6750aaaf45f929fd513d06762527fa30c5dd6,simple,superWhile,20.209000,1
Ř,f0a6750aaaf45f929fd513d06762527fa30c5dd6,simple,superWhile,20.219000,1
Ř,f0a6750aaaf45f929fd513d06762527fa30c5dd6,simple,superWhile,20.254000,1
Ř,f0a6750aaaf45f929fd513d06762527fa30c5dd6,simple,superWhile,20.207000,1
Ř,f0a6750aaaf45f929fd513d06762527fa30c5dd6,simple,superWhile,20.206000,1
Ř,f0a6750aaaf45f929fd513d06762527fa30c5dd6,simple,superWhile,20.252000,1
Ř,f0a6750aaaf45f929fd513d06762527fa30c5dd6,simple,superWhile,20.206000,1
Ř,f0a6750aaaf45f929fd513d06762527fa30c5dd6,simple,superWhile,20.252000,1
Ř,f0a6750aaaf45f929fd513d06762527fa30c5dd6,simple,superWhile,20.211000,1
Ř,f0a6750aaaf45f929fd513d06762527fa30c5dd6,simple,profiler-microbenchmark,1101.278000,0
Ř,f0a6750aaaf45f929fd513d06762527fa30c5dd6,simple,profiler-microbenchmark,1096.527000,0
Ř,f0a6750aaaf45f929fd513d06762527fa30c5dd6,simple,profiler-microbenchmark,1095.897000,0
Ř,f0a6750aaaf45f929fd513d06762527fa30c5dd6,simple,profiler-microbenchmark,1097.196000,0
Ř,f0a6750aaaf45f929fd513d06762527fa30c5dd6,simple,profiler-microbenchmark,1110.682000,0
Ř,f0a6750aaaf45f929fd513d06762527fa30c5dd6,simple,profiler-microbenchmark,1094.568000,1
Ř,f0a6750aaaf45f929fd513d06762527fa30c5dd6,simple,profiler-microbenchmark,1087.358000,1
Ř,f0a6750aaaf45f929fd513d06762527fa30c5dd6,simple,profiler-microbenchmark,1097.123000,1
Ř,f0a6750aaaf45f929fd513d06762527fa30c5dd6,simple,profiler-microbenchmark,1091.293000,1
Ř,f0a6750aaaf45f929fd513d06762527fa30c5dd6,simple,profiler-microbenchmark,1114.838000,1
Ř,f0a6750aaaf45f929fd513d06762527fa30c5dd6,simple,profiler-microbenchmark,1100.676000,1
Ř,f0a6750aaaf45f929fd513d06762527fa30c5dd6,simple,profiler-microbenchmark,1095.947000,1
Ř,f0a6750aaaf45f929fd513d06762527fa30c5dd6,simple,profiler-microbenchmark,1094.755000,1
Ř,f0a6750aaaf45f929fd513d06762527fa30c5dd6,simple,profiler-microbenchmark,1115.777000,1
Ř,f0a6750aaaf45f929fd513d06762527fa30c5dd6,simple,profiler-microbenchmark,1092.206000,1
Ř,f0a6750aaaf45f929fd513d06762527fa30c5dd6,simple,matrixFor,386.039000,0
Ř,f0a6750aaaf45f929fd513d06762527fa30c5dd6,simple,matrixFor,394.016000,0
Ř,f0a6750aaaf45f929fd513d06762527fa30c5dd6,simple,matrixFor,159.652000,0
Ř,f0a6750aaaf45f929fd513d06762527fa30c5dd6,simple,matrixFor,52.133000,0
Ř,f0a6750aaaf45f929fd513d06762527fa30c5dd6,simple,matrixFor,52.048000,0
Ř,f0a6750aaaf45f929fd513d06762527fa30c5dd6,simple,matrixFor,52.029000,1
Ř,f0a6750aaaf45f929fd513d06762527fa30c5dd6,simple,matrixFor,52.061000,1
Ř,f0a6750aaaf45f929fd513d06762527fa30c5dd6,simple,matrixFor,52.028000,1
Ř,f0a6750aaaf45f929fd513d06762527fa30c5dd6,simple,matrixFor,52.049000,1
Ř,f0a6750aaaf45f929fd513d06762527fa30c5dd6,simple,matrixFor,52.008000,1
Ř,f0a6750aaaf45f929fd513d06762527fa30c5dd6,simple,matrixFor,52.037000,1
Ř,f0a6750aaaf45f929fd513d06762527fa30c5dd6,simple,matrixFor,52.047000,1
Ř,f0a6750aaaf45f929fd513d06762527fa30c5dd6,simple,matrixFor,52.096000,1
Ř,f0a6750aaaf45f929fd513d06762527fa30c5dd6,simple,matrixFor,52.025000,1
Ř,f0a6750aaaf45f929fd513d06762527fa30c5dd6,simple,matrixFor,52.079000,1
Ř,f0a6750aaaf45f929fd513d06762527fa30c5dd6,simple,vectorWhile,2164.521000,0
Ř,f0a6750aaaf45f929fd513d06762527fa30c5dd6,simple,vectorWhile,2140.329000,0
Ř,f0a6750aaaf45f929fd513d06762527fa30c5dd6,simple,vectorWhile,181.142000,0
Ř,f0a6750aaaf45f929fd513d06762527fa30c5dd6,simple,vectorWhile,125.858000,0
Ř,f0a6750aaaf45f929fd513d06762527fa30c5dd6,simple,vectorWhile,140.844000,0
Ř,f0a6750aaaf45f929fd513d06762527fa30c5dd6,simple,vectorWhile,127.515000,1
Ř,f0a6750aaaf45f929fd513d06762527fa30c5dd6,simple,vectorWhile,127.504000,1
Ř,f0a6750aaaf45f929fd513d06762527fa30c5dd6,simple,vectorWhile,127.487000,1
Ř,f0a6750aaaf45f929fd513d06762527fa30c5dd6,simple,vectorWhile,127.514000,1
Ř,f0a6750aaaf45f929fd513d06762527fa30c5dd6,simple,vectorWhile,127.533000,1
Ř,f0a6750aaaf45f929fd513d06762527fa30c5dd6,simple,vectorWhile,127.460000,1
Ř,f0a6750aaaf45f929fd513d06762527fa30c5dd6,simple,vectorWhile,127.586000,1
Ř,f0a6750aaaf45f929fd513d06762527fa30c5dd6,simple,vectorWhile,127.494000,1
Ř,f0a6750aaaf45f929fd513d06762527fa30c5dd6,simple,vectorWhile,127.508000,1
Ř,f0a6750aaaf45f929fd513d06762527fa30c5dd6,simple,vectorWhile,127.501000,1
Ř,f0a6750aaaf45f929fd513d06762527fa30c5dd6,simple,emptyFor,3170.867000,0
Ř,f0a6750aaaf45f929fd513d06762527fa30c5dd6,simple,emptyFor,3257.265000,0
Ř,f0a6750aaaf45f929fd513d06762527fa30c5dd6,simple,emptyFor,15.506000,0
Ř,f0a6750aaaf45f929fd513d06762527fa30c5dd6,simple,emptyFor,0.028000,0
Ř,f0a6750aaaf45f929fd513d06762527fa30c5dd6,simple,emptyFor,0.010000,0
Ř,f0a6750aaaf45f929fd513d06762527fa30c5dd6,simple,emptyFor,0.008000,1
Ř,f0a6750aaaf45f929fd513d06762527fa30c5dd6,simple,emptyFor,0.008000,1
Ř,f0a6750aaaf45f929fd513d06762527fa30c5dd6,simple,emptyFor,0.008000,1
Ř,f0a6750aaaf45f929fd513d06762527fa30c5dd6,simple,emptyFor,0.008000,1
Ř,f0a6750aaaf45f929fd513d06762527fa30c5dd6,simple,emptyFor,0.008000,1
Ř,f0a6750aaaf45f929fd513d06762527fa30c5dd6,simple,emptyFor,0.008000,1
Ř,f0a6750aaaf45f929fd513d06762527fa30c5dd6,simple,emptyFor,0.008000,1
Ř,f0a6750aaaf45f929fd513d06762527fa30c5dd6,simple,emptyFor,0.008000,1
Ř,f0a6750aaaf45f929fd513d06762527fa30c5dd6,simple,emptyFor,0.007000,1
Ř,f0a6750aaaf45f929fd513d06762527fa30c5dd6,simple,emptyFor,0.008000,1
Ř,f0a6750aaaf45f929fd513d06762527fa30c5dd6,simple,lapplyDots,759.280000,0
Ř,f0a6750aaaf45f929fd513d06762527fa30c5dd6,simple,lapplyDots,937.579000,0
Ř,f0a6750aaaf45f929fd513d06762527fa30c5dd6,simple,lapplyDots,856.161000,0
Ř,f0a6750aaaf45f929fd513d06762527fa30c5dd6,simple,lapplyDots,1079.517000,0
Ř,f0a6750aaaf45f929fd513d06762527fa30c5dd6,simple,lapplyDots,1022.364000,0
Ř,f0a6750aaaf45f929fd513d06762527fa30c5dd6,simple,lapplyDots,966.267000,1
Ř,f0a6750aaaf45f929fd513d06762527fa30c5dd6,simple,lapplyDots,980.963000,1
Ř,f0a6750aaaf45f929fd513d06762527fa30c5dd6,simple,lapplyDots,849.668000,1
Ř,f0a6750aaaf45f929fd513d06762527fa30c5dd6,simple,lapplyDots,967.397000,1
Ř,f0a6750aaaf45f929fd513d06762527fa30c5dd6,simple,lapplyDots,987.701000,1
Ř,f0a6750aaaf45f929fd513d06762527fa30c5dd6,simple,lapplyDots,1010.962000,1
Ř,f0a6750aaaf45f929fd513d06762527fa30c5dd6,simple,lapplyDots,845.116000,1
Ř,f0a6750aaaf45f929fd513d06762527fa30c5dd6,simple,lapplyDots,983.108000,1
Ř,f0a6750aaaf45f929fd513d06762527fa30c5dd6,simple,lapplyDots,1006.468000,1
Ř,f0a6750aaaf45f929fd513d06762527fa30c5dd6,simple,lapplyDots,958.472000,1
Ř,f0a6750aaaf45f929fd513d06762527fa30c5dd6,simple,scalarWhile,2494.228000,0
Ř,f0a6750aaaf45f929fd513d06762527fa30c5dd6,simple,scalarWhile,2482.380000,0
Ř,f0a6750aaaf45f929fd513d06762527fa30c5dd6,simple,scalarWhile,43.567000,0
Ř,f0a6750aaaf45f929fd513d06762527fa30c5dd6,simple,scalarWhile,25.334000,0
Ř,f0a6750aaaf45f929fd513d06762527fa30c5dd6,simple,scalarWhile,25.259000,0
Ř,f0a6750aaaf45f929fd513d06762527fa30c5dd6,simple,scalarWhile,25.315000,1
Ř,f0a6750aaaf45f929fd513d06762527fa30c5dd6,simple,scalarWhile,25.258000,1
Ř,f0a6750aaaf45f929fd513d06762527fa30c5dd6,simple,scalarWhile,25.301000,1
Ř,f0a6750aaaf45f929fd513d06762527fa30c5dd6,simple,scalarWhile,25.259000,1
Ř,f0a6750aaaf45f929fd513d06762527fa30c5dd6,simple,scalarWhile,25.302000,1
Ř,f0a6750aaaf45f929fd513d06762527fa30c5dd6,simple,scalarWhile,25.259000,1
Ř,f0a6750aaaf45f929fd513d06762527fa30c5dd6,simple,scalarWhile,25.255000,1
Ř,f0a6750aaaf45f929fd513d06762527fa30c5dd6,simple,scalarWhile,25.301000,1
Ř,f0a6750aaaf45f929fd513d06762527fa30c5dd6,simple,scalarWhile,25.257000,1
Ř,f0a6750aaaf45f929fd513d06762527fa30c5dd6,simple,scalarWhile,25.300000,1
Ř,f0a6750aaaf45f929fd513d06762527fa30c5dd6,simple,listWhile,154.070000,0
Ř,f0a6750aaaf45f929fd513d06762527fa30c5dd6,simple,listWhile,147.377000,0
Ř,f0a6750aaaf45f929fd513d06762527fa30c5dd6,simple,listWhile,128.720000,0
Ř,f0a6750aaaf45f929fd513d06762527fa30c5dd6,simple,listWhile,67.435000,0
Ř,f0a6750aaaf45f929fd513d06762527fa30c5dd6,simple,listWhile,63.009000,0
Ř,f0a6750aaaf45f929fd513d06762527fa30c5dd6,simple,listWhile,71.905000,1
Ř,f0a6750aaaf45f929fd513d06762527fa30c5dd6,simple,listWhile,84.229000,1
Ř,f0a6750aaaf45f929fd513d06762527fa30c5dd6,simple,listWhile,52.447000,1
Ř,f0a6750aaaf45f929fd513d06762527fa30c5dd6,simple,listWhile,65.228000,1
Ř,f0a6750aaaf45f929fd513d06762527fa30c5dd6,simple,listWhile,60.219000,1
Ř,f0a6750aaaf45f929fd513d06762527fa30c5dd6,simple,listWhile,64.779000,1
Ř,f0a6750aaaf45f929fd513d06762527fa30c5dd6,simple,listWhile,58.640000,1
Ř,f0a6750aaaf45f929fd513d06762527fa30c5dd6,simple,listWhile,80.230000,1
Ř,f0a6750aaaf45f929fd513d06762527fa30c5dd6,simple,listWhile,58.244000,1
Ř,f0a6750aaaf45f929fd513d06762527fa30c5dd6,simple,listWhile,64.616000,1
Ř,f0a6750aaaf45f929fd513d06762527fa30c5dd6,simple,profiler-shared,3829.736000,0
Ř,f0a6750aaaf45f929fd513d06762527fa30c5dd6,simple,profiler-shared,3866.686000,0
Ř,f0a6750aaaf45f929fd513d06762527fa30c5dd6,simple,profiler-shared,3885.852000,0
Ř,f0a6750aaaf45f929fd513d06762527fa30c5dd6,simple,profiler-shared,3826.364000,0
Ř,f0a6750aaaf45f929fd513d06762527fa30c5dd6,simple,profiler-shared,3814.192000,0
Ř,f0a6750aaaf45f929fd513d06762527fa30c5dd6,simple,profiler-shared,3836.092000,1
Ř,f0a6750aaaf45f929fd513d06762527fa30c5dd6,simple,profiler-shared,3885.343000,1
Ř,f0a6750aaaf45f929fd513d06762527fa30c5dd6,simple,profiler-shared,3815.441000,1
Ř,f0a6750aaaf45f929fd513d06762527fa30c5dd6,simple,profiler-shared,3852.414000,1
Ř,f0a6750aaaf45f929fd513d06762527fa30c5dd6,simple,profiler-shared,3838.460000,1
Ř,f0a6750aaaf45f929fd513d06762527fa30c5dd6,simple,profiler-shared,3889.139000,1
Ř,f0a6750aaaf45f929fd513d06762527fa30c5dd6,simple,profiler-shared,3821.486000,1
Ř,f0a6750aaaf45f929fd513d06762527fa30c5dd6,simple,profiler-shared,3943.801000,1
Ř,f0a6750aaaf45f929fd513d06762527fa30c5dd6,simple,profiler-shared,3803.517000,1
Ř,f0a6750aaaf45f929fd513d06762527fa30c5dd6,simple,profiler-shared,3866.942000,1
Ř,f0a6750aaaf45f929fd513d06762527fa30c5dd6,simple,scalarFor,4633.928000,0
Ř,f0a6750aaaf45f929fd513d06762527fa30c5dd6,simple,scalarFor,4613.081000,0
Ř,f0a6750aaaf45f929fd513d06762527fa30c5dd6,simple,scalarFor,17.084000,0
Ř,f0a6750aaaf45f929fd513d06762527fa30c5dd6,simple,scalarFor,0.027000,0
Ř,f0a6750aaaf45f929fd513d06762527fa30c5dd6,simple,scalarFor,0.010000,0
Ř,f0a6750aaaf45f929fd513d06762527fa30c5dd6,simple,scalarFor,0.009000,1
Ř,f0a6750aaaf45f929fd513d06762527fa30c5dd6,simple,scalarFor,0.008000,1
Ř,f0a6750aaaf45f929fd513d06762527fa30c5dd6,simple,scalarFor,0.008000,1
Ř,f0a6750aaaf45f929fd513d06762527fa30c5dd6,simple,scalarFor,0.008000,1
Ř,f0a6750aaaf45f929fd513d06762527fa30c5dd6,simple,scalarFor,0.008000,1
Ř,f0a6750aaaf45f929fd513d06762527fa30c5dd6,simple,scalarFor,0.007000,1
Ř,f0a6750aaaf45f929fd513d06762527fa30c5dd6,simple,scalarFor,0.008000,1
Ř,f0a6750aaaf45f929fd513d06762527fa30c5dd6,simple,scalarFor,0.008000,1
Ř,f0a6750aaaf45f929fd513d06762527fa30c5dd6,simple,scalarFor,0.007000,1
Ř,f0a6750aaaf45f929fd513d06762527fa30c5dd6,simple,scalarFor,0.008000,1
Ř,f0a6750aaaf45f929fd513d06762527fa30c5dd6,simple,lapply,639.873000,0
Ř,f0a6750aaaf45f929fd513d06762527fa30c5dd6,simple,lapply,744.359000,0
Ř,f0a6750aaaf45f929fd513d06762527fa30c5dd6,simple,lapply,802.844000,0
Ř,f0a6750aaaf45f929fd513d06762527fa30c5dd6,simple,lapply,763.401000,0
Ř,f0a6750aaaf45f929fd513d06762527fa30c5dd6,simple,lapply,893.710000,0
Ř,f0a6750aaaf45f929fd513d06762527fa30c5dd6,simple,lapply,775.114000,1
Ř,f0a6750aaaf45f929fd513d06762527fa30c5dd6,simple,lapply,788.228000,1
Ř,f0a6750aaaf45f929fd513d06762527fa30c5dd6,simple,lapply,784.018000,1
Ř,f0a6750aaaf45f929fd513d06762527fa30c5dd6,simple,lapply,589.309000,1
Ř,f0a6750aaaf45f929fd513d06762527fa30c5dd6,simple,lapply,693.679000,1
Ř,f0a6750aaaf45f929fd513d06762527fa30c5dd6,simple,lapply,702.820000,1
Ř,f0a6750aaaf45f929fd513d06762527fa30c5dd6,simple,lapply,729.112000,1
Ř,f0a6750aaaf45f929fd513d06762527fa30c5dd6,simple,lapply,676.608000,1
Ř,f0a6750aaaf45f929fd513d06762527fa30c5dd6,simple,lapply,600.852000,1
Ř,f0a6750aaaf45f929fd513d06762527fa30c5dd6,simple,lapply,701.886000,1
Ř,f0a6750aaaf45f929fd513d06762527fa30c5dd6,simple,vectorFor,1032.782000,0
Ř,f0a6750aaaf45f929fd513d06762527fa30c5dd6,simple,vectorFor,997.551000,0
Ř,f0a6750aaaf45f929fd513d06762527fa30c5dd6,simple,vectorFor,74.617000,0
Ř,f0a6750aaaf45f929fd513d06762527fa30c5dd6,simple,vectorFor,32.792000,0
Ř,f0a6750aaaf45f929fd513d06762527fa30c5dd6,simple,vectorFor,32.713000,0
Ř,f0a6750aaaf45f929fd513d06762527fa30c5dd6,simple,vectorFor,32.714000,1
Ř,f0a6750aaaf45f929fd513d06762527fa30c5dd6,simple,vectorFor,32.717000,1
Ř,f0a6750aaaf45f929fd513d06762527fa30c5dd6,simple,vectorFor,32.761000,1
Ř,f0a6750aaaf45f929fd513d06762527fa30c5dd6,simple,vectorFor,32.712000,1
Ř,f0a6750aaaf45f929fd513d06762527fa30c5dd6,simple,vectorFor,32.712000,1
Ř,f0a6750aaaf45f929fd513d06762527fa30c5dd6,simple,vectorFor,32.714000,1
Ř,f0a6750aaaf45f929fd513d06762527fa30c5dd6,simple,vectorFor,32.759000,1
Ř,f0a6750aaaf45f929fd513d06762527fa30c5dd6,simple,vectorFor,32.734000,1
Ř,f0a6750aaaf45f929fd513d06762527fa30c5dd6,simple,vectorFor,32.718000,1
Ř,f0a6750aaaf45f929fd513d06762527fa30c5dd6,simple,vectorFor,32.782000,1
Ř,f0a6750aaaf45f929fd513d06762527fa30c5dd6,simple,bytecodes,4075.502000,0
Ř,f0a6750aaaf45f929fd513d06762527fa30c5dd6,simple,bytecodes,3938.401000,0
Ř,f0a6750aaaf45f929fd513d06762527fa30c5dd6,simple,bytecodes,236.427000,0
Ř,f0a6750aaaf45f929fd513d06762527fa30c5dd6,simple,bytecodes,9.119000,0
Ř,f0a6750aaaf45f929fd513d06762527fa30c5dd6,simple,bytecodes,9.105000,0
Ř,f0a6750aaaf45f929fd513d06762527fa30c5dd6,simple,bytecodes,9.153000,1
Ř,f0a6750aaaf45f929fd513d06762527fa30c5dd6,simple,bytecodes,9.098000,1
Ř,f0a6750aaaf45f929fd513d06762527fa30c5dd6,simple,bytecodes,9.106000,1
Ř,f0a6750aaaf45f929fd513d06762527fa30c5dd6,simple,bytecodes,9.097000,1
Ř,f0a6750aaaf45f929fd513d06762527fa30c5dd6,simple,bytecodes,9.100000,1
Ř,f0a6750aaaf45f929fd513d06762527fa30c5dd6,simple,bytecodes,9.098000,1
Ř,f0a6750aaaf45f929fd513d06762527fa30c5dd6,simple,bytecodes,9.144000,1
Ř,f0a6750aaaf45f929fd513d06762527fa30c5dd6,simple,bytecodes,9.098000,1
Ř,f0a6750aaaf45f929fd513d06762527fa30c5dd6,simple,bytecodes,9.097000,1
Ř,f0a6750aaaf45f929fd513d06762527fa30c5dd6,simple,bytecodes,9.099000,1
Ř,f0a6750aaaf45f929fd513d06762527fa30c5dd6,simple,profiler-rsa,1495.271000,0
Ř,f0a6750aaaf45f929fd513d06762527fa30c5dd6,simple,profiler-rsa,1471.153000,0
Ř,f0a6750aaaf45f929fd513d06762527fa30c5dd6,simple,profiler-rsa,1492.182000,0
Ř,f0a6750aaaf45f929fd513d06762527fa30c5dd6,simple,profiler-rsa,1479.588000,0
Ř,f0a6750aaaf45f929fd513d06762527fa30c5dd6,simple,profiler-rsa,1479.912000,0
Ř,f0a6750aaaf45f929fd513d06762527fa30c5dd6,simple,profiler-rsa,1493.644000,1
Ř,f0a6750aaaf45f929fd513d06762527fa30c5dd6,simple,profiler-rsa,1477.360000,1
Ř,f0a6750aaaf45f929fd513d06762527fa30c5dd6,simple,profiler-rsa,1482.867000,1
Ř,f0a6750aaaf45f929fd513d06762527fa30c5dd6,simple,profiler-rsa,1475.005000,1
Ř,f0a6750aaaf45f929fd513d06762527fa30c5dd6,simple,profiler-rsa,1477.383000,1
Ř,f0a6750aaaf45f929fd513d06762527fa30c5dd6,simple,profiler-rsa,1478.042000,1
Ř,f0a6750aaaf45f929fd513d06762527fa30c5dd6,simple,profiler-rsa,1475.389000,1
Ř,f0a6750aaaf45f929fd513d06762527fa30c5dd6,simple,profiler-rsa,1483.511000,1
Ř,f0a6750aaaf45f929fd513d06762527fa30c5dd6,simple,profiler-rsa,1471.102000,1
Ř,f0a6750aaaf45f929fd513d06762527fa30c5dd6,simple,profiler-rsa,1471.455000,1
Ř,f0a6750aaaf45f929fd513d06762527fa30c5dd6,simple,emptyWhile,2158.903000,0
Ř,f0a6750aaaf45f929fd513d06762527fa30c5dd6,simple,emptyWhile,2157.620000,0
Ř,f0a6750aaaf45f929fd513d06762527fa30c5dd6,simple,emptyWhile,46.536000,0
Ř,f0a6750aaaf45f929fd513d06762527fa30c5dd6,simple,emptyWhile,30.334000,0
Ř,f0a6750aaaf45f929fd513d06762527fa30c5dd6,simple,emptyWhile,30.358000,0
Ř,f0a6750aaaf45f929fd513d06762527fa30c5dd6,simple,emptyWhile,30.304000,1
Ř,f0a6750aaaf45f929fd513d06762527fa30c5dd6,simple,emptyWhile,30.351000,1
Ř,f0a6750aaaf45f929fd513d06762527fa30c5dd6,simple,emptyWhile,30.353000,1
Ř,f0a6750aaaf45f929fd513d06762527fa30c5dd6,simple,emptyWhile,30.304000,1
Ř,f0a6750aaaf45f929fd513d06762527fa30c5dd6,simple,emptyWhile,30.353000,1
Ř,f0a6750aaaf45f929fd513d06762527fa30c5dd6,simple,emptyWhile,30.304000,1
Ř,f0a6750aaaf45f929fd513d06762527fa30c5dd6,simple,emptyWhile,30.343000,1
Ř,f0a6750aaaf45f929fd513d06762527fa30c5dd6,simple,emptyWhile,30.350000,1
Ř,f0a6750aaaf45f929fd513d06762527fa30c5dd6,simple,emptyWhile,30.303000,1
Ř,f0a6750aaaf45f929fd513d06762527fa30c5dd6,simple,emptyWhile,30.349000,1
Ř,f0a6750aaaf45f929fd513d06762527fa30c5dd6,simple,listFor,198.491000,0
Ř,f0a6750aaaf45f929fd513d06762527fa30c5dd6,simple,listFor,201.715000,0
Ř,f0a6750aaaf45f929fd513d06762527fa30c5dd6,simple,listFor,87.325000,0
Ř,f0a6750aaaf45f929fd513d06762527fa30c5dd6,simple,listFor,66.288000,0
Ř,f0a6750aaaf45f929fd513d06762527fa30c5dd6,simple,listFor,76.480000,0
Ř,f0a6750aaaf45f929fd513d06762527fa30c5dd6,simple,listFor,53.211000,1
Ř,f0a6750aaaf45f929fd513d06762527fa30c5dd6,simple,listFor,64.934000,1
Ř,f0a6750aaaf45f929fd513d06762527fa30c5dd6,simple,listFor,55.598000,1
Ř,f0a6750aaaf45f929fd513d06762527fa30c5dd6,simple,listFor,68.857000,1
Ř,f0a6750aaaf45f929fd513d06762527fa30c5dd6,simple,listFor,79.917000,1
Ř,f0a6750aaaf45f929fd513d06762527fa30c5dd6,simple,listFor,60.132000,1
Ř,f0a6750aaaf45f929fd513d06762527fa30c5dd6,simple,listFor,61.671000,1
Ř,f0a6750aaaf45f929fd513d06762527fa30c5dd6,simple,listFor,69.535000,1
Ř,f0a6750aaaf45f929fd513d06762527fa30c5dd6,simple,listFor,78.857000,1
Ř,f0a6750aaaf45f929fd513d06762527fa30c5dd6,simple,listFor,51.706000,1
Ř,f0a6750aaaf45f929fd513d06762527fa30c5dd6,shootout,spectralnorm_naive,929.852000,0
Ř,f0a6750aaaf45f929fd513d06762527fa30c5dd6,shootout,spectralnorm_naive,1054.009000,0
Ř,f0a6750aaaf45f929fd513d06762527fa30c5dd6,shootout,spectralnorm_naive,1170.892000,0
Ř,f0a6750aaaf45f929fd513d06762527fa30c5dd6,shootout,spectralnorm_naive,39.582000,0
Ř,f0a6750aaaf45f929fd513d06762527fa30c5dd6,shootout,spectralnorm_naive,39.589000,0
Ř,f0a6750aaaf45f929fd513d06762527fa30c5dd6,shootout,spectralnorm_naive,39.524000,1
Ř,f0a6750aaaf45f929fd513d06762527fa30c5dd6,shootout,spectralnorm_naive,39.592000,1
Ř,f0a6750aaaf45f929fd513d06762527fa30c5dd6,shootout,spectralnorm_naive,39.682000,1
Ř,f0a6750aaaf45f929fd513d06762527fa30c5dd6,shootout,spectralnorm_naive,39.647000,1
Ř,f0a6750aaaf45f929fd513d06762527fa30c5dd6,shootout,spectralnorm_naive,39.721000,1
Ř,f0a6750aaaf45f929fd513d06762527fa30c5dd6,shootout,spectralnorm_naive,39.706000,1
Ř,f0a6750aaaf45f929fd513d06762527fa30c5dd6,shootout,spectralnorm_naive,39.632000,1
Ř,f0a6750aaaf45f929fd513d06762527fa30c5dd6,shootout,spectralnorm_naive,39.479000,1
Ř,f0a6750aaaf45f929fd513d06762527fa30c5dd6,shootout,spectralnorm_naive,39.494000,1
Ř,f0a6750aaaf45f929fd513d06762527fa30c5dd6,shootout,spectralnorm_naive,40.920000,1
Ř,f0a6750aaaf45f929fd513d06762527fa30c5dd6,shootout,fasta_2,1122.185000,0
Ř,f0a6750aaaf45f929fd513d06762527fa30c5dd6,shootout,fasta_2,1571.251000,0
Ř,f0a6750aaaf45f929fd513d06762527fa30c5dd6,shootout,fasta_2,2282.068000,0
Ř,f0a6750aaaf45f929fd513d06762527fa30c5dd6,shootout,fasta_2,885.556000,0
Ř,f0a6750aaaf45f929fd513d06762527fa30c5dd6,shootout,fasta_2,882.704000,0
Ř,f0a6750aaaf45f929fd513d06762527fa30c5dd6,shootout,fasta_2,878.442000,1
Ř,f0a6750aaaf45f929fd513d06762527fa30c5dd6,shootout,fasta_2,882.441000,1
Ř,f0a6750aaaf45f929fd513d06762527fa30c5dd6,shootout,fasta_2,876.635000,1
Ř,f0a6750aaaf45f929fd513d06762527fa30c5dd6,shootout,fasta_2,885.197000,1
Ř,f0a6750aaaf45f929fd513d06762527fa30c5dd6,shootout,fasta_2,881.082000,1
Ř,f0a6750aaaf45f929fd513d06762527fa30c5dd6,shootout,fasta_2,884.604000,1
Ř,f0a6750aaaf45f929fd513d06762527fa30c5dd6,shootout,fasta_2,891.286000,1
Ř,f0a6750aaaf45f929fd513d06762527fa30c5dd6,shootout,fasta_2,878.283000,1
Ř,f0a6750aaaf45f929fd513d06762527fa30c5dd6,shootout,fasta_2,874.276000,1
Ř,f0a6750aaaf45f929fd513d06762527fa30c5dd6,shootout,fasta_2,877.093000,1
Ř,f0a6750aaaf45f929fd513d06762527fa30c5dd6,shootout,nbody_3,1992.526000,0
Ř,f0a6750aaaf45f929fd513d06762527fa30c5dd6,shootout,nbody_3,2111.030000,0
Ř,f0a6750aaaf45f929fd513d06762527fa30c5dd6,shootout,nbody_3,2177.291000,0
Ř,f0a6750aaaf45f929fd513d06762527fa30c5dd6,shootout,nbody_3,1057.648000,0
Ř,f0a6750aaaf45f929fd513d06762527fa30c5dd6,shootout,nbody_3,1065.368000,0
Ř,f0a6750aaaf45f929fd513d06762527fa30c5dd6,shootout,nbody_3,1059.886000,1
Ř,f0a6750aaaf45f929fd513d06762527fa30c5dd6,shootout,nbody_3,1068.238000,1
Ř,f0a6750aaaf45f929fd513d06762527fa30c5dd6,shootout,nbody_3,1058.237000,1
Ř,f0a6750aaaf45f929fd513d06762527fa30c5dd6,shootout,nbody_3,1070.323000,1
Ř,f0a6750aaaf45f929fd513d06762527fa30c5dd6,shootout,nbody_3,1054.587000,1
Ř,f0a6750aaaf45f929fd513d06762527fa30c5dd6,shootout,nbody_3,1060.171000,1
Ř,f0a6750aaaf45f929fd513d06762527fa30c5dd6,shootout,nbody_3,1070.874000,1
Ř,f0a6750aaaf45f929fd513d06762527fa30c5dd6,shootout,nbody_3,1056.452000,1
Ř,f0a6750aaaf45f929fd513d06762527fa30c5dd6,shootout,nbody_3,1067.182000,1
Ř,f0a6750aaaf45f929fd513d06762527fa30c5dd6,shootout,nbody_3,1061.296000,1
Ř,f0a6750aaaf45f929fd513d06762527fa30c5dd6,shootout,reversecomplement,530.509000,0
Ř,f0a6750aaaf45f929fd513d06762527fa30c5dd6,shootout,reversecomplement,576.868000,0
Ř,f0a6750aaaf45f929fd513d06762527fa30c5dd6,shootout,reversecomplement,1298.315000,0
Ř,f0a6750aaaf45f929fd513d06762527fa30c5dd6,shootout,reversecomplement,442.382000,0
Ř,f0a6750aaaf45f929fd513d06762527fa30c5dd6,shootout,reversecomplement,447.689000,0
Ř,f0a6750aaaf45f929fd513d06762527fa30c5dd6,shootout,reversecomplement,450.110000,1
Ř,f0a6750aaaf45f929fd513d06762527fa30c5dd6,shootout,reversecomplement,454.386000,1
Ř,f0a6750aaaf45f929fd513d06762527fa30c5dd6,shootout,reversecomplement,446.710000,1
Ř,f0a6750aaaf45f929fd513d06762527fa30c5dd6,shootout,reversecomplement,451.938000,1
Ř,f0a6750aaaf45f929fd513d06762527fa30c5dd6,shootout,reversecomplement,448.497000,1
Ř,f0a6750aaaf45f929fd513d06762527fa30c5dd6,shootout,reversecomplement,450.855000,1
Ř,f0a6750aaaf45f929fd513d06762527fa30c5dd6,shootout,reversecomplement,448.897000,1
Ř,f0a6750aaaf45f929fd513d06762527fa30c5dd6,shootout,reversecomplement,452.324000,1
Ř,f0a6750aaaf45f929fd513d06762527fa30c5dd6,shootout,reversecomplement,466.133000,1
Ř,f0a6750aaaf45f929fd513d06762527fa30c5dd6,shootout,reversecomplement,527.344000,1
Ř,f0a6750aaaf45f929fd513d06762527fa30c5dd6,shootout,mandelbrot_naive_ascii,612.019000,0
Ř,f0a6750aaaf45f929fd513d06762527fa30c5dd6,shootout,mandelbrot_naive_ascii,611.456000,0
Ř,f0a6750aaaf45f929fd513d06762527fa30c5dd6,shootout,mandelbrot_naive_ascii,1157.854000,0
Ř,f0a6750aaaf45f929fd513d06762527fa30c5dd6,shootout,mandelbrot_naive_ascii,205.307000,0
Ř,f0a6750aaaf45f929fd513d06762527fa30c5dd6,shootout,mandelbrot_naive_ascii,199.461000,0
Ř,f0a6750aaaf45f929fd513d06762527fa30c5dd6,shootout,mandelbrot_naive_ascii,199.183000,1
Ř,f0a6750aaaf45f929fd513d06762527fa30c5dd6,shootout,mandelbrot_naive_ascii,198.907000,1
Ř,f0a6750aaaf45f929fd513d06762527fa30c5dd6,shootout,mandelbrot_naive_ascii,199.603000,1
Ř,f0a6750aaaf45f929fd513d06762527fa30c5dd6,shootout,mandelbrot_naive_ascii,199.208000,1
Ř,f0a6750aaaf45f929fd513d06762527fa30c5dd6,shootout,mandelbrot_naive_ascii,197.725000,1
Ř,f0a6750aaaf45f929fd513d06762527fa30c5dd6,shootout,mandelbrot_naive_ascii,203.051000,1
Ř,f0a6750aaaf45f929fd513d06762527fa30c5dd6,shootout,mandelbrot_naive_ascii,197.797000,1
Ř,f0a6750aaaf45f929fd513d06762527fa30c5dd6,shootout,mandelbrot_naive_ascii,197.934000,1
Ř,f0a6750aaaf45f929fd513d06762527fa30c5dd6,shootout,mandelbrot_naive_ascii,198.857000,1
Ř,f0a6750aaaf45f929fd513d06762527fa30c5dd6,shootout,mandelbrot_naive_ascii,198.619000,1
Ř,f0a6750aaaf45f929fd513d06762527fa30c5dd6,shootout,nbody,2339.612000,0
Ř,f0a6750aaaf45f929fd513d06762527fa30c5dd6,shootout,nbody,2161.696000,0
Ř,f0a6750aaaf45f929fd513d06762527fa30c5dd6,shootout,nbody,2249.049000,0
Ř,f0a6750aaaf45f929fd513d06762527fa30c5dd6,shootout,nbody,765.061000,0
Ř,f0a6750aaaf45f929fd513d06762527fa30c5dd6,shootout,nbody,762.932000,0
Ř,f0a6750aaaf45f929fd513d06762527fa30c5dd6,shootout,nbody,747.829000,1
Ř,f0a6750aaaf45f929fd513d06762527fa30c5dd6,shootout,nbody,747.821000,1
Ř,f0a6750aaaf45f929fd513d06762527fa30c5dd6,shootout,nbody,747.517000,1
Ř,f0a6750aaaf45f929fd513d06762527fa30c5dd6,shootout,nbody,762.110000,1
Ř,f0a6750aaaf45f929fd513d06762527fa30c5dd6,shootout,nbody,749.601000,1
Ř,f0a6750aaaf45f929fd513d06762527fa30c5dd6,shootout,nbody,746.798000,1
Ř,f0a6750aaaf45f929fd513d06762527fa30c5dd6,shootout,nbody,745.765000,1
Ř,f0a6750aaaf45f929fd513d06762527fa30c5dd6,shootout,nbody,763.034000,1
Ř,f0a6750aaaf45f929fd513d06762527fa30c5dd6,shootout,nbody,747.897000,1
Ř,f0a6750aaaf45f929fd513d06762527fa30c5dd6,shootout,nbody,752.341000,1
Ř,f0a6750aaaf45f929fd513d06762527fa30c5dd6,shootout,fastaredux,649.542000,0
Ř,f0a6750aaaf45f929fd513d06762527fa30c5dd6,shootout,fastaredux,1646.427000,0
Ř,f0a6750aaaf45f929fd513d06762527fa30c5dd6,shootout,fastaredux,2346.002000,0
Ř,f0a6750aaaf45f929fd513d06762527fa30c5dd6,shootout,fastaredux,382.142000,0
Ř,f0a6750aaaf45f929fd513d06762527fa30c5dd6,shootout,fastaredux,397.403000,0
Ř,f0a6750aaaf45f929fd513d06762527fa30c5dd6,shootout,fastaredux,381.468000,1
Ř,f0a6750aaaf45f929fd513d06762527fa30c5dd6,shootout,fastaredux,380.519000,1
Ř,f0a6750aaaf45f929fd513d06762527fa30c5dd6,shootout,fastaredux,387.436000,1
Ř,f0a6750aaaf45f929fd513d06762527fa30c5dd6,shootout,fastaredux,389.197000,1
Ř,f0a6750aaaf45f929fd513d06762527fa30c5dd6,shootout,fastaredux,383.754000,1
Ř,f0a6750aaaf45f929fd513d06762527fa30c5dd6,shootout,fastaredux,394.336000,1
Ř,f0a6750aaaf45f929fd513d06762527fa30c5dd6,shootout,fastaredux,387.466000,1
Ř,f0a6750aaaf45f929fd513d06762527fa30c5dd6,shootout,fastaredux,384.512000,1
Ř,f0a6750aaaf45f929fd513d06762527fa30c5dd6,shootout,fastaredux,390.467000,1
Ř,f0a6750aaaf45f929fd513d06762527fa30c5dd6,shootout,fastaredux,389.164000,1
Ř,f0a6750aaaf45f929fd513d06762527fa30c5dd6,shootout,knucleotide_brute_3,4338.733000,0
Ř,f0a6750aaaf45f929fd513d06762527fa30c5dd6,shootout,knucleotide_brute_3,4394.487000,0
Ř,f0a6750aaaf45f929fd513d06762527fa30c5dd6,shootout,knucleotide_brute_3,12170.383000,0
Ř,f0a6750aaaf45f929fd513d06762527fa30c5dd6,shootout,knucleotide_brute_3,2762.084000,0
Ř,f0a6750aaaf45f929fd513d06762527fa30c5dd6,shootout,knucleotide_brute_3,2771.607000,0
Ř,f0a6750aaaf45f929fd513d06762527fa30c5dd6,shootout,knucleotide_brute_3,2764.963000,1
Ř,f0a6750aaaf45f929fd513d06762527fa30c5dd6,shootout,knucleotide_brute_3,2769.709000,1
Ř,f0a6750aaaf45f929fd513d06762527fa30c5dd6,shootout,knucleotide_brute_3,2754.251000,1
Ř,f0a6750aaaf45f929fd513d06762527fa30c5dd6,shootout,knucleotide_brute_3,2776.744000,1
Ř,f0a6750aaaf45f929fd513d06762527fa30c5dd6,shootout,knucleotide_brute_3,2753.489000,1
Ř,f0a6750aaaf45f929fd513d06762527fa30c5dd6,shootout,knucleotide_brute_3,2765.382000,1
Ř,f0a6750aaaf45f929fd513d06762527fa30c5dd6,shootout,knucleotide_brute_3,2761.205000,1
Ř,f0a6750aaaf45f929fd513d06762527fa30c5dd6,shootout,knucleotide_brute_3,2760.423000,1
Ř,f0a6750aaaf45f929fd513d06762527fa30c5dd6,shootout,knucleotide_brute_3,2758.269000,1
Ř,f0a6750aaaf45f929fd513d06762527fa30c5dd6,shootout,knucleotide_brute_3,2758.165000,1
Ř,f0a6750aaaf45f929fd513d06762527fa30c5dd6,shootout,fasta_naive_2,1034.861000,0
Ř,f0a6750aaaf45f929fd513d06762527fa30c5dd6,shootout,fasta_naive_2,1243.345000,0
Ř,f0a6750aaaf45f929fd513d06762527fa30c5dd6,shootout,fasta_naive_2,2366.722000,0
Ř,f0a6750aaaf45f929fd513d06762527fa30c5dd6,shootout,fasta_naive_2,642.234000,0
Ř,f0a6750aaaf45f929fd513d06762527fa30c5dd6,shootout,fasta_naive_2,636.520000,0
Ř,f0a6750aaaf45f929fd513d06762527fa30c5dd6,shootout,fasta_naive_2,656.290000,1
Ř,f0a6750aaaf45f929fd513d06762527fa30c5dd6,shootout,fasta_naive_2,640.644000,1
Ř,f0a6750aaaf45f929fd513d06762527fa30c5dd6,shootout,fasta_naive_2,646.637000,1
Ř,f0a6750aaaf45f929fd513d06762527fa30c5dd6,shootout,fasta_naive_2,667.627000,1
Ř,f0a6750aaaf45f929fd513d06762527fa30c5dd6,shootout,fasta_naive_2,630.458000,1
Ř,f0a6750aaaf45f929fd513d06762527fa30c5dd6,shootout,fasta_naive_2,644.112000,1
Ř,f0a6750aaaf45f929fd513d06762527fa30c5dd6,shootout,fasta_naive_2,663.450000,1
Ř,f0a6750aaaf45f929fd513d06762527fa30c5dd6,shootout,fasta_naive_2,627.743000,1
Ř,f0a6750aaaf45f929fd513d06762527fa30c5dd6,shootout,fasta_naive_2,646.127000,1
Ř,f0a6750aaaf45f929fd513d06762527fa30c5dd6,shootout,fasta_naive_2,662.446000,1
Ř,f0a6750aaaf45f929fd513d06762527fa30c5dd6,shootout,fannkuchredux,2218.844000,0
Ř,f0a6750aaaf45f929fd513d06762527fa30c5dd6,shootout,fannkuchredux,2167.727000,0
Ř,f0a6750aaaf45f929fd513d06762527fa30c5dd6,shootout,fannkuchredux,3598.345000,0
Ř,f0a6750aaaf45f929fd513d06762527fa30c5dd6,shootout,fannkuchredux,779.868000,0
Ř,f0a6750aaaf45f929fd513d06762527fa30c5dd6,shootout,fannkuchredux,775.599000,0
Ř,f0a6750aaaf45f929fd513d06762527fa30c5dd6,shootout,fannkuchredux,787.565000,1
Ř,f0a6750aaaf45f929fd513d06762527fa30c5dd6,shootout,fannkuchredux,778.349000,1
Ř,f0a6750aaaf45f929fd513d06762527fa30c5dd6,shootout,fannkuchredux,776.613000,1
Ř,f0a6750aaaf45f929fd513d06762527fa30c5dd6,shootout,fannkuchredux,786.360000,1
Ř,f0a6750aaaf45f929fd513d06762527fa30c5dd6,shootout,fannkuchredux,780.420000,1
Ř,f0a6750aaaf45f929fd513d06762527fa30c5dd6,shootout,fannkuchredux,786.833000,1
Ř,f0a6750aaaf45f929fd513d06762527fa30c5dd6,shootout,fannkuchredux,777.721000,1
Ř,f0a6750aaaf45f929fd513d06762527fa30c5dd6,shootout,fannkuchredux,776.390000,1
Ř,f0a6750aaaf45f929fd513d06762527fa30c5dd6,shootout,fannkuchredux,787.863000,1
Ř,f0a6750aaaf45f929fd513d06762527fa30c5dd6,shootout,fannkuchredux,779.469000,1
Ř,f0a6750aaaf45f929fd513d06762527fa30c5dd6,shootout,spectralnorm,2457.325000,0
Ř,f0a6750aaaf45f929fd513d06762527fa30c5dd6,shootout,spectralnorm,2655.895000,0
Ř,f0a6750aaaf45f929fd513d06762527fa30c5dd6,shootout,spectralnorm,2395.561000,0
Ř,f0a6750aaaf45f929fd513d06762527fa30c5dd6,shootout,spectralnorm,69.581000,0
Ř,f0a6750aaaf45f929fd513d06762527fa30c5dd6,shootout,spectralnorm,56.075000,0
Ř,f0a6750aaaf45f929fd513d06762527fa30c5dd6,shootout,spectralnorm,57.335000,1
Ř,f0a6750aaaf45f929fd513d06762527fa30c5dd6,shootout,spectralnorm,57.303000,1
Ř,f0a6750aaaf45f929fd513d06762527fa30c5dd6,shootout,spectralnorm,55.988000,1
Ř,f0a6750aaaf45f929fd513d06762527fa30c5dd6,shootout,spectralnorm,57.375000,1
Ř,f0a6750aaaf45f929fd513d06762527fa30c5dd6,shootout,spectralnorm,57.394000,1
Ř,f0a6750aaaf45f929fd513d06762527fa30c5dd6,shootout,spectralnorm,57.417000,1
Ř,f0a6750aaaf45f929fd513d06762527fa30c5dd6,shootout,spectralnorm,56.381000,1
Ř,f0a6750aaaf45f929fd513d06762527fa30c5dd6,shootout,spectralnorm,57.301000,1
Ř,f0a6750aaaf45f929fd513d06762527fa30c5dd6,shootout,spectralnorm,57.339000,1
Ř,f0a6750aaaf45f929fd513d06762527fa30c5dd6,shootout,spectralnorm,57.284000,1
Ř,f0a6750aaaf45f929fd513d06762527fa30c5dd6,shootout,pidigits,39790.953000,0
Ř,f0a6750aaaf45f929fd513d06762527fa30c5dd6,shootout,pidigits,789.281000,0
Ř,f0a6750aaaf45f929fd513d06762527fa30c5dd6,shootout,pidigits,104312.154000,0
Ř,f0a6750aaaf45f929fd513d06762527fa30c5dd6,shootout,pidigits,103.196000,0
Ř,f0a6750aaaf45f929fd513d06762527fa30c5dd6,shootout,pidigits,114.086000,0
Ř,f0a6750aaaf45f929fd513d06762527fa30c5dd6,shootout,pidigits,103.778000,1
Ř,f0a6750aaaf45f929fd513d06762527fa30c5dd6,shootout,pidigits,102.943000,1
Ř,f0a6750aaaf45f929fd513d06762527fa30c5dd6,shootout,pidigits,102.894000,1
Ř,f0a6750aaaf45f929fd513d06762527fa30c5dd6,shootout,pidigits,104.169000,1
Ř,f0a6750aaaf45f929fd513d06762527fa30c5dd6,shootout,pidigits,105.701000,1
Ř,f0a6750aaaf45f929fd513d06762527fa30c5dd6,shootout,pidigits,103.143000,1
Ř,f0a6750aaaf45f929fd513d06762527fa30c5dd6,shootout,pidigits,104.002000,1
Ř,f0a6750aaaf45f929fd513d06762527fa30c5dd6,shootout,pidigits,102.861000,1
Ř,f0a6750aaaf45f929fd513d06762527fa30c5dd6,shootout,pidigits,102.931000,1
Ř,f0a6750aaaf45f929fd513d06762527fa30c5dd6,shootout,pidigits,104.486000,1
Ř,f0a6750aaaf45f929fd513d06762527fa30c5dd6,shootout,nbody_naive,20981.235000,0
Ř,f0a6750aaaf45f929fd513d06762527fa30c5dd6,shootout,nbody_naive,2118.961000,0
Ř,f0a6750aaaf45f929fd513d06762527fa30c5dd6,shootout,nbody_naive,42109.291000,0
Ř,f0a6750aaaf45f929fd513d06762527fa30c5dd6,shootout,nbody_naive,148.562000,0
Ř,f0a6750aaaf45f929fd513d06762527fa30c5dd6,shootout,nbody_naive,153.250000,0
Ř,f0a6750aaaf45f929fd513d06762527fa30c5dd6,shootout,nbody_naive,151.086000,1
Ř,f0a6750aaaf45f929fd513d06762527fa30c5dd6,shootout,nbody_naive,149.478000,1
Ř,f0a6750aaaf45f929fd513d06762527fa30c5dd6,shootout,nbody_naive,145.769000,1
Ř,f0a6750aaaf45f929fd513d06762527fa30c5dd6,shootout,nbody_naive,145.921000,1
Ř,f0a6750aaaf45f929fd513d06762527fa30c5dd6,shootout,nbody_naive,155.033000,1
Ř,f0a6750aaaf45f929fd513d06762527fa30c5dd6,shootout,nbody_naive,150.035000,1
Ř,f0a6750aaaf45f929fd513d06762527fa30c5dd6,shootout,nbody_naive,147.186000,1
Ř,f0a6750aaaf45f929fd513d06762527fa30c5dd6,shootout,nbody_naive,145.928000,1
Ř,f0a6750aaaf45f929fd513d06762527fa30c5dd6,shootout,nbody_naive,162.433000,1
Ř,f0a6750aaaf45f929fd513d06762527fa30c5dd6,shootout,nbody_naive,149.498000,1
Ř,f0a6750aaaf45f929fd513d06762527fa30c5dd6,shootout,binarytrees,980.163000,0
Ř,f0a6750aaaf45f929fd513d06762527fa30c5dd6,shootout,binarytrees,189.298000,0
Ř,f0a6750aaaf45f929fd513d06762527fa30c5dd6,shootout,binarytrees,1354.501000,0
Ř,f0a6750aaaf45f929fd513d06762527fa30c5dd6,shootout,binarytrees,70.045000,0
Ř,f0a6750aaaf45f929fd513d06762527fa30c5dd6,shootout,binarytrees,70.160000,0
Ř,f0a6750aaaf45f929fd513d06762527fa30c5dd6,shootout,binarytrees,80.795000,1
Ř,f0a6750aaaf45f929fd513d06762527fa30c5dd6,shootout,binarytrees,70.175000,1
Ř,f0a6750aaaf45f929fd513d06762527fa30c5dd6,shootout,binarytrees,70.091000,1
Ř,f0a6750aaaf45f929fd513d06762527fa30c5dd6,shootout,binarytrees,70.135000,1
Ř,f0a6750aaaf45f929fd513d06762527fa30c5dd6,shootout,binarytrees,70.200000,1
Ř,f0a6750aaaf45f929fd513d06762527fa30c5dd6,shootout,binarytrees,72.713000,1
Ř,f0a6750aaaf45f929fd513d06762527fa30c5dd6,shootout,binarytrees,69.907000,1
Ř,f0a6750aaaf45f929fd513d06762527fa30c5dd6,shootout,binarytrees,70.128000,1
Ř,f0a6750aaaf45f929fd513d06762527fa30c5dd6,shootout,binarytrees,69.990000,1
Ř,f0a6750aaaf45f929fd513d06762527fa30c5dd6,shootout,binarytrees,70.392000,1
Ř,f0a6750aaaf45f929fd513d06762527fa30c5dd6,shootout,knucleotide_brute_2,3508.352000,0
Ř,f0a6750aaaf45f929fd513d06762527fa30c5dd6,shootout,knucleotide_brute_2,4567.178000,0
Ř,f0a6750aaaf45f929fd513d06762527fa30c5dd6,shootout,knucleotide_brute_2,13166.888000,0
Ř,f0a6750aaaf45f929fd513d06762527fa30c5dd6,shootout,knucleotide_brute_2,2551.526000,0
Ř,f0a6750aaaf45f929fd513d06762527fa30c5dd6,shootout,knucleotide_brute_2,2737.176000,0
Ř,f0a6750aaaf45f929fd513d06762527fa30c5dd6,shootout,knucleotide_brute_2,3415.938000,1
Ř,f0a6750aaaf45f929fd513d06762527fa30c5dd6,shootout,knucleotide_brute_2,3754.805000,1
Ř,f0a6750aaaf45f929fd513d06762527fa30c5dd6,shootout,knucleotide_brute_2,3336.513000,1
Ř,f0a6750aaaf45f929fd513d06762527fa30c5dd6,shootout,knucleotide_brute_2,3612.246000,1
Ř,f0a6750aaaf45f929fd513d06762527fa30c5dd6,shootout,knucleotide_brute_2,3846.987000,1
Ř,f0a6750aaaf45f929fd513d06762527fa30c5dd6,shootout,knucleotide_brute_2,2114.461000,1
Ř,f0a6750aaaf45f929fd513d06762527fa30c5dd6,shootout,knucleotide_brute_2,2141.662000,1
Ř,f0a6750aaaf45f929fd513d06762527fa30c5dd6,shootout,knucleotide_brute_2,2240.487000,1
Ř,f0a6750aaaf45f929fd513d06762527fa30c5dd6,shootout,knucleotide_brute_2,3138.423000,1
Ř,f0a6750aaaf45f929fd513d06762527fa30c5dd6,shootout,knucleotide_brute_2,2522.743000,1
Ř,f0a6750aaaf45f929fd513d06762527fa30c5dd6,shootout,binarytrees_2,1115.549000,0
Ř,f0a6750aaaf45f929fd513d06762527fa30c5dd6,shootout,binarytrees_2,127.602000,0
Ř,f0a6750aaaf45f929fd513d06762527fa30c5dd6,shootout,binarytrees_2,1378.251000,0
Ř,f0a6750aaaf45f929fd513d06762527fa30c5dd6,shootout,binarytrees_2,83.215000,0
Ř,f0a6750aaaf45f929fd513d06762527fa30c5dd6,shootout,binarytrees_2,93.565000,0
Ř,f0a6750aaaf45f929fd513d06762527fa30c5dd6,shootout,binarytrees_2,82.740000,1
Ř,f0a6750aaaf45f929fd513d06762527fa30c5dd6,shootout,binarytrees_2,83.142000,1
Ř,f0a6750aaaf45f929fd513d06762527fa30c5dd6,shootout,binarytrees_2,82.877000,1
Ř,f0a6750aaaf45f929fd513d06762527fa30c5dd6,shootout,binarytrees_2,85.479000,1
Ř,f0a6750aaaf45f929fd513d06762527fa30c5dd6,shootout,binarytrees_2,83.332000,1
Ř,f0a6750aaaf45f929fd513d06762527fa30c5dd6,shootout,binarytrees_2,82.878000,1
Ř,f0a6750aaaf45f929fd513d06762527fa30c5dd6,shootout,binarytrees_2,83.268000,1
Ř,f0a6750aaaf45f929fd513d06762527fa30c5dd6,shootout,binarytrees_2,83.780000,1
Ř,f0a6750aaaf45f929fd513d06762527fa30c5dd6,shootout,binarytrees_2,83.876000,1
Ř,f0a6750aaaf45f929fd513d06762527fa30c5dd6,shootout,binarytrees_2,84.087000,1
Ř,f0a6750aaaf45f929fd513d06762527fa30c5dd6,shootout,nbody_naive_2,3099.769000,0
Ř,f0a6750aaaf45f929fd513d06762527fa30c5dd6,shootout,nbody_naive_2,1769.920000,0
Ř,f0a6750aaaf45f929fd513d06762527fa30c5dd6,shootout,nbody_naive_2,4684.510000,0
Ř,f0a6750aaaf45f929fd513d06762527fa30c5dd6,shootout,nbody_naive_2,985.326000,0
Ř,f0a6750aaaf45f929fd513d06762527fa30c5dd6,shootout,nbody_naive_2,981.732000,0
Ř,f0a6750aaaf45f929fd513d06762527fa30c5dd6,shootout,nbody_naive_2,972.288000,1
Ř,f0a6750aaaf45f929fd513d06762527fa30c5dd6,shootout,nbody_naive_2,985.751000,1
Ř,f0a6750aaaf45f929fd513d06762527fa30c5dd6,shootout,nbody_naive_2,974.809000,1
Ř,f0a6750aaaf45f929fd513d06762527fa30c5dd6,shootout,nbody_naive_2,983.501000,1
Ř,f0a6750aaaf45f929fd513d06762527fa30c5dd6,shootout,nbody_naive_2,981.570000,1
Ř,f0a6750aaaf45f929fd513d06762527fa30c5dd6,shootout,nbody_naive_2,971.544000,1
Ř,f0a6750aaaf45f929fd513d06762527fa30c5dd6,shootout,nbody_naive_2,981.672000,1
Ř,f0a6750aaaf45f929fd513d06762527fa30c5dd6,shootout,nbody_naive_2,972.393000,1
Ř,f0a6750aaaf45f929fd513d06762527fa30c5dd6,shootout,nbody_naive_2,984.254000,1
Ř,f0a6750aaaf45f929fd513d06762527fa30c5dd6,shootout,nbody_naive_2,984.118000,1
Ř,f0a6750aaaf45f929fd513d06762527fa30c5dd6,shootout,reversecomplement_naive,520.343000,0
Ř,f0a6750aaaf45f929fd513d06762527fa30c5dd6,shootout,reversecomplement_naive,568.057000,0
Ř,f0a6750aaaf45f929fd513d06762527fa30c5dd6,shootout,reversecomplement_naive,1169.544000,0
Ř,f0a6750aaaf45f929fd513d06762527fa30c5dd6,shootout,reversecomplement_naive,330.674000,0
Ř,f0a6750aaaf45f929fd513d06762527fa30c5dd6,shootout,reversecomplement_naive,332.021000,0
Ř,f0a6750aaaf45f929fd513d06762527fa30c5dd6,shootout,reversecomplement_naive,332.873000,1
Ř,f0a6750aaaf45f929fd513d06762527fa30c5dd6,shootout,reversecomplement_naive,328.262000,1
Ř,f0a6750aaaf45f929fd513d06762527fa30c5dd6,shootout,reversecomplement_naive,340.645000,1
Ř,f0a6750aaaf45f929fd513d06762527fa30c5dd6,shootout,reversecomplement_naive,327.043000,1
Ř,f0a6750aaaf45f929fd513d06762527fa30c5dd6,shootout,reversecomplement_naive,329.252000,1
Ř,f0a6750aaaf45f929fd513d06762527fa30c5dd6,shootout,reversecomplement_naive,326.955000,1
Ř,f0a6750aaaf45f929fd513d06762527fa30c5dd6,shootout,reversecomplement_naive,332.777000,1
Ř,f0a6750aaaf45f929fd513d06762527fa30c5dd6,shootout,reversecomplement_naive,341.965000,1
Ř,f0a6750aaaf45f929fd513d06762527fa30c5dd6,shootout,reversecomplement_naive,326.283000,1
Ř,f0a6750aaaf45f929fd513d06762527fa30c5dd6,shootout,reversecomplement_naive,339.145000,1
Ř,f0a6750aaaf45f929fd513d06762527fa30c5dd6,shootout,spectralnorm_alt_2,1677.805000,0
Ř,f0a6750aaaf45f929fd513d06762527fa30c5dd6,shootout,spectralnorm_alt_2,1387.859000,0
Ř,f0a6750aaaf45f929fd513d06762527fa30c5dd6,shootout,spectralnorm_alt_2,2547.559000,0
Ř,f0a6750aaaf45f929fd513d06762527fa30c5dd6,shootout,spectralnorm_alt_2,1151.463000,0
Ř,f0a6750aaaf45f929fd513d06762527fa30c5dd6,shootout,spectralnorm_alt_2,1195.006000,0
Ř,f0a6750aaaf45f929fd513d06762527fa30c5dd6,shootout,spectralnorm_alt_2,1225.807000,1
Ř,f0a6750aaaf45f929fd513d06762527fa30c5dd6,shootout,spectralnorm_alt_2,1204.495000,1
Ř,f0a6750aaaf45f929fd513d06762527fa30c5dd6,shootout,spectralnorm_alt_2,1166.619000,1
Ř,f0a6750aaaf45f929fd513d06762527fa30c5dd6,shootout,spectralnorm_alt_2,1230.554000,1
Ř,f0a6750aaaf45f929fd513d06762527fa30c5dd6,shootout,spectralnorm_alt_2,1203.213000,1
Ř,f0a6750aaaf45f929fd513d06762527fa30c5dd6,shootout,spectralnorm_alt_2,1173.953000,1
Ř,f0a6750aaaf45f929fd513d06762527fa30c5dd6,shootout,spectralnorm_alt_2,1182.556000,1
Ř,f0a6750aaaf45f929fd513d06762527fa30c5dd6,shootout,spectralnorm_alt_2,1215.750000,1
Ř,f0a6750aaaf45f929fd513d06762527fa30c5dd6,shootout,spectralnorm_alt_2,1181.177000,1
Ř,f0a6750aaaf45f929fd513d06762527fa30c5dd6,shootout,spectralnorm_alt_2,1191.939000,1
Ř,f0a6750aaaf45f929fd513d06762527fa30c5dd6,shootout,reversecomplement_2,535.550000,0
Ř,f0a6750aaaf45f929fd513d06762527fa30c5dd6,shootout,reversecomplement_2,563.994000,0
Ř,f0a6750aaaf45f929fd513d06762527fa30c5dd6,shootout,reversecomplement_2,1540.859000,0
Ř,f0a6750aaaf45f929fd513d06762527fa30c5dd6,shootout,reversecomplement_2,454.497000,0
Ř,f0a6750aaaf45f929fd513d06762527fa30c5dd6,shootout,reversecomplement_2,435.060000,0
Ř,f0a6750aaaf45f929fd513d06762527fa30c5dd6,shootout,reversecomplement_2,436.942000,1
Ř,f0a6750aaaf45f929fd513d06762527fa30c5dd6,shootout,reversecomplement_2,436.964000,1
Ř,f0a6750aaaf45f929fd513d06762527fa30c5dd6,shootout,reversecomplement_2,441.769000,1
Ř,f0a6750aaaf45f929fd513d06762527fa30c5dd6,shootout,reversecomplement_2,440.295000,1
Ř,f0a6750aaaf45f929fd513d06762527fa30c5dd6,shootout,reversecomplement_2,439.084000,1
Ř,f0a6750aaaf45f929fd513d06762527fa30c5dd6,shootout,reversecomplement_2,442.752000,1
Ř,f0a6750aaaf45f929fd513d06762527fa30c5dd6,shootout,reversecomplement_2,438.497000,1
Ř,f0a6750aaaf45f929fd513d06762527fa30c5dd6,shootout,reversecomplement_2,438.654000,1
Ř,f0a6750aaaf45f929fd513d06762527fa30c5dd6,shootout,reversecomplement_2,442.498000,1
Ř,f0a6750aaaf45f929fd513d06762527fa30c5dd6,shootout,reversecomplement_2,436.803000,1
Ř,f0a6750aaaf45f929fd513d06762527fa30c5dd6,shootout,fasta,1492.837000,0
Ř,f0a6750aaaf45f929fd513d06762527fa30c5dd6,shootout,fasta,1257.241000,0
Ř,f0a6750aaaf45f929fd513d06762527fa30c5dd6,shootout,fasta,1982.039000,0
Ř,f0a6750aaaf45f929fd513d06762527fa30c5dd6,shootout,fasta,918.827000,0
Ř,f0a6750aaaf45f929fd513d06762527fa30c5dd6,shootout,fasta,920.171000,0
Ř,f0a6750aaaf45f929fd513d06762527fa30c5dd6,shootout,fasta,918.275000,1
Ř,f0a6750aaaf45f929fd513d06762527fa30c5dd6,shootout,fasta,910.762000,1
Ř,f0a6750aaaf45f929fd513d06762527fa30c5dd6,shootout,fasta,910.907000,1
Ř,f0a6750aaaf45f929fd513d06762527fa30c5dd6,shootout,fasta,924.462000,1
Ř,f0a6750aaaf45f929fd513d06762527fa30c5dd6,shootout,fasta,919.626000,1
Ř,f0a6750aaaf45f929fd513d06762527fa30c5dd6,shootout,fasta,909.271000,1
Ř,f0a6750aaaf45f929fd513d06762527fa30c5dd6,shootout,fasta,909.958000,1
Ř,f0a6750aaaf45f929fd513d06762527fa30c5dd6,shootout,fasta,915.244000,1
Ř,f0a6750aaaf45f929fd513d06762527fa30c5dd6,shootout,fasta,905.909000,1
Ř,f0a6750aaaf45f929fd513d06762527fa30c5dd6,shootout,fasta,912.406000,1
Ř,f0a6750aaaf45f929fd513d06762527fa30c5dd6,shootout,fannkuchredux_naive,2554.170000,0
Ř,f0a6750aaaf45f929fd513d06762527fa30c5dd6,shootout,fannkuchredux_naive,2529.999000,0
Ř,f0a6750aaaf45f929fd513d06762527fa30c5dd6,shootout,fannkuchredux_naive,2927.790000,0
Ř,f0a6750aaaf45f929fd513d06762527fa30c5dd6,shootout,fannkuchredux_naive,204.462000,0
Ř,f0a6750aaaf45f929fd513d06762527fa30c5dd6,shootout,fannkuchredux_naive,198.921000,0
Ř,f0a6750aaaf45f929fd513d06762527fa30c5dd6,shootout,fannkuchredux_naive,198.546000,1
Ř,f0a6750aaaf45f929fd513d06762527fa30c5dd6,shootout,fannkuchredux_naive,203.971000,1
Ř,f0a6750aaaf45f929fd513d06762527fa30c5dd6,shootout,fannkuchredux_naive,198.670000,1
Ř,f0a6750aaaf45f929fd513d06762527fa30c5dd6,shootout,fannkuchredux_naive,212.462000,1
Ř,f0a6750aaaf45f929fd513d06762527fa30c5dd6,shootout,fannkuchredux_naive,200.708000,1
Ř,f0a6750aaaf45f929fd513d06762527fa30c5dd6,shootout,fannkuchredux_naive,198.332000,1
Ř,f0a6750aaaf45f929fd513d06762527fa30c5dd6,shootout,fannkuchredux_naive,203.040000,1
Ř,f0a6750aaaf45f929fd513d06762527fa30c5dd6,shootout,fannkuchredux_naive,199.856000,1
Ř,f0a6750aaaf45f929fd513d06762527fa30c5dd6,shootout,fannkuchredux_naive,198.654000,1
Ř,f0a6750aaaf45f929fd513d06762527fa30c5dd6,shootout,fannkuchredux_naive,203.365000,1
Ř,f0a6750aaaf45f929fd513d06762527fa30c5dd6,shootout,mandelbrot_ascii,384.722000,0
Ř,f0a6750aaaf45f929fd513d06762527fa30c5dd6,shootout,mandelbrot_ascii,80.352000,0
Ř,f0a6750aaaf45f929fd513d06762527fa30c5dd6,shootout,mandelbrot_ascii,936.695000,0
Ř,f0a6750aaaf45f929fd513d06762527fa30c5dd6,shootout,mandelbrot_ascii,63.111000,0
Ř,f0a6750aaaf45f929fd513d06762527fa30c5dd6,shootout,mandelbrot_ascii,61.417000,0
Ř,f0a6750aaaf45f929fd513d06762527fa30c5dd6,shootout,mandelbrot_ascii,61.368000,1
Ř,f0a6750aaaf45f929fd513d06762527fa30c5dd6,shootout,mandelbrot_ascii,61.868000,1
Ř,f0a6750aaaf45f929fd513d06762527fa30c5dd6,shootout,mandelbrot_ascii,63.192000,1
Ř,f0a6750aaaf45f929fd513d06762527fa30c5dd6,shootout,mandelbrot_ascii,61.570000,1
Ř,f0a6750aaaf45f929fd513d06762527fa30c5dd6,shootout,mandelbrot_ascii,61.672000,1
Ř,f0a6750aaaf45f929fd513d06762527fa30c5dd6,shootout,mandelbrot_ascii,61.597000,1
Ř,f0a6750aaaf45f929fd513d06762527fa30c5dd6,shootout,mandelbrot_ascii,63.197000,1
Ř,f0a6750aaaf45f929fd513d06762527fa30c5dd6,shootout,mandelbrot_ascii,61.636000,1
Ř,f0a6750aaaf45f929fd513d06762527fa30c5dd6,shootout,mandelbrot_ascii,61.584000,1
Ř,f0a6750aaaf45f929fd513d06762527fa30c5dd6,shootout,mandelbrot_ascii,63.214000,1
Ř,f0a6750aaaf45f929fd513d06762527fa30c5dd6,shootout,regexdna,1529.027000,0
Ř,f0a6750aaaf45f929fd513d06762527fa30c5dd6,shootout,regexdna,1504.639000,0
Ř,f0a6750aaaf45f929fd513d06762527fa30c5dd6,shootout,regexdna,3664.339000,0
Ř,f0a6750aaaf45f929fd513d06762527fa30c5dd6,shootout,regexdna,1445.528000,0
Ř,f0a6750aaaf45f929fd513d06762527fa30c5dd6,shootout,regexdna,1443.492000,0
Ř,f0a6750aaaf45f929fd513d06762527fa30c5dd6,shootout,regexdna,1455.749000,1
Ř,f0a6750aaaf45f929fd513d06762527fa30c5dd6,shootout,regexdna,1444.938000,1
Ř,f0a6750aaaf45f929fd513d06762527fa30c5dd6,shootout,regexdna,1447.763000,1
Ř,f0a6750aaaf45f929fd513d06762527fa30c5dd6,shootout,regexdna,1439.841000,1
Ř,f0a6750aaaf45f929fd513d06762527fa30c5dd6,shootout,regexdna,1455.339000,1
Ř,f0a6750aaaf45f929fd513d06762527fa30c5dd6,shootout,regexdna,1442.394000,1
Ř,f0a6750aaaf45f929fd513d06762527fa30c5dd6,shootout,regexdna,1442.190000,1
Ř,f0a6750aaaf45f929fd513d06762527fa30c5dd6,shootout,regexdna,1442.557000,1
Ř,f0a6750aaaf45f929fd513d06762527fa30c5dd6,shootout,regexdna,1454.607000,1
Ř,f0a6750aaaf45f929fd513d06762527fa30c5dd6,shootout,regexdna,1445.072000,1
Ř,f0a6750aaaf45f929fd513d06762527fa30c5dd6,shootout,fasta_naive,810.277000,0
Ř,f0a6750aaaf45f929fd513d06762527fa30c5dd6,shootout,fasta_naive,847.949000,0
Ř,f0a6750aaaf45f929fd513d06762527fa30c5dd6,shootout,fasta_naive,1970.359000,0
Ř,f0a6750aaaf45f929fd513d06762527fa30c5dd6,shootout,fasta_naive,433.540000,0
Ř,f0a6750aaaf45f929fd513d06762527fa30c5dd6,shootout,fasta_naive,449.625000,0
Ř,f0a6750aaaf45f929fd513d06762527fa30c5dd6,shootout,fasta_naive,406.996000,1
Ř,f0a6750aaaf45f929fd513d06762527fa30c5dd6,shootout,fasta_naive,418.569000,1
Ř,f0a6750aaaf45f929fd513d06762527fa30c5dd6,shootout,fasta_naive,422.921000,1
Ř,f0a6750aaaf45f929fd513d06762527fa30c5dd6,shootout,fasta_naive,433.064000,1
Ř,f0a6750aaaf45f929fd513d06762527fa30c5dd6,shootout,fasta_naive,435.743000,1
Ř,f0a6750aaaf45f929fd513d06762527fa30c5dd6,shootout,fasta_naive,430.708000,1
Ř,f0a6750aaaf45f929fd513d06762527fa30c5dd6,shootout,fasta_naive,411.540000,1
Ř,f0a6750aaaf45f929fd513d06762527fa30c5dd6,shootout,fasta_naive,425.339000,1
Ř,f0a6750aaaf45f929fd513d06762527fa30c5dd6,shootout,fasta_naive,431.786000,1
Ř,f0a6750aaaf45f929fd513d06762527fa30c5dd6,shootout,fasta_naive,433.487000,1
Ř,f0a6750aaaf45f929fd513d06762527fa30c5dd6,shootout,knucleotide,3040.987000,0
Ř,f0a6750aaaf45f929fd513d06762527fa30c5dd6,shootout,knucleotide,2154.456000,0
Ř,f0a6750aaaf45f929fd513d06762527fa30c5dd6,shootout,knucleotide,8985.264000,0
Ř,f0a6750aaaf45f929fd513d06762527fa30c5dd6,shootout,knucleotide,507.375000,0
Ř,f0a6750aaaf45f929fd513d06762527fa30c5dd6,shootout,knucleotide,530.180000,0
Ř,f0a6750aaaf45f929fd513d06762527fa30c5dd6,shootout,knucleotide,555.257000,1
Ř,f0a6750aaaf45f929fd513d06762527fa30c5dd6,shootout,knucleotide,498.770000,1
Ř,f0a6750aaaf45f929fd513d06762527fa30c5dd6,shootout,knucleotide,443.089000,1
Ř,f0a6750aaaf45f929fd513d06762527fa30c5dd6,shootout,knucleotide,478.869000,1
Ř,f0a6750aaaf45f929fd513d06762527fa30c5dd6,shootout,knucleotide,500.074000,1
Ř,f0a6750aaaf45f929fd513d06762527fa30c5dd6,shootout,knucleotide,522.897000,1
Ř,f0a6750aaaf45f929fd513d06762527fa30c5dd6,shootout,knucleotide,547.085000,1
Ř,f0a6750aaaf45f929fd513d06762527fa30c5dd6,shootout,knucleotide,500.842000,1
Ř,f0a6750aaaf45f929fd513d06762527fa30c5dd6,shootout,knucleotide,448.054000,1
Ř,f0a6750aaaf45f929fd513d06762527fa30c5dd6,shootout,knucleotide,478.048000,1
Ř,f0a6750aaaf45f929fd513d06762527fa30c5dd6,shootout,spectralnorm_math,3521.965000,0
Ř,f0a6750aaaf45f929fd513d06762527fa30c5dd6,shootout,spectralnorm_math,3326.661000,0
Ř,f0a6750aaaf45f929fd513d06762527fa30c5dd6,shootout,spectralnorm_math,3778.712000,0
Ř,f0a6750aaaf45f929fd513d06762527fa30c5dd6,shootout,spectralnorm_math,3163.982000,0
Ř,f0a6750aaaf45f929fd513d06762527fa30c5dd6,shootout,spectralnorm_math,3168.650000,0
Ř,f0a6750aaaf45f929fd513d06762527fa30c5dd6,shootout,spectralnorm_math,3140.214000,1
Ř,f0a6750aaaf45f929fd513d06762527fa30c5dd6,shootout,spectralnorm_math,3170.344000,1
Ř,f0a6750aaaf45f929fd513d06762527fa30c5dd6,shootout,spectralnorm_math,3183.226000,1
Ř,f0a6750aaaf45f929fd513d06762527fa30c5dd6,shootout,spectralnorm_math,3169.405000,1
Ř,f0a6750aaaf45f929fd513d06762527fa30c5dd6,shootout,spectralnorm_math,3182.901000,1
Ř,f0a6750aaaf45f929fd513d06762527fa30c5dd6,shootout,spectralnorm_math,3160.801000,1
Ř,f0a6750aaaf45f929fd513d06762527fa30c5dd6,shootout,spectralnorm_math,3158.447000,1
Ř,f0a6750aaaf45f929fd513d06762527fa30c5dd6,shootout,spectralnorm_math,3157.024000,1
Ř,f0a6750aaaf45f929fd513d06762527fa30c5dd6,shootout,spectralnorm_math,3187.124000,1
Ř,f0a6750aaaf45f929fd513d06762527fa30c5dd6,shootout,spectralnorm_math,3120.289000,1
Ř,f0a6750aaaf45f929fd513d06762527fa30c5dd6,shootout,fastaredux_naive,697.011000,0
Ř,f0a6750aaaf45f929fd513d06762527fa30c5dd6,shootout,fastaredux_naive,1356.202000,0
Ř,f0a6750aaaf45f929fd513d06762527fa30c5dd6,shootout,fastaredux_naive,2460.267000,0
Ř,f0a6750aaaf45f929fd513d06762527fa30c5dd6,shootout,fastaredux_naive,437.129000,0
Ř,f0a6750aaaf45f929fd513d06762527fa30c5dd6,shootout,fastaredux_naive,442.287000,0
Ř,f0a6750aaaf45f929fd513d06762527fa30c5dd6,shootout,fastaredux_naive,431.572000,1
Ř,f0a6750aaaf45f929fd513d06762527fa30c5dd6,shootout,fastaredux_naive,416.002000,1
Ř,f0a6750aaaf45f929fd513d06762527fa30c5dd6,shootout,fastaredux_naive,422.442000,1
Ř,f0a6750aaaf45f929fd513d06762527fa30c5dd6,shootout,fastaredux_naive,434.213000,1
Ř,f0a6750aaaf45f929fd513d06762527fa30c5dd6,shootout,fastaredux_naive,433.988000,1
Ř,f0a6750aaaf45f929fd513d06762527fa30c5dd6,shootout,fastaredux_naive,440.496000,1
Ř,f0a6750aaaf45f929fd513d06762527fa30c5dd6,shootout,fastaredux_naive,411.714000,1
Ř,f0a6750aaaf45f929fd513d06762527fa30c5dd6,shootout,fastaredux_naive,422.762000,1
Ř,f0a6750aaaf45f929fd513d06762527fa30c5dd6,shootout,fastaredux_naive,426.605000,1
Ř,f0a6750aaaf45f929fd513d06762527fa30c5dd6,shootout,fastaredux_naive,435.952000,1
Ř,f0a6750aaaf45f929fd513d06762527fa30c5dd6,shootout,mandelbrot_noout_naive,257.215000,0
Ř,f0a6750aaaf45f929fd513d06762527fa30c5dd6,shootout,mandelbrot_noout_naive,243.423000,0
Ř,f0a6750aaaf45f929fd513d06762527fa30c5dd6,shootout,mandelbrot_noout_naive,1161.610000,0
Ř,f0a6750aaaf45f929fd513d06762527fa30c5dd6,shootout,mandelbrot_noout_naive,218.719000,0
Ř,f0a6750aaaf45f929fd513d06762527fa30c5dd6,shootout,mandelbrot_noout_naive,218.685000,0
Ř,f0a6750aaaf45f929fd513d06762527fa30c5dd6,shootout,mandelbrot_noout_naive,219.549000,1
Ř,f0a6750aaaf45f929fd513d06762527fa30c5dd6,shootout,mandelbrot_noout_naive,229.642000,1
Ř,f0a6750aaaf45f929fd513d06762527fa30c5dd6,shootout,mandelbrot_noout_naive,220.839000,1
Ř,f0a6750aaaf45f929fd513d06762527fa30c5dd6,shootout,mandelbrot_noout_naive,228.939000,1
Ř,f0a6750aaaf45f929fd513d06762527fa30c5dd6,shootout,mandelbrot_noout_naive,227.509000,1
Ř,f0a6750aaaf45f929fd513d06762527fa30c5dd6,shootout,mandelbrot_noout_naive,237.446000,1
Ř,f0a6750aaaf45f929fd513d06762527fa30c5dd6,shootout,mandelbrot_noout_naive,223.979000,1
Ř,f0a6750aaaf45f929fd513d06762527fa30c5dd6,shootout,mandelbrot_noout_naive,226.151000,1
Ř,f0a6750aaaf45f929fd513d06762527fa30c5dd6,shootout,mandelbrot_noout_naive,228.017000,1
Ř,f0a6750aaaf45f929fd513d06762527fa30c5dd6,shootout,mandelbrot_noout_naive,239.166000,1
Ř,f0a6750aaaf45f929fd513d06762527fa30c5dd6,shootout,knucleotide_brute,4473.096000,0
Ř,f0a6750aaaf45f929fd513d06762527fa30c5dd6,shootout,knucleotide_brute,5374.907000,0
Ř,f0a6750aaaf45f929fd513d06762527fa30c5dd6,shootout,knucleotide_brute,14460.069000,0
Ř,f0a6750aaaf45f929fd513d06762527fa30c5dd6,shootout,knucleotide_brute,3812.473000,0
Ř,f0a6750aaaf45f929fd513d06762527fa30c5dd6,shootout,knucleotide_brute,3946.803000,0
Ř,f0a6750aaaf45f929fd513d06762527fa30c5dd6,shootout,knucleotide_brute,4036.716000,1
Ř,f0a6750aaaf45f929fd513d06762527fa30c5dd6,shootout,knucleotide_brute,4037.210000,1
Ř,f0a6750aaaf45f929fd513d06762527fa30c5dd6,shootout,knucleotide_brute,4113.157000,1
Ř,f0a6750aaaf45f929fd513d06762527fa30c5dd6,shootout,knucleotide_brute,4127.480000,1
Ř,f0a6750aaaf45f929fd513d06762527fa30c5dd6,shootout,knucleotide_brute,4157.142000,1
Ř,f0a6750aaaf45f929fd513d06762527fa30c5dd6,shootout,knucleotide_brute,3461.544000,1
Ř,f0a6750aaaf45f929fd513d06762527fa30c5dd6,shootout,knucleotide_brute,3473.605000,1
Ř,f0a6750aaaf45f929fd513d06762527fa30c5dd6,shootout,knucleotide_brute,3757.750000,1
Ř,f0a6750aaaf45f929fd513d06762527fa30c5dd6,shootout,knucleotide_brute,3794.329000,1
Ř,f0a6750aaaf45f929fd513d06762527fa30c5dd6,shootout,knucleotide_brute,3947.872000,1
Ř,f0a6750aaaf45f929fd513d06762527fa30c5dd6,shootout,spectralnorm_alt_3,1073.584000,0
Ř,f0a6750aaaf45f929fd513d06762527fa30c5dd6,shootout,spectralnorm_alt_3,863.651000,0
Ř,f0a6750aaaf45f929fd513d06762527fa30c5dd6,shootout,spectralnorm_alt_3,1465.763000,0
Ř,f0a6750aaaf45f929fd513d06762527fa30c5dd6,shootout,spectralnorm_alt_3,96.665000,0
Ř,f0a6750aaaf45f929fd513d06762527fa30c5dd6,shootout,spectralnorm_alt_3,97.070000,0
Ř,f0a6750aaaf45f929fd513d06762527fa30c5dd6,shootout,spectralnorm_alt_3,96.026000,1
Ř,f0a6750aaaf45f929fd513d06762527fa30c5dd6,shootout,spectralnorm_alt_3,96.812000,1
Ř,f0a6750aaaf45f929fd513d06762527fa30c5dd6,shootout,spectralnorm_alt_3,96.716000,1
Ř,f0a6750aaaf45f929fd513d06762527fa30c5dd6,shootout,spectralnorm_alt_3,95.898000,1
Ř,f0a6750aaaf45f929fd513d06762527fa30c5dd6,shootout,spectralnorm_alt_3,96.526000,1
Ř,f0a6750aaaf45f929fd513d06762527fa30c5dd6,shootout,spectralnorm_alt_3,97.039000,1
Ř,f0a6750aaaf45f929fd513d06762527fa30c5dd6,shootout,spectralnorm_alt_3,96.303000,1
Ř,f0a6750aaaf45f929fd513d06762527fa30c5dd6,shootout,spectralnorm_alt_3,96.768000,1
Ř,f0a6750aaaf45f929fd513d06762527fa30c5dd6,shootout,spectralnorm_alt_3,99.433000,1
Ř,f0a6750aaaf45f929fd513d06762527fa30c5dd6,shootout,spectralnorm_alt_3,96.561000,1
Ř,f0a6750aaaf45f929fd513d06762527fa30c5dd6,shootout,mandelbrot_noout,385.709000,0
Ř,f0a6750aaaf45f929fd513d06762527fa30c5dd6,shootout,mandelbrot_noout,68.730000,0
Ř,f0a6750aaaf45f929fd513d06762527fa30c5dd6,shootout,mandelbrot_noout,724.113000,0
Ř,f0a6750aaaf45f929fd513d06762527fa30c5dd6,shootout,mandelbrot_noout,64.633000,0
Ř,f0a6750aaaf45f929fd513d06762527fa30c5dd6,shootout,mandelbrot_noout,65.901000,0
Ř,f0a6750aaaf45f929fd513d06762527fa30c5dd6,shootout,mandelbrot_noout,64.499000,1
Ř,f0a6750aaaf45f929fd513d06762527fa30c5dd6,shootout,mandelbrot_noout,64.522000,1
Ř,f0a6750aaaf45f929fd513d06762527fa30c5dd6,shootout,mandelbrot_noout,64.434000,1
Ř,f0a6750aaaf45f929fd513d06762527fa30c5dd6,shootout,mandelbrot_noout,65.603000,1
Ř,f0a6750aaaf45f929fd513d06762527fa30c5dd6,shootout,mandelbrot_noout,74.409000,1
Ř,f0a6750aaaf45f929fd513d06762527fa30c5dd6,shootout,mandelbrot_noout,64.459000,1
Ř,f0a6750aaaf45f929fd513d06762527fa30c5dd6,shootout,mandelbrot_noout,64.331000,1
Ř,f0a6750aaaf45f929fd513d06762527fa30c5dd6,shootout,mandelbrot_noout,64.229000,1
Ř,f0a6750aaaf45f929fd513d06762527fa30c5dd6,shootout,mandelbrot_noout,65.443000,1
Ř,f0a6750aaaf45f929fd513d06762527fa30c5dd6,shootout,mandelbrot_noout,64.308000,1
Ř,f0a6750aaaf45f929fd513d06762527fa30c5dd6,shootout,fasta_3,1206.757000,0
Ř,f0a6750aaaf45f929fd513d06762527fa30c5dd6,shootout,fasta_3,3487.708000,0
Ř,f0a6750aaaf45f929fd513d06762527fa30c5dd6,shootout,fasta_3,4188.951000,0
Ř,f0a6750aaaf45f929fd513d06762527fa30c5dd6,shootout,fasta_3,898.981000,0
Ř,f0a6750aaaf45f929fd513d06762527fa30c5dd6,shootout,fasta_3,896.108000,0
Ř,f0a6750aaaf45f929fd513d06762527fa30c5dd6,shootout,fasta_3,891.083000,1
Ř,f0a6750aaaf45f929fd513d06762527fa30c5dd6,shootout,fasta_3,893.368000,1
Ř,f0a6750aaaf45f929fd513d06762527fa30c5dd6,shootout,fasta_3,894.060000,1
Ř,f0a6750aaaf45f929fd513d06762527fa30c5dd6,shootout,fasta_3,887.844000,1
Ř,f0a6750aaaf45f929fd513d06762527fa30c5dd6,shootout,fasta_3,895.921000,1
Ř,f0a6750aaaf45f929fd513d06762527fa30c5dd6,shootout,fasta_3,894.006000,1
Ř,f0a6750aaaf45f929fd513d06762527fa30c5dd6,shootout,fasta_3,889.049000,1
Ř,f0a6750aaaf45f929fd513d06762527fa30c5dd6,shootout,fasta_3,888.040000,1
Ř,f0a6750aaaf45f929fd513d06762527fa30c5dd6,shootout,fasta_3,895.145000,1
Ř,f0a6750aaaf45f929fd513d06762527fa30c5dd6,shootout,fasta_3,894.632000,1
Ř,f0a6750aaaf45f929fd513d06762527fa30c5dd6,shootout,binarytrees_naive,884.215000,0
Ř,f0a6750aaaf45f929fd513d06762527fa30c5dd6,shootout,binarytrees_naive,130.303000,0
Ř,f0a6750aaaf45f929fd513d06762527fa30c5dd6,shootout,binarytrees_naive,3914.984000,0
Ř,f0a6750aaaf45f929fd513d06762527fa30c5dd6,shootout,binarytrees_naive,84.345000,0
Ř,f0a6750aaaf45f929fd513d06762527fa30c5dd6,shootout,binarytrees_naive,94.841000,0
Ř,f0a6750aaaf45f929fd513d06762527fa30c5dd6,shootout,binarytrees_naive,84.578000,1
Ř,f0a6750aaaf45f929fd513d06762527fa30c5dd6,shootout,binarytrees_naive,84.378000,1
Ř,f0a6750aaaf45f929fd513d06762527fa30c5dd6,shootout,binarytrees_naive,84.389000,1
Ř,f0a6750aaaf45f929fd513d06762527fa30c5dd6,shootout,binarytrees_naive,87.665000,1
Ř,f0a6750aaaf45f929fd513d06762527fa30c5dd6,shootout,binarytrees_naive,83.990000,1
Ř,f0a6750aaaf45f929fd513d06762527fa30c5dd6,shootout,binarytrees_naive,84.119000,1
Ř,f0a6750aaaf45f929fd513d06762527fa30c5dd6,shootout,binarytrees_naive,85.890000,1
Ř,f0a6750aaaf45f929fd513d06762527fa30c5dd6,shootout,binarytrees_naive,85.021000,1
Ř,f0a6750aaaf45f929fd513d06762527fa30c5dd6,shootout,binarytrees_naive,85.046000,1
Ř,f0a6750aaaf45f929fd513d06762527fa30c5dd6,shootout,binarytrees_naive,84.788000,1
Ř,f0a6750aaaf45f929fd513d06762527fa30c5dd6,shootout,spectralnorm_alt,391.752000,0
Ř,f0a6750aaaf45f929fd513d06762527fa30c5dd6,shootout,spectralnorm_alt,267.740000,0
Ř,f0a6750aaaf45f929fd513d06762527fa30c5dd6,shootout,spectralnorm_alt,1512.543000,0
Ř,f0a6750aaaf45f929fd513d06762527fa30c5dd6,shootout,spectralnorm_alt,211.439000,0
Ř,f0a6750aaaf45f929fd513d06762527fa30c5dd6,shootout,spectralnorm_alt,199.030000,0
Ř,f0a6750aaaf45f929fd513d06762527fa30c5dd6,shootout,spectralnorm_alt,215.088000,1
Ř,f0a6750aaaf45f929fd513d06762527fa30c5dd6,shootout,spectralnorm_alt,205.303000,1
Ř,f0a6750aaaf45f929fd513d06762527fa30c5dd6,shootout,spectralnorm_alt,188.417000,1
Ř,f0a6750aaaf45f929fd513d06762527fa30c5dd6,shootout,spectralnorm_alt,191.179000,1
Ř,f0a6750aaaf45f929fd513d06762527fa30c5dd6,shootout,spectralnorm_alt,199.588000,1
Ř,f0a6750aaaf45f929fd513d06762527fa30c5dd6,shootout,spectralnorm_alt,186.489000,1
Ř,f0a6750aaaf45f929fd513d06762527fa30c5dd6,shootout,spectralnorm_alt,196.293000,1
Ř,f0a6750aaaf45f929fd513d06762527fa30c5dd6,shootout,spectralnorm_alt,193.767000,1
Ř,f0a6750aaaf45f929fd513d06762527fa30c5dd6,shootout,spectralnorm_alt,205.532000,1
Ř,f0a6750aaaf45f929fd513d06762527fa30c5dd6,shootout,spectralnorm_alt,188.234000,1
Ř,f0a6750aaaf45f929fd513d06762527fa30c5dd6,shootout,nbody_2,1527.750000,0
Ř,f0a6750aaaf45f929fd513d06762527fa30c5dd6,shootout,nbody_2,1403.340000,0
Ř,f0a6750aaaf45f929fd513d06762527fa30c5dd6,shootout,nbody_2,1736.756000,0
Ř,f0a6750aaaf45f929fd513d06762527fa30c5dd6,shootout,nbody_2,650.295000,0
Ř,f0a6750aaaf45f929fd513d06762527fa30c5dd6,shootout,nbody_2,628.637000,0
Ř,f0a6750aaaf45f929fd513d06762527fa30c5dd6,shootout,nbody_2,626.292000,1
Ř,f0a6750aaaf45f929fd513d06762527fa30c5dd6,shootout,nbody_2,629.176000,1
Ř,f0a6750aaaf45f929fd513d06762527fa30c5dd6,shootout,nbody_2,639.098000,1
Ř,f0a6750aaaf45f929fd513d06762527fa30c5dd6,shootout,nbody_2,629.359000,1
Ř,f0a6750aaaf45f929fd513d06762527fa30c5dd6,shootout,nbody_2,629.054000,1
Ř,f0a6750aaaf45f929fd513d06762527fa30c5dd6,shootout,nbody_2,627.607000,1
Ř,f0a6750aaaf45f929fd513d06762527fa30c5dd6,shootout,nbody_2,639.684000,1
Ř,f0a6750aaaf45f929fd513d06762527fa30c5dd6,shootout,nbody_2,629.055000,1
Ř,f0a6750aaaf45f929fd513d06762527fa30c5dd6,shootout,nbody_2,629.299000,1
Ř,f0a6750aaaf45f929fd513d06762527fa30c5dd6,shootout,nbody_2,639.973000,1
Ř,f0a6750aaaf45f929fd513d06762527fa30c5dd6,are-we-fast-r,Bounce,2235.445000,0
Ř,f0a6750aaaf45f929fd513d06762527fa30c5dd6,are-we-fast-r,Bounce,823.394000,0
Ř,f0a6750aaaf45f929fd513d06762527fa30c5dd6,are-we-fast-r,Bounce,842.381000,0
Ř,f0a6750aaaf45f929fd513d06762527fa30c5dd6,are-we-fast-r,Bounce,821.000000,0
Ř,f0a6750aaaf45f929fd513d06762527fa30c5dd6,are-we-fast-r,Bounce,802.498000,0
Ř,f0a6750aaaf45f929fd513d06762527fa30c5dd6,are-we-fast-r,Bounce,823.218000,1
Ř,f0a6750aaaf45f929fd513d06762527fa30c5dd6,are-we-fast-r,Bounce,833.148000,1
Ř,f0a6750aaaf45f929fd513d06762527fa30c5dd6,are-we-fast-r,Bounce,790.380000,1
Ř,f0a6750aaaf45f929fd513d06762527fa30c5dd6,are-we-fast-r,Bounce,807.826000,1
Ř,f0a6750aaaf45f929fd513d06762527fa30c5dd6,are-we-fast-r,Bounce,826.115000,1
Ř,f0a6750aaaf45f929fd513d06762527fa30c5dd6,are-we-fast-r,Bounce,804.893000,1
Ř,f0a6750aaaf45f929fd513d06762527fa30c5dd6,are-we-fast-r,Bounce,801.440000,1
Ř,f0a6750aaaf45f929fd513d06762527fa30c5dd6,are-we-fast-r,Bounce,821.094000,1
Ř,f0a6750aaaf45f929fd513d06762527fa30c5dd6,are-we-fast-r,Bounce,829.673000,1
Ř,f0a6750aaaf45f929fd513d06762527fa30c5dd6,are-we-fast-r,Bounce,796.493000,1
Ř,f0a6750aaaf45f929fd513d06762527fa30c5dd6,are-we-fast-r,Mandelbrot,3485.564000,0
Ř,f0a6750aaaf45f929fd513d06762527fa30c5dd6,are-we-fast-r,Mandelbrot,3406.109000,0
Ř,f0a6750aaaf45f929fd513d06762527fa30c5dd6,are-we-fast-r,Mandelbrot,754.382000,0
Ř,f0a6750aaaf45f929fd513d06762527fa30c5dd6,are-we-fast-r,Mandelbrot,1270.383000,0
Ř,f0a6750aaaf45f929fd513d06762527fa30c5dd6,are-we-fast-r,Mandelbrot,65.402000,0
Ř,f0a6750aaaf45f929fd513d06762527fa30c5dd6,are-we-fast-r,Mandelbrot,65.284000,1
Ř,f0a6750aaaf45f929fd513d06762527fa30c5dd6,are-we-fast-r,Mandelbrot,65.818000,1
Ř,f0a6750aaaf45f929fd513d06762527fa30c5dd6,are-we-fast-r,Mandelbrot,66.269000,1
Ř,f0a6750aaaf45f929fd513d06762527fa30c5dd6,are-we-fast-r,Mandelbrot,65.385000,1
Ř,f0a6750aaaf45f929fd513d06762527fa30c5dd6,are-we-fast-r,Mandelbrot,65.267000,1
Ř,f0a6750aaaf45f929fd513d06762527fa30c5dd6,are-we-fast-r,Mandelbrot,65.388000,1
Ř,f0a6750aaaf45f929fd513d06762527fa30c5dd6,are-we-fast-r,Mandelbrot,65.295000,1
Ř,f0a6750aaaf45f929fd513d06762527fa30c5dd6,are-we-fast-r,Mandelbrot,65.387000,1
Ř,f0a6750aaaf45f929fd513d06762527fa30c5dd6,are-we-fast-r,Mandelbrot,65.414000,1
Ř,f0a6750aaaf45f929fd513d06762527fa30c5dd6,are-we-fast-r,Mandelbrot,65.857000,1
Ř,f0a6750aaaf45f929fd513d06762527fa30c5dd6,are-we-fast-r,Bounce_nonames_simple,1940.639000,0
Ř,f0a6750aaaf45f929fd513d06762527fa30c5dd6,are-we-fast-r,Bounce_nonames_simple,129.990000,0
Ř,f0a6750aaaf45f929fd513d06762527fa30c5dd6,are-we-fast-r,Bounce_nonames_simple,139.225000,0
Ř,f0a6750aaaf45f929fd513d06762527fa30c5dd6,are-we-fast-r,Bounce_nonames_simple,129.560000,0
Ř,f0a6750aaaf45f929fd513d06762527fa30c5dd6,are-we-fast-r,Bounce_nonames_simple,129.032000,0
Ř,f0a6750aaaf45f929fd513d06762527fa30c5dd6,are-we-fast-r,Bounce_nonames_simple,132.854000,1
Ř,f0a6750aaaf45f929fd513d06762527fa30c5dd6,are-we-fast-r,Bounce_nonames_simple,128.782000,1
Ř,f0a6750aaaf45f929fd513d06762527fa30c5dd6,are-we-fast-r,Bounce_nonames_simple,128.958000,1
Ř,f0a6750aaaf45f929fd513d06762527fa30c5dd6,are-we-fast-r,Bounce_nonames_simple,129.465000,1
Ř,f0a6750aaaf45f929fd513d06762527fa30c5dd6,are-we-fast-r,Bounce_nonames_simple,128.642000,1
Ř,f0a6750aaaf45f929fd513d06762527fa30c5dd6,are-we-fast-r,Bounce_nonames_simple,128.227000,1
Ř,f0a6750aaaf45f929fd513d06762527fa30c5dd6,are-we-fast-r,Bounce_nonames_simple,131.016000,1
Ř,f0a6750aaaf45f929fd513d06762527fa30c5dd6,are-we-fast-r,Bounce_nonames_simple,128.913000,1
Ř,f0a6750aaaf45f929fd513d06762527fa30c5dd6,are-we-fast-r,Bounce_nonames_simple,129.174000,1
Ř,f0a6750aaaf45f929fd513d06762527fa30c5dd6,are-we-fast-r,Bounce_nonames_simple,128.501000,1
Ř,f0a6750aaaf45f929fd513d06762527fa30c5dd6,are-we-fast-r,Storage,1192.524000,0
Ř,f0a6750aaaf45f929fd513d06762527fa30c5dd6,are-we-fast-r,Storage,571.146000,0
Ř,f0a6750aaaf45f929fd513d06762527fa30c5dd6,are-we-fast-r,Storage,537.352000,0
Ř,f0a6750aaaf45f929fd513d06762527fa30c5dd6,are-we-fast-r,Storage,525.589000,0
Ř,f0a6750aaaf45f929fd513d06762527fa30c5dd6,are-we-fast-r,Storage,502.954000,0
Ř,f0a6750aaaf45f929fd513d06762527fa30c5dd6,are-we-fast-r,Storage,519.296000,1
Ř,f0a6750aaaf45f929fd513d06762527fa30c5dd6,are-we-fast-r,Storage,579.847000,1
Ř,f0a6750aaaf45f929fd513d06762527fa30c5dd6,are-we-fast-r,Storage,523.761000,1
Ř,f0a6750aaaf45f929fd513d06762527fa30c5dd6,are-we-fast-r,Storage,528.147000,1
Ř,f0a6750aaaf45f929fd513d06762527fa30c5dd6,are-we-fast-r,Storage,578.490000,1
Ř,f0a6750aaaf45f929fd513d06762527fa30c5dd6,are-we-fast-r,Storage,582.829000,1
Ř,f0a6750aaaf45f929fd513d06762527fa30c5dd6,are-we-fast-r,Storage,484.499000,1
Ř,f0a6750aaaf45f929fd513d06762527fa30c5dd6,are-we-fast-r,Storage,518.839000,1
Ř,f0a6750aaaf45f929fd513d06762527fa30c5dd6,are-we-fast-r,Storage,599.416000,1
Ř,f0a6750aaaf45f929fd513d06762527fa30c5dd6,are-we-fast-r,Storage,595.381000,1
Ř,f0a6750aaaf45f929fd513d06762527fa30c5dd6,are-we-fast-r,Bounce_nonames,1455.510000,0
Ř,f0a6750aaaf45f929fd513d06762527fa30c5dd6,are-we-fast-r,Bounce_nonames,139.079000,0
Ř,f0a6750aaaf45f929fd513d06762527fa30c5dd6,are-we-fast-r,Bounce_nonames,147.390000,0
Ř,f0a6750aaaf45f929fd513d06762527fa30c5dd6,are-we-fast-r,Bounce_nonames,140.511000,0
Ř,f0a6750aaaf45f929fd513d06762527fa30c5dd6,are-we-fast-r,Bounce_nonames,138.168000,0
Ř,f0a6750aaaf45f929fd513d06762527fa30c5dd6,are-we-fast-r,Bounce_nonames,140.544000,1
Ř,f0a6750aaaf45f929fd513d06762527fa30c5dd6,are-we-fast-r,Bounce_nonames,137.398000,1
Ř,f0a6750aaaf45f929fd513d06762527fa30c5dd6,are-we-fast-r,Bounce_nonames,136.464000,1
Ř,f0a6750aaaf45f929fd513d06762527fa30c5dd6,are-we-fast-r,Bounce_nonames,137.486000,1
Ř,f0a6750aaaf45f929fd513d06762527fa30c5dd6,are-we-fast-r,Bounce_nonames,136.636000,1
Ř,f0a6750aaaf45f929fd513d06762527fa30c5dd6,are-we-fast-r,Bounce_nonames,137.573000,1
Ř,f0a6750aaaf45f929fd513d06762527fa30c5dd6,are-we-fast-r,Bounce_nonames,140.575000,1
Ř,f0a6750aaaf45f929fd513d06762527fa30c5dd6,are-we-fast-r,Bounce_nonames,137.135000,1
Ř,f0a6750aaaf45f929fd513d06762527fa30c5dd6,are-we-fast-r,Bounce_nonames,137.563000,1
Ř,f0a6750aaaf45f929fd513d06762527fa30c5dd6,are-we-fast-r,Bounce_nonames,137.119000,1
Ř,f0a6750aaaf45f929fd513d06762527fa30c5dd6,real_thing,flexclust_no_s4,17100.777000,0
Ř,f0a6750aaaf45f929fd513d06762527fa30c5dd6,real_thing,flexclust_no_s4,14346.070000,0
Ř,f0a6750aaaf45f929fd513d06762527fa30c5dd6,real_thing,flexclust_no_s4,26971.062000,0
Ř,f0a6750aaaf45f929fd513d06762527fa30c5dd6,real_thing,flexclust_no_s4,24705.643000,0
Ř,f0a6750aaaf45f929fd513d06762527fa30c5dd6,real_thing,flexclust_no_s4,18242.544000,0
Ř,f0a6750aaaf45f929fd513d06762527fa30c5dd6,real_thing,flexclust_no_s4,13939.686000,1
Ř,f0a6750aaaf45f929fd513d06762527fa30c5dd6,real_thing,flexclust_no_s4,13426.009000,1
Ř,f0a6750aaaf45f929fd513d06762527fa30c5dd6,real_thing,flexclust_no_s4,13227.488000,1
Ř,f0a6750aaaf45f929fd513d06762527fa30c5dd6,real_thing,flexclust_no_s4,13085.862000,1
Ř,f0a6750aaaf45f929fd513d06762527fa30c5dd6,real_thing,flexclust_no_s4,13581.461000,1
Ř,f0a6750aaaf45f929fd513d06762527fa30c5dd6,real_thing,flexclust_no_s4,13108.503000,1
Ř,f0a6750aaaf45f929fd513d06762527fa30c5dd6,real_thing,flexclust_no_s4,13126.142000,1
Ř,f0a6750aaaf45f929fd513d06762527fa30c5dd6,real_thing,flexclust_no_s4,13252.628000,1
Ř,f0a6750aaaf45f929fd513d06762527fa30c5dd6,real_thing,flexclust_no_s4,15525.647000,1
Ř,f0a6750aaaf45f929fd513d06762527fa30c5dd6,real_thing,flexclust_no_s4,13243.133000,1
Ř,f0a6750aaaf45f929fd513d06762527fa30c5dd6,real_thing,convolution,733.393000,0
Ř,f0a6750aaaf45f929fd513d06762527fa30c5dd6,real_thing,convolution,12.850000,0
Ř,f0a6750aaaf45f929fd513d06762527fa30c5dd6,real_thing,convolution,574.966000,0
Ř,f0a6750aaaf45f929fd513d06762527fa30c5dd6,real_thing,convolution,11.762000,0
Ř,f0a6750aaaf45f929fd513d06762527fa30c5dd6,real_thing,convolution,11.796000,0
Ř,f0a6750aaaf45f929fd513d06762527fa30c5dd6,real_thing,convolution,11.801000,1
Ř,f0a6750aaaf45f929fd513d06762527fa30c5dd6,real_thing,convolution,12.773000,1
Ř,f0a6750aaaf45f929fd513d06762527fa30c5dd6,real_thing,convolution,11.837000,1
Ř,f0a6750aaaf45f929fd513d06762527fa30c5dd6,real_thing,convolution,11.859000,1
Ř,f0a6750aaaf45f929fd513d06762527fa30c5dd6,real_thing,convolution,11.800000,1
Ř,f0a6750aaaf45f929fd513d06762527fa30c5dd6,real_thing,convolution,11.756000,1
Ř,f0a6750aaaf45f929fd513d06762527fa30c5dd6,real_thing,convolution,11.811000,1
Ř,f0a6750aaaf45f929fd513d06762527fa30c5dd6,real_thing,convolution,11.761000,1
Ř,f0a6750aaaf45f929fd513d06762527fa30c5dd6,real_thing,convolution,11.713000,1
Ř,f0a6750aaaf45f929fd513d06762527fa30c5dd6,real_thing,convolution,11.678000,1
Ř,f0a6750aaaf45f929fd513d06762527fa30c5dd6,real_thing,flexclust,44658.749000,0
Ř,f0a6750aaaf45f929fd513d06762527fa30c5dd6,real_thing,flexclust,28316.220000,0
Ř,f0a6750aaaf45f929fd513d06762527fa30c5dd6,real_thing,flexclust,31572.774000,0
Ř,f0a6750aaaf45f929fd513d06762527fa30c5dd6,real_thing,flexclust,38152.232000,0
Ř,f0a6750aaaf45f929fd513d06762527fa30c5dd6,real_thing,flexclust,32573.703000,0
Ř,f0a6750aaaf45f929fd513d06762527fa30c5dd6,real_thing,flexclust,15400.430000,1
Ř,f0a6750aaaf45f929fd513d06762527fa30c5dd6,real_thing,flexclust,15375.555000,1
Ř,f0a6750aaaf45f929fd513d06762527fa30c5dd6,real_thing,flexclust,15572.969000,1
Ř,f0a6750aaaf45f929fd513d06762527fa30c5dd6,real_thing,flexclust,15542.074000,1
Ř,f0a6750aaaf45f929fd513d06762527fa30c5dd6,real_thing,flexclust,15676.117000,1
Ř,f0a6750aaaf45f929fd513d06762527fa30c5dd6,real_thing,flexclust,15096.056000,1
Ř,f0a6750aaaf45f929fd513d06762527fa30c5dd6,real_thing,flexclust,24692.406000,1
Ř,f0a6750aaaf45f929fd513d06762527fa30c5dd6,real_thing,flexclust,14937.816000,1
Ř,f0a6750aaaf45f929fd513d06762527fa30c5dd6,real_thing,flexclust,15056.060000,1
Ř,f0a6750aaaf45f929fd513d06762527fa30c5dd6,real_thing,flexclust,15012.969000,1
Ř,f0a6750aaaf45f929fd513d06762527fa30c5dd6,real_thing,convolution_v,620.259000,0
Ř,f0a6750aaaf45f929fd513d06762527fa30c5dd6,real_thing,convolution_v,95.599000,0
Ř,f0a6750aaaf45f929fd513d06762527fa30c5dd6,real_thing,convolution_v,705.456000,0
Ř,f0a6750aaaf45f929fd513d06762527fa30c5dd6,real_thing,convolution_v,92.313000,0
Ř,f0a6750aaaf45f929fd513d06762527fa30c5dd6,real_thing,convolution_v,103.108000,0
Ř,f0a6750aaaf45f929fd513d06762527fa30c5dd6,real_thing,convolution_v,94.383000,1
Ř,f0a6750aaaf45f929fd513d06762527fa30c5dd6,real_thing,convolution_v,92.140000,1
Ř,f0a6750aaaf45f929fd513d06762527fa30c5dd6,real_thing,convolution_v,92.568000,1
Ř,f0a6750aaaf45f929fd513d06762527fa30c5dd6,real_thing,convolution_v,92.610000,1
Ř,f0a6750aaaf45f929fd513d06762527fa30c5dd6,real_thing,convolution_v,93.725000,1
Ř,f0a6750aaaf45f929fd513d06762527fa30c5dd6,real_thing,convolution_v,93.930000,1
Ř,f0a6750aaaf45f929fd513d06762527fa30c5dd6,real_thing,convolution_v,91.780000,1
Ř,f0a6750aaaf45f929fd513d06762527fa30c5dd6,real_thing,convolution_v,95.502000,1
Ř,f0a6750aaaf45f929fd513d06762527fa30c5dd6,real_thing,convolution_v,91.254000,1
Ř,f0a6750aaaf45f929fd513d06762527fa30c5dd6,real_thing,convolution_v,92.592000,1
Ř,f0a6750aaaf45f929fd513d06762527fa30c5dd6,real_thing,convolution_slow,624.691000,0
Ř,f0a6750aaaf45f929fd513d06762527fa30c5dd6,real_thing,convolution_slow,96.513000,0
Ř,f0a6750aaaf45f929fd513d06762527fa30c5dd6,real_thing,convolution_slow,708.412000,0
Ř,f0a6750aaaf45f929fd513d06762527fa30c5dd6,real_thing,convolution_slow,93.119000,0
Ř,f0a6750aaaf45f929fd513d06762527fa30c5dd6,real_thing,convolution_slow,103.907000,0
Ř,f0a6750aaaf45f929fd513d06762527fa30c5dd6,real_thing,convolution_slow,94.079000,1
Ř,f0a6750aaaf45f929fd513d06762527fa30c5dd6,real_thing,convolution_slow,93.025000,1
Ř,f0a6750aaaf45f929fd513d06762527fa30c5dd6,real_thing,convolution_slow,93.335000,1
Ř,f0a6750aaaf45f929fd513d06762527fa30c5dd6,real_thing,convolution_slow,93.075000,1
Ř,f0a6750aaaf45f929fd513d06762527fa30c5dd6,real_thing,convolution_slow,94.680000,1
Ř,f0a6750aaaf45f929fd513d06762527fa30c5dd6,real_thing,convolution_slow,95.723000,1
Ř,f0a6750aaaf45f929fd513d06762527fa30c5dd6,real_thing,convolution_slow,92.299000,1
Ř,f0a6750aaaf45f929fd513d06762527fa30c5dd6,real_thing,convolution_slow,95.721000,1
Ř,f0a6750aaaf45f929fd513d06762527fa30c5dd6,real_thing,convolution_slow,92.263000,1
Ř,f0a6750aaaf45f929fd513d06762527fa30c5dd6,real_thing,convolution_slow,93.449000,1
